(footprint "AMPHENOL_AC3MAH1-AU-PRE"
	(version 20240108)
	(generator "pcbnew")
	(generator_version "8.0")
	(layer "F.Cu")
	(property "Reference" "REF**"
		(at 0 -0.5 0)
		(unlocked yes)
		(layer "F.SilkS")
		(uuid "209000fa-96b6-4cab-95e6-0814812e1dcd")
		(effects
			(font
				(size 1 1)
				(thickness 0.1)
			)
		)
	)
	(property "Value" "AMPHENOL_AC3MAH1-AU-PRE"
		(at 0 1 0)
		(unlocked yes)
		(layer "F.Fab")
		(uuid "5d44d15b-d3cb-48f2-876b-c4c7a32b7475")
		(effects
			(font
				(size 1 1)
				(thickness 0.15)
			)
		)
	)
	(property "Footprint" ""
		(at 0 0 0)
		(layer "F.Fab")
		(hide yes)
		(uuid "3de406dc-29ab-4167-aec0-2e8f19acb355")
		(effects
			(font
				(size 1.27 1.27)
				(thickness 0.15)
			)
		)
	)
	(property "Datasheet" ""
		(at 0 0 0)
		(layer "F.Fab")
		(hide yes)
		(uuid "bd9abf5c-cb4d-4e41-870e-90839136b65a")
		(effects
			(font
				(size 1.27 1.27)
				(thickness 0.15)
			)
		)
	)
	(property "Description" ""
		(at 0 0 0)
		(layer "F.Fab")
		(hide yes)
		(uuid "9462b87d-8592-47e3-9df8-c1ac4471d648")
		(effects
			(font
				(size 1.27 1.27)
				(thickness 0.15)
			)
		)
	)
	(attr through_hole)
	(fp_line
		(start -12.7 -8.4)
		(end -12.7 11.1)
		(stroke
			(width 0.1)
			(type default)
		)
		(layer "F.SilkS")
		(uuid "1898f0e4-8aca-40e8-96f5-332d0c909a2f")
	)
	(fp_line
		(start -12.7 11.1)
		(end 12.7 11.1)
		(stroke
			(width 0.1)
			(type default)
		)
		(layer "F.SilkS")
		(uuid "a80e191f-a626-480b-bbfa-ba4595005394")
	)
	(fp_line
		(start -10.8 -11.1)
		(end -10.8 -8.4)
		(stroke
			(width 0.1)
			(type default)
		)
		(layer "F.SilkS")
		(uuid "7d6704e8-5da1-4d30-b189-7f78323dab47")
	)
	(fp_line
		(start -10.8 -8.4)
		(end -12.7 -8.4)
		(stroke
			(width 0.1)
			(type default)
		)
		(layer "F.SilkS")
		(uuid "9c09cd1c-87c4-4480-92e6-8bf2acf8e06d")
	)
	(fp_line
		(start 10.8 -11.1)
		(end -10.8 -11.1)
		(stroke
			(width 0.1)
			(type default)
		)
		(layer "F.SilkS")
		(uuid "e2aa13b5-7e86-4599-9317-cb0fc9b498b6")
	)
	(fp_line
		(start 10.8 -8.4)
		(end 10.8 -11.1)
		(stroke
			(width 0.1)
			(type default)
		)
		(layer "F.SilkS")
		(uuid "647cf6c1-dedf-4e7a-99b8-3b31483cb9ec")
	)
	(fp_line
		(start 12.7 -8.4)
		(end 10.8 -8.4)
		(stroke
			(width 0.1)
			(type default)
		)
		(layer "F.SilkS")
		(uuid "4f403c3f-66bf-494e-8083-733906dec235")
	)
	(fp_line
		(start 12.7 11.1)
		(end 12.7 -8.4)
		(stroke
			(width 0.1)
			(type default)
		)
		(layer "F.SilkS")
		(uuid "6352cdce-6b3f-43af-bfc2-7a8d125fad3b")
	)
	(fp_line
		(start -12.95 -8.65)
		(end -12.95 11.35)
		(stroke
			(width 0.05)
			(type default)
		)
		(layer "F.CrtYd")
		(uuid "d893a9bd-763e-42c8-badd-6e058c03c5a6")
	)
	(fp_line
		(start -12.95 11.35)
		(end 12.95 11.35)
		(stroke
			(width 0.05)
			(type default)
		)
		(layer "F.CrtYd")
		(uuid "749cca7e-6e0c-4f32-86e0-54d1c86853c6")
	)
	(fp_line
		(start -11.05 -11.35)
		(end -11.05 -8.65)
		(stroke
			(width 0.05)
			(type default)
		)
		(layer "F.CrtYd")
		(uuid "19b2a253-3712-473f-a324-8266674d324a")
	)
	(fp_line
		(start -11.05 -8.65)
		(end -12.95 -8.65)
		(stroke
			(width 0.05)
			(type default)
		)
		(layer "F.CrtYd")
		(uuid "a15f56be-305e-44e5-acb2-1565171da4f0")
	)
	(fp_line
		(start 11.05 -11.35)
		(end -11.05 -11.35)
		(stroke
			(width 0.05)
			(type default)
		)
		(layer "F.CrtYd")
		(uuid "71caf8fd-8eda-4bca-82ef-73999ad88536")
	)
	(fp_line
		(start 11.05 -8.65)
		(end 11.05 -11.35)
		(stroke
			(width 0.05)
			(type default)
		)
		(layer "F.CrtYd")
		(uuid "5a7586f3-0538-4ad9-85a2-d46519eee54c")
	)
	(fp_line
		(start 12.95 -8.65)
		(end 11.05 -8.65)
		(stroke
			(width 0.05)
			(type default)
		)
		(layer "F.CrtYd")
		(uuid "bba32d18-e4f4-43cc-b65e-6deaf1b28be7")
	)
	(fp_line
		(start 12.95 11.35)
		(end 12.95 -8.65)
		(stroke
			(width 0.05)
			(type default)
		)
		(layer "F.CrtYd")
		(uuid "18ffa1ba-5c4a-4e5e-bb50-4e85682d9e8d")
	)
	(fp_line
		(start -12.75 -8.45)
		(end -12.75 11.15)
		(stroke
			(width 0.1)
			(type default)
		)
		(layer "F.Fab")
		(uuid "bd34bcf3-793d-4c83-99ad-ce46b50c99cf")
	)
	(fp_line
		(start -12.75 11.15)
		(end 12.75 11.15)
		(stroke
			(width 0.1)
			(type default)
		)
		(layer "F.Fab")
		(uuid "fec9cab7-edb2-43f3-b897-50141dfea5b4")
	)
	(fp_line
		(start -10.85 -11.15)
		(end -10.85 -8.45)
		(stroke
			(width 0.1)
			(type default)
		)
		(layer "F.Fab")
		(uuid "66cbcb71-9144-4d67-a85e-91b8593fbc38")
	)
	(fp_line
		(start -10.85 -8.45)
		(end -12.75 -8.45)
		(stroke
			(width 0.1)
			(type default)
		)
		(layer "F.Fab")
		(uuid "3524a528-569d-4910-9776-857da214f004")
	)
	(fp_line
		(start 10.85 -11.15)
		(end -10.85 -11.15)
		(stroke
			(width 0.1)
			(type default)
		)
		(layer "F.Fab")
		(uuid "a1f321a6-ad58-4367-81f8-e2e033dd6010")
	)
	(fp_line
		(start 10.85 -8.45)
		(end 10.85 -11.15)
		(stroke
			(width 0.1)
			(type default)
		)
		(layer "F.Fab")
		(uuid "b3fa4d95-96bb-4c80-bca9-58d6ebb6c23c")
	)
	(fp_line
		(start 12.75 -8.45)
		(end 10.85 -8.45)
		(stroke
			(width 0.1)
			(type default)
		)
		(layer "F.Fab")
		(uuid "df7122d1-dd9a-46e9-8a54-c33bf6266dbc")
	)
	(fp_line
		(start 12.75 11.15)
		(end 12.75 -8.45)
		(stroke
			(width 0.1)
			(type default)
		)
		(layer "F.Fab")
		(uuid "5b991782-b237-4704-ade2-ddb74e94c0bd")
	)
	(fp_text user "${REFERENCE}"
		(at 0 2.5 0)
		(unlocked yes)
		(layer "F.Fab")
		(uuid "60d73de6-f39a-4040-a600-ec7009ed900a")
		(effects
			(font
				(size 1 1)
				(thickness 0.15)
			)
		)
	)
	(pad "1" thru_hole circle
		(at 3.81 9.38)
		(size 2.6 2.6)
		(drill 1.6)
		(layers "*.Cu" "*.Mask")
		(remove_unused_layers no)
		(uuid "15d5a65f-2d24-41b8-8d32-adfeb039638d")
	)
	(pad "2" thru_hole circle
		(at -3.81 9.38)
		(size 2.6 2.6)
		(drill 1.6)
		(layers "*.Cu" "*.Mask")
		(remove_unused_layers no)
		(uuid "be06e664-4a75-4601-9b59-746905f606db")
	)
	(pad "3" thru_hole circle
		(at 0 9.38)
		(size 2.2 2.2)
		(drill 1.2)
		(layers "*.Cu" "*.Mask")
		(remove_unused_layers no)
		(uuid "47f5700a-0a22-4f77-8ba0-334ad39ca877")
	)
	(pad "4" thru_hole circle
		(at -3.81 -4.59)
		(size 2.5 2.5)
		(drill 1.6)
		(layers "*.Cu" "*.Mask")
		(remove_unused_layers no)
		(uuid "e705e3c2-e7cf-488f-b515-d059554107ad")
	)
	(pad "5" thru_hole circle
		(at 3.81 0.49)
		(size 2.5 2.5)
		(drill 1.6)
		(layers "*.Cu" "*.Mask")
		(remove_unused_layers no)
		(uuid "80ad1340-b6ec-496c-9cb5-42e9483be66f")
	)
)
