(footprint "AMPHENOL_10129380-x14yyyzLF"
	(version 20240108)
	(generator "pcbnew")
	(generator_version "8.0")
	(layer "F.Cu")
	(property "Reference" "REF**"
		(at 0 0 0)
		(unlocked yes)
		(layer "F.SilkS")
		(uuid "ecdc55b9-927f-4f9d-8916-4bd0295ab77d")
		(effects
			(font
				(size 1 1)
				(thickness 0.1)
			)
		)
	)
	(property "Value" "AMPHENOL_10129380-x14yyyzLF"
		(at 0 0 0)
		(unlocked yes)
		(layer "F.Fab")
		(uuid "6aad9bd0-04c4-4a3b-81f3-b40a9bed07b6")
		(effects
			(font
				(size 1 1)
				(thickness 0.15)
			)
		)
	)
	(property "Footprint" ""
		(at 0 0 0)
		(unlocked yes)
		(layer "F.Fab")
		(hide yes)
		(uuid "c6c892d7-9fcb-48ef-8447-766d73830a3e")
		(effects
			(font
				(size 1 1)
				(thickness 0.15)
			)
		)
	)
	(property "Datasheet" ""
		(at 0 0 0)
		(unlocked yes)
		(layer "F.Fab")
		(hide yes)
		(uuid "8e97c4c7-3fa7-411e-abcd-11a2e3fe8aec")
		(effects
			(font
				(size 1 1)
				(thickness 0.15)
			)
		)
	)
	(property "Description" ""
		(at 0 0 0)
		(unlocked yes)
		(layer "F.Fab")
		(hide yes)
		(uuid "6848fcf8-c11f-4ac8-aeed-282acc2bd50e")
		(effects
			(font
				(size 1 1)
				(thickness 0.15)
			)
		)
	)
	(attr smd)
	(fp_line
		(start -17.78 -1.27)
		(end -17.78 1.27)
		(stroke
			(width 0.1)
			(type default)
		)
		(layer "F.SilkS")
		(uuid "3b69b02e-c3d6-4ba3-9f22-1de5ee63224e")
	)
	(fp_line
		(start -17.78 1.27)
		(end -14.84 1.27)
		(stroke
			(width 0.1)
			(type default)
		)
		(layer "F.SilkS")
		(uuid "f7c5312f-54dc-4712-964e-9abdbc142594")
	)
	(fp_line
		(start -17.38 -1.27)
		(end -17.78 -1.27)
		(stroke
			(width 0.1)
			(type default)
		)
		(layer "F.SilkS")
		(uuid "320bfd68-3208-48ed-9251-8fc91ac65216")
	)
	(fp_line
		(start -13.1 1.27)
		(end -9.76 1.27)
		(stroke
			(width 0.1)
			(type default)
		)
		(layer "F.SilkS")
		(uuid "1e895534-78ec-4930-9634-92784361e417")
	)
	(fp_line
		(start -12.3 -1.27)
		(end -15.64 -1.27)
		(stroke
			(width 0.1)
			(type default)
		)
		(layer "F.SilkS")
		(uuid "5c36a7a4-c67e-49a6-bc6e-7af84d48f560")
	)
	(fp_line
		(start -8.02 1.27)
		(end -4.68 1.27)
		(stroke
			(width 0.1)
			(type default)
		)
		(layer "F.SilkS")
		(uuid "d2426029-bea0-41ab-9a50-bffef3f70441")
	)
	(fp_line
		(start -7.22 -1.27)
		(end -10.56 -1.27)
		(stroke
			(width 0.1)
			(type default)
		)
		(layer "F.SilkS")
		(uuid "36f738c0-f984-4325-9e8a-a6434a56537f")
	)
	(fp_line
		(start -2.94 1.27)
		(end 0.4 1.27)
		(stroke
			(width 0.1)
			(type default)
		)
		(layer "F.SilkS")
		(uuid "67de87ff-2259-49c5-a16d-a6b34db258f6")
	)
	(fp_line
		(start -2.14 -1.27)
		(end -5.48 -1.27)
		(stroke
			(width 0.1)
			(type default)
		)
		(layer "F.SilkS")
		(uuid "909b1f77-76bd-4bea-b1e3-2c5785f5871c")
	)
	(fp_line
		(start 2.13 1.27)
		(end 5.47 1.27)
		(stroke
			(width 0.1)
			(type default)
		)
		(layer "F.SilkS")
		(uuid "5cdb3bdd-5722-439c-b5b0-f30721377a14")
	)
	(fp_line
		(start 2.94 -1.27)
		(end -0.4 -1.27)
		(stroke
			(width 0.1)
			(type default)
		)
		(layer "F.SilkS")
		(uuid "b3dfc439-71dd-4bda-8aaa-cbce9cd428bb")
	)
	(fp_line
		(start 7.21 1.27)
		(end 10.55 1.27)
		(stroke
			(width 0.1)
			(type default)
		)
		(layer "F.SilkS")
		(uuid "c9f9df1d-2485-4102-8e6d-e71b3b725b50")
	)
	(fp_line
		(start 8.02 -1.27)
		(end 4.68 -1.27)
		(stroke
			(width 0.1)
			(type default)
		)
		(layer "F.SilkS")
		(uuid "96a0f731-451a-42de-9643-d60547811673")
	)
	(fp_line
		(start 12.29 1.27)
		(end 15.63 1.27)
		(stroke
			(width 0.1)
			(type default)
		)
		(layer "F.SilkS")
		(uuid "15a386ac-3a2c-41e4-9ec4-9a8422adaab7")
	)
	(fp_line
		(start 13.1 -1.27)
		(end 9.76 -1.27)
		(stroke
			(width 0.1)
			(type default)
		)
		(layer "F.SilkS")
		(uuid "2b15a272-ecc0-4a8a-a7e8-51d8e8d4e159")
	)
	(fp_line
		(start 17.38 1.27)
		(end 17.78 1.27)
		(stroke
			(width 0.1)
			(type default)
		)
		(layer "F.SilkS")
		(uuid "a71c1162-9918-4c61-9897-c8263a02c60d")
	)
	(fp_line
		(start 17.78 -1.27)
		(end 14.84 -1.27)
		(stroke
			(width 0.1)
			(type default)
		)
		(layer "F.SilkS")
		(uuid "ed074533-2f46-4a35-9f29-9a83fdb33a68")
	)
	(fp_line
		(start 17.78 1.27)
		(end 17.78 -1.27)
		(stroke
			(width 0.1)
			(type default)
		)
		(layer "F.SilkS")
		(uuid "87427f30-4c56-4efe-8b20-bf47040d3917")
	)
	(fp_line
		(start -18.03 -1.52)
		(end -18.03 1.52)
		(stroke
			(width 0.05)
			(type default)
		)
		(layer "F.CrtYd")
		(uuid "a24a7e8d-23c5-4a34-8716-8b07c13a7278")
	)
	(fp_line
		(start -18.03 1.52)
		(end -14.86 1.52)
		(stroke
			(width 0.05)
			(type default)
		)
		(layer "F.CrtYd")
		(uuid "c220db4a-2903-494b-8906-28d337be4f1e")
	)
	(fp_line
		(start -17.4 -2.98)
		(end -17.4 -1.52)
		(stroke
			(width 0.05)
			(type default)
		)
		(layer "F.CrtYd")
		(uuid "00fb4156-6e83-44c6-af43-4a0845301e7b")
	)
	(fp_line
		(start -17.4 -2.98)
		(end -15.62 -2.98)
		(stroke
			(width 0.05)
			(type default)
		)
		(layer "F.CrtYd")
		(uuid "2dda860f-c1d5-451c-8ac2-bc165cfa9301")
	)
	(fp_line
		(start -17.4 -1.52)
		(end -18.03 -1.52)
		(stroke
			(width 0.05)
			(type default)
		)
		(layer "F.CrtYd")
		(uuid "0ca956f0-01b3-47c9-88be-46e233702dd7")
	)
	(fp_line
		(start -15.62 -2.98)
		(end -15.62 -1.52)
		(stroke
			(width 0.05)
			(type default)
		)
		(layer "F.CrtYd")
		(uuid "28ec24cb-f0c3-46bc-9a28-d6c76c1a715c")
	)
	(fp_line
		(start -15.62 -1.52)
		(end -12.32 -1.52)
		(stroke
			(width 0.05)
			(type default)
		)
		(layer "F.CrtYd")
		(uuid "e3bb9fc3-0d86-4e2f-aedd-894ad7eaade1")
	)
	(fp_line
		(start -14.86 1.52)
		(end -14.86 2.98)
		(stroke
			(width 0.05)
			(type default)
		)
		(layer "F.CrtYd")
		(uuid "79f21d1e-5865-4552-9f06-e030db32b20e")
	)
	(fp_line
		(start -14.86 2.98)
		(end -13.08 2.98)
		(stroke
			(width 0.05)
			(type default)
		)
		(layer "F.CrtYd")
		(uuid "26c87a9e-4fcb-454a-9d44-b3ea5db7b4d3")
	)
	(fp_line
		(start -13.08 1.52)
		(end -13.08 2.98)
		(stroke
			(width 0.05)
			(type default)
		)
		(layer "F.CrtYd")
		(uuid "b861eba2-8d1a-4861-9c75-575454396b5a")
	)
	(fp_line
		(start -13.08 1.52)
		(end -9.78 1.52)
		(stroke
			(width 0.05)
			(type default)
		)
		(layer "F.CrtYd")
		(uuid "529194ba-91b0-483f-a57d-b61e52fd14b9")
	)
	(fp_line
		(start -12.32 -2.98)
		(end -12.32 -1.52)
		(stroke
			(width 0.05)
			(type default)
		)
		(layer "F.CrtYd")
		(uuid "fb6c0903-5b4c-42e0-9dbd-be6fbd8e6ca0")
	)
	(fp_line
		(start -12.32 -2.98)
		(end -10.54 -2.98)
		(stroke
			(width 0.05)
			(type default)
		)
		(layer "F.CrtYd")
		(uuid "59eb3d78-cfdd-479a-ae73-871a076e4ed8")
	)
	(fp_line
		(start -10.54 -2.98)
		(end -10.54 -1.52)
		(stroke
			(width 0.05)
			(type default)
		)
		(layer "F.CrtYd")
		(uuid "e3f90e51-44ae-4f71-80c2-75bfcba2bd6c")
	)
	(fp_line
		(start -10.54 -1.52)
		(end -7.24 -1.52)
		(stroke
			(width 0.05)
			(type default)
		)
		(layer "F.CrtYd")
		(uuid "a69b6561-f9a8-4709-a130-df8b82e76640")
	)
	(fp_line
		(start -9.78 1.52)
		(end -9.78 2.98)
		(stroke
			(width 0.05)
			(type default)
		)
		(layer "F.CrtYd")
		(uuid "fe3def3f-44d7-4c8f-a9d5-9fbf99efa980")
	)
	(fp_line
		(start -9.78 2.98)
		(end -8 2.98)
		(stroke
			(width 0.05)
			(type default)
		)
		(layer "F.CrtYd")
		(uuid "c9ebc593-0111-4f2f-b28c-9819d29877c2")
	)
	(fp_line
		(start -8 1.52)
		(end -8 2.98)
		(stroke
			(width 0.05)
			(type default)
		)
		(layer "F.CrtYd")
		(uuid "9917368b-469f-4ea1-8d27-d791a4370460")
	)
	(fp_line
		(start -8 1.52)
		(end -4.7 1.52)
		(stroke
			(width 0.05)
			(type default)
		)
		(layer "F.CrtYd")
		(uuid "d6583167-057f-4c2d-bfe3-89dc360bf900")
	)
	(fp_line
		(start -7.24 -2.98)
		(end -7.24 -1.52)
		(stroke
			(width 0.05)
			(type default)
		)
		(layer "F.CrtYd")
		(uuid "1ea44ce8-db71-4fe8-b0db-f5bb2d02f937")
	)
	(fp_line
		(start -7.24 -2.98)
		(end -5.46 -2.98)
		(stroke
			(width 0.05)
			(type default)
		)
		(layer "F.CrtYd")
		(uuid "f30015ec-180d-4ab4-998e-64ad9ed2a006")
	)
	(fp_line
		(start -5.46 -2.98)
		(end -5.46 -1.52)
		(stroke
			(width 0.05)
			(type default)
		)
		(layer "F.CrtYd")
		(uuid "2b1f1dc4-e672-4eb7-9ec9-536a718d9dc7")
	)
	(fp_line
		(start -5.46 -1.52)
		(end -2.16 -1.52)
		(stroke
			(width 0.05)
			(type default)
		)
		(layer "F.CrtYd")
		(uuid "499b2392-f539-4ae1-a08d-5ca6b16a820e")
	)
	(fp_line
		(start -4.7 1.52)
		(end -4.7 2.98)
		(stroke
			(width 0.05)
			(type default)
		)
		(layer "F.CrtYd")
		(uuid "05c3ee39-6309-49e8-96cf-c2be9e9d4a43")
	)
	(fp_line
		(start -4.7 2.98)
		(end -2.92 2.98)
		(stroke
			(width 0.05)
			(type default)
		)
		(layer "F.CrtYd")
		(uuid "29302d13-be84-4bec-a124-6dcc301be266")
	)
	(fp_line
		(start -2.92 1.52)
		(end -2.92 2.98)
		(stroke
			(width 0.05)
			(type default)
		)
		(layer "F.CrtYd")
		(uuid "215c25d8-5666-46bb-9df6-23e5ab1044b2")
	)
	(fp_line
		(start -2.92 1.52)
		(end 0.38 1.52)
		(stroke
			(width 0.05)
			(type default)
		)
		(layer "F.CrtYd")
		(uuid "ca31a171-f598-4d4d-b2c2-db364deab849")
	)
	(fp_line
		(start -2.16 -2.98)
		(end -2.16 -1.52)
		(stroke
			(width 0.05)
			(type default)
		)
		(layer "F.CrtYd")
		(uuid "86101a57-bb7a-42a5-ac26-0547ae75bb4e")
	)
	(fp_line
		(start -2.16 -2.98)
		(end -0.38 -2.98)
		(stroke
			(width 0.05)
			(type default)
		)
		(layer "F.CrtYd")
		(uuid "4d925b00-da67-4424-a9db-518864f41b0c")
	)
	(fp_line
		(start -0.38 -2.98)
		(end -0.38 -1.52)
		(stroke
			(width 0.05)
			(type default)
		)
		(layer "F.CrtYd")
		(uuid "19a740c7-8b43-47ae-83a0-2438124dc814")
	)
	(fp_line
		(start -0.38 -1.52)
		(end 2.92 -1.52)
		(stroke
			(width 0.05)
			(type default)
		)
		(layer "F.CrtYd")
		(uuid "d5ae1240-b469-4195-b37a-f4a81551a942")
	)
	(fp_line
		(start 0.38 1.52)
		(end 0.38 2.98)
		(stroke
			(width 0.05)
			(type default)
		)
		(layer "F.CrtYd")
		(uuid "436f6006-c1b0-4082-9f5d-86a0f7a3a12a")
	)
	(fp_line
		(start 0.38 2.98)
		(end 2.16 2.98)
		(stroke
			(width 0.05)
			(type default)
		)
		(layer "F.CrtYd")
		(uuid "ba851fa1-4605-4bdc-af2f-e46f796a99bf")
	)
	(fp_line
		(start 2.16 1.52)
		(end 2.16 2.98)
		(stroke
			(width 0.05)
			(type default)
		)
		(layer "F.CrtYd")
		(uuid "7cce7cc7-17da-4649-b1e4-f17835ba28c7")
	)
	(fp_line
		(start 2.16 1.52)
		(end 5.46 1.52)
		(stroke
			(width 0.05)
			(type default)
		)
		(layer "F.CrtYd")
		(uuid "e7246beb-2ff5-4b8a-9902-c57553442e8a")
	)
	(fp_line
		(start 2.92 -2.98)
		(end 2.92 -1.52)
		(stroke
			(width 0.05)
			(type default)
		)
		(layer "F.CrtYd")
		(uuid "0981cd07-2e31-4ed6-9b54-367d002f6363")
	)
	(fp_line
		(start 2.92 -2.98)
		(end 4.7 -2.98)
		(stroke
			(width 0.05)
			(type default)
		)
		(layer "F.CrtYd")
		(uuid "258304dd-bf36-484f-97b5-bbbb57f6f1f4")
	)
	(fp_line
		(start 4.7 -2.98)
		(end 4.7 -1.52)
		(stroke
			(width 0.05)
			(type default)
		)
		(layer "F.CrtYd")
		(uuid "4e0aed98-f01e-446d-96a7-16de9e1d7610")
	)
	(fp_line
		(start 4.7 -1.52)
		(end 8 -1.52)
		(stroke
			(width 0.05)
			(type default)
		)
		(layer "F.CrtYd")
		(uuid "2a132f17-122d-4361-a496-25d149d5e041")
	)
	(fp_line
		(start 5.46 1.52)
		(end 5.46 2.98)
		(stroke
			(width 0.05)
			(type default)
		)
		(layer "F.CrtYd")
		(uuid "8a4571f3-3fed-4cf1-bbef-b58260766bbb")
	)
	(fp_line
		(start 5.46 2.98)
		(end 7.24 2.98)
		(stroke
			(width 0.05)
			(type default)
		)
		(layer "F.CrtYd")
		(uuid "978ca6d7-f99f-4d5d-a67e-964a415502e1")
	)
	(fp_line
		(start 7.24 1.52)
		(end 7.24 2.98)
		(stroke
			(width 0.05)
			(type default)
		)
		(layer "F.CrtYd")
		(uuid "05de7aad-f16f-46ce-b408-583276797348")
	)
	(fp_line
		(start 7.24 1.52)
		(end 10.54 1.52)
		(stroke
			(width 0.05)
			(type default)
		)
		(layer "F.CrtYd")
		(uuid "4e163bbb-bf47-434c-8641-d559cce4b60a")
	)
	(fp_line
		(start 8 -2.98)
		(end 8 -1.52)
		(stroke
			(width 0.05)
			(type default)
		)
		(layer "F.CrtYd")
		(uuid "55ce29e9-c808-468b-9a21-f697b84c7a44")
	)
	(fp_line
		(start 8 -2.98)
		(end 9.78 -2.98)
		(stroke
			(width 0.05)
			(type default)
		)
		(layer "F.CrtYd")
		(uuid "b58166bc-10a0-45f6-946b-d9a58c7ac983")
	)
	(fp_line
		(start 9.78 -2.98)
		(end 9.78 -1.52)
		(stroke
			(width 0.05)
			(type default)
		)
		(layer "F.CrtYd")
		(uuid "9bfccbb8-d05b-4e79-82ee-b16ad9af6573")
	)
	(fp_line
		(start 9.78 -1.52)
		(end 13.08 -1.52)
		(stroke
			(width 0.05)
			(type default)
		)
		(layer "F.CrtYd")
		(uuid "e8e19122-2565-496a-a676-be16f15e565f")
	)
	(fp_line
		(start 10.54 1.52)
		(end 10.54 2.98)
		(stroke
			(width 0.05)
			(type default)
		)
		(layer "F.CrtYd")
		(uuid "32b2a881-768e-4c6f-95b8-afebc6d1d89d")
	)
	(fp_line
		(start 10.54 2.98)
		(end 12.32 2.98)
		(stroke
			(width 0.05)
			(type default)
		)
		(layer "F.CrtYd")
		(uuid "0f688d7e-8929-43cf-9967-2d5b51b8649a")
	)
	(fp_line
		(start 12.32 1.52)
		(end 12.32 2.98)
		(stroke
			(width 0.05)
			(type default)
		)
		(layer "F.CrtYd")
		(uuid "7f2768bf-a2e2-4178-8d2f-b812e16a6c35")
	)
	(fp_line
		(start 12.32 1.52)
		(end 15.62 1.52)
		(stroke
			(width 0.05)
			(type default)
		)
		(layer "F.CrtYd")
		(uuid "92cb2d3d-eeea-45a5-98d4-1927565477fa")
	)
	(fp_line
		(start 13.08 -2.98)
		(end 13.08 -1.52)
		(stroke
			(width 0.05)
			(type default)
		)
		(layer "F.CrtYd")
		(uuid "7ba703cc-9663-4e12-b074-6247049c9067")
	)
	(fp_line
		(start 13.08 -2.98)
		(end 14.86 -2.98)
		(stroke
			(width 0.05)
			(type default)
		)
		(layer "F.CrtYd")
		(uuid "46ebcbf7-27a5-4b6a-9f65-42b838c8070d")
	)
	(fp_line
		(start 14.86 -2.98)
		(end 14.86 -1.52)
		(stroke
			(width 0.05)
			(type default)
		)
		(layer "F.CrtYd")
		(uuid "ba7f4a47-5ebd-46bb-9f12-804c1517fcb6")
	)
	(fp_line
		(start 14.86 -1.52)
		(end 18.03 -1.52)
		(stroke
			(width 0.05)
			(type default)
		)
		(layer "F.CrtYd")
		(uuid "3c819920-ed8b-4dd7-ba57-af7065ef3a9d")
	)
	(fp_line
		(start 15.62 1.52)
		(end 15.62 2.98)
		(stroke
			(width 0.05)
			(type default)
		)
		(layer "F.CrtYd")
		(uuid "9cb50245-b956-4711-aafa-c68495329bca")
	)
	(fp_line
		(start 15.62 2.98)
		(end 17.4 2.98)
		(stroke
			(width 0.05)
			(type default)
		)
		(layer "F.CrtYd")
		(uuid "8ae7cbc7-39b2-4e78-a7d7-967767972ffd")
	)
	(fp_line
		(start 17.4 1.52)
		(end 17.4 2.98)
		(stroke
			(width 0.05)
			(type default)
		)
		(layer "F.CrtYd")
		(uuid "a235d19e-e829-4fb9-8506-c1b57e451bb3")
	)
	(fp_line
		(start 18.03 -1.52)
		(end 18.03 1.52)
		(stroke
			(width 0.05)
			(type default)
		)
		(layer "F.CrtYd")
		(uuid "2d5d63a2-7952-4808-b8b6-d2544023f67b")
	)
	(fp_line
		(start 18.03 1.52)
		(end 17.4 1.52)
		(stroke
			(width 0.05)
			(type default)
		)
		(layer "F.CrtYd")
		(uuid "118fb04a-5090-4799-b02b-43d211084873")
	)
	(fp_rect
		(start -17.83 -1.32)
		(end 17.83 1.32)
		(stroke
			(width 0.1)
			(type default)
		)
		(fill none)
		(layer "F.Fab")
		(uuid "2aec4f21-68d1-4379-a663-64ac23644f07")
	)
	(fp_text user "${REFERENCE}"
		(at 0 0 0)
		(unlocked yes)
		(layer "F.Fab")
		(uuid "7e115bef-d8ff-4dc1-834c-279c4fd3ef45")
		(effects
			(font
				(size 1 1)
				(thickness 0.15)
			)
		)
	)
	(pad "1" smd roundrect
		(at -16.51 -1.715)
		(size 1.27 2.03)
		(layers "F.Cu" "F.Paste" "F.Mask")
		(roundrect_rratio 0.25)
		(thermal_bridge_angle 45)
		(uuid "2c2310c1-b302-460f-8d08-dc342e17d10b")
	)
	(pad "2" smd roundrect
		(at -13.97 1.715)
		(size 1.27 2.03)
		(layers "F.Cu" "F.Paste" "F.Mask")
		(roundrect_rratio 0.25)
		(thermal_bridge_angle 45)
		(uuid "5818dfc1-3d60-4252-96f0-64baa5c250ec")
	)
	(pad "3" smd roundrect
		(at -11.43 -1.715)
		(size 1.27 2.03)
		(layers "F.Cu" "F.Paste" "F.Mask")
		(roundrect_rratio 0.25)
		(thermal_bridge_angle 45)
		(uuid "cac2670f-9d82-434e-941d-fcce86d27ee6")
	)
	(pad "4" smd roundrect
		(at -8.89 1.715)
		(size 1.27 2.03)
		(layers "F.Cu" "F.Paste" "F.Mask")
		(roundrect_rratio 0.25)
		(thermal_bridge_angle 45)
		(uuid "fb018af1-48ea-4120-84ea-bc3971771fa3")
	)
	(pad "5" smd roundrect
		(at -6.35 -1.715)
		(size 1.27 2.03)
		(layers "F.Cu" "F.Paste" "F.Mask")
		(roundrect_rratio 0.25)
		(thermal_bridge_angle 45)
		(uuid "a96483cd-9122-42b1-bae0-cdc4bd1b45db")
	)
	(pad "6" smd roundrect
		(at -3.81 1.715)
		(size 1.27 2.03)
		(layers "F.Cu" "F.Paste" "F.Mask")
		(roundrect_rratio 0.25)
		(thermal_bridge_angle 45)
		(uuid "123a7ea3-1df4-4e7c-82a2-372de58ba5ff")
	)
	(pad "7" smd roundrect
		(at -1.27 -1.715)
		(size 1.27 2.03)
		(layers "F.Cu" "F.Paste" "F.Mask")
		(roundrect_rratio 0.25)
		(thermal_bridge_angle 45)
		(uuid "cdb5cd91-1b5b-4299-b438-3411adfe3fd4")
	)
	(pad "8" smd roundrect
		(at 1.27 1.715)
		(size 1.27 2.03)
		(layers "F.Cu" "F.Paste" "F.Mask")
		(roundrect_rratio 0.25)
		(thermal_bridge_angle 45)
		(uuid "787f2408-34d2-4a4f-b428-268ea0f5daec")
	)
	(pad "9" smd roundrect
		(at 3.81 -1.715)
		(size 1.27 2.03)
		(layers "F.Cu" "F.Paste" "F.Mask")
		(roundrect_rratio 0.25)
		(thermal_bridge_angle 45)
		(uuid "d5dac784-f068-48fe-acc9-07722a2ecc94")
	)
	(pad "10" smd roundrect
		(at 6.35 1.715)
		(size 1.27 2.03)
		(layers "F.Cu" "F.Paste" "F.Mask")
		(roundrect_rratio 0.25)
		(thermal_bridge_angle 45)
		(uuid "e87e4ce5-204e-4ec4-b254-972955857657")
	)
	(pad "11" smd roundrect
		(at 8.89 -1.715)
		(size 1.27 2.03)
		(layers "F.Cu" "F.Paste" "F.Mask")
		(roundrect_rratio 0.25)
		(thermal_bridge_angle 45)
		(uuid "d20601b7-bbac-4e8e-9425-d2949d1c8f95")
	)
	(pad "12" smd roundrect
		(at 11.43 1.715)
		(size 1.27 2.03)
		(layers "F.Cu" "F.Paste" "F.Mask")
		(roundrect_rratio 0.25)
		(thermal_bridge_angle 45)
		(uuid "4371ae2b-d049-4900-bd06-b66e59ac5f81")
	)
	(pad "13" smd roundrect
		(at 13.97 -1.715)
		(size 1.27 2.03)
		(layers "F.Cu" "F.Paste" "F.Mask")
		(roundrect_rratio 0.25)
		(thermal_bridge_angle 45)
		(uuid "eb9ec6ee-6d4c-4205-a409-e308c305b574")
	)
	(pad "14" smd roundrect
		(at 16.51 1.715)
		(size 1.27 2.03)
		(layers "F.Cu" "F.Paste" "F.Mask")
		(roundrect_rratio 0.25)
		(thermal_bridge_angle 45)
		(uuid "e4ee05e1-ea3a-4d55-b667-cd2d975ea408")
	)
)
