(footprint "AMPHENOL_GSB1C21x11x0DS1HR"
	(version 20240108)
	(generator "pcbnew")
	(generator_version "8.0")
	(layer "F.Cu")
	(property "Reference" "REF**"
		(at 0 -1 0)
		(unlocked yes)
		(layer "F.SilkS")
		(uuid "6582b3c2-2b24-49a1-9809-b5cbb3e18f33")
		(effects
			(font
				(size 1 1)
				(thickness 0.1)
			)
		)
	)
	(property "Value" "AMPHENOL_GSB1C21x11x0DS1HR"
		(at 0 1 0)
		(unlocked yes)
		(layer "F.Fab")
		(uuid "5fd65b10-410c-4469-8894-7030f01be747")
		(effects
			(font
				(size 1 1)
				(thickness 0.15)
			)
		)
	)
	(property "Footprint" ""
		(at 0 -2.3 0)
		(unlocked yes)
		(layer "F.Fab")
		(hide yes)
		(uuid "16737b21-d510-4dc2-8e8e-e676e37474f4")
		(effects
			(font
				(size 1 1)
				(thickness 0.15)
			)
		)
	)
	(property "Datasheet" ""
		(at 0 -2.3 0)
		(unlocked yes)
		(layer "F.Fab")
		(hide yes)
		(uuid "506bc743-ece4-491f-aea4-eca73108b1e6")
		(effects
			(font
				(size 1 1)
				(thickness 0.15)
			)
		)
	)
	(property "Description" ""
		(at 0 -2.3 0)
		(unlocked yes)
		(layer "F.Fab")
		(hide yes)
		(uuid "0648c7ad-3273-475e-861f-a3849b03f430")
		(effects
			(font
				(size 1 1)
				(thickness 0.15)
			)
		)
	)
	(attr through_hole)
	(fp_line
		(start -4.32 -4.97)
		(end -4.32 -4.85)
		(stroke
			(width 0.1)
			(type default)
		)
		(layer "F.SilkS")
		(uuid "a9841658-acea-46ef-af6c-70ddbbf2038e")
	)
	(fp_line
		(start -4.32 -0.5)
		(end -4.32 -1.45)
		(stroke
			(width 0.1)
			(type default)
		)
		(layer "F.SilkS")
		(uuid "d9976bfe-56a6-4e7b-83e3-8bf57cbb2360")
	)
	(fp_line
		(start -4.32 2.5)
		(end -4.32 4)
		(stroke
			(width 0.1)
			(type default)
		)
		(layer "F.SilkS")
		(uuid "730c5baf-b872-44b2-9912-6a197b5b53b8")
	)
	(fp_line
		(start -4.32 4)
		(end 4.32 4)
		(stroke
			(width 0.1)
			(type default)
		)
		(layer "F.SilkS")
		(uuid "0ea3ef72-9d83-4d3b-8b59-30abf4bfc6ac")
	)
	(fp_line
		(start 4.32 -4.97)
		(end -4.32 -4.97)
		(stroke
			(width 0.1)
			(type default)
		)
		(layer "F.SilkS")
		(uuid "18547c07-4e63-4a4b-98fd-009adb6ed57f")
	)
	(fp_line
		(start 4.32 -4.85)
		(end 4.32 -4.97)
		(stroke
			(width 0.1)
			(type default)
		)
		(layer "F.SilkS")
		(uuid "956abd2e-1cc6-42df-b487-1f1b9f533719")
	)
	(fp_line
		(start 4.32 -0.5)
		(end 4.32 -1.45)
		(stroke
			(width 0.1)
			(type default)
		)
		(layer "F.SilkS")
		(uuid "d9c659fd-5298-4939-963b-fa5fd1aedeec")
	)
	(fp_line
		(start 4.32 2.5)
		(end 4.32 4)
		(stroke
			(width 0.1)
			(type default)
		)
		(layer "F.SilkS")
		(uuid "91366bb1-194a-46cd-be05-3a07a162431e")
	)
	(fp_line
		(start -5.17 -4.95)
		(end -4.52 -4.95)
		(stroke
			(width 0.05)
			(type default)
		)
		(layer "F.CrtYd")
		(uuid "9f048ec1-71e9-4330-8f6b-8d1327bfb377")
	)
	(fp_line
		(start -5.17 2.6)
		(end -5.17 -4.95)
		(stroke
			(width 0.05)
			(type default)
		)
		(layer "F.CrtYd")
		(uuid "f5626b1d-63ab-400b-9cf2-21907207bc98")
	)
	(fp_line
		(start -4.52 -4.95)
		(end -4.52 -5.17)
		(stroke
			(width 0.05)
			(type default)
		)
		(layer "F.CrtYd")
		(uuid "1b0b3495-41be-4da6-b1df-3fff3077c89c")
	)
	(fp_line
		(start -4.52 2.6)
		(end -5.17 2.6)
		(stroke
			(width 0.05)
			(type default)
		)
		(layer "F.CrtYd")
		(uuid "7b6b0d1f-8c62-4eff-97e1-de5401dd52fd")
	)
	(fp_line
		(start -4.52 4.2)
		(end -4.52 2.6)
		(stroke
			(width 0.05)
			(type default)
		)
		(layer "F.CrtYd")
		(uuid "25819262-35e6-4af2-a267-392ce9c4e439")
	)
	(fp_line
		(start 4.52 -5.17)
		(end -4.52 -5.17)
		(stroke
			(width 0.05)
			(type default)
		)
		(layer "F.CrtYd")
		(uuid "1a273237-4abe-4ea3-9a18-4d4d46049159")
	)
	(fp_line
		(start 4.52 -4.95)
		(end 4.52 -5.17)
		(stroke
			(width 0.05)
			(type default)
		)
		(layer "F.CrtYd")
		(uuid "369ef09f-236f-4d73-8d5f-587aa574a15c")
	)
	(fp_line
		(start 4.52 -4.95)
		(end 5.17 -4.95)
		(stroke
			(width 0.05)
			(type default)
		)
		(layer "F.CrtYd")
		(uuid "89d775a6-c8b5-41c1-b672-70cdd9d26a39")
	)
	(fp_line
		(start 4.52 4.2)
		(end -4.52 4.2)
		(stroke
			(width 0.05)
			(type default)
		)
		(layer "F.CrtYd")
		(uuid "cd02c26c-fab6-465c-a92f-101cfc0f802b")
	)
	(fp_line
		(start 4.52 4.2)
		(end 4.52 2.6)
		(stroke
			(width 0.05)
			(type default)
		)
		(layer "F.CrtYd")
		(uuid "06cd7951-2e08-4685-9a0f-4e199908b2b7")
	)
	(fp_line
		(start 5.17 2.6)
		(end 4.52 2.6)
		(stroke
			(width 0.05)
			(type default)
		)
		(layer "F.CrtYd")
		(uuid "3312dfc1-384f-4a50-b45f-24cddad58995")
	)
	(fp_line
		(start 5.17 2.6)
		(end 5.17 -4.95)
		(stroke
			(width 0.05)
			(type default)
		)
		(layer "F.CrtYd")
		(uuid "4418d42a-36b4-48b8-aabe-8397dc470cb3")
	)
	(fp_rect
		(start -4.42 -5.07)
		(end 4.42 4.1)
		(stroke
			(width 0.1)
			(type default)
		)
		(fill none)
		(layer "F.Fab")
		(uuid "4c3a00ef-03e1-4c9b-ba1d-b716bc2f647a")
	)
	(fp_text user "${REFERENCE}"
		(at 0 0 0)
		(unlocked yes)
		(layer "F.Fab")
		(uuid "a1ad8370-b4c4-4dfc-8794-7267f74bf6b5")
		(effects
			(font
				(size 1 1)
				(thickness 0.15)
			)
		)
	)
	(pad "A1" thru_hole circle
		(at -2.975 -3.65)
		(size 0.7 0.7)
		(drill 0.4)
		(layers "*.Cu" "*.Mask")
		(remove_unused_layers no)
		(uuid "bfb1c55b-b803-4a3f-b228-87b3fa388700")
	)
	(pad "A4" thru_hole circle
		(at -2.125 -3.65)
		(size 0.7 0.7)
		(drill 0.4)
		(layers "*.Cu" "*.Mask")
		(remove_unused_layers no)
		(uuid "a3e58d99-61ed-4b92-a8ab-3ec1c9aeef45")
	)
	(pad "A5" thru_hole circle
		(at -1.275 -3.65)
		(size 0.7 0.7)
		(drill 0.4)
		(layers "*.Cu" "*.Mask")
		(remove_unused_layers no)
		(uuid "28f367aa-cc34-43b0-b296-271ef21eddf5")
	)
	(pad "A6" thru_hole circle
		(at -0.425 -3.65)
		(size 0.7 0.7)
		(drill 0.4)
		(layers "*.Cu" "*.Mask")
		(remove_unused_layers no)
		(uuid "5dac714e-022b-45a0-8e4e-e62d6cfc1c36")
	)
	(pad "A7" thru_hole circle
		(at 0.425 -3.65)
		(size 0.7 0.7)
		(drill 0.4)
		(layers "*.Cu" "*.Mask")
		(remove_unused_layers no)
		(uuid "13ee3933-115c-4ee3-8ffa-9d5aff8b3c4a")
	)
	(pad "A8" thru_hole circle
		(at 1.275 -3.65)
		(size 0.7 0.7)
		(drill 0.4)
		(layers "*.Cu" "*.Mask")
		(remove_unused_layers no)
		(uuid "7ac6cea4-72f0-413e-ab8f-6e6d6cc37d94")
	)
	(pad "A9" thru_hole circle
		(at 2.125 -3.65)
		(size 0.7 0.7)
		(drill 0.4)
		(layers "*.Cu" "*.Mask")
		(remove_unused_layers no)
		(uuid "19c864a4-08b5-4829-97c5-af0656f37dd0")
	)
	(pad "A12" thru_hole circle
		(at 2.975 -3.65)
		(size 0.7 0.7)
		(drill 0.4)
		(layers "*.Cu" "*.Mask")
		(remove_unused_layers no)
		(uuid "d83c8a34-e601-4be5-b945-f9d8d6e7a005")
	)
	(pad "B1" thru_hole circle
		(at 2.975 -2.3)
		(size 0.7 0.7)
		(drill 0.4)
		(layers "*.Cu" "*.Mask")
		(remove_unused_layers no)
		(uuid "7dff7ca6-3663-4417-8752-eb6340895e93")
	)
	(pad "B4" thru_hole circle
		(at 2.125 -2.3)
		(size 0.7 0.7)
		(drill 0.4)
		(layers "*.Cu" "*.Mask")
		(remove_unused_layers no)
		(uuid "5406e469-396d-4836-842c-db249d69156b")
	)
	(pad "B5" thru_hole circle
		(at 1.275 -2.3)
		(size 0.7 0.7)
		(drill 0.4)
		(layers "*.Cu" "*.Mask")
		(remove_unused_layers no)
		(uuid "be51eaaa-0ef1-43be-9e66-9f8ac7c37476")
	)
	(pad "B6" thru_hole circle
		(at 0.425 -2.3)
		(size 0.7 0.7)
		(drill 0.4)
		(layers "*.Cu" "*.Mask")
		(remove_unused_layers no)
		(uuid "d8318381-2a36-4d01-9814-49f59937fd5e")
	)
	(pad "B7" thru_hole circle
		(at -0.425 -2.3)
		(size 0.7 0.7)
		(drill 0.4)
		(layers "*.Cu" "*.Mask")
		(remove_unused_layers no)
		(uuid "818ca3f9-bca7-4383-a865-939cd80df8b9")
	)
	(pad "B8" thru_hole circle
		(at -1.275 -2.3)
		(size 0.7 0.7)
		(drill 0.4)
		(layers "*.Cu" "*.Mask")
		(remove_unused_layers no)
		(uuid "ec0fadc3-cd6d-4300-a985-68363b5f8ad3")
	)
	(pad "B9" thru_hole circle
		(at -2.125 -2.3)
		(size 0.7 0.7)
		(drill 0.4)
		(layers "*.Cu" "*.Mask")
		(remove_unused_layers no)
		(uuid "f85bc6e3-e608-44f1-abf5-b600eb3e89e4")
	)
	(pad "B12" thru_hole circle
		(at -2.975 -2.3)
		(size 0.7 0.7)
		(drill 0.4)
		(layers "*.Cu" "*.Mask")
		(remove_unused_layers no)
		(uuid "0aca75e9-aa50-495f-b8fb-1d1f3a1bcfc3")
	)
	(pad "S1" thru_hole oval
		(at -4.32 -3.15)
		(size 1.3 3.2)
		(drill oval 0.7 2)
		(layers "*.Cu" "*.Mask")
		(remove_unused_layers no)
		(uuid "59e43b1f-bf8d-4f1b-a6c8-a78738e5ef37")
	)
	(pad "S1" thru_hole oval
		(at -4.32 1)
		(size 1.3 2.8)
		(drill oval 0.7 1.6)
		(layers "*.Cu" "*.Mask")
		(remove_unused_layers no)
		(uuid "7fe4b64e-3b60-4d44-9093-7d12f6adeaa0")
	)
	(pad "S1" thru_hole oval
		(at 4.32 -3.15)
		(size 1.3 3.2)
		(drill oval 0.7 2)
		(layers "*.Cu" "*.Mask")
		(remove_unused_layers no)
		(uuid "c334fb17-d51b-41c4-963f-3cf0aab474ee")
	)
	(pad "S1" thru_hole oval
		(at 4.32 1)
		(size 1.3 2.8)
		(drill oval 0.7 1.6)
		(layers "*.Cu" "*.Mask")
		(remove_unused_layers no)
		(uuid "ef39a3ef-10db-46d7-a366-f60fccee5e55")
	)
)
