(footprint "CUI-DEVICES_SJ-63033A" (version 20221018) (generator pcbnew)
  (layer "F.Cu")
  (attr through_hole)
  (fp_text reference "REF**" (at 0 -0.5 unlocked) (layer "F.SilkS")
      (effects (font (size 1 1) (thickness 0.1)))
    (tstamp 6c44f343-e6a3-4855-9e94-0443fd323d7a)
  )
  (fp_text value "CUI-DEVICES_SJ-63033A" (at 0 1 unlocked) (layer "F.Fab")
      (effects (font (size 1 1) (thickness 0.15)))
    (tstamp 4f0c8761-264e-49ae-a2b7-70702dc4ef15)
  )
  (fp_text user "${REFERENCE}" (at 0 2.5 unlocked) (layer "F.Fab")
      (effects (font (size 1 1) (thickness 0.15)))
    (tstamp b66a18e5-a272-4b4a-a6be-eb90013f568a)
  )
  (fp_line (start -23.5 -5.2) (end -23.5 5.2)
    (stroke (width 0.1) (type default)) (layer "F.SilkS") (tstamp b6d24c24-8818-4999-aeb9-70a60dbe956a))
  (fp_line (start -23.5 -5.2) (end -12 -5.2)
    (stroke (width 0.1) (type default)) (layer "F.SilkS") (tstamp c1cd095d-4ed8-47e5-9c87-d2317c92c3d4))
  (fp_line (start -23.5 5.2) (end -12 5.2)
    (stroke (width 0.1) (type default)) (layer "F.SilkS") (tstamp 2ce96047-10bc-4b74-baac-cff447bda89c))
  (fp_line (start -12 -9) (end 12 -9)
    (stroke (width 0.1) (type default)) (layer "F.SilkS") (tstamp ca173694-c2ad-4839-bf0d-ef8e9b1109a1))
  (fp_line (start -12 -5.2) (end -12 -9)
    (stroke (width 0.1) (type default)) (layer "F.SilkS") (tstamp 882c75e7-0486-480c-8b6c-a2b70fe8bf83))
  (fp_line (start -12 5.2) (end -12 9)
    (stroke (width 0.1) (type default)) (layer "F.SilkS") (tstamp 7cab81e7-e6d8-413a-972e-6fb37763c99d))
  (fp_line (start -12 9) (end 12 9)
    (stroke (width 0.1) (type default)) (layer "F.SilkS") (tstamp 5c5c9479-6fcd-49e1-9afd-e72eb67cc8fd))
  (fp_line (start 12 9) (end 12 -9)
    (stroke (width 0.1) (type default)) (layer "F.SilkS") (tstamp 59ccc153-bb69-4c5e-b914-b5e281de1a69))
  (fp_rect (start -12 -9.4) (end 12.4 9.4)
    (stroke (width 0.05) (type default)) (fill none) (layer "F.CrtYd") (tstamp 96306a99-e77f-4dc2-a133-02223552c440))
  (pad "1" thru_hole oval (at -7 0) (size 4.5 3) (drill oval 2.5 1) (layers "*.Cu" "*.Mask") (tstamp 30bb676e-1acc-4443-a67e-5bdd0c3c707e))
  (pad "2" thru_hole oval (at 7.8 2.4) (size 4.5 3) (drill oval 2.5 1) (layers "*.Cu" "*.Mask") (tstamp 0ba262c0-33b5-4ef9-bcdd-7591917e2dfb))
  (pad "3" thru_hole oval (at 7.8 -2.4) (size 4.5 3) (drill oval 2.5 1) (layers "*.Cu" "*.Mask") (tstamp 95dfc5e1-0674-4948-b60c-8e5b0c5cdff6))
)
