(footprint "ESWITCH_LC1258"
	(version 20240108)
	(generator "pcbnew")
	(generator_version "8.0")
	(layer "F.Cu")
	(property "Reference" "REF**"
		(at 0 -0.5 0)
		(unlocked yes)
		(layer "F.SilkS")
		(uuid "ac63a7da-934e-46cc-ae06-987a0ed67062")
		(effects
			(font
				(size 1 1)
				(thickness 0.1)
			)
		)
	)
	(property "Value" "ESWITCH_LC1258"
		(at 0 1 0)
		(unlocked yes)
		(layer "F.Fab")
		(uuid "50d8ff93-56cc-4d50-bae3-02c1d25afddc")
		(effects
			(font
				(size 1 1)
				(thickness 0.15)
			)
		)
	)
	(property "Footprint" ""
		(at 0 0 0)
		(unlocked yes)
		(layer "F.Fab")
		(hide yes)
		(uuid "33cc6cb8-514e-48a0-857d-c9684389a733")
		(effects
			(font
				(size 1 1)
				(thickness 0.15)
			)
		)
	)
	(property "Datasheet" ""
		(at 0 0 0)
		(unlocked yes)
		(layer "F.Fab")
		(hide yes)
		(uuid "2c285c08-9afe-4911-9ff6-30d8fe22d33f")
		(effects
			(font
				(size 1 1)
				(thickness 0.15)
			)
		)
	)
	(property "Description" ""
		(at 0 0 0)
		(unlocked yes)
		(layer "F.Fab")
		(hide yes)
		(uuid "a01e21f2-24cb-4e8f-99a1-3bc26e82f483")
		(effects
			(font
				(size 1 1)
				(thickness 0.15)
			)
		)
	)
	(attr through_hole)
	(fp_line
		(start -6 -2.5)
		(end 4.45 -2.5)
		(stroke
			(width 0.1)
			(type default)
		)
		(layer "F.SilkS")
		(uuid "40c9eb8b-3af4-4da5-8410-6965aea2c2fd")
	)
	(fp_line
		(start -6 0.05)
		(end -6 -2.5)
		(stroke
			(width 0.1)
			(type default)
		)
		(layer "F.SilkS")
		(uuid "65c60973-ce59-4d24-8423-2a04c97d0062")
	)
	(fp_line
		(start -6 2.35)
		(end -6 2.5)
		(stroke
			(width 0.1)
			(type default)
		)
		(layer "F.SilkS")
		(uuid "c1b2cc8d-c331-48f7-9900-363b7277fc67")
	)
	(fp_line
		(start -6 2.5)
		(end 6 2.5)
		(stroke
			(width 0.1)
			(type default)
		)
		(layer "F.SilkS")
		(uuid "dc2bd03f-8563-4e8d-b901-31dbe7e70c64")
	)
	(fp_line
		(start 6 2.5)
		(end 6 -1.15)
		(stroke
			(width 0.1)
			(type default)
		)
		(layer "F.SilkS")
		(uuid "9b521085-8a22-4b6e-963e-6860228dac50")
	)
	(fp_rect
		(start 6 -1.35)
		(end 16 1.35)
		(stroke
			(width 0.1)
			(type default)
		)
		(fill none)
		(layer "Dwgs.User")
		(uuid "a4d2c5d6-b08a-4433-ac12-8288dab441b2")
	)
	(fp_line
		(start -6.9 -0.1)
		(end -6.9 2.5)
		(stroke
			(width 0.05)
			(type default)
		)
		(layer "F.CrtYd")
		(uuid "16aef518-781d-4fd3-a247-5efaedfd0930")
	)
	(fp_line
		(start -6.9 2.5)
		(end -6.25 2.5)
		(stroke
			(width 0.05)
			(type default)
		)
		(layer "F.CrtYd")
		(uuid "f059e6ff-1639-4cfc-aa9e-4aff7edad0ed")
	)
	(fp_line
		(start -6.25 -2.75)
		(end -6.25 -0.1)
		(stroke
			(width 0.05)
			(type default)
		)
		(layer "F.CrtYd")
		(uuid "a76abd45-c9e9-4a10-91d0-31099656e020")
	)
	(fp_line
		(start -6.25 -0.1)
		(end -6.9 -0.1)
		(stroke
			(width 0.05)
			(type default)
		)
		(layer "F.CrtYd")
		(uuid "30c61ac6-fad9-4c8e-acaa-0ea66e1a8b1e")
	)
	(fp_line
		(start -6.25 2.5)
		(end -6.25 2.75)
		(stroke
			(width 0.05)
			(type default)
		)
		(layer "F.CrtYd")
		(uuid "ac02907b-87c2-4ccc-98a7-76ab0c42f985")
	)
	(fp_line
		(start -6.25 2.75)
		(end 6.25 2.75)
		(stroke
			(width 0.05)
			(type default)
		)
		(layer "F.CrtYd")
		(uuid "7bc3afbf-123c-4619-b00d-3001188d8d3a")
	)
	(fp_line
		(start 4.3 -3.6)
		(end 4.3 -2.75)
		(stroke
			(width 0.05)
			(type default)
		)
		(layer "F.CrtYd")
		(uuid "bbbe7aa0-06e5-4d9d-a26d-8bc344f3fecc")
	)
	(fp_line
		(start 4.3 -2.75)
		(end -6.25 -2.75)
		(stroke
			(width 0.05)
			(type default)
		)
		(layer "F.CrtYd")
		(uuid "f98c6956-586d-426e-885c-1c4b15dcd329")
	)
	(fp_line
		(start 6.25 -1)
		(end 6.9 -1)
		(stroke
			(width 0.05)
			(type default)
		)
		(layer "F.CrtYd")
		(uuid "93da6517-9953-46ee-952c-0ece6a60264f")
	)
	(fp_line
		(start 6.25 2.75)
		(end 6.25 -1)
		(stroke
			(width 0.05)
			(type default)
		)
		(layer "F.CrtYd")
		(uuid "31287775-b4c6-4448-9f92-2b0748e4efae")
	)
	(fp_line
		(start 6.9 -3.6)
		(end 4.3 -3.6)
		(stroke
			(width 0.05)
			(type default)
		)
		(layer "F.CrtYd")
		(uuid "15eca246-5770-4246-a906-e90caadc227c")
	)
	(fp_line
		(start 6.9 -1)
		(end 6.9 -3.6)
		(stroke
			(width 0.05)
			(type default)
		)
		(layer "F.CrtYd")
		(uuid "952984a3-c52f-41f3-add1-bf4ef3f609b8")
	)
	(fp_rect
		(start -6.05 -2.55)
		(end 6.05 2.55)
		(stroke
			(width 0.1)
			(type default)
		)
		(fill none)
		(layer "F.Fab")
		(uuid "e43a9fd8-03f7-4fd4-ae6e-f82f74c6054d")
	)
	(fp_text user "${REFERENCE}"
		(at 0 2.5 0)
		(unlocked yes)
		(layer "F.Fab")
		(uuid "5f61ffdf-6cfa-4b4e-bf9b-3342bc494a64")
		(effects
			(font
				(size 1 1)
				(thickness 0.15)
			)
		)
	)
	(pad "1" thru_hole circle
		(at -2.5 0)
		(size 1.8 1.8)
		(drill 0.9)
		(layers "*.Cu" "*.Mask")
		(remove_unused_layers no)
		(uuid "5949bdc8-499a-4c5c-a23a-3e590c3517f9")
	)
	(pad "2" thru_hole circle
		(at 0 0)
		(size 1.8 1.8)
		(drill 0.9)
		(layers "*.Cu" "*.Mask")
		(remove_unused_layers no)
		(uuid "1bd1eb64-50e6-4829-8c3e-1c44bc563aab")
	)
	(pad "3" thru_hole circle
		(at 2.5 0)
		(size 1.8 1.8)
		(drill 0.9)
		(layers "*.Cu" "*.Mask")
		(remove_unused_layers no)
		(uuid "26024423-7047-4223-8e94-8d614ec8cddb")
	)
	(pad "4" thru_hole circle
		(at -5.6 1.2)
		(size 2.1 2.1)
		(drill 1.2)
		(layers "*.Cu" "*.Mask")
		(remove_unused_layers no)
		(uuid "1e32c524-ae8c-40d2-9174-19582ca36055")
	)
	(pad "5" thru_hole circle
		(at 5.6 -2.3)
		(size 2.1 2.1)
		(drill 1.2)
		(layers "*.Cu" "*.Mask")
		(remove_unused_layers no)
		(uuid "4992556a-67eb-4b6a-968b-fc652796bf81")
	)
)
