(footprint "GCT_USB4215"
	(version 20240108)
	(generator "pcbnew")
	(generator_version "8.0")
	(layer "F.Cu")
	(property "Reference" "REF**"
		(at 0 -0.5 0)
		(unlocked yes)
		(layer "F.SilkS")
		(uuid "fd76fa0f-7160-4847-a2a4-669ee09d2173")
		(effects
			(font
				(size 1 1)
				(thickness 0.1)
			)
		)
	)
	(property "Value" "GCT_USB4215"
		(at 0 1 0)
		(unlocked yes)
		(layer "F.Fab")
		(uuid "846e7b02-8153-4212-a2df-ab766161f2b1")
		(effects
			(font
				(size 1 1)
				(thickness 0.15)
			)
		)
	)
	(property "Footprint" ""
		(at 0 0 0)
		(unlocked yes)
		(layer "F.Fab")
		(hide yes)
		(uuid "2c18568e-6244-4bb8-9a1e-d66886cc690c")
		(effects
			(font
				(size 1 1)
				(thickness 0.15)
			)
		)
	)
	(property "Datasheet" ""
		(at 0 0 0)
		(unlocked yes)
		(layer "F.Fab")
		(hide yes)
		(uuid "b34ae198-774e-4066-b562-6a4dbcb456a2")
		(effects
			(font
				(size 1 1)
				(thickness 0.15)
			)
		)
	)
	(property "Description" ""
		(at 0 0 0)
		(unlocked yes)
		(layer "F.Fab")
		(hide yes)
		(uuid "9e44d171-4d11-45ca-b854-012f4245d982")
		(effects
			(font
				(size 1 1)
				(thickness 0.15)
			)
		)
	)
	(attr smd)
	(fp_line
		(start -4.47 -1.15)
		(end -4.47 -3.05)
		(stroke
			(width 0.1)
			(type default)
		)
		(layer "F.SilkS")
		(uuid "b25446c3-bf20-4003-a078-31d170e11fa6")
	)
	(fp_line
		(start -4.47 1.15)
		(end -4.47 2.1)
		(stroke
			(width 0.1)
			(type default)
		)
		(layer "F.SilkS")
		(uuid "1042d9c5-b3d0-49d1-b999-2f141d156f36")
	)
	(fp_line
		(start -4.47 2.1)
		(end 4.47 2.1)
		(stroke
			(width 0.1)
			(type default)
		)
		(layer "F.SilkS")
		(uuid "d2eabd2b-92a4-4b68-bc6d-1295134f243e")
	)
	(fp_line
		(start 4.47 -1.15)
		(end 4.47 -3.05)
		(stroke
			(width 0.1)
			(type default)
		)
		(layer "F.SilkS")
		(uuid "c5d2d7f0-f369-486f-8cf9-6da6e077d83a")
	)
	(fp_line
		(start 4.47 2.1)
		(end 4.47 1.15)
		(stroke
			(width 0.1)
			(type default)
		)
		(layer "F.SilkS")
		(uuid "3505f946-db87-475d-97d6-665a9e80ced6")
	)
	(fp_line
		(start -5.07 -5.15)
		(end -3.75 -5.15)
		(stroke
			(width 0.05)
			(type default)
		)
		(layer "F.CrtYd")
		(uuid "1e7ead16-d276-4735-acc6-9883203f406a")
	)
	(fp_line
		(start -5.07 -2.85)
		(end -5.07 -5.15)
		(stroke
			(width 0.05)
			(type default)
		)
		(layer "F.CrtYd")
		(uuid "8d20e1fc-ca63-4c04-a8e0-c43c22048d01")
	)
	(fp_line
		(start -5.07 -2.85)
		(end -4.72 -2.85)
		(stroke
			(width 0.05)
			(type default)
		)
		(layer "F.CrtYd")
		(uuid "0fce9fd2-51c1-4a8a-b9d0-95706a6112dd")
	)
	(fp_line
		(start -5.07 -1.35)
		(end -4.72 -1.35)
		(stroke
			(width 0.05)
			(type default)
		)
		(layer "F.CrtYd")
		(uuid "2c6ba1f6-cd03-42b6-aa71-c7f93cc79367")
	)
	(fp_line
		(start -5.07 1.35)
		(end -5.07 -1.35)
		(stroke
			(width 0.05)
			(type default)
		)
		(layer "F.CrtYd")
		(uuid "089978d0-db79-41b0-ba4c-51318b9ae350")
	)
	(fp_line
		(start -5.07 1.35)
		(end -4.72 1.35)
		(stroke
			(width 0.05)
			(type default)
		)
		(layer "F.CrtYd")
		(uuid "5c8a79a9-173a-4710-acbc-8bb55a022392")
	)
	(fp_line
		(start -4.72 -1.35)
		(end -4.72 -2.85)
		(stroke
			(width 0.05)
			(type default)
		)
		(layer "F.CrtYd")
		(uuid "2e5dc1ce-fbbb-47e8-8a13-f3c3443108a2")
	)
	(fp_line
		(start -4.72 2.35)
		(end -4.72 1.35)
		(stroke
			(width 0.05)
			(type default)
		)
		(layer "F.CrtYd")
		(uuid "cd00aef9-de36-4b55-a244-9c8d82e85426")
	)
	(fp_line
		(start -3.75 -5.4)
		(end 3.75 -5.4)
		(stroke
			(width 0.05)
			(type default)
		)
		(layer "F.CrtYd")
		(uuid "0a070fce-6655-40d3-a8c3-4d539ef67a03")
	)
	(fp_line
		(start -3.75 -5.15)
		(end -3.75 -5.4)
		(stroke
			(width 0.05)
			(type default)
		)
		(layer "F.CrtYd")
		(uuid "7da41036-6055-4904-b8cb-e8776e3d1c20")
	)
	(fp_line
		(start 3.75 -5.4)
		(end 3.75 -5.15)
		(stroke
			(width 0.05)
			(type default)
		)
		(layer "F.CrtYd")
		(uuid "9a4cbf2d-ec53-4692-a039-5eadfb87afca")
	)
	(fp_line
		(start 3.75 -5.15)
		(end 5.07 -5.15)
		(stroke
			(width 0.05)
			(type default)
		)
		(layer "F.CrtYd")
		(uuid "19649bba-23a2-47c7-a80c-577d6e6e5a28")
	)
	(fp_line
		(start 4.72 -2.85)
		(end 5.07 -2.85)
		(stroke
			(width 0.05)
			(type default)
		)
		(layer "F.CrtYd")
		(uuid "ab0d4b11-65b7-4ead-bfca-6a687eb2df3a")
	)
	(fp_line
		(start 4.72 -1.35)
		(end 4.72 -2.85)
		(stroke
			(width 0.05)
			(type default)
		)
		(layer "F.CrtYd")
		(uuid "8d0e1dd1-9ed1-466d-a67e-ad4fc559e9ab")
	)
	(fp_line
		(start 4.72 -1.35)
		(end 5.07 -1.35)
		(stroke
			(width 0.05)
			(type default)
		)
		(layer "F.CrtYd")
		(uuid "ad8b9a6d-e91b-4807-a08a-ac25fb4d9b14")
	)
	(fp_line
		(start 4.72 1.35)
		(end 5.07 1.35)
		(stroke
			(width 0.05)
			(type default)
		)
		(layer "F.CrtYd")
		(uuid "07fc37d7-823c-487c-9a45-656d88439676")
	)
	(fp_line
		(start 4.72 2.35)
		(end -4.72 2.35)
		(stroke
			(width 0.05)
			(type default)
		)
		(layer "F.CrtYd")
		(uuid "5c4b561a-3bb3-47af-8921-d44cbcf17bd2")
	)
	(fp_line
		(start 4.72 2.35)
		(end 4.72 1.35)
		(stroke
			(width 0.05)
			(type default)
		)
		(layer "F.CrtYd")
		(uuid "8ce12384-a056-4e8e-ab27-126baf7c8a52")
	)
	(fp_line
		(start 5.07 -2.85)
		(end 5.07 -5.15)
		(stroke
			(width 0.05)
			(type default)
		)
		(layer "F.CrtYd")
		(uuid "f211bc94-02df-4c8c-816e-5d2d4f9c8fe6")
	)
	(fp_line
		(start 5.07 1.35)
		(end 5.07 -1.35)
		(stroke
			(width 0.05)
			(type default)
		)
		(layer "F.CrtYd")
		(uuid "0483a4ed-0693-456f-8e04-1c1b298cbef5")
	)
	(fp_rect
		(start -4.52 -4.45)
		(end 4.52 2.15)
		(stroke
			(width 0.1)
			(type default)
		)
		(fill none)
		(layer "F.Fab")
		(uuid "678fdcd5-cfc2-43dd-83d4-1001201c309c")
	)
	(fp_text user "${REFERENCE}"
		(at 0 2.5 0)
		(unlocked yes)
		(layer "F.Fab")
		(uuid "28afc76d-1963-4208-8dd4-bbca04fcb186")
		(effects
			(font
				(size 1 1)
				(thickness 0.15)
			)
		)
	)
	(pad "A1" smd roundrect
		(at -3.35 -4.575)
		(size 0.3 1.15)
		(layers "F.Cu" "F.Paste" "F.Mask")
		(roundrect_rratio 0.03333333333)
		(thermal_bridge_angle 45)
		(uuid "10419cd6-d79a-443f-bd55-0040fb2c69cf")
	)
	(pad "A4" smd roundrect
		(at -2.55 -4.575)
		(size 0.3 1.15)
		(layers "F.Cu" "F.Paste" "F.Mask")
		(roundrect_rratio 0.03333333333)
		(thermal_bridge_angle 45)
		(uuid "06e1c259-7582-4678-aea0-9b05fb20f18a")
	)
	(pad "A5" smd roundrect
		(at -1.25 -4.575)
		(size 0.3 1.15)
		(layers "F.Cu" "F.Paste" "F.Mask")
		(roundrect_rratio 0.25)
		(thermal_bridge_angle 45)
		(uuid "82a1f053-e596-48cb-885f-6328f91fecb1")
	)
	(pad "A6" smd roundrect
		(at -0.25 -4.575)
		(size 0.3 1.15)
		(layers "F.Cu" "F.Paste" "F.Mask")
		(roundrect_rratio 0.25)
		(thermal_bridge_angle 45)
		(uuid "f9785517-7d31-4d5d-963b-37e23c22d77f")
	)
	(pad "A7" smd roundrect
		(at 0.25 -4.575)
		(size 0.3 1.15)
		(layers "F.Cu" "F.Paste" "F.Mask")
		(roundrect_rratio 0.25)
		(thermal_bridge_angle 45)
		(uuid "545f5b4d-7569-47f6-87d3-b078e5e3a924")
	)
	(pad "A8" smd roundrect
		(at 1.25 -4.575)
		(size 0.3 1.15)
		(layers "F.Cu" "F.Paste" "F.Mask")
		(roundrect_rratio 0.25)
		(thermal_bridge_angle 45)
		(uuid "fc824eaa-24c3-44bb-a1b2-faa5f1323cd4")
	)
	(pad "A9" smd roundrect
		(at 2.55 -4.575)
		(size 0.3 1.15)
		(layers "F.Cu" "F.Paste" "F.Mask")
		(roundrect_rratio 0.03333333333)
		(thermal_bridge_angle 45)
		(uuid "63980cd9-79fb-4b07-8b1b-f7a7a799b104")
	)
	(pad "A12" smd roundrect
		(at 3.35 -4.575)
		(size 0.3 1.15)
		(layers "F.Cu" "F.Paste" "F.Mask")
		(roundrect_rratio 0.03333333333)
		(thermal_bridge_angle 45)
		(uuid "422f356b-ee55-4ec1-a4e5-de31d69618ad")
	)
	(pad "B1" smd roundrect
		(at 3.05 -4.575)
		(size 0.3 1.15)
		(layers "F.Cu" "F.Paste" "F.Mask")
		(roundrect_rratio 0.03333333333)
		(thermal_bridge_angle 45)
		(uuid "06bad026-6568-4e5b-963b-f8acb34e2ad9")
	)
	(pad "B4" smd roundrect
		(at 2.25 -4.575)
		(size 0.3 1.15)
		(layers "F.Cu" "F.Paste" "F.Mask")
		(roundrect_rratio 0.03333333333)
		(thermal_bridge_angle 45)
		(uuid "28474479-580e-49ff-bc7a-51eeab3edb73")
	)
	(pad "B5" smd roundrect
		(at 1.75 -4.575)
		(size 0.3 1.15)
		(layers "F.Cu" "F.Paste" "F.Mask")
		(roundrect_rratio 0.25)
		(thermal_bridge_angle 45)
		(uuid "201c9196-0199-466e-80d4-8f0162c51f7e")
	)
	(pad "B6" smd roundrect
		(at 0.75 -4.575)
		(size 0.3 1.15)
		(layers "F.Cu" "F.Paste" "F.Mask")
		(roundrect_rratio 0.25)
		(thermal_bridge_angle 45)
		(uuid "cd8d3cf7-28d4-43ab-baab-0bab3c602d1e")
	)
	(pad "B7" smd roundrect
		(at -0.75 -4.575)
		(size 0.3 1.15)
		(layers "F.Cu" "F.Paste" "F.Mask")
		(roundrect_rratio 0.25)
		(thermal_bridge_angle 45)
		(uuid "d109af41-5268-41df-a733-1d92a62b4201")
	)
	(pad "B8" smd roundrect
		(at -1.75 -4.575)
		(size 0.3 1.15)
		(layers "F.Cu" "F.Paste" "F.Mask")
		(roundrect_rratio 0.25)
		(thermal_bridge_angle 45)
		(uuid "bfb63ab1-8825-41a4-bfdf-b973af5084af")
	)
	(pad "B9" smd roundrect
		(at -2.25 -4.575)
		(size 0.3 1.15)
		(layers "F.Cu" "F.Paste" "F.Mask")
		(roundrect_rratio 0.03333333333)
		(thermal_bridge_angle 45)
		(uuid "58311c22-6963-4246-9d2e-f55d9076ed01")
	)
	(pad "B12" smd roundrect
		(at -3.05 -4.575)
		(size 0.3 1.15)
		(layers "F.Cu" "F.Paste" "F.Mask")
		(roundrect_rratio 0.03333333333)
		(thermal_bridge_angle 45)
		(uuid "51ad20d9-3d39-46a2-b599-81d1032985ed")
	)
	(pad "S1" thru_hole oval
		(at -4.32 -4)
		(size 1 1.8)
		(drill oval 0.6 1.4)
		(layers "*.Cu" "*.Mask")
		(remove_unused_layers no)
		(thermal_bridge_angle 45)
		(uuid "570ede1a-5381-4e18-9c35-c8bc37492f7b")
	)
	(pad "S1" thru_hole oval
		(at -4.32 0)
		(size 1 2.2)
		(drill oval 0.6 1.8)
		(layers "*.Cu" "*.Mask")
		(remove_unused_layers no)
		(thermal_bridge_angle 45)
		(uuid "ca516850-4b72-4911-9d6f-aab6c670875d")
	)
	(pad "S1" thru_hole oval
		(at 4.32 -4)
		(size 1 1.8)
		(drill oval 0.6 1.4)
		(layers "*.Cu" "*.Mask")
		(remove_unused_layers no)
		(thermal_bridge_angle 45)
		(uuid "da0c15b6-ff0e-44d8-aead-78ca282027c7")
	)
	(pad "S1" thru_hole oval
		(at 4.32 0)
		(size 1 2.2)
		(drill oval 0.6 1.8)
		(layers "*.Cu" "*.Mask")
		(remove_unused_layers no)
		(thermal_bridge_angle 45)
		(uuid "b0936a31-7a6a-45aa-b184-5013f1ea1b77")
	)
)
