(footprint "IMELLC_NetTie-2_SMD_Pad0.1524mm"
	(version 20240108)
	(generator "pcbnew")
	(generator_version "8.0")
	(layer "F.Cu")
	(property "Reference" "REF**"
		(at 0 -0.5 0)
		(unlocked yes)
		(layer "F.SilkS")
		(hide yes)
		(uuid "91068315-7200-4b0e-aebf-f46df0657bce")
		(effects
			(font
				(size 1 1)
				(thickness 0.1)
			)
		)
	)
	(property "Value" "IMELLC_NetTie-2_SMD_Pad0.1524mm"
		(at 0 1 0)
		(unlocked yes)
		(layer "F.Fab")
		(hide yes)
		(uuid "0d64286d-df0c-445b-a053-381548318840")
		(effects
			(font
				(size 1 1)
				(thickness 0.15)
			)
		)
	)
	(property "Footprint" ""
		(at 0 0 0)
		(unlocked yes)
		(layer "F.Fab")
		(hide yes)
		(uuid "2feaffc6-5ee6-44d6-b984-343887895b5a")
		(effects
			(font
				(size 1 1)
				(thickness 0.15)
			)
		)
	)
	(property "Datasheet" ""
		(at 0 0 0)
		(unlocked yes)
		(layer "F.Fab")
		(hide yes)
		(uuid "ae24ab90-d09a-4c15-b412-1c987eff05c9")
		(effects
			(font
				(size 1 1)
				(thickness 0.15)
			)
		)
	)
	(property "Description" ""
		(at 0 0 0)
		(unlocked yes)
		(layer "F.Fab")
		(hide yes)
		(uuid "65d795e3-2080-4c8d-a7d2-49a65fbe7373")
		(effects
			(font
				(size 1 1)
				(thickness 0.15)
			)
		)
	)
	(attr smd)
	(fp_line
		(start -0.1524 0)
		(end 0.1524 0)
		(stroke
			(width 0.1524)
			(type default)
		)
		(layer "F.Cu")
		(uuid "a1c44e98-3070-44c6-a31e-43acb0b7ad0a")
	)
	(fp_text user "${REFERENCE}"
		(at 0 2.5 0)
		(unlocked yes)
		(layer "F.Fab")
		(hide yes)
		(uuid "d01e5470-f819-4e03-a7b2-e851efb3a3e9")
		(effects
			(font
				(size 1 1)
				(thickness 0.15)
			)
		)
	)
	(pad "1" smd circle
		(at -0.1524 0)
		(size 0.1524 0.1524)
		(layers "F.Cu")
		(uuid "2a478f65-bccd-4f62-a6c7-0c54849e4852")
	)
	(pad "2" smd circle
		(at 0.1524 0)
		(size 0.1524 0.1524)
		(layers "F.Cu")
		(uuid "639e7252-6c8b-48e1-ae64-5148391f1f45")
	)
)
