(footprint "PHOENIX_5441993" (version 20221018) (generator pcbnew)
  (layer "F.Cu")
  (attr through_hole)
  (fp_text reference "REF**" (at 0 -0.5 unlocked) (layer "F.SilkS")
      (effects (font (size 1 1) (thickness 0.1)))
    (tstamp 8873e209-b430-49e1-a90a-2bdafc799620)
  )
  (fp_text value "PHOENIX_5441993" (at 0 1 unlocked) (layer "F.Fab")
      (effects (font (size 1 1) (thickness 0.15)))
    (tstamp 3003c0a9-3f5b-4569-8bea-c9642f72c7a4)
  )
  (fp_text user "${REFERENCE}" (at 0 2.5 unlocked) (layer "F.Fab")
      (effects (font (size 1 1) (thickness 0.15)))
    (tstamp 0bd39f23-6842-4c7e-9d61-f77e8ba41000)
  )
  (fp_text user "${REFERENCE}" (at -2.54 2.5 unlocked) (layer "F.Fab")
      (effects (font (size 1 1) (thickness 0.15)))
    (tstamp 5f5aa88f-4b40-4a3c-97bd-491a321c01d5)
  )
  (fp_line (start -8.58 -2) (end -8.58 10)
    (stroke (width 0.1) (type default)) (layer "F.SilkS") (tstamp b9f68851-ff84-44f7-a3e8-7b1d6d07295e))
  (fp_line (start -8.58 10) (end 8.58 10)
    (stroke (width 0.1) (type default)) (layer "F.SilkS") (tstamp e8d918ee-55ae-46f9-b90b-7f89ca056175))
  (fp_line (start -5.8 -2) (end -8.58 -2)
    (stroke (width 0.1) (type default)) (layer "F.SilkS") (tstamp 1e9b8b1b-dc20-429e-be60-caeacc9c4e6c))
  (fp_line (start -4.36 -2) (end -0.72 -2)
    (stroke (width 0.1) (type default)) (layer "F.SilkS") (tstamp f025e2d2-d563-42a9-929e-978446a2bcfb))
  (fp_line (start 4.36 -2) (end 0.72 -2)
    (stroke (width 0.1) (type default)) (layer "F.SilkS") (tstamp b732450b-57d0-4ab7-83bf-07ff90b9facd))
  (fp_line (start 8.58 -2) (end 5.8 -2)
    (stroke (width 0.1) (type default)) (layer "F.SilkS") (tstamp 7dcb4c54-c48a-4618-8a54-84221e06de9d))
  (fp_line (start 8.58 -2) (end 8.58 10)
    (stroke (width 0.1) (type default)) (layer "F.SilkS") (tstamp 19c32159-28f4-4595-81f4-195e31fbb352))
  (fp_rect (start -8.78 -2.2) (end 8.78 10.2)
    (stroke (width 0.05) (type default)) (fill none) (layer "F.CrtYd") (tstamp e07ef9f7-b83c-4106-aa45-f10920cddc0d))
  (pad "1" thru_hole roundrect (at -5.08 0) (size 1.9 3.8) (drill 1.4) (layers "*.Cu" "*.Mask") (roundrect_rratio 0)
    (chamfer_ratio 0.25) (chamfer top_left top_right bottom_left bottom_right) (tstamp 232efe89-b4c9-496d-a63b-599fde4cc40c))
  (pad "2" thru_hole roundrect (at 0 0) (size 1.9 3.8) (drill 1.4) (layers "*.Cu" "*.Mask") (roundrect_rratio 0)
    (chamfer_ratio 0.25) (chamfer top_left top_right bottom_left bottom_right) (tstamp f693a52b-560a-4169-9423-1e0dc3c99eab))
  (pad "3" thru_hole roundrect (at 5.08 0) (size 1.9 3.8) (drill 1.4) (layers "*.Cu" "*.Mask") (roundrect_rratio 0)
    (chamfer_ratio 0.25) (chamfer top_left top_right bottom_left bottom_right) (tstamp 8a7d7199-8998-440c-a926-3ed560fbebeb))
)
