(footprint "SEIKO_SC-32S"
	(version 20240108)
	(generator "pcbnew")
	(generator_version "8.0")
	(layer "F.Cu")
	(property "Reference" "REF**"
		(at 0 -0.5 0)
		(unlocked yes)
		(layer "F.SilkS")
		(uuid "17a4df0e-fcbd-468d-aebf-11db7e72b9b7")
		(effects
			(font
				(size 1 1)
				(thickness 0.1)
			)
		)
	)
	(property "Value" "SEIKO_SC-32S"
		(at 0 1 0)
		(unlocked yes)
		(layer "F.Fab")
		(uuid "2dae34e4-b466-4444-afa9-82c6a54a3157")
		(effects
			(font
				(size 1 1)
				(thickness 0.15)
			)
		)
	)
	(property "Footprint" ""
		(at 0 0 0)
		(unlocked yes)
		(layer "F.Fab")
		(hide yes)
		(uuid "6873a148-15e6-4c9c-90db-2f281189e6e7")
		(effects
			(font
				(size 1 1)
				(thickness 0.15)
			)
		)
	)
	(property "Datasheet" ""
		(at 0 0 0)
		(unlocked yes)
		(layer "F.Fab")
		(hide yes)
		(uuid "97bbbe5f-c626-4f36-87fa-cb3b1c347d58")
		(effects
			(font
				(size 1 1)
				(thickness 0.15)
			)
		)
	)
	(property "Description" ""
		(at 0 0 0)
		(unlocked yes)
		(layer "F.Fab")
		(hide yes)
		(uuid "d06354bf-98e3-49b1-a21a-3f3875177f61")
		(effects
			(font
				(size 1 1)
				(thickness 0.15)
			)
		)
	)
	(attr smd)
	(fp_line
		(start -0.6 -0.75)
		(end 0.6 -0.75)
		(stroke
			(width 0.1)
			(type default)
		)
		(layer "F.SilkS")
		(uuid "b51820a9-7543-4f8b-bc76-08ed61825b8f")
	)
	(fp_line
		(start -0.6 0.75)
		(end 0.6 0.75)
		(stroke
			(width 0.1)
			(type default)
		)
		(layer "F.SilkS")
		(uuid "5561c5f9-beb5-4183-b6f5-024a0b541678")
	)
	(fp_rect
		(start -2 -1.15)
		(end 2 1.15)
		(stroke
			(width 0.05)
			(type default)
		)
		(fill none)
		(layer "F.CrtYd")
		(uuid "7488cf11-8b74-4c7c-9591-a7ecef60f263")
	)
	(fp_rect
		(start -1.65 -0.8)
		(end 1.65 0.8)
		(stroke
			(width 0.1)
			(type default)
		)
		(fill none)
		(layer "F.Fab")
		(uuid "231b5364-998d-4e90-9d2e-043a430d41ee")
	)
	(fp_text user "${REFERENCE}"
		(at 0 2.5 0)
		(unlocked yes)
		(layer "F.Fab")
		(uuid "349eed09-b771-44dc-8182-00e6a8b07e80")
		(effects
			(font
				(size 1 1)
				(thickness 0.15)
			)
		)
	)
	(pad "1" smd roundrect
		(at -1.25 0)
		(size 1 1.8)
		(layers "F.Cu" "F.Paste" "F.Mask")
		(roundrect_rratio 0.25)
		(uuid "b9fe6207-5a6e-4c6e-8bcc-32fe6e87d3bc")
	)
	(pad "2" smd roundrect
		(at 1.25 0)
		(size 1 1.8)
		(layers "F.Cu" "F.Paste" "F.Mask")
		(roundrect_rratio 0.25)
		(uuid "efb4cef3-2848-40c3-b4e8-4c4bd3334c7c")
	)
)
