(footprint "TI_RJK0038B-C01" (version 20221018) (generator pcbnew)
  (layer "F.Cu")
  (tags "TPS25750DRJKR ")
  (attr smd)
  (fp_text reference "REF**" (at 0 0 unlocked) (layer "F.SilkS")
      (effects (font (size 1 1) (thickness 0.15)))
    (tstamp 632c52b1-4ec5-4716-ac48-1404c126295f)
  )
  (fp_text value "RJK0038B-C01-MFG" (at 0 0 unlocked) (layer "F.Fab")
      (effects (font (size 1 1) (thickness 0.15)))
    (tstamp 44c602e4-2a62-421f-8c10-e05cebaf6ea4)
  )
  (fp_text user "Designator565" (at -3.834585 -3.618804 unlocked) (layer "F.SilkS")
      (effects (font (size 1 1) (thickness 0.15)))
    (tstamp 897ec031-0f36-4b84-b028-400dc8e93ece)
  )
  (fp_text user "${REFERENCE}" (at 0 0 unlocked) (layer "F.Fab")
      (effects (font (size 1 1) (thickness 0.15)))
    (tstamp ce94944f-684b-4ce0-b620-375bbfb400f1)
  )
  (fp_poly
    (pts
      (xy -1.25 -2.2)
      (xy -1.3 -2.15)
      (xy -1.3 -1.65)
      (xy -1.25 -1.6)
      (xy -0.75 -1.6)
      (xy -0.7 -1.65)
      (xy -0.7 -2.15)
      (xy -0.75 -2.2)
    )

    (stroke (width 0) (type solid)) (fill solid) (layer "F.Cu") (tstamp 60a64266-2ea9-4820-96e4-e6efb4afe128))
  (fp_poly
    (pts
      (xy -0.5 -1.65)
      (xy -0.45 -1.6)
      (xy 0.05 -1.6)
      (xy 0.1 -1.65)
      (xy 0.1 -2.15)
      (xy 0.05 -2.2)
      (xy -0.45 -2.2)
      (xy -0.5 -2.15)
    )

    (stroke (width 0) (type solid)) (fill solid) (layer "F.Cu") (tstamp 1f375d18-ae39-4093-a8d0-45ee1b1258bf))
  (fp_poly
    (pts
      (xy 2.599 -0.1)
      (xy 3.199 -0.1)
      (xy 3.199 -0.3)
      (xy 2.874 -0.3)
      (xy 2.874 -0.55)
      (xy 3.199 -0.55)
      (xy 3.199 -0.75)
      (xy 2.874 -0.75)
      (xy 2.874 -1)
      (xy 3.199 -1)
      (xy 3.199 -1.253)
      (xy 2.599 -1.253)
    )

    (stroke (width 0) (type solid)) (fill solid) (layer "F.Cu") (tstamp 8728c9eb-7546-4be1-975d-27f07a3dee49))
  (fp_poly
    (pts
      (xy 2.6 0.1)
      (xy 3.2 0.1)
      (xy 3.2 0.3)
      (xy 2.875 0.3)
      (xy 2.875 0.55)
      (xy 3.2 0.55)
      (xy 3.2 0.75)
      (xy 2.875 0.75)
      (xy 2.875 1)
      (xy 3.2 1)
      (xy 3.2 1.253)
      (xy 2.6 1.253)
    )

    (stroke (width 0) (type solid)) (fill solid) (layer "F.Cu") (tstamp dc96d783-00aa-4639-9eb9-b613c28f0524))
  (fp_poly
    (pts
      (xy -1.25 -1.65)
      (xy -0.75 -1.65)
      (xy -0.75 -1.825)
      (xy -1.25 -1.825)
    )

    (stroke (width 0.1) (type solid)) (fill solid) (layer "F.Paste") (tstamp 08861cfe-faf6-4673-a84d-fc87fbaebad7))
  (fp_poly
    (pts
      (xy -0.45 -1.65)
      (xy 0.05 -1.65)
      (xy 0.05 -1.825)
      (xy -0.45 -1.825)
    )

    (stroke (width 0.1) (type solid)) (fill solid) (layer "F.Paste") (tstamp 40140266-3358-4b04-b837-2c1b4a3e71c0))
  (fp_poly
    (pts
      (xy 3.199 -0.1)
      (xy 2.599 -0.1)
      (xy 2.599 -1.253)
      (xy 3.199 -1.253)
      (xy 3.199 -1)
      (xy 2.874 -1)
      (xy 2.874 -0.75)
      (xy 3.199 -0.75)
      (xy 3.199 -0.55)
      (xy 2.874 -0.55)
      (xy 2.874 -0.3)
      (xy 3.199 -0.3)
    )

    (stroke (width 0) (type solid)) (fill solid) (layer "F.Paste") (tstamp 39d02e7e-5865-4015-995d-8e2c3f4d9425))
  (fp_poly
    (pts
      (xy 3.2 0.1)
      (xy 2.6 0.1)
      (xy 2.6 1.253)
      (xy 3.2 1.253)
      (xy 3.2 1)
      (xy 2.875 1)
      (xy 2.875 0.75)
      (xy 3.2 0.75)
      (xy 3.2 0.55)
      (xy 2.875 0.55)
      (xy 2.875 0.3)
      (xy 3.2 0.3)
    )

    (stroke (width 0) (type solid)) (fill solid) (layer "F.Paste") (tstamp b6859278-087c-468e-8c66-b70df3dda10b))
  (fp_line (start -3.049999 -2.049998) (end -2.875001 -2.049998)
    (stroke (width 0.15) (type solid)) (layer "F.SilkS") (tstamp 033f415c-70a0-41cc-99ff-d853ac4173c3))
  (fp_line (start -3.049999 -1.475001) (end -3.049999 -2.049998)
    (stroke (width 0.15) (type solid)) (layer "F.SilkS") (tstamp 3d346134-e935-4bb0-a90c-38fb3745b763))
  (fp_line (start -3.049999 2.050001) (end -3.049999 1.475001)
    (stroke (width 0.15) (type solid)) (layer "F.SilkS") (tstamp ed0ff18f-05ca-46fc-bf3f-a734407e2acb))
  (fp_line (start -3.049999 2.050001) (end -2.875001 2.050001)
    (stroke (width 0.15) (type solid)) (layer "F.SilkS") (tstamp e82f3ec5-df10-4c76-ade9-69550e0d214e))
  (fp_line (start 2.875001 -2.049998) (end 3.049999 -2.049998)
    (stroke (width 0.15) (type solid)) (layer "F.SilkS") (tstamp 106a7c07-329c-4149-aa5a-b2267e4f9636))
  (fp_line (start 2.875001 2.050001) (end 3.049999 2.050001)
    (stroke (width 0.15) (type solid)) (layer "F.SilkS") (tstamp 800d27a5-6963-4d50-94dc-6419e9ca9833))
  (fp_line (start 3.049999 -1.678) (end 3.049999 -2.049998)
    (stroke (width 0.15) (type solid)) (layer "F.SilkS") (tstamp 9f1dfcc8-e531-4347-80df-a2ef735b9d5a))
  (fp_line (start 3.049999 2.050001) (end 3.049999 1.678)
    (stroke (width 0.15) (type solid)) (layer "F.SilkS") (tstamp 7ab85c01-e906-46cf-a539-a04d42f6e2d4))
  (fp_circle (center -3.85 -0.994001) (end -3.724999 -0.994001)
    (stroke (width 0.25) (type solid)) (fill none) (layer "F.SilkS") (tstamp 768a1a68-9005-4876-8f06-f53b65ec04ab))
  (fp_rect (start -0.4 -1.75) (end 0 -1.65)
    (stroke (width 0.1) (type default)) (fill none) (layer "F.Mask") (tstamp 44ba74f1-252c-48d6-8447-254bb389a848))
  (fp_rect (start -0.4 -1.65) (end 0 -1.825)
    (stroke (width 0.1) (type default)) (fill none) (layer "F.Mask") (tstamp da3fb915-3ba3-4529-ad0d-5c8c57f210b7))
  (fp_poly
    (pts
      (xy -1.25 -1.65)
      (xy -0.75 -1.65)
      (xy -0.75 -1.825)
      (xy -1.25 -1.825)
    )

    (stroke (width 0.1) (type solid)) (fill solid) (layer "F.Mask") (tstamp da710e0f-25a1-48bd-8b68-c715897ddd05))
  (fp_poly
    (pts
      (xy 3.199 -0.1)
      (xy 2.599 -0.1)
      (xy 2.599 -1.253)
      (xy 3.199 -1.253)
      (xy 3.199 -1)
      (xy 2.874 -1)
      (xy 2.874 -0.75)
      (xy 3.199 -0.75)
      (xy 3.199 -0.55)
      (xy 2.874 -0.55)
      (xy 2.874 -0.3)
      (xy 3.199 -0.3)
    )

    (stroke (width 0) (type solid)) (fill solid) (layer "F.Mask") (tstamp bdf2645f-3032-49e1-b17a-0f1de83234ab))
  (fp_poly
    (pts
      (xy 3.2 0.1)
      (xy 2.6 0.1)
      (xy 2.6 1.253)
      (xy 3.2 1.253)
      (xy 3.2 1)
      (xy 2.875 1)
      (xy 2.875 0.75)
      (xy 3.2 0.75)
      (xy 3.2 0.55)
      (xy 2.875 0.55)
      (xy 2.875 0.3)
      (xy 3.2 0.3)
    )

    (stroke (width 0) (type solid)) (fill solid) (layer "F.Mask") (tstamp 3a80ee69-cae1-44db-a2ca-01f0588186b5))
  (fp_poly
    (pts
      (xy -2.7 2.4)
      (xy 2.7 2.4)
      (xy 2.7 2.275)
      (xy 3.25 2.275)
      (xy 3.25 1.453)
      (xy 3.4 1.453)
      (xy 3.4 -1.453)
      (xy 3.25 -1.453)
      (xy 3.25 -2.25)
      (xy 2.7 -2.25)
      (xy 2.7 -2.4)
      (xy -2.7 -2.4)
      (xy -2.7 -2.25)
      (xy -3.25 -2.25)
      (xy -3.25 -1.3)
      (xy -3.4 -1.3)
      (xy -3.4 1.3)
      (xy -3.275 1.3)
      (xy -3.275 2.25)
      (xy -2.7 2.25)
    )

    (stroke (width 0.05) (type solid)) (fill none) (layer "F.CrtYd") (tstamp 209de764-c817-40de-b177-a0d66b33ee1f))
  (fp_line (start -3.049999 -2.049998) (end 3.049999 -2.049998)
    (stroke (width 0.15) (type solid)) (layer "F.Fab") (tstamp 37d1f29b-f481-4b6b-9ddb-a76f3eb959ba))
  (fp_line (start -3.049999 2.050001) (end -3.049999 -2.049998)
    (stroke (width 0.15) (type solid)) (layer "F.Fab") (tstamp 9396ef87-acd3-4a77-b532-47b08a24d554))
  (fp_line (start -3.049999 2.050001) (end 3.049999 2.050001)
    (stroke (width 0.15) (type solid)) (layer "F.Fab") (tstamp a3973473-3b38-4a32-97f9-f2796164180e))
  (fp_line (start 3.049999 2.050001) (end 3.049999 -2.049998)
    (stroke (width 0.15) (type solid)) (layer "F.Fab") (tstamp e8b754b2-9377-48a2-a2d6-0b99642a1af1))
  (pad "1" smd roundrect (at -2.9 -1) (size 0.6 0.2) (layers "F.Cu" "F.Paste" "F.Mask") (roundrect_rratio 0.25)
    (thermal_bridge_angle 45) (tstamp ba7c4f9b-5152-46c9-96ef-aa703e5c8684))
  (pad "2" smd roundrect (at -2.9 -0.6) (size 0.6 0.2) (layers "F.Cu" "F.Paste" "F.Mask") (roundrect_rratio 0.25)
    (thermal_bridge_angle 45) (tstamp 39214b9d-a220-4a66-bd08-568d58534462))
  (pad "3" smd roundrect (at -2.9 -0.2) (size 0.6 0.2) (layers "F.Cu" "F.Paste" "F.Mask") (roundrect_rratio 0.25)
    (thermal_bridge_angle 45) (tstamp e0da9fe1-ab41-4b38-a9f4-8bee5adc6712))
  (pad "4" smd roundrect (at -2.9 0.2) (size 0.6 0.2) (layers "F.Cu" "F.Paste" "F.Mask") (roundrect_rratio 0.25)
    (thermal_bridge_angle 45) (tstamp 29ccca2e-1a47-4422-914f-67c5f7bf09a4))
  (pad "5" smd roundrect (at -2.9 0.6) (size 0.6 0.2) (layers "F.Cu" "F.Paste" "F.Mask") (roundrect_rratio 0.25)
    (thermal_bridge_angle 45) (tstamp ae507fcb-162a-4f9a-86bb-77b6541a9c3e))
  (pad "6" smd roundrect (at -2.9 1) (size 0.6 0.2) (layers "F.Cu" "F.Paste" "F.Mask") (roundrect_rratio 0.25)
    (thermal_bridge_angle 45) (tstamp 0df040ec-5d34-49c6-bcf2-753904aff119))
  (pad "7" smd roundrect (at -2.4 1.9 90) (size 0.6 0.2) (layers "F.Cu" "F.Paste" "F.Mask") (roundrect_rratio 0.25)
    (thermal_bridge_angle 45) (tstamp 41c9c25d-b944-48ac-b9fd-bb2925dbbc8d))
  (pad "8" smd roundrect (at -2 1.9 90) (size 0.6 0.2) (layers "F.Cu" "F.Paste" "F.Mask") (roundrect_rratio 0.25)
    (thermal_bridge_angle 45) (tstamp 2b7161c2-0ab5-4623-91b5-97e747e7b698))
  (pad "9" smd roundrect (at -1.6 1.9 90) (size 0.6 0.2) (layers "F.Cu" "F.Paste" "F.Mask") (roundrect_rratio 0.25)
    (thermal_bridge_angle 45) (tstamp 373b8fd9-9c1a-42ae-98b7-49037d0c3c5a))
  (pad "10" smd roundrect (at -1.2 1.9 90) (size 0.6 0.2) (layers "F.Cu" "F.Paste" "F.Mask") (roundrect_rratio 0.25)
    (thermal_bridge_angle 45) (tstamp dd02976b-a398-4689-a337-a6592af28de1))
  (pad "11" smd roundrect (at -0.8 1.9 90) (size 0.6 0.2) (layers "F.Cu" "F.Paste" "F.Mask") (roundrect_rratio 0.25)
    (thermal_bridge_angle 45) (tstamp ced75dc1-3df6-4e09-9c57-536356b62249))
  (pad "12" smd roundrect (at -0.4 1.9 90) (size 0.6 0.2) (layers "F.Cu" "F.Paste" "F.Mask") (roundrect_rratio 0.25)
    (thermal_bridge_angle 45) (tstamp 7066d921-355d-42af-96c7-1df1f88306f2))
  (pad "13" smd roundrect (at 0 1.9 90) (size 0.6 0.2) (layers "F.Cu" "F.Paste" "F.Mask") (roundrect_rratio 0.25)
    (thermal_bridge_angle 45) (tstamp 3f137ebc-b009-42f2-b373-06fbc9945a1c))
  (pad "14" smd roundrect (at 0.4 1.9 90) (size 0.6 0.2) (layers "F.Cu" "F.Paste" "F.Mask") (roundrect_rratio 0.25)
    (thermal_bridge_angle 45) (tstamp 1b01fc37-d0c6-4165-8ee9-0c62b0c67f48))
  (pad "15" smd roundrect (at 0.8 1.9 90) (size 0.6 0.2) (layers "F.Cu" "F.Paste" "F.Mask") (roundrect_rratio 0.25)
    (thermal_bridge_angle 45) (tstamp 33357042-8a36-4ee2-8d7d-8d105f0dc9d3))
  (pad "16" smd roundrect (at 1.2 1.9 90) (size 0.6 0.2) (layers "F.Cu" "F.Paste" "F.Mask") (roundrect_rratio 0.25)
    (thermal_bridge_angle 45) (tstamp 0e4179b4-3469-4108-bfcf-243ce6c79065))
  (pad "17" smd roundrect (at 1.6 1.9 90) (size 0.6 0.2) (layers "F.Cu" "F.Paste" "F.Mask") (roundrect_rratio 0.25)
    (thermal_bridge_angle 45) (tstamp 19a9d613-0804-4acd-b4e2-41fd9bbaea46))
  (pad "18" smd roundrect (at 2 1.9 90) (size 0.6 0.2) (layers "F.Cu" "F.Paste" "F.Mask") (roundrect_rratio 0.25)
    (thermal_bridge_angle 45) (tstamp 1d675e92-ee78-4db9-9665-29f570c91b08))
  (pad "19" smd roundrect (at 2.4 1.9 90) (size 0.6 0.2) (layers "F.Cu" "F.Paste" "F.Mask") (roundrect_rratio 0.25)
    (thermal_bridge_angle 45) (tstamp 9de9e687-1769-4c60-8923-ff8110768be4))
  (pad "20" smd rect (at 2.9 1.1 180) (size 0.6 0.1) (layers "F.Cu" "F.Paste" "F.Mask")
    (thermal_bridge_angle 45) (tstamp 8e34dbdb-6875-4fa5-94c4-6eca67322b7b))
  (pad "21" smd rect (at 2.9 0.65 180) (size 0.6 0.1) (layers "F.Cu" "F.Paste" "F.Mask")
    (thermal_bridge_angle 45) (tstamp 2707ca39-6b2a-4846-926e-64350e64ffd4))
  (pad "22" smd rect (at 2.9 0.2 180) (size 0.6 0.1) (layers "F.Cu" "F.Paste" "F.Mask")
    (thermal_bridge_angle 45) (tstamp 9d61598b-f57b-41a8-a527-fef0ea33a1b0))
  (pad "23" smd rect (at 2.9 -0.2 180) (size 0.6 0.1) (layers "F.Cu" "F.Paste" "F.Mask")
    (thermal_bridge_angle 45) (tstamp e9148e59-7cc3-447f-ac62-e1b7c57843e0))
  (pad "24" smd rect (at 2.9 -0.65 180) (size 0.6 0.1) (layers "F.Cu" "F.Paste" "F.Mask")
    (thermal_bridge_angle 45) (tstamp 55b6916a-3b15-4f9c-a8b5-fca61bfb668b))
  (pad "25" smd rect (at 2.9 -1.1 180) (size 0.6 0.1) (layers "F.Cu" "F.Paste" "F.Mask")
    (thermal_bridge_angle 45) (tstamp 686ff0b3-4056-4439-be5c-624f8f9fe77d))
  (pad "26" smd roundrect (at 2.4 -1.9 270) (size 0.6 0.2) (layers "F.Cu" "F.Paste" "F.Mask") (roundrect_rratio 0.25)
    (thermal_bridge_angle 45) (tstamp b786461e-65f3-44b4-b965-9dc615aadbf5))
  (pad "27" smd roundrect (at 2 -1.9 270) (size 0.6 0.2) (layers "F.Cu" "F.Paste" "F.Mask") (roundrect_rratio 0.25)
    (thermal_bridge_angle 45) (tstamp 4adee0fc-5cac-44bb-9590-c98fd275189e))
  (pad "28" smd roundrect (at 1.6 -1.9 270) (size 0.6 0.2) (layers "F.Cu" "F.Paste" "F.Mask") (roundrect_rratio 0.25)
    (thermal_bridge_angle 45) (tstamp b55f7942-4d3c-4b0b-94a3-e2f48606a77b))
  (pad "29" smd roundrect (at 1.2 -1.9 270) (size 0.6 0.2) (layers "F.Cu" "F.Paste" "F.Mask") (roundrect_rratio 0.25)
    (thermal_bridge_angle 45) (tstamp fd5677e5-803a-4a33-b576-69c2332a9f21))
  (pad "30" smd roundrect (at 0.8 -1.9 270) (size 0.6 0.2) (layers "F.Cu" "F.Paste" "F.Mask") (roundrect_rratio 0.25)
    (thermal_bridge_angle 45) (tstamp 0d4f7bd8-15c0-499d-a82c-edcb19327374))
  (pad "31" smd roundrect (at 0.4 -1.9 270) (size 0.6 0.2) (layers "F.Cu" "F.Paste" "F.Mask") (roundrect_rratio 0.25)
    (thermal_bridge_angle 45) (tstamp 328965ce-7bad-4a40-b820-7cf428381b7a))
  (pad "32" smd roundrect (at 0 -1.9 270) (size 0.6 0.2) (layers "F.Cu" "F.Paste" "F.Mask") (roundrect_rratio 0.25)
    (thermal_bridge_angle 45) (tstamp ef9c6739-81fb-4eb8-907d-9faf6f482ee9))
  (pad "33" smd roundrect (at -0.4 -1.9 270) (size 0.6 0.2) (layers "F.Cu" "F.Paste" "F.Mask") (roundrect_rratio 0.25)
    (thermal_bridge_angle 45) (tstamp 9ce507fa-6763-4c0a-9385-e09adce0cbf3))
  (pad "34" smd roundrect (at -0.8 -1.9 270) (size 0.6 0.2) (layers "F.Cu" "F.Paste" "F.Mask") (roundrect_rratio 0.25)
    (thermal_bridge_angle 45) (tstamp cdcc7b11-0977-42c9-82a8-c4330da86da3))
  (pad "35" smd roundrect (at -1.2 -1.9 270) (size 0.6 0.2) (layers "F.Cu" "F.Paste" "F.Mask") (roundrect_rratio 0.25)
    (thermal_bridge_angle 45) (tstamp e6b1dafe-b5a4-4d46-8d03-7159312459cd))
  (pad "36" smd roundrect (at -1.6 -1.9 270) (size 0.6 0.2) (layers "F.Cu" "F.Paste" "F.Mask") (roundrect_rratio 0.25)
    (thermal_bridge_angle 45) (tstamp c0f2c4bd-bbc7-496a-8f7e-aaa054fac3ee))
  (pad "37" smd roundrect (at -2 -1.9 270) (size 0.6 0.2) (layers "F.Cu" "F.Paste" "F.Mask") (roundrect_rratio 0.25)
    (thermal_bridge_angle 45) (tstamp 90ec8604-d6a7-4acc-aca3-6f517b7eb979))
  (pad "38" smd roundrect (at -2.4 -1.9 270) (size 0.6 0.2) (layers "F.Cu" "F.Paste" "F.Mask") (roundrect_rratio 0.25)
    (thermal_bridge_angle 45) (tstamp 7ce43468-c23c-480b-9dde-e72726ec0bc6))
  (pad "39" thru_hole circle (at -2.075 0 270) (size 0.4 0.4) (drill 0.2) (layers "*.Cu" "*.Mask") (tstamp 4e8fd542-ae9b-451b-b726-4d3e83f69424))
  (pad "39" thru_hole circle (at -0.965 -1.075 270) (size 0.4 0.4) (drill 0.2) (layers "*.Cu" "*.Mask") (tstamp 13d41c59-cb55-41a1-874c-8f2a331df45e))
  (pad "39" thru_hole circle (at -0.965 0 270) (size 0.4 0.4) (drill 0.2) (layers "*.Cu" "*.Mask") (tstamp c93ab656-d51d-4f2a-b0af-13fcff476209))
  (pad "39" smd rect (at -0.965 0 270) (size 2.65 2.72) (layers "F.Cu" "F.Paste" "F.Mask")
    (thermal_bridge_angle 45) (tstamp 39d94b05-02c9-446f-b4b3-64914e09322f))
  (pad "39" thru_hole circle (at -0.965 1.075 270) (size 0.4 0.4) (drill 0.2) (layers "*.Cu" "*.Mask") (tstamp bae0e564-fc81-4c64-afd1-dbd5ad2d09ff))
  (pad "39" thru_hole circle (at 0.145 0 270) (size 0.4 0.4) (drill 0.2) (layers "*.Cu" "*.Mask") (tstamp 5ffe1b34-0e30-492b-a9c3-e15c2682b648))
  (pad "40" thru_hole circle (at 1.56 -1.075 270) (size 0.4 0.4) (drill 0.2) (layers "*.Cu" "*.Mask") (tstamp 1889f26d-e1e4-4ed2-9fb0-f933d5439ea6))
  (pad "40" thru_hole circle (at 1.56 0 270) (size 0.4 0.4) (drill 0.2) (layers "*.Cu" "*.Mask") (tstamp ce679f64-43d3-4a56-b023-dcd6f0ae2d1d))
  (pad "40" smd rect (at 1.56 0 270) (size 2.65 1.53) (layers "F.Cu" "F.Paste" "F.Mask")
    (thermal_bridge_angle 45) (tstamp ed249a6b-2a84-4a34-a413-c2e7d2c5934a))
  (pad "40" thru_hole circle (at 1.56 1.075 270) (size 0.4 0.4) (drill 0.2) (layers "*.Cu" "*.Mask") (tstamp 20420fb0-e2db-4f07-a26f-8ebe2f8201f6))
  (model "D:/Users/Enforcer83/Documents/Repos/Library/KiCAD/3D Models/IPC_MFG.3dshapes/TI_RJK0038B-C01.stp"
    (offset (xyz 0 0 0))
    (scale (xyz 1 1 1))
    (rotate (xyz 0 0 0))
  )
)
