(footprint "TI_RNW0013A"
	(version 20240108)
	(generator "pcbnew")
	(generator_version "8.0")
	(layer "F.Cu")
	(property "Reference" "REF**"
		(at 0 -0.5 0)
		(unlocked yes)
		(layer "F.SilkS")
		(uuid "80860651-062d-49fb-8bf7-9d02f4e2945c")
		(effects
			(font
				(size 1 1)
				(thickness 0.1)
			)
		)
	)
	(property "Value" "TI_RNW0013A"
		(at 0 1 0)
		(unlocked yes)
		(layer "F.Fab")
		(uuid "f125c0c6-f893-4722-b42f-d57789717c40")
		(effects
			(font
				(size 1 1)
				(thickness 0.15)
			)
		)
	)
	(property "Footprint" ""
		(at 0 0 0)
		(unlocked yes)
		(layer "F.Fab")
		(hide yes)
		(uuid "1cba20ce-88ca-4985-a457-29672ce45d8a")
		(effects
			(font
				(size 1 1)
				(thickness 0.15)
			)
		)
	)
	(property "Datasheet" ""
		(at 0 0 0)
		(unlocked yes)
		(layer "F.Fab")
		(hide yes)
		(uuid "60b49f65-bac5-4579-84f1-d069980bf8bb")
		(effects
			(font
				(size 1 1)
				(thickness 0.15)
			)
		)
	)
	(property "Description" ""
		(at 0 0 0)
		(unlocked yes)
		(layer "F.Fab")
		(hide yes)
		(uuid "03e6a9fe-6c80-4b27-865f-4abb74873aa2")
		(effects
			(font
				(size 1 1)
				(thickness 0.15)
			)
		)
	)
	(attr smd)
	(fp_line
		(start -1.75 -1.5)
		(end -1.75 -1.25)
		(stroke
			(width 0.1)
			(type default)
		)
		(layer "F.SilkS")
		(uuid "00a8b538-0e2c-4287-bbad-0c8ef3406256")
	)
	(fp_line
		(start -1.75 1.5)
		(end -1.75 1.25)
		(stroke
			(width 0.1)
			(type default)
		)
		(layer "F.SilkS")
		(uuid "5486db21-689b-46c0-a81f-9c1d4b067f40")
	)
	(fp_line
		(start -0.8 -1.5)
		(end -1.75 -1.5)
		(stroke
			(width 0.1)
			(type default)
		)
		(layer "F.SilkS")
		(uuid "fa755e9a-6e8f-48fe-b968-a2ca2dd4f464")
	)
	(fp_line
		(start -0.8 1.5)
		(end -1.75 1.5)
		(stroke
			(width 0.1)
			(type default)
		)
		(layer "F.SilkS")
		(uuid "d9f72bc7-2dc0-4450-8d56-796f624b9d7f")
	)
	(fp_line
		(start 0.8 -1.5)
		(end 1.75 -1.5)
		(stroke
			(width 0.1)
			(type default)
		)
		(layer "F.SilkS")
		(uuid "147aa034-3623-477e-a23b-82f433c9dc1d")
	)
	(fp_line
		(start 0.8 1.5)
		(end 1.75 1.5)
		(stroke
			(width 0.1)
			(type default)
		)
		(layer "F.SilkS")
		(uuid "c67a851e-f4be-4b9e-8205-c14b776b4595")
	)
	(fp_line
		(start 1.75 -1.5)
		(end 1.75 -1.25)
		(stroke
			(width 0.1)
			(type default)
		)
		(layer "F.SilkS")
		(uuid "d72e2b45-3ec8-4586-b84b-192c13890fcc")
	)
	(fp_line
		(start 1.75 1.5)
		(end 1.75 1.25)
		(stroke
			(width 0.1)
			(type default)
		)
		(layer "F.SilkS")
		(uuid "984c2a4d-cd0b-49d8-8c3c-6da9a22f0e7e")
	)
	(fp_line
		(start -2.2 -1.375)
		(end -2.2 1.35)
		(stroke
			(width 0.05)
			(type default)
		)
		(layer "F.CrtYd")
		(uuid "48d944e2-d226-4327-ae4f-4dac542e1217")
	)
	(fp_line
		(start -2.2 1.35)
		(end -2 1.35)
		(stroke
			(width 0.05)
			(type default)
		)
		(layer "F.CrtYd")
		(uuid "391913a7-7879-406e-88d3-5a09b8ac7c2c")
	)
	(fp_line
		(start -2 -1.75)
		(end -2 -1.375)
		(stroke
			(width 0.05)
			(type default)
		)
		(layer "F.CrtYd")
		(uuid "c70d206b-e046-46b6-bb01-3b49e9c77e0e")
	)
	(fp_line
		(start -2 -1.75)
		(end -0.925 -1.75)
		(stroke
			(width 0.05)
			(type default)
		)
		(layer "F.CrtYd")
		(uuid "4748b5fc-c930-4225-adb2-c383f015f3ab")
	)
	(fp_line
		(start -2 -1.375)
		(end -2.2 -1.375)
		(stroke
			(width 0.05)
			(type default)
		)
		(layer "F.CrtYd")
		(uuid "1f0ec921-ff30-4886-ae09-01320ec9e958")
	)
	(fp_line
		(start -2 1.35)
		(end -2 1.725)
		(stroke
			(width 0.05)
			(type default)
		)
		(layer "F.CrtYd")
		(uuid "2559ed05-ab9f-466c-89bd-854ce62ad6f0")
	)
	(fp_line
		(start -2 1.725)
		(end -0.925 1.725)
		(stroke
			(width 0.05)
			(type default)
		)
		(layer "F.CrtYd")
		(uuid "8393fa0e-3fab-4c45-b331-fc9460ae01af")
	)
	(fp_line
		(start -0.925 -1.975)
		(end -0.925 -1.75)
		(stroke
			(width 0.05)
			(type default)
		)
		(layer "F.CrtYd")
		(uuid "e9570a90-c1aa-4a2e-848a-c919aea59a16")
	)
	(fp_line
		(start -0.925 -1.975)
		(end 0.925 -1.975)
		(stroke
			(width 0.05)
			(type default)
		)
		(layer "F.CrtYd")
		(uuid "56056323-6c28-4bed-990a-c08978e66fa3")
	)
	(fp_line
		(start -0.925 1.725)
		(end -0.925 1.95)
		(stroke
			(width 0.05)
			(type default)
		)
		(layer "F.CrtYd")
		(uuid "998f8621-345c-4da8-8b41-2780d74769f4")
	)
	(fp_line
		(start -0.925 1.95)
		(end 0.925 1.95)
		(stroke
			(width 0.05)
			(type default)
		)
		(layer "F.CrtYd")
		(uuid "14f93ce1-0b29-476f-a70f-64928c359e44")
	)
	(fp_line
		(start 0.925 -1.975)
		(end 0.925 -1.75)
		(stroke
			(width 0.05)
			(type default)
		)
		(layer "F.CrtYd")
		(uuid "469b6a22-454a-420a-b37b-16ca1e466dbf")
	)
	(fp_line
		(start 0.925 -1.75)
		(end 2 -1.75)
		(stroke
			(width 0.05)
			(type default)
		)
		(layer "F.CrtYd")
		(uuid "75da2db0-2093-4be1-ae56-12b1e6650c5e")
	)
	(fp_line
		(start 0.925 1.725)
		(end 2 1.725)
		(stroke
			(width 0.05)
			(type default)
		)
		(layer "F.CrtYd")
		(uuid "951337e4-97ef-4bf3-be79-3a3f8f029d81")
	)
	(fp_line
		(start 0.925 1.95)
		(end 0.925 1.725)
		(stroke
			(width 0.05)
			(type default)
		)
		(layer "F.CrtYd")
		(uuid "78a630a1-9b8e-49b6-ae32-b36e50d283c9")
	)
	(fp_line
		(start 2 -1.75)
		(end 2 -1.375)
		(stroke
			(width 0.05)
			(type default)
		)
		(layer "F.CrtYd")
		(uuid "7d987eae-8df4-41e4-8b57-7c89bdb56421")
	)
	(fp_line
		(start 2 -1.375)
		(end 2.2 -1.375)
		(stroke
			(width 0.05)
			(type default)
		)
		(layer "F.CrtYd")
		(uuid "8f8e9df7-8f12-44e1-9028-4412dfe7b55f")
	)
	(fp_line
		(start 2 1.35)
		(end 2 1.725)
		(stroke
			(width 0.05)
			(type default)
		)
		(layer "F.CrtYd")
		(uuid "23a16d9f-d3ef-4250-b452-546cf89d2875")
	)
	(fp_line
		(start 2 1.35)
		(end 2.2 1.35)
		(stroke
			(width 0.05)
			(type default)
		)
		(layer "F.CrtYd")
		(uuid "63d7d0c2-a5a4-4684-a557-9eca7a2c9eaf")
	)
	(fp_line
		(start 2.2 -1.375)
		(end 2.2 1.35)
		(stroke
			(width 0.05)
			(type default)
		)
		(layer "F.CrtYd")
		(uuid "63b30b26-3d0a-45a5-8d99-b432311aebf3")
	)
	(fp_rect
		(start -1.775 -1.525)
		(end 1.775 1.525)
		(stroke
			(width 0.1)
			(type default)
		)
		(fill none)
		(layer "F.Fab")
		(uuid "5065970a-98d0-4c95-b9a0-505063f0d857")
	)
	(fp_text user "${REFERENCE}"
		(at 0 2.5 0)
		(unlocked yes)
		(layer "F.Fab")
		(uuid "f13ed710-1c8c-437e-a785-9cd18834a451")
		(effects
			(font
				(size 1 1)
				(thickness 0.15)
			)
		)
	)
	(pad "1" smd roundrect
		(at -1.6 -1)
		(size 0.7 0.25)
		(layers "F.Cu" "F.Paste" "F.Mask")
		(roundrect_rratio 0.25)
		(uuid "00861a15-72c6-40c3-8452-ff2968c85cdf")
	)
	(pad "2" smd roundrect
		(at -1.6 -0.5)
		(size 0.7 0.25)
		(layers "F.Cu" "F.Paste" "F.Mask")
		(roundrect_rratio 0.25)
		(uuid "e0db11ce-ba4b-4cf0-8417-48258e193185")
	)
	(pad "3" smd roundrect
		(at -1.6 0)
		(size 0.7 0.25)
		(layers "F.Cu" "F.Paste" "F.Mask")
		(roundrect_rratio 0.25)
		(uuid "c5ca35c7-daac-4266-b172-f5518d87ed9b")
	)
	(pad "4" smd roundrect
		(at -1.6 0.5)
		(size 0.7 0.25)
		(layers "F.Cu" "F.Paste" "F.Mask")
		(roundrect_rratio 0.25)
		(uuid "9e5e7c6c-dd0b-4352-8925-a0785183ab3b")
	)
	(pad "5" smd roundrect
		(at -1.6 1)
		(size 0.7 0.25)
		(layers "F.Cu" "F.Paste" "F.Mask")
		(roundrect_rratio 0.25)
		(uuid "b5b272fb-303b-40c1-87b7-16e36754f2b5")
	)
	(pad "6" smd roundrect
		(at -0.55 0)
		(size 0.35 3.5)
		(layers "F.Cu" "F.Paste" "F.Mask")
		(roundrect_rratio 0.25)
		(uuid "81b79a87-47e2-43e7-ac7a-3b09704a0500")
	)
	(pad "7" smd roundrect
		(at 0 0)
		(size 0.35 3.5)
		(layers "F.Cu" "F.Paste" "F.Mask")
		(roundrect_rratio 0.25)
		(uuid "184c340f-5479-4296-8d98-e5d5a88c515c")
	)
	(pad "8" smd roundrect
		(at 0.55 0)
		(size 0.35 3.5)
		(layers "F.Cu" "F.Paste" "F.Mask")
		(roundrect_rratio 0.25)
		(uuid "9ee8ceb2-336a-44ff-9140-12e691252aae")
	)
	(pad "9" smd roundrect
		(at 1.6 1)
		(size 0.7 0.25)
		(layers "F.Cu" "F.Paste" "F.Mask")
		(roundrect_rratio 0.25)
		(uuid "01801c9f-d0f1-4740-96ca-dcd6d529c383")
	)
	(pad "10" smd roundrect
		(at 1.6 0.5)
		(size 0.7 0.25)
		(layers "F.Cu" "F.Paste" "F.Mask")
		(roundrect_rratio 0.25)
		(uuid "a8486f53-e17f-4bd1-9b3c-d02e801f0f9c")
	)
	(pad "11" smd roundrect
		(at 1.6 0)
		(size 0.7 0.25)
		(layers "F.Cu" "F.Paste" "F.Mask")
		(roundrect_rratio 0.25)
		(uuid "369e9056-0b68-46a6-85be-9a137d9b1cbd")
	)
	(pad "12" smd roundrect
		(at 1.6 -0.5)
		(size 0.7 0.25)
		(layers "F.Cu" "F.Paste" "F.Mask")
		(roundrect_rratio 0.25)
		(uuid "aba03f43-9546-4f6c-bd47-0a387118fac3")
	)
	(pad "13" smd roundrect
		(at 1.6 -1)
		(size 0.7 0.25)
		(layers "F.Cu" "F.Paste" "F.Mask")
		(roundrect_rratio 0.25)
		(uuid "692c11e3-d765-493c-a02e-c188db66b9c8")
	)
)
