(footprint "QFN21P50_400X400X100L55X24T210N" (version 20221018) (generator pcbnew)
  (layer "F.Cu")
  (descr "Quad Flat No-Lead (QFN with Tab), 0.50 mm pitch; square, 5 pin X 5 pin, 4.00 mm L X 4.00 mm W X 1.00 mm H body")
  (attr smd)
  (fp_text reference "REF**" (at 0 0) (layer "F.SilkS")
      (effects (font (size 1.2 1.2) (thickness 0.12)))
    (tstamp 0c67c74b-1321-4f1e-b5c4-23d8d8f2fd95)
  )
  (fp_text value "Val**" (at 0 0) (layer "F.SilkS")
      (effects (font (size 1.524 1.524) (thickness 0.15)))
    (tstamp bfcf8205-fde6-4c77-bd4f-33ab3a48d9e5)
  )
  (fp_line (start -2.05 -2.05) (end -2.05 -1.31)
    (stroke (width 0.12) (type solid)) (layer "F.SilkS") (tstamp 8bf52afa-b192-4336-a570-c47013202f60))
  (fp_line (start -2.05 2.05) (end -2.05 1.31)
    (stroke (width 0.12) (type solid)) (layer "F.SilkS") (tstamp d5e4785f-968c-4547-b0ba-a44475b93d7b))
  (fp_line (start -1.31 -2.05) (end -2.05 -2.05)
    (stroke (width 0.12) (type solid)) (layer "F.SilkS") (tstamp f18442fb-63fa-4c71-b068-de351287184a))
  (fp_line (start -1.31 2.05) (end -2.05 2.05)
    (stroke (width 0.12) (type solid)) (layer "F.SilkS") (tstamp 3df6f62e-a1c0-440e-a6e2-8267406f2e50))
  (fp_line (start 1.31 -2.05) (end 2.05 -2.05)
    (stroke (width 0.12) (type solid)) (layer "F.SilkS") (tstamp d2be1d01-47f7-4c3b-9e7a-cd15f96b041e))
  (fp_line (start 1.31 2.05) (end 2.05 2.05)
    (stroke (width 0.12) (type solid)) (layer "F.SilkS") (tstamp 589df6e4-d7ec-4882-9e29-ddd3393966d2))
  (fp_line (start 2.05 -2.05) (end 2.05 -1.31)
    (stroke (width 0.12) (type solid)) (layer "F.SilkS") (tstamp 34920eed-95be-46fe-b258-a1d1e016fde3))
  (fp_line (start 2.05 2.05) (end 2.05 1.31)
    (stroke (width 0.12) (type solid)) (layer "F.SilkS") (tstamp a345110d-976f-40f1-87a1-a2dedfe2e4c5))
  (fp_circle (center -1 2.8) (end -0.95 2.8)
    (stroke (width 0.1) (type default)) (fill none) (layer "F.SilkS") (tstamp 3b0e4190-64bf-4722-b5cb-0ed522ddafec))
  (fp_circle (center -1 2.8) (end -0.9 2.8)
    (stroke (width 0.1) (type default)) (fill none) (layer "F.SilkS") (tstamp 954099ac-5ff5-497e-8a3c-9bceb3da29d8))
  (fp_line (start -2.465 -1.33) (end -2.465 1.33)
    (stroke (width 0.05) (type solid)) (layer "F.CrtYd") (tstamp 481a187a-f280-4697-bef7-e784dc216380))
  (fp_line (start -2.465 1.33) (end -2.25 1.33)
    (stroke (width 0.05) (type solid)) (layer "F.CrtYd") (tstamp b7daf610-cc88-489a-acfa-96973608788e))
  (fp_line (start -2.25 -2.25) (end -2.25 -1.33)
    (stroke (width 0.05) (type solid)) (layer "F.CrtYd") (tstamp 16859d74-a11b-412d-bfe9-29a87b6c3f59))
  (fp_line (start -2.25 -1.33) (end -2.465 -1.33)
    (stroke (width 0.05) (type solid)) (layer "F.CrtYd") (tstamp d4ab89d1-52ff-46f8-a7ef-c9494cbf9ac8))
  (fp_line (start -2.25 1.33) (end -2.25 2.25)
    (stroke (width 0.05) (type solid)) (layer "F.CrtYd") (tstamp 64457226-6cc6-4915-86aa-29227582308a))
  (fp_line (start -2.25 2.25) (end -1.33 2.25)
    (stroke (width 0.05) (type solid)) (layer "F.CrtYd") (tstamp 4f458ef5-8e74-45aa-ae0a-2c4a9945d5fc))
  (fp_line (start -1.33 -2.465) (end -1.33 -2.25)
    (stroke (width 0.05) (type solid)) (layer "F.CrtYd") (tstamp 7c85f9f2-fc58-4c37-a75a-e5f277f1fc1f))
  (fp_line (start -1.33 -2.25) (end -2.25 -2.25)
    (stroke (width 0.05) (type solid)) (layer "F.CrtYd") (tstamp e6d7514a-8867-41f5-a5c5-2e21bdb80feb))
  (fp_line (start -1.33 2.25) (end -1.33 2.465)
    (stroke (width 0.05) (type solid)) (layer "F.CrtYd") (tstamp d0a8952c-6dfa-492b-b694-6eb2a6ce58eb))
  (fp_line (start -1.33 2.465) (end 1.33 2.465)
    (stroke (width 0.05) (type solid)) (layer "F.CrtYd") (tstamp 01f755f5-d8ce-4ea4-bd05-9600fc34ea09))
  (fp_line (start -0.35 0) (end 0.35 0)
    (stroke (width 0.05) (type solid)) (layer "F.CrtYd") (tstamp 9918469f-7e2a-4e06-b52f-7e63be4b4de9))
  (fp_line (start 0 -0.35) (end 0 0.35)
    (stroke (width 0.05) (type solid)) (layer "F.CrtYd") (tstamp 3d8435a8-bafc-4f09-8dff-82020f9733d3))
  (fp_line (start 1.33 -2.465) (end -1.33 -2.465)
    (stroke (width 0.05) (type solid)) (layer "F.CrtYd") (tstamp 3bea69e0-f5ea-47dc-b9a9-80ff181fc480))
  (fp_line (start 1.33 -2.25) (end 1.33 -2.465)
    (stroke (width 0.05) (type solid)) (layer "F.CrtYd") (tstamp 4f6528ee-e293-4656-be6e-838e382a9752))
  (fp_line (start 1.33 2.25) (end 2.25 2.25)
    (stroke (width 0.05) (type solid)) (layer "F.CrtYd") (tstamp dd41cb87-db41-47b6-a9e2-876b473bb6b7))
  (fp_line (start 1.33 2.465) (end 1.33 2.25)
    (stroke (width 0.05) (type solid)) (layer "F.CrtYd") (tstamp 82282356-ce8b-48dd-ae1d-b01de422846b))
  (fp_line (start 2.25 -2.25) (end 1.33 -2.25)
    (stroke (width 0.05) (type solid)) (layer "F.CrtYd") (tstamp fc93842b-6ec8-466b-b6b3-8201920ffa7a))
  (fp_line (start 2.25 -1.33) (end 2.25 -2.25)
    (stroke (width 0.05) (type solid)) (layer "F.CrtYd") (tstamp 2e029d77-81f2-420d-883e-e1883e6a29fd))
  (fp_line (start 2.25 1.33) (end 2.465 1.33)
    (stroke (width 0.05) (type solid)) (layer "F.CrtYd") (tstamp e8d29595-131b-4723-a6ea-801526d30606))
  (fp_line (start 2.25 2.25) (end 2.25 1.33)
    (stroke (width 0.05) (type solid)) (layer "F.CrtYd") (tstamp 4066d651-9609-4d77-89ed-3921b921ef29))
  (fp_line (start 2.465 -1.33) (end 2.25 -1.33)
    (stroke (width 0.05) (type solid)) (layer "F.CrtYd") (tstamp d743c888-9340-47b9-adeb-b670681c5e83))
  (fp_line (start 2.465 1.33) (end 2.465 -1.33)
    (stroke (width 0.05) (type solid)) (layer "F.CrtYd") (tstamp af01dd0e-b259-4c84-b1af-cf26df8c3f92))
  (fp_circle (center 0 0) (end 0 0.25)
    (stroke (width 0.05) (type solid)) (fill none) (layer "F.CrtYd") (tstamp b3e86b66-e594-4058-960e-f10ce14697bb))
  (fp_line (start -2.05 -2.05) (end 2.05 -2.05)
    (stroke (width 0.12) (type solid)) (layer "F.Fab") (tstamp 00dbe6f5-4e46-4152-86d4-673302deb8ee))
  (fp_line (start -2.05 2.05) (end -2.05 -2.05)
    (stroke (width 0.12) (type solid)) (layer "F.Fab") (tstamp 84067a9e-141d-4187-aca7-0aecb91c2b40))
  (fp_line (start 2.05 -2.05) (end 2.05 2.05)
    (stroke (width 0.12) (type solid)) (layer "F.Fab") (tstamp 1c8795e8-2414-4ed9-9397-e14e13ac7bac))
  (fp_line (start 2.05 2.05) (end -2.05 2.05)
    (stroke (width 0.12) (type solid)) (layer "F.Fab") (tstamp 3d36ace7-3644-456b-a91d-ca932741d4d6))
  (pad "1" smd rect (at -1 1.78 90) (size 0.97 0.26) (layers "F.Cu" "F.Paste" "F.Mask") (tstamp 5dd247b5-3a07-4d50-9c05-f16588d05deb))
  (pad "2" smd rect (at -0.5 1.78 90) (size 0.97 0.26) (layers "F.Cu" "F.Paste" "F.Mask") (tstamp 87d85639-9dd4-4ed4-9ca1-a27386088e26))
  (pad "3" smd rect (at 0 1.78 90) (size 0.97 0.26) (layers "F.Cu" "F.Paste" "F.Mask") (tstamp 5f847d44-03e5-432e-be28-b4388feea7fe))
  (pad "4" smd rect (at 0.5 1.78 90) (size 0.97 0.26) (layers "F.Cu" "F.Paste" "F.Mask") (tstamp 95449b54-3f44-4e92-8409-a1b31dccf66c))
  (pad "5" smd rect (at 1 1.78 90) (size 0.97 0.26) (layers "F.Cu" "F.Paste" "F.Mask") (tstamp 83e3af82-3310-42a4-8e6a-754d9314afe4))
  (pad "6" smd rect (at 1.78 1) (size 0.97 0.26) (layers "F.Cu" "F.Paste" "F.Mask") (tstamp 016e687e-1166-414a-b8e1-7b514c445dd3))
  (pad "7" smd rect (at 1.78 0.5) (size 0.97 0.26) (layers "F.Cu" "F.Paste" "F.Mask") (tstamp 140c7453-49fe-4e96-8894-dbed4ec45375))
  (pad "8" smd rect (at 1.78 0) (size 0.97 0.26) (layers "F.Cu" "F.Paste" "F.Mask") (tstamp 85aece71-4b29-4cb2-b693-fc6a4ab2e9ec))
  (pad "9" smd rect (at 1.78 -0.5) (size 0.97 0.26) (layers "F.Cu" "F.Paste" "F.Mask") (tstamp 41b0b629-8ad6-4afa-be7c-e30ee17af367))
  (pad "10" smd rect (at 1.78 -1) (size 0.97 0.26) (layers "F.Cu" "F.Paste" "F.Mask") (tstamp 6fce0eb1-1e2a-40cd-a8a4-357b0244bc60))
  (pad "11" smd rect (at 1 -1.78 90) (size 0.97 0.26) (layers "F.Cu" "F.Paste" "F.Mask") (tstamp 543b8be9-d3dc-45ed-a15c-c94a57cf60c9))
  (pad "12" smd rect (at 0.5 -1.78 90) (size 0.97 0.26) (layers "F.Cu" "F.Paste" "F.Mask") (tstamp 87645386-a14d-43cc-8504-1ec7d67c6d9c))
  (pad "13" smd rect (at 0 -1.78 90) (size 0.97 0.26) (layers "F.Cu" "F.Paste" "F.Mask") (tstamp c843d809-5266-440c-880c-bf5ee2c06d0e))
  (pad "14" smd rect (at -0.5 -1.78 90) (size 0.97 0.26) (layers "F.Cu" "F.Paste" "F.Mask") (tstamp d17dca9b-8ff2-486b-916a-d0ed24885552))
  (pad "15" smd rect (at -1 -1.78 90) (size 0.97 0.26) (layers "F.Cu" "F.Paste" "F.Mask") (tstamp 00f27ad4-0940-4e43-9be0-065370c56624))
  (pad "16" smd rect (at -1.78 -1) (size 0.97 0.26) (layers "F.Cu" "F.Paste" "F.Mask") (tstamp 4e5b66e5-b1d4-48d4-aa3d-52bd0c614f57))
  (pad "17" smd rect (at -1.78 -0.5) (size 0.97 0.26) (layers "F.Cu" "F.Paste" "F.Mask") (tstamp 5bdd3ee4-c766-4ead-9c27-381089f2f52d))
  (pad "18" smd rect (at -1.78 0) (size 0.97 0.26) (layers "F.Cu" "F.Paste" "F.Mask") (tstamp e3a024eb-2d68-4237-8fcd-df09ee89f8e5))
  (pad "19" smd rect (at -1.78 0.5) (size 0.97 0.26) (layers "F.Cu" "F.Paste" "F.Mask") (tstamp 042f75dc-e1f4-4960-b510-60065edf6774))
  (pad "20" smd rect (at -1.78 1) (size 0.97 0.26) (layers "F.Cu" "F.Paste" "F.Mask") (tstamp f95a73c7-a57d-4900-989a-4677347f7dd0))
  (pad "21" smd rect (at -0.475 -0.475) (size 1.05 1.05) (layers "F.Cu" "F.Paste" "F.Mask")
    (solder_paste_margin_ratio -0.3) (tstamp 19cb8733-b725-4e42-aa9c-1333b7e0a026))
  (pad "21" smd rect (at -0.475 0.475) (size 1.05 1.05) (layers "F.Cu" "F.Paste" "F.Mask")
    (solder_paste_margin_ratio -0.3) (tstamp 451f550f-7e30-454d-ad21-fda5b90f1817))
  (pad "21" smd rect (at 0.475 -0.475) (size 1.05 1.05) (layers "F.Cu" "F.Paste" "F.Mask")
    (solder_paste_margin_ratio -0.3) (tstamp ba766dd9-348c-4b2f-a422-605a0ebf4b41))
  (pad "21" smd rect (at 0.475 0.475) (size 1.05 1.05) (layers "F.Cu" "F.Paste" "F.Mask")
    (solder_paste_margin_ratio -0.3) (tstamp d65ee26c-3c0f-4557-8473-dcc6a2fac2d2))
)
