(footprint "QFN33P40_400X400X100L45X20T280X280N"
	(version 20240108)
	(generator "pcbnew")
	(generator_version "8.0")
	(layer "F.Cu")
	(property "Reference" "REF**"
		(at 0 -1.2 0)
		(unlocked yes)
		(layer "F.SilkS")
		(uuid "7c800116-f987-4627-b774-28d03908f316")
		(effects
			(font
				(size 1 1)
				(thickness 0.1)
			)
		)
	)
	(property "Value" "QFN33P40_400X400X100L45X20T280X280N"
		(at 0 0 0)
		(unlocked yes)
		(layer "F.Fab")
		(uuid "6ff299cc-3e56-4216-b41c-048130782e8b")
		(effects
			(font
				(size 1 1)
				(thickness 0.15)
			)
		)
	)
	(property "Footprint" ""
		(at 0 0 0)
		(unlocked yes)
		(layer "F.Fab")
		(hide yes)
		(uuid "0b4978fb-b17f-44bb-a9c8-5d02485cd98d")
		(effects
			(font
				(size 1 1)
				(thickness 0.15)
			)
		)
	)
	(property "Datasheet" ""
		(at 0 0 0)
		(unlocked yes)
		(layer "F.Fab")
		(hide yes)
		(uuid "2a0dae1d-1257-4225-985b-9a5c624f9ba3")
		(effects
			(font
				(size 1 1)
				(thickness 0.15)
			)
		)
	)
	(property "Description" ""
		(at 0 0 0)
		(unlocked yes)
		(layer "F.Fab")
		(hide yes)
		(uuid "cd4a261f-35d2-4c00-a5a9-f69db44e9025")
		(effects
			(font
				(size 1 1)
				(thickness 0.15)
			)
		)
	)
	(attr smd)
	(fp_line
		(start -2 -1.75)
		(end -2 -1.575)
		(stroke
			(width 0.1)
			(type default)
		)
		(layer "F.SilkS")
		(uuid "2d12753f-e4fd-46fe-acd6-ebe0931a141e")
	)
	(fp_line
		(start -2 1.575)
		(end -2 2)
		(stroke
			(width 0.1)
			(type default)
		)
		(layer "F.SilkS")
		(uuid "d4a9ccbf-56b0-44b5-8b27-cf7550464ebc")
	)
	(fp_line
		(start -2 2)
		(end -1.575 2)
		(stroke
			(width 0.1)
			(type default)
		)
		(layer "F.SilkS")
		(uuid "ab8c54f3-7e8c-46fc-8536-1feef181e821")
	)
	(fp_line
		(start -1.75 -2)
		(end -2 -1.75)
		(stroke
			(width 0.1)
			(type default)
		)
		(layer "F.SilkS")
		(uuid "729ec957-dfb0-408e-9357-ccd00ee15e37")
	)
	(fp_line
		(start -1.575 -2)
		(end -1.75 -2)
		(stroke
			(width 0.1)
			(type default)
		)
		(layer "F.SilkS")
		(uuid "771ffd48-875d-4ba1-9037-913fe4e50d23")
	)
	(fp_line
		(start 1.575 2)
		(end 2 2)
		(stroke
			(width 0.1)
			(type default)
		)
		(layer "F.SilkS")
		(uuid "dbc560c2-2418-4436-b93e-827ba805e359")
	)
	(fp_line
		(start 2 -2)
		(end 1.575 -2)
		(stroke
			(width 0.1)
			(type default)
		)
		(layer "F.SilkS")
		(uuid "4a92cac0-8c66-422d-8582-f6caf0768d5e")
	)
	(fp_line
		(start 2 -1.575)
		(end 2 -2)
		(stroke
			(width 0.1)
			(type default)
		)
		(layer "F.SilkS")
		(uuid "cac970c8-4226-4b07-938c-aaaa51852ef9")
	)
	(fp_line
		(start 2 2)
		(end 2 1.575)
		(stroke
			(width 0.1)
			(type default)
		)
		(layer "F.SilkS")
		(uuid "ee70cd4b-1b2a-45c0-85ab-9a2dada44a27")
	)
	(fp_line
		(start -2.4 -1.7)
		(end -2.4 1.7)
		(stroke
			(width 0.05)
			(type default)
		)
		(layer "F.CrtYd")
		(uuid "9b97f565-a969-4fd4-bac7-3554f2d62195")
	)
	(fp_line
		(start -2.4 1.7)
		(end -2.2 1.7)
		(stroke
			(width 0.05)
			(type default)
		)
		(layer "F.CrtYd")
		(uuid "1b35f01f-10cd-4b4a-b141-c0298fab39b0")
	)
	(fp_line
		(start -2.2 -2.2)
		(end -2.2 -1.7)
		(stroke
			(width 0.05)
			(type default)
		)
		(layer "F.CrtYd")
		(uuid "5268979e-e014-4aa5-8604-af6f637f092b")
	)
	(fp_line
		(start -2.2 -1.7)
		(end -2.4 -1.7)
		(stroke
			(width 0.05)
			(type default)
		)
		(layer "F.CrtYd")
		(uuid "f02a239d-1560-4aae-8852-492fcb1f57d1")
	)
	(fp_line
		(start -2.2 1.7)
		(end -2.2 2.2)
		(stroke
			(width 0.05)
			(type default)
		)
		(layer "F.CrtYd")
		(uuid "15c0b9e3-d5e9-409c-8f54-a7953e461661")
	)
	(fp_line
		(start -2.2 2.2)
		(end -1.7 2.2)
		(stroke
			(width 0.05)
			(type default)
		)
		(layer "F.CrtYd")
		(uuid "103377ba-fdd4-417c-b821-600da883b6fc")
	)
	(fp_line
		(start -1.7 -2.4)
		(end -1.7 -2.2)
		(stroke
			(width 0.05)
			(type default)
		)
		(layer "F.CrtYd")
		(uuid "40f544af-5597-4a27-b470-96d48cdd6278")
	)
	(fp_line
		(start -1.7 -2.2)
		(end -2.2 -2.2)
		(stroke
			(width 0.05)
			(type default)
		)
		(layer "F.CrtYd")
		(uuid "213fe1f5-25ff-4491-b3c2-ab4e4fdaf50b")
	)
	(fp_line
		(start -1.7 2.2)
		(end -1.7 2.4)
		(stroke
			(width 0.05)
			(type default)
		)
		(layer "F.CrtYd")
		(uuid "e0e58c44-e777-4e3a-9ea5-b601e41e5ab7")
	)
	(fp_line
		(start -1.7 2.4)
		(end 1.7 2.4)
		(stroke
			(width 0.05)
			(type default)
		)
		(layer "F.CrtYd")
		(uuid "057a7f77-fecd-4ddf-a127-e7056990a552")
	)
	(fp_line
		(start 1.7 -2.4)
		(end -1.7 -2.4)
		(stroke
			(width 0.05)
			(type default)
		)
		(layer "F.CrtYd")
		(uuid "bee6a9b8-c18b-463c-99a0-736d02092e57")
	)
	(fp_line
		(start 1.7 -2.2)
		(end 1.7 -2.4)
		(stroke
			(width 0.05)
			(type default)
		)
		(layer "F.CrtYd")
		(uuid "022557c6-e7a9-4bf9-911f-19f97eb9b8f5")
	)
	(fp_line
		(start 1.7 2.2)
		(end 2.2 2.2)
		(stroke
			(width 0.05)
			(type default)
		)
		(layer "F.CrtYd")
		(uuid "0568ba53-fc6d-440d-be34-dcc79944e3cd")
	)
	(fp_line
		(start 1.7 2.4)
		(end 1.7 2.2)
		(stroke
			(width 0.05)
			(type default)
		)
		(layer "F.CrtYd")
		(uuid "7d0d4e87-8530-4905-9cb3-10c23ca5c2fa")
	)
	(fp_line
		(start 2.2 -2.2)
		(end 1.7 -2.2)
		(stroke
			(width 0.05)
			(type default)
		)
		(layer "F.CrtYd")
		(uuid "3981bffb-2d9b-4f80-8274-c8a1bac10fd1")
	)
	(fp_line
		(start 2.2 -1.7)
		(end 2.2 -2.2)
		(stroke
			(width 0.05)
			(type default)
		)
		(layer "F.CrtYd")
		(uuid "8876c48e-5d3a-4cd8-81dc-2025aed1ee30")
	)
	(fp_line
		(start 2.2 1.7)
		(end 2.4 1.7)
		(stroke
			(width 0.05)
			(type default)
		)
		(layer "F.CrtYd")
		(uuid "6401ad21-3b74-41bd-81ec-3f51f93cad24")
	)
	(fp_line
		(start 2.2 2.2)
		(end 2.2 1.7)
		(stroke
			(width 0.05)
			(type default)
		)
		(layer "F.CrtYd")
		(uuid "fa75da14-5c50-4105-895b-f57af3b186c6")
	)
	(fp_line
		(start 2.4 -1.7)
		(end 2.2 -1.7)
		(stroke
			(width 0.05)
			(type default)
		)
		(layer "F.CrtYd")
		(uuid "e94767a0-5647-4731-be06-709286d49297")
	)
	(fp_line
		(start 2.4 1.7)
		(end 2.4 -1.7)
		(stroke
			(width 0.05)
			(type default)
		)
		(layer "F.CrtYd")
		(uuid "27557b1e-c921-4570-9f96-b711abc5ce48")
	)
	(fp_rect
		(start -2.05 -2.05)
		(end 2.05 2.05)
		(stroke
			(width 0.1)
			(type default)
		)
		(fill none)
		(layer "F.Fab")
		(uuid "0961e332-1dc5-4424-8016-d8bacb18c625")
	)
	(fp_text user "${REFERENCE}"
		(at 0 1.2 0)
		(unlocked yes)
		(layer "F.Fab")
		(uuid "5b3a8c67-0aa8-4061-9f7c-b83538a374b1")
		(effects
			(font
				(size 1 1)
				(thickness 0.15)
			)
		)
	)
	(pad "1" smd roundrect
		(at -1.925 -1.4)
		(size 0.55 0.2)
		(layers "F.Cu" "F.Paste" "F.Mask")
		(roundrect_rratio 0.25)
		(thermal_bridge_angle 45)
		(uuid "1ba16a3e-0391-4924-b391-3b672aa1a848")
	)
	(pad "2" smd roundrect
		(at -1.925 -1)
		(size 0.55 0.2)
		(layers "F.Cu" "F.Paste" "F.Mask")
		(roundrect_rratio 0.25)
		(thermal_bridge_angle 45)
		(uuid "84666259-5aaf-4f49-a1b0-6e2fe060a460")
	)
	(pad "3" smd roundrect
		(at -1.925 -0.6)
		(size 0.55 0.2)
		(layers "F.Cu" "F.Paste" "F.Mask")
		(roundrect_rratio 0.25)
		(thermal_bridge_angle 45)
		(uuid "cb8f473d-903f-4b8f-9d35-bca3b100d0af")
	)
	(pad "4" smd roundrect
		(at -1.925 -0.2)
		(size 0.55 0.2)
		(layers "F.Cu" "F.Paste" "F.Mask")
		(roundrect_rratio 0.25)
		(thermal_bridge_angle 45)
		(uuid "91b5a937-2c39-428d-94f4-bd249fc4e92e")
	)
	(pad "5" smd roundrect
		(at -1.925 0.2)
		(size 0.55 0.2)
		(layers "F.Cu" "F.Paste" "F.Mask")
		(roundrect_rratio 0.25)
		(thermal_bridge_angle 45)
		(uuid "3ac39be4-261c-4e13-b0e4-d8c5d4784b6d")
	)
	(pad "6" smd roundrect
		(at -1.925 0.6)
		(size 0.55 0.2)
		(layers "F.Cu" "F.Paste" "F.Mask")
		(roundrect_rratio 0.25)
		(thermal_bridge_angle 45)
		(uuid "b3d78bb1-b873-4d0b-9a62-ba215fe2ae4f")
	)
	(pad "7" smd roundrect
		(at -1.925 1)
		(size 0.55 0.2)
		(layers "F.Cu" "F.Paste" "F.Mask")
		(roundrect_rratio 0.25)
		(thermal_bridge_angle 45)
		(uuid "dca0de49-4de6-420c-bada-10ff12b0360f")
	)
	(pad "8" smd roundrect
		(at -1.925 1.4)
		(size 0.55 0.2)
		(layers "F.Cu" "F.Paste" "F.Mask")
		(roundrect_rratio 0.25)
		(thermal_bridge_angle 45)
		(uuid "febb6bea-db7b-4d9c-8277-fc8f0c7dae0e")
	)
	(pad "9" smd roundrect
		(at -1.4 1.925)
		(size 0.2 0.55)
		(layers "F.Cu" "F.Paste" "F.Mask")
		(roundrect_rratio 0.25)
		(thermal_bridge_angle 45)
		(uuid "14cc9105-91fc-4bd1-8fe1-b081b90642b1")
	)
	(pad "10" smd roundrect
		(at -1 1.925)
		(size 0.2 0.55)
		(layers "F.Cu" "F.Paste" "F.Mask")
		(roundrect_rratio 0.25)
		(thermal_bridge_angle 45)
		(uuid "c58b4899-9bf9-40bf-80d2-1aebc665ef4a")
	)
	(pad "11" smd roundrect
		(at -0.6 1.925)
		(size 0.2 0.55)
		(layers "F.Cu" "F.Paste" "F.Mask")
		(roundrect_rratio 0.25)
		(thermal_bridge_angle 45)
		(uuid "143cba38-fba2-49c4-845f-b4d1ca5dc10c")
	)
	(pad "12" smd roundrect
		(at -0.2 1.925)
		(size 0.2 0.55)
		(layers "F.Cu" "F.Paste" "F.Mask")
		(roundrect_rratio 0.25)
		(thermal_bridge_angle 45)
		(uuid "2bc162a1-6096-4d2d-90af-0ec9b3605a62")
	)
	(pad "13" smd roundrect
		(at 0.2 1.925)
		(size 0.2 0.55)
		(layers "F.Cu" "F.Paste" "F.Mask")
		(roundrect_rratio 0.25)
		(thermal_bridge_angle 45)
		(uuid "5ad40117-e7b5-4ecd-ac74-68e34e3a0445")
	)
	(pad "14" smd roundrect
		(at 0.6 1.925)
		(size 0.2 0.55)
		(layers "F.Cu" "F.Paste" "F.Mask")
		(roundrect_rratio 0.25)
		(thermal_bridge_angle 45)
		(uuid "c03642be-0d08-4626-92ae-f426dc908f3f")
	)
	(pad "15" smd roundrect
		(at 1 1.925)
		(size 0.2 0.55)
		(layers "F.Cu" "F.Paste" "F.Mask")
		(roundrect_rratio 0.25)
		(thermal_bridge_angle 45)
		(uuid "6b8550d9-d682-42a7-adbf-6671141ccce4")
	)
	(pad "16" smd roundrect
		(at 1.4 1.925)
		(size 0.2 0.55)
		(layers "F.Cu" "F.Paste" "F.Mask")
		(roundrect_rratio 0.25)
		(thermal_bridge_angle 45)
		(uuid "6ee2e2e9-315b-4456-9054-02e44160e00d")
	)
	(pad "17" smd roundrect
		(at 1.925 1.4)
		(size 0.55 0.2)
		(layers "F.Cu" "F.Paste" "F.Mask")
		(roundrect_rratio 0.25)
		(thermal_bridge_angle 45)
		(uuid "2a47a6bf-0eb4-425a-9d3b-9247499ba553")
	)
	(pad "18" smd roundrect
		(at 1.925 1)
		(size 0.55 0.2)
		(layers "F.Cu" "F.Paste" "F.Mask")
		(roundrect_rratio 0.25)
		(thermal_bridge_angle 45)
		(uuid "3944ef55-8c2b-45ae-9096-183dfd0848dc")
	)
	(pad "19" smd roundrect
		(at 1.925 0.6)
		(size 0.55 0.2)
		(layers "F.Cu" "F.Paste" "F.Mask")
		(roundrect_rratio 0.25)
		(thermal_bridge_angle 45)
		(uuid "95783ac8-d564-4e7c-be60-e8ec8542585d")
	)
	(pad "20" smd roundrect
		(at 1.925 0.2)
		(size 0.55 0.2)
		(layers "F.Cu" "F.Paste" "F.Mask")
		(roundrect_rratio 0.25)
		(thermal_bridge_angle 45)
		(uuid "ec932af1-9d11-47ff-a6b3-90da2ee6c640")
	)
	(pad "21" smd roundrect
		(at 1.925 -0.2)
		(size 0.55 0.2)
		(layers "F.Cu" "F.Paste" "F.Mask")
		(roundrect_rratio 0.25)
		(thermal_bridge_angle 45)
		(uuid "4e926d8b-50be-47e8-97cd-539b4d6da566")
	)
	(pad "22" smd roundrect
		(at 1.925 -0.6)
		(size 0.55 0.2)
		(layers "F.Cu" "F.Paste" "F.Mask")
		(roundrect_rratio 0.25)
		(thermal_bridge_angle 45)
		(uuid "c41463ef-c6aa-473f-9eb6-23fed3a5c420")
	)
	(pad "23" smd roundrect
		(at 1.925 -1)
		(size 0.55 0.2)
		(layers "F.Cu" "F.Paste" "F.Mask")
		(roundrect_rratio 0.25)
		(thermal_bridge_angle 45)
		(uuid "7808a18a-938f-4dbb-a5c3-34008293d6ea")
	)
	(pad "24" smd roundrect
		(at 1.925 -1.4)
		(size 0.55 0.2)
		(layers "F.Cu" "F.Paste" "F.Mask")
		(roundrect_rratio 0.25)
		(thermal_bridge_angle 45)
		(uuid "84be4a83-c47e-4d54-8a70-33a3378667d0")
	)
	(pad "25" smd roundrect
		(at 1.4 -1.925)
		(size 0.2 0.55)
		(layers "F.Cu" "F.Paste" "F.Mask")
		(roundrect_rratio 0.25)
		(thermal_bridge_angle 45)
		(uuid "47edb253-bf24-4969-b2c1-5d1c515df44c")
	)
	(pad "26" smd roundrect
		(at 1 -1.925)
		(size 0.2 0.55)
		(layers "F.Cu" "F.Paste" "F.Mask")
		(roundrect_rratio 0.25)
		(thermal_bridge_angle 45)
		(uuid "fc991297-19fc-4ffc-b136-f1abddd3825e")
	)
	(pad "27" smd roundrect
		(at 0.6 -1.925)
		(size 0.2 0.55)
		(layers "F.Cu" "F.Paste" "F.Mask")
		(roundrect_rratio 0.25)
		(thermal_bridge_angle 45)
		(uuid "63bf1369-942a-4979-bf8d-689764f984ae")
	)
	(pad "28" smd roundrect
		(at 0.2 -1.925)
		(size 0.2 0.55)
		(layers "F.Cu" "F.Paste" "F.Mask")
		(roundrect_rratio 0.25)
		(thermal_bridge_angle 45)
		(uuid "bda1a02e-263c-4e4f-98bc-bf91516526c8")
	)
	(pad "29" smd roundrect
		(at -0.2 -1.925)
		(size 0.2 0.55)
		(layers "F.Cu" "F.Paste" "F.Mask")
		(roundrect_rratio 0.25)
		(thermal_bridge_angle 45)
		(uuid "9f29308c-d952-4f77-a375-1d2ae89d2e52")
	)
	(pad "30" smd roundrect
		(at -0.6 -1.925)
		(size 0.2 0.55)
		(layers "F.Cu" "F.Paste" "F.Mask")
		(roundrect_rratio 0.25)
		(thermal_bridge_angle 45)
		(uuid "4f9f1f10-612d-439a-be50-ac87270c95c8")
	)
	(pad "31" smd roundrect
		(at -1 -1.925)
		(size 0.2 0.55)
		(layers "F.Cu" "F.Paste" "F.Mask")
		(roundrect_rratio 0.25)
		(thermal_bridge_angle 45)
		(uuid "4ab1e929-09f5-46ba-85cf-ae7fe596e6dc")
	)
	(pad "32" smd roundrect
		(at -1.4 -1.925)
		(size 0.2 0.55)
		(layers "F.Cu" "F.Paste" "F.Mask")
		(roundrect_rratio 0.25)
		(thermal_bridge_angle 45)
		(uuid "0639a52c-17d5-420b-9ae5-9ac65c1bebdb")
	)
	(pad "33" smd rect
		(at 0 0)
		(size 2.8 2.8)
		(layers "F.Cu" "F.Paste" "F.Mask")
		(thermal_bridge_angle 45)
		(uuid "39ed49b7-6d22-4f69-a915-1fae7c8d4be9")
	)
)
