(footprint "QFN40P40_600X400X75L35X20N"
	(version 20240108)
	(generator "pcbnew")
	(generator_version "8.0")
	(layer "F.Cu")
	(descr "QFN-38 w/ 2 Thermal Pads, 2.72 x 2.65 mm & 1.53 x 2.65 mm")
	(tags "QFN-38, 2 Termals")
	(property "Reference" "REF**"
		(at 0.025 -0.7 0)
		(unlocked yes)
		(layer "F.SilkS")
		(uuid "5631a252-4069-460b-90bb-c450eb0d285f")
		(effects
			(font
				(size 1 1)
				(thickness 0.1)
			)
		)
	)
	(property "Value" "QFN40P40_600X400X75L35X20N"
		(at 0.025 0.8 0)
		(unlocked yes)
		(layer "F.Fab")
		(uuid "4460980a-4a18-4a54-8976-e76eb587703a")
		(effects
			(font
				(size 1 1)
				(thickness 0.15)
			)
		)
	)
	(property "Footprint" ""
		(at 0.025 -0.2 0)
		(unlocked yes)
		(layer "F.Fab")
		(hide yes)
		(uuid "3967c8c2-4ca8-44cc-b47b-39bc95709e6b")
		(effects
			(font
				(size 1 1)
				(thickness 0.15)
			)
		)
	)
	(property "Datasheet" ""
		(at 0.025 -0.2 0)
		(unlocked yes)
		(layer "F.Fab")
		(hide yes)
		(uuid "61f28a96-c444-47a2-a42d-96f1d67f6413")
		(effects
			(font
				(size 1 1)
				(thickness 0.15)
			)
		)
	)
	(property "Description" ""
		(at 0.025 -0.2 0)
		(unlocked yes)
		(layer "F.Fab")
		(hide yes)
		(uuid "327e889f-10df-4086-9ac1-336e6d5c00bd")
		(effects
			(font
				(size 1 1)
				(thickness 0.15)
			)
		)
	)
	(attr smd)
	(fp_rect
		(start 2.675 -1.1)
		(end 2.825 -0.65)
		(stroke
			(width 0.05)
			(type solid)
		)
		(fill solid)
		(layer "F.Cu")
		(uuid "6b233af0-a97f-4b03-bf94-f69a9c744ad9")
	)
	(fp_rect
		(start 2.675 -0.65)
		(end 2.825 -0.2)
		(stroke
			(width 0.05)
			(type solid)
		)
		(fill solid)
		(layer "F.Cu")
		(uuid "cc414091-50f7-44ed-a748-9b8f27ce415f")
	)
	(fp_rect
		(start 2.675 0.2)
		(end 2.825 0.65)
		(stroke
			(width 0.05)
			(type solid)
		)
		(fill solid)
		(layer "F.Cu")
		(uuid "a3152b96-7f0d-4d9f-b0ec-dd9236af7bbf")
	)
	(fp_rect
		(start 2.675 0.65)
		(end 2.825 1.1)
		(stroke
			(width 0.05)
			(type solid)
		)
		(fill solid)
		(layer "F.Cu")
		(uuid "12e2fb29-3af7-48a4-956a-ff86248294d9")
	)
	(fp_rect
		(start 2.675 -1.1)
		(end 2.825 -0.65)
		(stroke
			(width 0.05)
			(type solid)
		)
		(fill solid)
		(layer "F.Paste")
		(uuid "27cb3134-c456-4cc5-9467-c72472e868b0")
	)
	(fp_rect
		(start 2.675 -0.65)
		(end 2.825 -0.2)
		(stroke
			(width 0.05)
			(type solid)
		)
		(fill solid)
		(layer "F.Paste")
		(uuid "f6d0fed9-5dd2-4ac0-ad9d-d178cc03a616")
	)
	(fp_rect
		(start 2.675 0.2)
		(end 2.825 0.65)
		(stroke
			(width 0.05)
			(type solid)
		)
		(fill solid)
		(layer "F.Paste")
		(uuid "fc6d094c-8ddb-454d-bac1-f49ea595b95f")
	)
	(fp_rect
		(start 2.675 0.65)
		(end 2.825 1.1)
		(stroke
			(width 0.05)
			(type solid)
		)
		(fill solid)
		(layer "F.Paste")
		(uuid "f2c9bca7-d6bb-4f44-9df2-872f58699ba0")
	)
	(fp_line
		(start -3 -2)
		(end -3 -1.175)
		(stroke
			(width 0.1)
			(type default)
		)
		(layer "F.SilkS")
		(uuid "1aa9219e-4696-4563-a41a-60e4d651ed09")
	)
	(fp_line
		(start -3 1.175)
		(end -3 2)
		(stroke
			(width 0.1)
			(type default)
		)
		(layer "F.SilkS")
		(uuid "b04406a7-36aa-46af-96bf-ce869e0270ed")
	)
	(fp_line
		(start -3 2)
		(end -2.575 2)
		(stroke
			(width 0.1)
			(type default)
		)
		(layer "F.SilkS")
		(uuid "80acdf1c-ab22-4efc-b8b8-1b8f96b14cb0")
	)
	(fp_line
		(start -2.575 -2)
		(end -3 -2)
		(stroke
			(width 0.1)
			(type default)
		)
		(layer "F.SilkS")
		(uuid "7580a222-d362-4710-bce3-c51241533dc1")
	)
	(fp_line
		(start 2.575 2)
		(end 3 2)
		(stroke
			(width 0.1)
			(type default)
		)
		(layer "F.SilkS")
		(uuid "9300ceff-9b1f-4b97-9d06-415b8a7983af")
	)
	(fp_line
		(start 3 -2)
		(end 2.575 -2)
		(stroke
			(width 0.1)
			(type default)
		)
		(layer "F.SilkS")
		(uuid "2dcb2528-27f1-499f-870b-0b7b5204c5a1")
	)
	(fp_line
		(start 3 -1.275)
		(end 3 -2)
		(stroke
			(width 0.1)
			(type default)
		)
		(layer "F.SilkS")
		(uuid "b7c9350d-ffa2-488b-b86d-16aa59e56102")
	)
	(fp_line
		(start 3 2)
		(end 3 1.275)
		(stroke
			(width 0.1)
			(type default)
		)
		(layer "F.SilkS")
		(uuid "bd694840-8a5e-4183-a3d3-5016992dd24b")
	)
	(fp_circle
		(center -3.625 -1)
		(end -3.575 -1)
		(stroke
			(width 0.1)
			(type default)
		)
		(fill none)
		(layer "F.SilkS")
		(uuid "98cb8b09-7583-4a47-b02c-6a457d5577c2")
	)
	(fp_circle
		(center -3.625 -1)
		(end -3.525 -1)
		(stroke
			(width 0.1)
			(type default)
		)
		(fill none)
		(layer "F.SilkS")
		(uuid "4815d3ce-cc16-4404-b537-40d1b3dbc49c")
	)
	(fp_rect
		(start 2.675 -1.1)
		(end 2.825 -0.65)
		(stroke
			(width 0.05)
			(type solid)
		)
		(fill solid)
		(layer "F.Mask")
		(uuid "e84e0256-723c-4f61-a246-bb378fba0e11")
	)
	(fp_rect
		(start 2.675 -0.65)
		(end 2.825 -0.2)
		(stroke
			(width 0.05)
			(type solid)
		)
		(fill solid)
		(layer "F.Mask")
		(uuid "ff4e55e5-4205-4116-933d-18ef7efeca22")
	)
	(fp_rect
		(start 2.675 0.2)
		(end 2.825 0.65)
		(stroke
			(width 0.05)
			(type solid)
		)
		(fill solid)
		(layer "F.Mask")
		(uuid "36d04025-debb-4590-aa71-66198f3f04e8")
	)
	(fp_rect
		(start 2.675 0.65)
		(end 2.825 1.1)
		(stroke
			(width 0.05)
			(type solid)
		)
		(fill solid)
		(layer "F.Mask")
		(uuid "9757c70c-cb0e-4446-8082-42b925b7f00d")
	)
	(fp_line
		(start -3.4 -1.3)
		(end -3.4 1.3)
		(stroke
			(width 0.05)
			(type default)
		)
		(layer "F.CrtYd")
		(uuid "8955172e-86c7-4950-9d7f-e6d6027fa227")
	)
	(fp_line
		(start -3.4 1.3)
		(end -3.2 1.3)
		(stroke
			(width 0.05)
			(type default)
		)
		(layer "F.CrtYd")
		(uuid "77a0d419-f8df-4dc5-8f78-1978ebc1f473")
	)
	(fp_line
		(start -3.2 -2.2)
		(end -3.2 -1.3)
		(stroke
			(width 0.05)
			(type default)
		)
		(layer "F.CrtYd")
		(uuid "6aa8ac35-a210-43c9-9025-6fe1cf1b2c2b")
	)
	(fp_line
		(start -3.2 -1.3)
		(end -3.4 -1.3)
		(stroke
			(width 0.05)
			(type default)
		)
		(layer "F.CrtYd")
		(uuid "b558cc82-eff0-46ee-97bc-279c8fb85035")
	)
	(fp_line
		(start -3.2 1.3)
		(end -3.2 2.2)
		(stroke
			(width 0.05)
			(type default)
		)
		(layer "F.CrtYd")
		(uuid "ca9e46c6-5d54-4a69-8f59-5db4cf12785c")
	)
	(fp_line
		(start -3.2 2.2)
		(end -2.7 2.2)
		(stroke
			(width 0.05)
			(type default)
		)
		(layer "F.CrtYd")
		(uuid "886714e0-ad12-4b1f-821a-de7744ba213a")
	)
	(fp_line
		(start -2.7 -2.4)
		(end -2.7 -2.2)
		(stroke
			(width 0.05)
			(type default)
		)
		(layer "F.CrtYd")
		(uuid "4a552187-fd4d-4a69-acdc-f1b871d9e242")
	)
	(fp_line
		(start -2.7 -2.2)
		(end -3.2 -2.2)
		(stroke
			(width 0.05)
			(type default)
		)
		(layer "F.CrtYd")
		(uuid "534842a9-206c-4f3a-b3d4-d86115b6535e")
	)
	(fp_line
		(start -2.7 2.2)
		(end -2.7 2.4)
		(stroke
			(width 0.05)
			(type default)
		)
		(layer "F.CrtYd")
		(uuid "17008c13-25d6-48f8-b3db-508e7d271f89")
	)
	(fp_line
		(start -2.7 2.4)
		(end 2.7 2.4)
		(stroke
			(width 0.05)
			(type default)
		)
		(layer "F.CrtYd")
		(uuid "4844f1be-175b-412a-8f97-3dd41d742eea")
	)
	(fp_line
		(start 2.7 -2.4)
		(end -2.7 -2.4)
		(stroke
			(width 0.05)
			(type default)
		)
		(layer "F.CrtYd")
		(uuid "6697f516-e188-4468-b976-d777d5c6b2b5")
	)
	(fp_line
		(start 2.7 -2.2)
		(end 2.7 -2.4)
		(stroke
			(width 0.05)
			(type default)
		)
		(layer "F.CrtYd")
		(uuid "ad85d518-9099-4ca1-8bf2-7e56e7796b0d")
	)
	(fp_line
		(start 2.7 2.2)
		(end 3.2 2.2)
		(stroke
			(width 0.05)
			(type default)
		)
		(layer "F.CrtYd")
		(uuid "e4970c28-5b19-4073-a999-51aa365684b5")
	)
	(fp_line
		(start 2.7 2.4)
		(end 2.7 2.2)
		(stroke
			(width 0.05)
			(type default)
		)
		(layer "F.CrtYd")
		(uuid "71bcc33c-6a25-4358-ace5-25f5e6139f5d")
	)
	(fp_line
		(start 3.2 -2.2)
		(end 2.7 -2.2)
		(stroke
			(width 0.05)
			(type default)
		)
		(layer "F.CrtYd")
		(uuid "5e16db66-b160-4cc8-8137-32ad8c5bb849")
	)
	(fp_line
		(start 3.2 -1.4)
		(end 3.2 -2.2)
		(stroke
			(width 0.05)
			(type default)
		)
		(layer "F.CrtYd")
		(uuid "243d8f04-6496-49d9-b36b-56c8de5a1e0c")
	)
	(fp_line
		(start 3.2 1.4)
		(end 3.4 1.4)
		(stroke
			(width 0.05)
			(type default)
		)
		(layer "F.CrtYd")
		(uuid "f03fa645-64a2-4be9-935e-5ee84be10921")
	)
	(fp_line
		(start 3.2 2.2)
		(end 3.2 1.4)
		(stroke
			(width 0.05)
			(type default)
		)
		(layer "F.CrtYd")
		(uuid "07ef952b-49e6-4768-a89d-7d9c13af02ad")
	)
	(fp_line
		(start 3.4 -1.4)
		(end 3.2 -1.4)
		(stroke
			(width 0.05)
			(type default)
		)
		(layer "F.CrtYd")
		(uuid "cb70b94b-be53-4dd6-9eaa-8afe655249c0")
	)
	(fp_line
		(start 3.4 1.4)
		(end 3.4 -1.4)
		(stroke
			(width 0.05)
			(type default)
		)
		(layer "F.CrtYd")
		(uuid "9646b85a-049a-4be3-99dc-f9cf1ef8afcb")
	)
	(fp_rect
		(start -3.05 -2.05)
		(end 3.05 2.05)
		(stroke
			(width 0.1)
			(type default)
		)
		(fill none)
		(layer "F.Fab")
		(uuid "bb987765-fca9-429b-a63b-757051d08acc")
	)
	(fp_text user "${REFERENCE}"
		(at 0.025 2.3 0)
		(unlocked yes)
		(layer "F.Fab")
		(uuid "66daa72d-e9ea-4254-a146-ba69a736b65c")
		(effects
			(font
				(size 1 1)
				(thickness 0.15)
			)
		)
	)
	(pad "1" smd roundrect
		(at -2.925 -1)
		(size 0.55 0.2)
		(layers "F.Cu" "F.Paste" "F.Mask")
		(roundrect_rratio 0.25)
		(thermal_bridge_angle 45)
		(uuid "eb86409f-8b6f-4783-a3fb-5d5db8b675c4")
	)
	(pad "2" smd roundrect
		(at -2.925 -0.6)
		(size 0.55 0.2)
		(layers "F.Cu" "F.Paste" "F.Mask")
		(roundrect_rratio 0.25)
		(thermal_bridge_angle 45)
		(uuid "3972c0a3-b8d3-4ffa-833e-06e3153c207d")
	)
	(pad "3" smd roundrect
		(at -2.925 -0.2)
		(size 0.55 0.2)
		(layers "F.Cu" "F.Paste" "F.Mask")
		(roundrect_rratio 0.25)
		(thermal_bridge_angle 45)
		(uuid "c31de77c-326c-4cde-8965-f46639f8f065")
	)
	(pad "4" smd roundrect
		(at -2.925 0.2)
		(size 0.55 0.2)
		(layers "F.Cu" "F.Paste" "F.Mask")
		(roundrect_rratio 0.25)
		(thermal_bridge_angle 45)
		(uuid "617f2fc9-0251-4c34-b663-0041ec7459e8")
	)
	(pad "5" smd roundrect
		(at -2.925 0.6)
		(size 0.55 0.2)
		(layers "F.Cu" "F.Paste" "F.Mask")
		(roundrect_rratio 0.25)
		(thermal_bridge_angle 45)
		(uuid "a584fbab-8044-46dc-8844-704e5c81e515")
	)
	(pad "6" smd roundrect
		(at -2.925 1)
		(size 0.55 0.2)
		(layers "F.Cu" "F.Paste" "F.Mask")
		(roundrect_rratio 0.25)
		(thermal_bridge_angle 45)
		(uuid "8ac1a914-31ed-4bde-a39a-05dc0e0fff48")
	)
	(pad "7" smd roundrect
		(at -2.4 1.925 90)
		(size 0.55 0.2)
		(layers "F.Cu" "F.Paste" "F.Mask")
		(roundrect_rratio 0.25)
		(thermal_bridge_angle 45)
		(uuid "216390d9-9326-4640-afa6-509d61802d59")
	)
	(pad "8" smd roundrect
		(at -2 1.925 90)
		(size 0.55 0.2)
		(layers "F.Cu" "F.Paste" "F.Mask")
		(roundrect_rratio 0.25)
		(thermal_bridge_angle 45)
		(uuid "b56c4a3f-238c-469c-a585-1ecd6c7f2a33")
	)
	(pad "9" smd roundrect
		(at -1.6 1.925 90)
		(size 0.55 0.2)
		(layers "F.Cu" "F.Paste" "F.Mask")
		(roundrect_rratio 0.25)
		(thermal_bridge_angle 45)
		(uuid "dddd1cb0-bc1c-4575-b869-5bcb9a42756c")
	)
	(pad "10" smd roundrect
		(at -1.2 1.925 90)
		(size 0.55 0.2)
		(layers "F.Cu" "F.Paste" "F.Mask")
		(roundrect_rratio 0.25)
		(thermal_bridge_angle 45)
		(uuid "e4010ba7-8b6a-4a13-91c8-7d699e594b63")
	)
	(pad "11" smd roundrect
		(at -0.8 1.925 90)
		(size 0.55 0.2)
		(layers "F.Cu" "F.Paste" "F.Mask")
		(roundrect_rratio 0.25)
		(thermal_bridge_angle 45)
		(uuid "7dbc90d8-b672-4b0b-8a28-30066136269f")
	)
	(pad "12" smd roundrect
		(at -0.4 1.925 90)
		(size 0.55 0.2)
		(layers "F.Cu" "F.Paste" "F.Mask")
		(roundrect_rratio 0.25)
		(thermal_bridge_angle 45)
		(uuid "b2a33216-1b64-4648-abd7-9f3ad33e008c")
	)
	(pad "13" smd roundrect
		(at 0 1.925 90)
		(size 0.55 0.2)
		(layers "F.Cu" "F.Paste" "F.Mask")
		(roundrect_rratio 0.25)
		(thermal_bridge_angle 45)
		(uuid "94f447aa-7bd1-4ae6-86a3-62933b48f7f0")
	)
	(pad "14" smd roundrect
		(at 0.4 1.925 90)
		(size 0.55 0.2)
		(layers "F.Cu" "F.Paste" "F.Mask")
		(roundrect_rratio 0.25)
		(thermal_bridge_angle 45)
		(uuid "dfd0d2e0-5d3b-4862-9a25-b9c9967170f0")
	)
	(pad "15" smd roundrect
		(at 0.8 1.925 90)
		(size 0.55 0.2)
		(layers "F.Cu" "F.Paste" "F.Mask")
		(roundrect_rratio 0.25)
		(thermal_bridge_angle 45)
		(uuid "79e86e58-4674-4c67-a2ef-4db98dc6b26b")
	)
	(pad "16" smd roundrect
		(at 1.2 1.925 90)
		(size 0.55 0.2)
		(layers "F.Cu" "F.Paste" "F.Mask")
		(roundrect_rratio 0.25)
		(thermal_bridge_angle 45)
		(uuid "f27feb0b-9a30-4617-a36b-601175b3f6a3")
	)
	(pad "17" smd roundrect
		(at 1.6 1.925 90)
		(size 0.55 0.2)
		(layers "F.Cu" "F.Paste" "F.Mask")
		(roundrect_rratio 0.25)
		(thermal_bridge_angle 45)
		(uuid "39b621e8-48bf-49d3-9cb1-08042fc35955")
	)
	(pad "18" smd roundrect
		(at 2 1.925 90)
		(size 0.55 0.2)
		(layers "F.Cu" "F.Paste" "F.Mask")
		(roundrect_rratio 0.25)
		(thermal_bridge_angle 45)
		(uuid "97d96784-a8e4-4994-baaf-7c5f88c51774")
	)
	(pad "19" smd roundrect
		(at 2.4 1.925 90)
		(size 0.55 0.2)
		(layers "F.Cu" "F.Paste" "F.Mask")
		(roundrect_rratio 0.25)
		(thermal_bridge_angle 45)
		(uuid "3ad9db28-385a-4d35-867d-9b4e8649051d")
	)
	(pad "20" smd roundrect
		(at 2.925 1.1 180)
		(size 0.55 0.2)
		(layers "F.Cu" "F.Paste" "F.Mask")
		(roundrect_rratio 0.25)
		(thermal_bridge_angle 45)
		(uuid "5aa45f0e-e9d6-4cde-b72a-301d72c8ffdf")
	)
	(pad "21" smd roundrect
		(at 2.925 0.65 180)
		(size 0.55 0.2)
		(layers "F.Cu" "F.Paste" "F.Mask")
		(roundrect_rratio 0.25)
		(thermal_bridge_angle 45)
		(uuid "d337ffb0-5f28-42ac-8d90-04cfe45e5605")
	)
	(pad "22" smd roundrect
		(at 2.925 0.2 180)
		(size 0.55 0.2)
		(layers "F.Cu" "F.Paste" "F.Mask")
		(roundrect_rratio 0.25)
		(thermal_bridge_angle 45)
		(uuid "cfaf3f99-a034-45c4-bb84-95fd9fb71557")
	)
	(pad "23" smd roundrect
		(at 2.925 -0.2 180)
		(size 0.55 0.2)
		(layers "F.Cu" "F.Paste" "F.Mask")
		(roundrect_rratio 0.25)
		(thermal_bridge_angle 45)
		(uuid "7743f0e9-feb1-425d-8c71-65c0ff1e115e")
	)
	(pad "24" smd roundrect
		(at 2.925 -0.65 180)
		(size 0.55 0.2)
		(layers "F.Cu" "F.Paste" "F.Mask")
		(roundrect_rratio 0.25)
		(thermal_bridge_angle 45)
		(uuid "f0d44276-cf1d-4e7a-b086-0e3a09e549a8")
	)
	(pad "25" smd roundrect
		(at 2.925 -1.1 180)
		(size 0.55 0.2)
		(layers "F.Cu" "F.Paste" "F.Mask")
		(roundrect_rratio 0.25)
		(thermal_bridge_angle 45)
		(uuid "48d59ccd-ab74-4f93-8c14-e8c5226fd4d8")
	)
	(pad "26" smd roundrect
		(at 2.4 -1.925 270)
		(size 0.55 0.2)
		(layers "F.Cu" "F.Paste" "F.Mask")
		(roundrect_rratio 0.25)
		(thermal_bridge_angle 45)
		(uuid "28e3dd7f-cbf4-42e3-87d8-14146b3d1269")
	)
	(pad "27" smd roundrect
		(at 2 -1.925 270)
		(size 0.55 0.2)
		(layers "F.Cu" "F.Paste" "F.Mask")
		(roundrect_rratio 0.25)
		(thermal_bridge_angle 45)
		(uuid "274757f9-4e47-4d65-8b42-39b2a18e6ea3")
	)
	(pad "28" smd roundrect
		(at 1.6 -1.925 270)
		(size 0.55 0.2)
		(layers "F.Cu" "F.Paste" "F.Mask")
		(roundrect_rratio 0.25)
		(thermal_bridge_angle 45)
		(uuid "deccde16-c01b-4535-b6ac-4ffd168db48a")
	)
	(pad "29" smd roundrect
		(at 1.2 -1.925 270)
		(size 0.55 0.2)
		(layers "F.Cu" "F.Paste" "F.Mask")
		(roundrect_rratio 0.25)
		(thermal_bridge_angle 45)
		(uuid "45435ab3-fd33-456b-b3f7-22dbcad17e68")
	)
	(pad "30" smd roundrect
		(at 0.8 -1.925 270)
		(size 0.55 0.2)
		(layers "F.Cu" "F.Paste" "F.Mask")
		(roundrect_rratio 0.25)
		(thermal_bridge_angle 45)
		(uuid "cf20e373-5399-4265-8b5a-083a606396bf")
	)
	(pad "31" smd roundrect
		(at 0.4 -1.925 270)
		(size 0.55 0.2)
		(layers "F.Cu" "F.Paste" "F.Mask")
		(roundrect_rratio 0.25)
		(thermal_bridge_angle 45)
		(uuid "6f505d9a-afe8-440a-b391-c07f2fd1c254")
	)
	(pad "32" smd roundrect
		(at 0 -1.925 270)
		(size 0.55 0.2)
		(layers "F.Cu" "F.Paste" "F.Mask")
		(roundrect_rratio 0.25)
		(thermal_bridge_angle 45)
		(uuid "bf9e69b3-076c-4704-81a4-6aa5bcdf8afd")
	)
	(pad "33" smd roundrect
		(at -0.4 -1.925 270)
		(size 0.55 0.2)
		(layers "F.Cu" "F.Paste" "F.Mask")
		(roundrect_rratio 0.25)
		(thermal_bridge_angle 45)
		(uuid "9662c668-260c-40d9-8ee3-6eadcef740d0")
	)
	(pad "34" smd roundrect
		(at -0.8 -1.925 270)
		(size 0.55 0.2)
		(layers "F.Cu" "F.Paste" "F.Mask")
		(roundrect_rratio 0.25)
		(thermal_bridge_angle 45)
		(uuid "87771f35-2507-439f-b6fa-d829be6db506")
	)
	(pad "35" smd roundrect
		(at -1.2 -1.925 270)
		(size 0.55 0.2)
		(layers "F.Cu" "F.Paste" "F.Mask")
		(roundrect_rratio 0.25)
		(thermal_bridge_angle 45)
		(uuid "64337c5f-e0e3-479e-880e-399076366549")
	)
	(pad "36" smd roundrect
		(at -1.6 -1.925 270)
		(size 0.55 0.2)
		(layers "F.Cu" "F.Paste" "F.Mask")
		(roundrect_rratio 0.25)
		(thermal_bridge_angle 45)
		(uuid "4097a271-911f-44a4-84cf-06311ef3c93c")
	)
	(pad "37" smd roundrect
		(at -2 -1.925 270)
		(size 0.55 0.2)
		(layers "F.Cu" "F.Paste" "F.Mask")
		(roundrect_rratio 0.25)
		(thermal_bridge_angle 45)
		(uuid "f522d4ca-c470-4b1c-a014-bd9b8b33fcfe")
	)
	(pad "38" smd roundrect
		(at -2.4 -1.925 270)
		(size 0.55 0.2)
		(layers "F.Cu" "F.Paste" "F.Mask")
		(roundrect_rratio 0.25)
		(thermal_bridge_angle 45)
		(uuid "4fe76bfd-1a6e-48e7-8091-88ad87db9b6b")
	)
	(pad "39" thru_hole circle
		(at -2.075 0)
		(size 0.4 0.4)
		(drill 0.2)
		(layers "*.Cu" "*.Mask")
		(remove_unused_layers no)
		(uuid "99a4eb96-4155-4122-b1a4-fb4614cbfce3")
	)
	(pad "39" thru_hole circle
		(at -0.965 -1.075)
		(size 0.4 0.4)
		(drill 0.2)
		(layers "*.Cu" "*.Mask")
		(remove_unused_layers no)
		(uuid "b2baa718-a364-4626-9797-1ed8c5a24284")
	)
	(pad "39" thru_hole circle
		(at -0.965 0)
		(size 0.4 0.4)
		(drill 0.2)
		(layers "*.Cu" "*.Mask")
		(remove_unused_layers no)
		(uuid "08bce238-27a0-49f1-aba1-3f6ec61bb5c8")
	)
	(pad "39" smd rect
		(at -0.965 0)
		(size 2.72 2.65)
		(layers "F.Cu" "F.Paste" "F.Mask")
		(thermal_bridge_angle 45)
		(uuid "b0a00f72-8aeb-4e65-b252-024a5c845b31")
	)
	(pad "39" thru_hole circle
		(at -0.965 1.075)
		(size 0.4 0.4)
		(drill 0.2)
		(layers "*.Cu" "*.Mask")
		(remove_unused_layers no)
		(uuid "1a02e284-52c7-4750-be0c-d2635809648e")
	)
	(pad "39" thru_hole circle
		(at 0.145 0)
		(size 0.4 0.4)
		(drill 0.2)
		(layers "*.Cu" "*.Mask")
		(remove_unused_layers no)
		(uuid "0da38656-6108-45b7-9f71-ea8800b220e0")
	)
	(pad "40" smd rect
		(at 1.525 0)
		(size 1.56 2.65)
		(layers "F.Cu" "F.Paste" "F.Mask")
		(thermal_bridge_angle 45)
		(uuid "8843c148-cadd-4fa7-8dad-7bb5601c03dc")
	)
	(pad "40" thru_hole circle
		(at 1.56 -1.075)
		(size 0.4 0.4)
		(drill 0.2)
		(layers "*.Cu" "*.Mask")
		(remove_unused_layers no)
		(uuid "1b801e85-5528-4268-9866-4f213988a7e0")
	)
	(pad "40" thru_hole circle
		(at 1.56 0)
		(size 0.4 0.4)
		(drill 0.2)
		(layers "*.Cu" "*.Mask")
		(remove_unused_layers no)
		(uuid "cb0796f8-a063-460d-9798-5929213edd6a")
	)
	(pad "40" thru_hole circle
		(at 1.56 1.075)
		(size 0.4 0.4)
		(drill 0.2)
		(layers "*.Cu" "*.Mask")
		(remove_unused_layers no)
		(uuid "2b8c9db9-0bb0-49f0-a03b-89950d320a83")
	)
)
