(footprint "QFN48P50_700X700X55L40X25T560X560N"
	(version 20240108)
	(generator "pcbnew")
	(generator_version "8.0")
	(layer "F.Cu")
	(property "Reference" "REF**"
		(at 0 -0.5 0)
		(unlocked yes)
		(layer "F.SilkS")
		(uuid "e6993714-25d7-4b7f-9f3a-74f823c81f72")
		(effects
			(font
				(size 1 1)
				(thickness 0.1)
			)
		)
	)
	(property "Value" "QFN48P50_700X700X55L40X25T560X560N"
		(at 0 1 0)
		(unlocked yes)
		(layer "F.Fab")
		(uuid "47589b0f-fa1f-4527-a762-d4160eb55a92")
		(effects
			(font
				(size 1 1)
				(thickness 0.15)
			)
		)
	)
	(property "Footprint" ""
		(at 0 0 0)
		(unlocked yes)
		(layer "F.Fab")
		(hide yes)
		(uuid "a2e31a7c-b219-4fac-8e69-1d4062b9696c")
		(effects
			(font
				(size 1 1)
				(thickness 0.15)
			)
		)
	)
	(property "Datasheet" ""
		(at 0 0 0)
		(unlocked yes)
		(layer "F.Fab")
		(hide yes)
		(uuid "39aef93c-4633-4be0-9a7b-2b34f56582b0")
		(effects
			(font
				(size 1 1)
				(thickness 0.15)
			)
		)
	)
	(property "Description" ""
		(at 0 0 0)
		(unlocked yes)
		(layer "F.Fab")
		(hide yes)
		(uuid "a15de8d9-9460-47e7-88b8-34a1f3820d39")
		(effects
			(font
				(size 1 1)
				(thickness 0.15)
			)
		)
	)
	(attr smd)
	(fp_line
		(start -3.5 -3.5)
		(end -3.5 -3)
		(stroke
			(width 0.1)
			(type default)
		)
		(layer "F.SilkS")
		(uuid "b313eec5-9fe4-4136-8f61-c1e5e07d1bc8")
	)
	(fp_line
		(start -3.5 3)
		(end -3.5 3.5)
		(stroke
			(width 0.1)
			(type default)
		)
		(layer "F.SilkS")
		(uuid "9c5ea909-d56d-40ab-89b6-636ddce0001c")
	)
	(fp_line
		(start -3.5 3.5)
		(end -3 3.5)
		(stroke
			(width 0.1)
			(type default)
		)
		(layer "F.SilkS")
		(uuid "df1dde51-15c9-46b6-86bb-b74b6df22845")
	)
	(fp_line
		(start -3 -3.5)
		(end -3.5 -3.5)
		(stroke
			(width 0.1)
			(type default)
		)
		(layer "F.SilkS")
		(uuid "47d94536-b15f-4618-89e8-8a36b2047c8a")
	)
	(fp_line
		(start 3 3.5)
		(end 3.5 3.5)
		(stroke
			(width 0.1)
			(type default)
		)
		(layer "F.SilkS")
		(uuid "638ebcf6-4c8a-4021-be97-4fdf311378b6")
	)
	(fp_line
		(start 3.5 -3.5)
		(end 3 -3.5)
		(stroke
			(width 0.1)
			(type default)
		)
		(layer "F.SilkS")
		(uuid "694f56b9-8bac-468d-a594-240218631f26")
	)
	(fp_line
		(start 3.5 -3)
		(end 3.5 -3.5)
		(stroke
			(width 0.1)
			(type default)
		)
		(layer "F.SilkS")
		(uuid "cba43780-5627-4872-915f-136c0c77db6d")
	)
	(fp_line
		(start 3.5 3.5)
		(end 3.5 3)
		(stroke
			(width 0.1)
			(type default)
		)
		(layer "F.SilkS")
		(uuid "8eb0d34b-ec25-4ae9-9b19-d17976fe446e")
	)
	(fp_circle
		(center -4.15 -2.75)
		(end -4 -2.75)
		(stroke
			(width 0.1)
			(type solid)
		)
		(fill solid)
		(layer "F.SilkS")
		(uuid "520adbfa-bd2b-407e-b233-882911a9080d")
	)
	(fp_line
		(start -3.85 -3.1)
		(end -3.85 3.1)
		(stroke
			(width 0.05)
			(type default)
		)
		(layer "F.CrtYd")
		(uuid "295f844e-b002-48ed-a3fc-782bc5425adf")
	)
	(fp_line
		(start -3.85 3.1)
		(end -3.7 3.1)
		(stroke
			(width 0.05)
			(type default)
		)
		(layer "F.CrtYd")
		(uuid "c50ece55-a64e-4fc3-af43-26afd3b83ff7")
	)
	(fp_line
		(start -3.7 -3.7)
		(end -3.7 -3.1)
		(stroke
			(width 0.05)
			(type default)
		)
		(layer "F.CrtYd")
		(uuid "23232112-ac19-41b7-a3e4-bf22e82787c1")
	)
	(fp_line
		(start -3.7 -3.1)
		(end -3.85 -3.1)
		(stroke
			(width 0.05)
			(type default)
		)
		(layer "F.CrtYd")
		(uuid "a1abb89b-dd63-4557-ba41-8051fe21b8ec")
	)
	(fp_line
		(start -3.7 3.1)
		(end -3.7 3.7)
		(stroke
			(width 0.05)
			(type default)
		)
		(layer "F.CrtYd")
		(uuid "a7fad102-2dd0-4f0b-a25e-d20fa41efa6c")
	)
	(fp_line
		(start -3.7 3.7)
		(end -3.1 3.7)
		(stroke
			(width 0.05)
			(type default)
		)
		(layer "F.CrtYd")
		(uuid "303da4c7-06db-4c4d-9f84-7dacafad939d")
	)
	(fp_line
		(start -3.1 -3.85)
		(end -3.1 -3.7)
		(stroke
			(width 0.05)
			(type default)
		)
		(layer "F.CrtYd")
		(uuid "97c779fa-8ea2-4399-bdb8-d222dfd40ba6")
	)
	(fp_line
		(start -3.1 -3.7)
		(end -3.7 -3.7)
		(stroke
			(width 0.05)
			(type default)
		)
		(layer "F.CrtYd")
		(uuid "8f901e1d-384d-4fd6-8ee0-689f7c5bab9e")
	)
	(fp_line
		(start -3.1 3.7)
		(end -3.1 3.85)
		(stroke
			(width 0.05)
			(type default)
		)
		(layer "F.CrtYd")
		(uuid "34ed78e8-b104-436d-b2b9-53d62586948d")
	)
	(fp_line
		(start -3.1 3.85)
		(end 3.1 3.85)
		(stroke
			(width 0.05)
			(type default)
		)
		(layer "F.CrtYd")
		(uuid "87a6e9bc-1d85-4987-9162-021ac52c636a")
	)
	(fp_line
		(start 3.1 -3.85)
		(end -3.1 -3.85)
		(stroke
			(width 0.05)
			(type default)
		)
		(layer "F.CrtYd")
		(uuid "f6001606-f60a-4afb-bc6c-4caf740049a0")
	)
	(fp_line
		(start 3.1 -3.7)
		(end 3.1 -3.85)
		(stroke
			(width 0.05)
			(type default)
		)
		(layer "F.CrtYd")
		(uuid "28ca5694-1c1d-40a7-95be-10658b4db3c2")
	)
	(fp_line
		(start 3.1 3.7)
		(end 3.7 3.7)
		(stroke
			(width 0.05)
			(type default)
		)
		(layer "F.CrtYd")
		(uuid "d63748c3-66bf-4072-900e-f91fc86c372c")
	)
	(fp_line
		(start 3.1 3.85)
		(end 3.1 3.7)
		(stroke
			(width 0.05)
			(type default)
		)
		(layer "F.CrtYd")
		(uuid "7896740f-8181-4e00-a1ac-55bfa78a99b7")
	)
	(fp_line
		(start 3.7 -3.7)
		(end 3.1 -3.7)
		(stroke
			(width 0.05)
			(type default)
		)
		(layer "F.CrtYd")
		(uuid "effb91aa-ff39-4900-bccb-daea59a2974b")
	)
	(fp_line
		(start 3.7 -3.1)
		(end 3.7 -3.7)
		(stroke
			(width 0.05)
			(type default)
		)
		(layer "F.CrtYd")
		(uuid "ea6e4925-5a92-4b3d-a6b3-5cc6e60097d0")
	)
	(fp_line
		(start 3.7 3.1)
		(end 3.85 3.1)
		(stroke
			(width 0.05)
			(type default)
		)
		(layer "F.CrtYd")
		(uuid "9a5d6a97-a43c-4ed7-bb96-cac3402966f2")
	)
	(fp_line
		(start 3.7 3.7)
		(end 3.7 3.1)
		(stroke
			(width 0.05)
			(type default)
		)
		(layer "F.CrtYd")
		(uuid "1b11dc1c-e1e4-4359-af08-97b85b7b4c7e")
	)
	(fp_line
		(start 3.85 -3.1)
		(end 3.7 -3.1)
		(stroke
			(width 0.05)
			(type default)
		)
		(layer "F.CrtYd")
		(uuid "dbfba6e7-3933-4aa4-8ae9-6ceb7eb1cbc0")
	)
	(fp_line
		(start 3.85 3.1)
		(end 3.85 -3.1)
		(stroke
			(width 0.05)
			(type default)
		)
		(layer "F.CrtYd")
		(uuid "4f1e6e64-ee56-447a-94cd-8d49b0b84948")
	)
	(fp_rect
		(start -3.55 -3.55)
		(end 3.55 3.55)
		(stroke
			(width 0.1)
			(type default)
		)
		(fill none)
		(layer "F.Fab")
		(uuid "0f641ada-5462-4c4d-b472-24f9af3d634b")
	)
	(fp_text user "${REFERENCE}"
		(at 0 2.5 0)
		(unlocked yes)
		(layer "F.Fab")
		(uuid "8930b366-76f3-4c9d-8497-93e934b28911")
		(effects
			(font
				(size 1 1)
				(thickness 0.15)
			)
		)
	)
	(pad "1" smd roundrect
		(at -3.375 -2.75)
		(size 0.55 0.3)
		(layers "F.Cu" "F.Paste" "F.Mask")
		(roundrect_rratio 0.25)
		(thermal_bridge_angle 45)
		(uuid "a9793d46-5095-4604-b05d-90c3de31add0")
	)
	(pad "2" smd roundrect
		(at -3.375 -2.25)
		(size 0.55 0.3)
		(layers "F.Cu" "F.Paste" "F.Mask")
		(roundrect_rratio 0.25)
		(thermal_bridge_angle 45)
		(uuid "391946d0-ad03-4b8e-b8f5-735386d63deb")
	)
	(pad "3" smd roundrect
		(at -3.375 -1.75)
		(size 0.55 0.3)
		(layers "F.Cu" "F.Paste" "F.Mask")
		(roundrect_rratio 0.25)
		(thermal_bridge_angle 45)
		(uuid "e26e89e1-72dd-476f-a86a-06669e3bec85")
	)
	(pad "4" smd roundrect
		(at -3.375 -1.25)
		(size 0.55 0.3)
		(layers "F.Cu" "F.Paste" "F.Mask")
		(roundrect_rratio 0.25)
		(thermal_bridge_angle 45)
		(uuid "1d777737-ba45-4848-abb6-4339d5fc7c64")
	)
	(pad "5" smd roundrect
		(at -3.375 -0.75)
		(size 0.55 0.3)
		(layers "F.Cu" "F.Paste" "F.Mask")
		(roundrect_rratio 0.25)
		(thermal_bridge_angle 45)
		(uuid "86a0020c-e963-4636-bfba-07070d57f899")
	)
	(pad "6" smd roundrect
		(at -3.375 -0.25)
		(size 0.55 0.3)
		(layers "F.Cu" "F.Paste" "F.Mask")
		(roundrect_rratio 0.25)
		(thermal_bridge_angle 45)
		(uuid "1e7ec7aa-b09b-48c9-b038-229abadf9f7d")
	)
	(pad "7" smd roundrect
		(at -3.375 0.25)
		(size 0.55 0.3)
		(layers "F.Cu" "F.Paste" "F.Mask")
		(roundrect_rratio 0.25)
		(thermal_bridge_angle 45)
		(uuid "4dacdc31-06e9-407c-8e0e-331da29ed8c3")
	)
	(pad "8" smd roundrect
		(at -3.375 0.75)
		(size 0.55 0.3)
		(layers "F.Cu" "F.Paste" "F.Mask")
		(roundrect_rratio 0.25)
		(thermal_bridge_angle 45)
		(uuid "0cb07c26-e77c-4c21-98ef-f2bb9ddc8eff")
	)
	(pad "9" smd roundrect
		(at -3.375 1.25)
		(size 0.55 0.3)
		(layers "F.Cu" "F.Paste" "F.Mask")
		(roundrect_rratio 0.25)
		(thermal_bridge_angle 45)
		(uuid "49b84d17-75b0-4ba8-8071-cd79ff0f377a")
	)
	(pad "10" smd roundrect
		(at -3.375 1.75)
		(size 0.55 0.3)
		(layers "F.Cu" "F.Paste" "F.Mask")
		(roundrect_rratio 0.25)
		(thermal_bridge_angle 45)
		(uuid "2d2e68ad-5c5a-4175-a586-8df214909314")
	)
	(pad "11" smd roundrect
		(at -3.375 2.25)
		(size 0.55 0.3)
		(layers "F.Cu" "F.Paste" "F.Mask")
		(roundrect_rratio 0.25)
		(thermal_bridge_angle 45)
		(uuid "a653ef13-2ba7-4fff-b296-3c70081eadd7")
	)
	(pad "12" smd roundrect
		(at -3.375 2.75)
		(size 0.55 0.3)
		(layers "F.Cu" "F.Paste" "F.Mask")
		(roundrect_rratio 0.25)
		(thermal_bridge_angle 45)
		(uuid "78ffd664-1974-44d7-831d-f545ad267792")
	)
	(pad "13" smd roundrect
		(at -2.75 3.375 90)
		(size 0.55 0.3)
		(layers "F.Cu" "F.Paste" "F.Mask")
		(roundrect_rratio 0.25)
		(thermal_bridge_angle 45)
		(uuid "73e640e6-fadd-40a0-896b-db3c2f6d2e12")
	)
	(pad "14" smd roundrect
		(at -2.25 3.375 90)
		(size 0.55 0.3)
		(layers "F.Cu" "F.Paste" "F.Mask")
		(roundrect_rratio 0.25)
		(thermal_bridge_angle 45)
		(uuid "785e313a-1f4b-40b1-a6d9-51ff72aee38c")
	)
	(pad "15" smd roundrect
		(at -1.75 3.375 90)
		(size 0.55 0.3)
		(layers "F.Cu" "F.Paste" "F.Mask")
		(roundrect_rratio 0.25)
		(thermal_bridge_angle 45)
		(uuid "a607e5e1-1612-4a31-9987-6e02bd404455")
	)
	(pad "16" smd roundrect
		(at -1.25 3.375 90)
		(size 0.55 0.3)
		(layers "F.Cu" "F.Paste" "F.Mask")
		(roundrect_rratio 0.25)
		(thermal_bridge_angle 45)
		(uuid "e5d2a997-e199-41eb-9618-1ef733f1d72f")
	)
	(pad "17" smd roundrect
		(at -0.75 3.375 90)
		(size 0.55 0.3)
		(layers "F.Cu" "F.Paste" "F.Mask")
		(roundrect_rratio 0.25)
		(thermal_bridge_angle 45)
		(uuid "cffc7dce-06df-4d08-9dc1-39a9ca01a22e")
	)
	(pad "18" smd roundrect
		(at -0.25 3.375 90)
		(size 0.55 0.3)
		(layers "F.Cu" "F.Paste" "F.Mask")
		(roundrect_rratio 0.25)
		(thermal_bridge_angle 45)
		(uuid "9c07900c-3fb7-4ca1-9a89-a46784524bce")
	)
	(pad "19" smd roundrect
		(at 0.25 3.375 90)
		(size 0.55 0.3)
		(layers "F.Cu" "F.Paste" "F.Mask")
		(roundrect_rratio 0.25)
		(thermal_bridge_angle 45)
		(uuid "f535411b-fc80-416e-b093-790facb153ed")
	)
	(pad "20" smd roundrect
		(at 0.75 3.375 90)
		(size 0.55 0.3)
		(layers "F.Cu" "F.Paste" "F.Mask")
		(roundrect_rratio 0.25)
		(thermal_bridge_angle 45)
		(uuid "00839f23-54cf-4e13-b303-faccaa9bb5cb")
	)
	(pad "21" smd roundrect
		(at 1.25 3.375 90)
		(size 0.55 0.3)
		(layers "F.Cu" "F.Paste" "F.Mask")
		(roundrect_rratio 0.25)
		(thermal_bridge_angle 45)
		(uuid "00e0ba5b-e590-4547-80f5-4e0479dbbabe")
	)
	(pad "22" smd roundrect
		(at 1.75 3.375 90)
		(size 0.55 0.3)
		(layers "F.Cu" "F.Paste" "F.Mask")
		(roundrect_rratio 0.25)
		(thermal_bridge_angle 45)
		(uuid "46617f51-cae9-4ed3-a6f4-875776826d6d")
	)
	(pad "23" smd roundrect
		(at 2.25 3.375 90)
		(size 0.55 0.3)
		(layers "F.Cu" "F.Paste" "F.Mask")
		(roundrect_rratio 0.25)
		(thermal_bridge_angle 45)
		(uuid "9a3a1f37-c959-4635-8279-a46c6b5c224d")
	)
	(pad "24" smd roundrect
		(at 2.75 3.375 90)
		(size 0.55 0.3)
		(layers "F.Cu" "F.Paste" "F.Mask")
		(roundrect_rratio 0.25)
		(thermal_bridge_angle 45)
		(uuid "c6c14a71-11be-4700-b189-a8bb4a5dcad3")
	)
	(pad "25" smd roundrect
		(at 3.375 2.75)
		(size 0.55 0.3)
		(layers "F.Cu" "F.Paste" "F.Mask")
		(roundrect_rratio 0.25)
		(thermal_bridge_angle 45)
		(uuid "0274b8bf-8b2b-460e-bac5-965cf8c10cd5")
	)
	(pad "26" smd roundrect
		(at 3.375 2.25)
		(size 0.55 0.3)
		(layers "F.Cu" "F.Paste" "F.Mask")
		(roundrect_rratio 0.25)
		(thermal_bridge_angle 45)
		(uuid "88be58f1-0936-4db5-9960-aafa31f7398b")
	)
	(pad "27" smd roundrect
		(at 3.375 1.75)
		(size 0.55 0.3)
		(layers "F.Cu" "F.Paste" "F.Mask")
		(roundrect_rratio 0.25)
		(thermal_bridge_angle 45)
		(uuid "237d1a3b-8910-4bcb-b6c9-ca77cd39a200")
	)
	(pad "28" smd roundrect
		(at 3.375 1.25)
		(size 0.55 0.3)
		(layers "F.Cu" "F.Paste" "F.Mask")
		(roundrect_rratio 0.25)
		(thermal_bridge_angle 45)
		(uuid "27964751-f9eb-4e82-83e6-3fcf41018b9a")
	)
	(pad "29" smd roundrect
		(at 3.375 0.75)
		(size 0.55 0.3)
		(layers "F.Cu" "F.Paste" "F.Mask")
		(roundrect_rratio 0.25)
		(thermal_bridge_angle 45)
		(uuid "97270508-deee-4659-af70-e06a17af3623")
	)
	(pad "30" smd roundrect
		(at 3.375 0.25)
		(size 0.55 0.3)
		(layers "F.Cu" "F.Paste" "F.Mask")
		(roundrect_rratio 0.25)
		(thermal_bridge_angle 45)
		(uuid "d2dd14e0-548c-4c65-af7c-4413c537ff5a")
	)
	(pad "31" smd roundrect
		(at 3.375 -0.25)
		(size 0.55 0.3)
		(layers "F.Cu" "F.Paste" "F.Mask")
		(roundrect_rratio 0.25)
		(thermal_bridge_angle 45)
		(uuid "afe7358b-f62f-451f-b966-9c07fb8c5d18")
	)
	(pad "32" smd roundrect
		(at 3.375 -0.75)
		(size 0.55 0.3)
		(layers "F.Cu" "F.Paste" "F.Mask")
		(roundrect_rratio 0.25)
		(thermal_bridge_angle 45)
		(uuid "705c824a-99ca-4e14-ba1b-c65944a9f269")
	)
	(pad "33" smd roundrect
		(at 3.375 -1.25)
		(size 0.55 0.3)
		(layers "F.Cu" "F.Paste" "F.Mask")
		(roundrect_rratio 0.25)
		(thermal_bridge_angle 45)
		(uuid "890f2572-edbb-4c6d-8999-7ece7279bf02")
	)
	(pad "34" smd roundrect
		(at 3.375 -1.75)
		(size 0.55 0.3)
		(layers "F.Cu" "F.Paste" "F.Mask")
		(roundrect_rratio 0.25)
		(thermal_bridge_angle 45)
		(uuid "4af5b15f-144a-4fca-a303-7d99c9dee04f")
	)
	(pad "35" smd roundrect
		(at 3.375 -2.25)
		(size 0.55 0.3)
		(layers "F.Cu" "F.Paste" "F.Mask")
		(roundrect_rratio 0.25)
		(thermal_bridge_angle 45)
		(uuid "a97d64a1-dff9-4596-a4a8-8bcb8606cb00")
	)
	(pad "36" smd roundrect
		(at 3.375 -2.75)
		(size 0.55 0.3)
		(layers "F.Cu" "F.Paste" "F.Mask")
		(roundrect_rratio 0.25)
		(thermal_bridge_angle 45)
		(uuid "baa25128-dfba-4f7e-ac15-6da2362aa774")
	)
	(pad "37" smd roundrect
		(at 2.75 -3.375 90)
		(size 0.55 0.3)
		(layers "F.Cu" "F.Paste" "F.Mask")
		(roundrect_rratio 0.25)
		(thermal_bridge_angle 45)
		(uuid "5a14c3fb-7e52-402e-94dd-d4909d0def2c")
	)
	(pad "38" smd roundrect
		(at 2.25 -3.375 90)
		(size 0.55 0.3)
		(layers "F.Cu" "F.Paste" "F.Mask")
		(roundrect_rratio 0.25)
		(thermal_bridge_angle 45)
		(uuid "071e2bbc-6f9d-4c23-968b-a9c11929319a")
	)
	(pad "39" smd roundrect
		(at 1.75 -3.375 90)
		(size 0.55 0.3)
		(layers "F.Cu" "F.Paste" "F.Mask")
		(roundrect_rratio 0.25)
		(thermal_bridge_angle 45)
		(uuid "ea290b35-e4bf-448e-96ce-a63681ad7565")
	)
	(pad "40" smd roundrect
		(at 1.25 -3.375 90)
		(size 0.55 0.3)
		(layers "F.Cu" "F.Paste" "F.Mask")
		(roundrect_rratio 0.25)
		(thermal_bridge_angle 45)
		(uuid "7288db80-2b1a-44dc-b34a-9e7d3d93edfb")
	)
	(pad "41" smd roundrect
		(at 0.75 -3.375 90)
		(size 0.55 0.3)
		(layers "F.Cu" "F.Paste" "F.Mask")
		(roundrect_rratio 0.25)
		(thermal_bridge_angle 45)
		(uuid "989cec29-2956-445e-9835-3d2ceb91c210")
	)
	(pad "42" smd roundrect
		(at 0.25 -3.375 90)
		(size 0.55 0.3)
		(layers "F.Cu" "F.Paste" "F.Mask")
		(roundrect_rratio 0.25)
		(thermal_bridge_angle 45)
		(uuid "cf7aea82-e6b8-4dcb-a3cf-85279dddce8e")
	)
	(pad "43" smd roundrect
		(at -0.25 -3.375 90)
		(size 0.55 0.3)
		(layers "F.Cu" "F.Paste" "F.Mask")
		(roundrect_rratio 0.25)
		(thermal_bridge_angle 45)
		(uuid "faadedfc-66b7-4329-8546-e01ab2d2f154")
	)
	(pad "44" smd roundrect
		(at -0.75 -3.375 90)
		(size 0.55 0.3)
		(layers "F.Cu" "F.Paste" "F.Mask")
		(roundrect_rratio 0.25)
		(thermal_bridge_angle 45)
		(uuid "c8462b9f-e4ec-4c2c-8af1-c00ac1ad6b48")
	)
	(pad "45" smd roundrect
		(at -1.25 -3.375 90)
		(size 0.55 0.3)
		(layers "F.Cu" "F.Paste" "F.Mask")
		(roundrect_rratio 0.25)
		(thermal_bridge_angle 45)
		(uuid "4bcd4e64-c23d-418b-8891-f0f5f0bcf284")
	)
	(pad "46" smd roundrect
		(at -1.75 -3.375 90)
		(size 0.55 0.3)
		(layers "F.Cu" "F.Paste" "F.Mask")
		(roundrect_rratio 0.25)
		(thermal_bridge_angle 45)
		(uuid "b3b700e4-0088-4e03-b752-8991671f915c")
	)
	(pad "47" smd roundrect
		(at -2.25 -3.375 90)
		(size 0.55 0.3)
		(layers "F.Cu" "F.Paste" "F.Mask")
		(roundrect_rratio 0.25)
		(thermal_bridge_angle 45)
		(uuid "316d1d52-1874-4bf6-9df5-0f8e1ab3eeba")
	)
	(pad "48" smd roundrect
		(at -2.75 -3.375 90)
		(size 0.55 0.3)
		(layers "F.Cu" "F.Paste" "F.Mask")
		(roundrect_rratio 0.25)
		(thermal_bridge_angle 45)
		(uuid "ee2192be-77f8-4305-bd01-f31edc1cca66")
	)
	(pad "49" smd rect
		(at 0 0 90)
		(size 5.6 5.6)
		(layers "F.Cu" "F.Paste" "F.Mask")
		(thermal_bridge_angle 45)
		(uuid "d749ee26-a74b-449d-a920-171aaee0bdf1")
	)
)
