(module LEDC100X50X50L40N (layer F.Cu) (tedit 5CA02E6A)
  (descr "LED, Chip; 1.00 mm L X 0.50 mm W X 0.50 mm H body")
  (attr smd)
  (fp_text reference D2 (at 0 0) (layer F.SilkS)
    (effects (font (size 1.2 1.2) (thickness 0.12)))
  )
  (fp_text value LED (at 0 0) (layer F.Fab)
    (effects (font (size 1.2 1.2) (thickness 0.12)))
  )
  (fp_line (start 0 -0.23) (end 0 0.23) (layer Dwgs.User) (width 0.05))
  (fp_line (start 0.23 0) (end -0.23 0) (layer Dwgs.User) (width 0.05))
  (fp_circle (center 0 0) (end 0.1725 0) (layer Dwgs.User) (width 0.05))
  (fp_line (start 0.92 0.46) (end -0.92 0.46) (layer F.CrtYd) (width 0.05))
  (fp_line (start 0.92 -0.46) (end 0.92 0.46) (layer F.CrtYd) (width 0.05))
  (fp_line (start -0.92 -0.46) (end 0.92 -0.46) (layer F.CrtYd) (width 0.05))
  (fp_line (start -0.92 0.46) (end -0.92 -0.46) (layer F.CrtYd) (width 0.05))
  (fp_line (start 0.55 0.3) (end -0.55 0.3) (layer F.Fab) (width 0.12))
  (fp_line (start 0.55 -0.3) (end 0.55 0.3) (layer F.Fab) (width 0.12))
  (fp_line (start -0.55 -0.3) (end 0.55 -0.3) (layer F.Fab) (width 0.12))
  (fp_line (start -0.55 0.3) (end -0.55 -0.3) (layer F.Fab) (width 0.12))
  (fp_line (start 0.5 0.25) (end -0.5 0.25) (layer Dwgs.User) (width 0.025))
  (fp_line (start 0.5 -0.25) (end 0.5 0.25) (layer Dwgs.User) (width 0.025))
  (fp_line (start -0.5 -0.25) (end 0.5 -0.25) (layer Dwgs.User) (width 0.025))
  (fp_line (start -0.5 0.25) (end -0.5 -0.25) (layer Dwgs.User) (width 0.025))
  (fp_line (start 0.5 0.25) (end 0.1 0.25) (layer Dwgs.User) (width 0.025))
  (fp_line (start 0.5 -0.25) (end 0.5 0.25) (layer Dwgs.User) (width 0.025))
  (fp_line (start 0.1 -0.25) (end 0.5 -0.25) (layer Dwgs.User) (width 0.025))
  (fp_line (start 0.1 0.25) (end 0.1 -0.25) (layer Dwgs.User) (width 0.025))
  (fp_line (start -0.5 -0.25) (end -0.1 -0.25) (layer Dwgs.User) (width 0.025))
  (fp_line (start -0.5 0.25) (end -0.5 -0.25) (layer Dwgs.User) (width 0.025))
  (fp_line (start -0.1 0.25) (end -0.5 0.25) (layer Dwgs.User) (width 0.025))
  (fp_line (start -0.1 -0.25) (end -0.1 0.25) (layer Dwgs.User) (width 0.025))
  (fp_text user %R (at 0 0) (layer F.Fab)
    (effects (font (size 0.5 0.5) (thickness 0.05)))
  )
  (pad 2 smd roundrect (at 0.42 0) (size 0.69 0.61) (layers F.Cu F.Paste F.Mask) (roundrect_rratio 0.25))
  (pad 1 smd roundrect (at -0.42 0) (size 0.69 0.61) (layers F.Cu F.Paste F.Mask) (roundrect_rratio 0.25))
)
