(footprint "LEDC100X50X60L30" (version 20221018) (generator pcbnew)
  (layer "F.Cu")
  (descr "LED, Chip; 1.00 mm L X 0.50 mm W X 0.60 mm H body")
  (attr smd)
  (fp_text reference "REF**" (at 0 0) (layer "F.SilkS")
      (effects (font (size 1.2 1.2) (thickness 0.12)))
    (tstamp e8c6d7ab-eae2-4c74-800a-8e181ba83819)
  )
  (fp_text value "VAL**" (at 0 0) (layer "F.Fab")
      (effects (font (size 1.2 1.2) (thickness 0.12)))
    (tstamp b4f09f02-54d3-44d6-978e-29aff06918aa)
  )
  (fp_text user "${REFERENCE}" (at 0 0) (layer "F.Fab")
      (effects (font (size 0.5 0.5) (thickness 0.05)))
    (tstamp d9b2f374-16a6-43fa-b651-b470f349b219)
  )
  (fp_line (start -0.5 -0.25) (end -0.2 -0.25)
    (stroke (width 0.025) (type solid)) (layer "Dwgs.User") (tstamp 0c5d9208-eebd-41ec-9764-6ee6335b5a0f))
  (fp_line (start -0.5 -0.25) (end 0.5 -0.25)
    (stroke (width 0.025) (type solid)) (layer "Dwgs.User") (tstamp 98992dcb-dc3d-4a05-9e1c-9fc8d3d63841))
  (fp_line (start -0.5 0.25) (end -0.5 -0.25)
    (stroke (width 0.025) (type solid)) (layer "Dwgs.User") (tstamp 156e9b63-2a31-4142-a72f-ecb7f3870ba8))
  (fp_line (start -0.5 0.25) (end -0.5 -0.25)
    (stroke (width 0.025) (type solid)) (layer "Dwgs.User") (tstamp b3150e9f-2b84-4868-9350-290359417840))
  (fp_line (start -0.2 -0.25) (end -0.2 0.25)
    (stroke (width 0.025) (type solid)) (layer "Dwgs.User") (tstamp 426f801d-e53b-41ba-8a4c-275c6e6671f7))
  (fp_line (start -0.2 0.25) (end -0.5 0.25)
    (stroke (width 0.025) (type solid)) (layer "Dwgs.User") (tstamp d1ea0d80-cdd0-4f99-bfd9-acb9e5d9b76b))
  (fp_line (start 0.2 -0.25) (end 0.5 -0.25)
    (stroke (width 0.025) (type solid)) (layer "Dwgs.User") (tstamp c69dc9c7-264d-40c7-be84-c093db9c7d8f))
  (fp_line (start 0.2 0.25) (end 0.2 -0.25)
    (stroke (width 0.025) (type solid)) (layer "Dwgs.User") (tstamp 0d8d865a-520c-4d68-9250-7e086e0ec840))
  (fp_line (start 0.5 -0.25) (end 0.5 0.25)
    (stroke (width 0.025) (type solid)) (layer "Dwgs.User") (tstamp 10cdf742-00fc-411c-a6d9-39fc1f2f6ae7))
  (fp_line (start 0.5 -0.25) (end 0.5 0.25)
    (stroke (width 0.025) (type solid)) (layer "Dwgs.User") (tstamp 7f1279cc-aced-4c37-ad02-82d5755a9c32))
  (fp_line (start 0.5 0.25) (end -0.5 0.25)
    (stroke (width 0.025) (type solid)) (layer "Dwgs.User") (tstamp 726b4700-100f-484d-ad40-e05c942a3f9e))
  (fp_line (start 0.5 0.25) (end 0.2 0.25)
    (stroke (width 0.025) (type solid)) (layer "Dwgs.User") (tstamp 0e68d5ea-09ec-4b93-8b3f-71f7558fdf7a))
  (fp_line (start -0.9 -0.45) (end 0.9 -0.45)
    (stroke (width 0.05) (type solid)) (layer "F.CrtYd") (tstamp 4c074a83-f365-4306-af40-d498ea1365d9))
  (fp_line (start -0.9 0.45) (end -0.9 -0.45)
    (stroke (width 0.05) (type solid)) (layer "F.CrtYd") (tstamp c05acdef-b82e-46c6-938d-43cf49913384))
  (fp_line (start 0 -0.225) (end 0 0.225)
    (stroke (width 0.05) (type solid)) (layer "F.CrtYd") (tstamp c08aeb3d-a748-4fac-bb85-3d17d49a8464))
  (fp_line (start 0.225 0) (end -0.225 0)
    (stroke (width 0.05) (type solid)) (layer "F.CrtYd") (tstamp 78bf49bd-463e-4def-a760-b93382d8cc78))
  (fp_line (start 0.9 -0.45) (end 0.9 0.45)
    (stroke (width 0.05) (type solid)) (layer "F.CrtYd") (tstamp a84c9636-892e-4a64-a3b3-b21bd82af6b9))
  (fp_line (start 0.9 0.45) (end -0.9 0.45)
    (stroke (width 0.05) (type solid)) (layer "F.CrtYd") (tstamp 313c01dd-2c88-41ae-b013-2527359f03c4))
  (fp_circle (center 0 0) (end 0 0.1688)
    (stroke (width 0.05) (type solid)) (fill none) (layer "F.CrtYd") (tstamp 82abfad0-1c33-4ac7-8ad9-25615692b30b))
  (fp_line (start -0.55 -0.3) (end 0.55 -0.3)
    (stroke (width 0.12) (type solid)) (layer "F.Fab") (tstamp ef76a7ce-0531-48ac-af6b-258a41738d29))
  (fp_line (start -0.55 0.3) (end -0.55 -0.3)
    (stroke (width 0.12) (type solid)) (layer "F.Fab") (tstamp dd740584-f1a0-4c54-896e-795682d30379))
  (fp_line (start 0.55 -0.3) (end 0.55 0.3)
    (stroke (width 0.12) (type solid)) (layer "F.Fab") (tstamp 3949ad26-2283-4fce-9a75-0bd5cd3c1c72))
  (fp_line (start 0.55 0.3) (end -0.55 0.3)
    (stroke (width 0.12) (type solid)) (layer "F.Fab") (tstamp f02f84aa-46d3-4795-8edd-8be536f80194))
  (pad "1" smd rect (at -0.5 0) (size 0.5 0.5) (layers "F.Cu" "F.Paste" "F.Mask") (tstamp f1aa0e2b-7ddc-4ea7-876f-cc2b365cb797))
  (pad "2" smd rect (at 0.5 0) (size 0.5 0.5) (layers "F.Cu" "F.Paste" "F.Mask") (tstamp a1ec023f-b85f-4c5b-aaca-a74c669d6070))
)
