(footprint "LEDRR254W50L500T200H800" (version 20221018) (generator pcbnew)
  (layer "F.Cu")
  (descr "Radial (LED) rect.; 2.54 mm pitch X 0.50 mm W X 5.00 mm L X 2.00 mm T X 8.00 mm H body")
  (attr through_hole)
  (fp_text reference "REF**" (at 0 0) (layer "F.SilkS")
      (effects (font (size 1.2 1.2) (thickness 0.12)))
    (tstamp 68b1dcfc-3498-4424-b815-8bb70da99e85)
  )
  (fp_text value "Val**" (at 0 0) (layer "F.SilkS")
      (effects (font (size 1.27 1.27) (thickness 0.15)))
    (tstamp 2553b6f4-6965-4277-90c6-3ae37ea392e2)
  )
  (fp_text user "${REFERENCE}" (at 0 0) (layer "F.Fab")
      (effects (font (size 1.52 1.52) (thickness 0.15)))
    (tstamp 09cae587-eee5-4903-97c7-ea3a71f0fc43)
  )
  (fp_line (start -2.5 -1) (end 2.5 -1)
    (stroke (width 0.12) (type solid)) (layer "F.SilkS") (tstamp d76f6220-978b-4ee8-87c0-45bedc1c4649))
  (fp_line (start -2.5 1) (end -2.5 -1)
    (stroke (width 0.12) (type solid)) (layer "F.SilkS") (tstamp 5ec6a92d-bed6-4190-96c4-de65aa10af92))
  (fp_line (start 2.5 -1) (end 2.5 1)
    (stroke (width 0.12) (type solid)) (layer "F.SilkS") (tstamp 865f285a-0123-4019-8d6a-7f9e340bd2e8))
  (fp_line (start 2.5 1) (end -2.5 1)
    (stroke (width 0.12) (type solid)) (layer "F.SilkS") (tstamp 5fcafd11-914f-40b5-8f6f-4067ac0b8937))
  (fp_circle (center -2.93 0) (end -2.93 0.125)
    (stroke (width 0.25) (type solid)) (fill none) (layer "F.SilkS") (tstamp 50f36e55-ea03-465b-9e6f-ca709df2e1be))
  (fp_line (start -2.5 -1) (end 2.5 -1)
    (stroke (width 0.025) (type solid)) (layer "Dwgs.User") (tstamp b3a81a03-dd09-41b0-a068-1b654098226a))
  (fp_line (start -2.5 1) (end -2.5 -1)
    (stroke (width 0.025) (type solid)) (layer "Dwgs.User") (tstamp 2218475d-aea7-4076-a51c-ee9c4fcdbbf3))
  (fp_line (start -1.57 -0.3) (end -0.97 -0.3)
    (stroke (width 0.025) (type solid)) (layer "Dwgs.User") (tstamp 224cad10-62de-4fed-87fd-37f465b04525))
  (fp_line (start -1.57 0.3) (end -1.57 -0.3)
    (stroke (width 0.025) (type solid)) (layer "Dwgs.User") (tstamp 9d8c3313-63f8-41d3-89d6-29575d8527fe))
  (fp_line (start -0.97 -0.3) (end -0.97 0.3)
    (stroke (width 0.025) (type solid)) (layer "Dwgs.User") (tstamp 9a70a525-7adb-4039-9047-d333831ce7e9))
  (fp_line (start -0.97 0.3) (end -1.57 0.3)
    (stroke (width 0.025) (type solid)) (layer "Dwgs.User") (tstamp 75b0bbbc-25ef-4414-acb0-3ef09c129f52))
  (fp_line (start 0.97 -0.3) (end 1.57 -0.3)
    (stroke (width 0.025) (type solid)) (layer "Dwgs.User") (tstamp 5f081b7b-320e-4bd5-ba9c-a3951a5843ed))
  (fp_line (start 0.97 0.3) (end 0.97 -0.3)
    (stroke (width 0.025) (type solid)) (layer "Dwgs.User") (tstamp 1e30981c-2e9a-4084-823c-d40620e647b9))
  (fp_line (start 1.57 -0.3) (end 1.57 0.3)
    (stroke (width 0.025) (type solid)) (layer "Dwgs.User") (tstamp b681363e-0ca1-432d-b726-c7663b722c94))
  (fp_line (start 1.57 0.3) (end 0.97 0.3)
    (stroke (width 0.025) (type solid)) (layer "Dwgs.User") (tstamp c9bf026f-702c-4adb-9037-07807402358b))
  (fp_line (start 2.5 -1) (end 2.5 1)
    (stroke (width 0.025) (type solid)) (layer "Dwgs.User") (tstamp 99390738-d5d8-48e2-a299-32d3c8115395))
  (fp_line (start 2.5 1) (end -2.5 1)
    (stroke (width 0.025) (type solid)) (layer "Dwgs.User") (tstamp aa90f885-9162-432a-aae6-dc889fc19e28))
  (fp_line (start -2.75 -1.25) (end -2.75 1.25)
    (stroke (width 0.05) (type solid)) (layer "F.CrtYd") (tstamp 61737f18-423b-45b9-9774-884cbf48e552))
  (fp_line (start -2.75 1.25) (end 2.75 1.25)
    (stroke (width 0.05) (type solid)) (layer "F.CrtYd") (tstamp 501dcd93-d39e-49f8-8242-ec338a26ba7c))
  (fp_line (start 0 -0.35) (end 0 0.35)
    (stroke (width 0.05) (type solid)) (layer "F.CrtYd") (tstamp e50fb02e-58ee-4ee4-8233-d7e1657a051d))
  (fp_line (start 0.35 0) (end -0.35 0)
    (stroke (width 0.05) (type solid)) (layer "F.CrtYd") (tstamp 530b7cb5-edfa-4f6f-84e6-eb95fcca9cda))
  (fp_line (start 2.75 -1.25) (end -2.75 -1.25)
    (stroke (width 0.05) (type solid)) (layer "F.CrtYd") (tstamp f1a5a650-465d-443e-ab21-1eeeb8b5245d))
  (fp_line (start 2.75 1.25) (end 2.75 -1.25)
    (stroke (width 0.05) (type solid)) (layer "F.CrtYd") (tstamp b8d2ed5e-9fad-4be1-bfea-3e204a0b57fb))
  (fp_circle (center 0 0) (end 0 0.25)
    (stroke (width 0.05) (type solid)) (fill none) (layer "F.CrtYd") (tstamp 5e597c58-853c-4087-9829-d5eee097e703))
  (fp_line (start -2.5 -1) (end -2.5 0.333)
    (stroke (width 0.12) (type solid)) (layer "F.Fab") (tstamp 6178e2c2-8ad7-440e-805a-02160d04df1d))
  (fp_line (start -2.5 0.333) (end -1.833 1)
    (stroke (width 0.12) (type solid)) (layer "F.Fab") (tstamp 1921855f-aa94-4ea2-9d08-63a85d911373))
  (fp_line (start -1.833 1) (end 2.5 1)
    (stroke (width 0.12) (type solid)) (layer "F.Fab") (tstamp fd4b1f9b-2b89-42f7-bf27-1e9ce4a0064e))
  (fp_line (start 2.5 -1) (end -2.5 -1)
    (stroke (width 0.12) (type solid)) (layer "F.Fab") (tstamp c05e94a5-a12a-4a3c-b421-45fbb59f991b))
  (fp_line (start 2.5 1) (end 2.5 -1)
    (stroke (width 0.12) (type solid)) (layer "F.Fab") (tstamp 92c69f0e-dcd0-40e3-819d-9a53eecdcb0d))
  (pad "1" thru_hole rect (at -1.27 0) (size 1.5 1.5) (drill 1) (layers "*.Cu" "*.Mask") (tstamp e58db04d-cdd7-4079-99a4-235493dc5082))
  (pad "2" thru_hole circle (at 1.27 0) (size 1.5 1.5) (drill 1) (layers "*.Cu" "*.Mask") (tstamp 94bc2c49-479c-44a3-b689-341154f75c37))
)
