(kicad_symbol_lib (version 20211014) (generator kicad_symbol_editor)
  (symbol "ACS70331" (pin_names (offset 1.27)) (in_bom yes) (on_board yes)
    (property "Reference" "U" (id 0) (at -11.43 6.35 0)
      (effects (font (size 1.27 1.27)) (justify right))
    )
    (property "Value" "ACS70331" (id 1) (at -11.43 3.81 0)
      (effects (font (size 1.27 1.27)) (justify right))
    )
    (property "Footprint" "" (id 2) (at 0 0 0)
      (effects (font (size 1.27 1.27)) hide)
    )
    (property "Datasheet" "https://www.allegromicro.com/~/media/Files/Datasheets/ACS70331-Datasheet.ashx" (id 3) (at 0 0 0)
      (effects (font (size 1.27 1.27)) hide)
    )
    (property "Range" "Current Range" (id 4) (at -11.43 1.27 0)
      (effects (font (size 1.27 1.27)) (justify right))
    )
    (symbol "ACS70331_0_1"
      (rectangle (start -10.16 10.16) (end 10.16 -8.89)
        (stroke (width 0) (type default) (color 0 0 0 0))
        (fill (type background))
      )
    )
    (symbol "ACS70331_1_1"
      (pin passive line (at -7.62 15.24 270) (length 5.08)
        (name "IP+" (effects (font (size 1.27 1.27))))
        (number "1" (effects (font (size 1.27 1.27))))
      )
      (pin power_in line (at 7.62 -13.97 90) (length 5.08)
        (name "NC" (effects (font (size 1.27 1.27))))
        (number "10" (effects (font (size 1.27 1.27))))
      )
      (pin output line (at 15.24 -1.27 180) (length 5.08)
        (name "VIOUT" (effects (font (size 1.27 1.27))))
        (number "11" (effects (font (size 1.27 1.27))))
      )
      (pin power_in line (at 15.24 3.81 180) (length 5.08)
        (name "VCC" (effects (font (size 1.27 1.27))))
        (number "12" (effects (font (size 1.27 1.27))))
      )
      (pin passive line (at -2.54 15.24 270) (length 5.08)
        (name "IP+" (effects (font (size 1.27 1.27))))
        (number "2" (effects (font (size 1.27 1.27))))
      )
      (pin passive line (at 2.54 15.24 270) (length 5.08)
        (name "IP-" (effects (font (size 1.27 1.27))))
        (number "3" (effects (font (size 1.27 1.27))))
      )
      (pin passive line (at 7.62 15.24 270) (length 5.08)
        (name "IP-" (effects (font (size 1.27 1.27))))
        (number "4" (effects (font (size 1.27 1.27))))
      )
      (pin power_in line (at 15.24 -3.81 180) (length 5.08)
        (name "GND" (effects (font (size 1.27 1.27))))
        (number "5" (effects (font (size 1.27 1.27))))
      )
      (pin output line (at 15.24 1.27 180) (length 5.08)
        (name "FAULT" (effects (font (size 1.27 1.27))))
        (number "6" (effects (font (size 1.27 1.27))))
      )
      (pin power_in line (at -7.62 -13.97 90) (length 5.08)
        (name "NC" (effects (font (size 1.27 1.27))))
        (number "7" (effects (font (size 1.27 1.27))))
      )
      (pin power_in line (at -2.54 -13.97 90) (length 5.08)
        (name "NC" (effects (font (size 1.27 1.27))))
        (number "8" (effects (font (size 1.27 1.27))))
      )
      (pin power_in line (at 2.54 -13.97 90) (length 5.08)
        (name "NC" (effects (font (size 1.27 1.27))))
        (number "9" (effects (font (size 1.27 1.27))))
      )
    )
  )
)
