(kicad_symbol_lib (version 20211014) (generator kicad_symbol_editor)
  (symbol "ESP-1" (in_bom yes) (on_board yes)
    (property "Reference" "XA" (id 0) (at 0 12.7 0)
      (effects (font (size 1.27 1.27)))
    )
    (property "Value" "ESP-1" (id 1) (at 0 -12.7 0)
      (effects (font (size 1.27 1.27)))
    )
    (property "Footprint" "" (id 2) (at 0 0 0)
      (effects (font (size 1.27 1.27)) hide)
    )
    (property "Datasheet" "" (id 3) (at 0 0 0)
      (effects (font (size 1.27 1.27)) hide)
    )
    (symbol "ESP-1_0_1"
      (rectangle (start -7.62 11.43) (end 7.62 -11.43)
        (stroke (width 0) (type default) (color 0 0 0 0))
        (fill (type background))
      )
    )
    (symbol "ESP-1_1_1"
      (pin input line (at -12.7 8.89 0) (length 5.08)
        (name "RST" (effects (font (size 1.27 1.27))))
        (number "1" (effects (font (size 1.27 1.27))))
      )
      (pin bidirectional line (at 12.7 -6.35 180) (length 5.08)
        (name "GPIO12" (effects (font (size 1.27 1.27))))
        (number "10" (effects (font (size 1.27 1.27))))
      )
      (pin bidirectional line (at 12.7 -3.81 180) (length 5.08)
        (name "GPIO2" (effects (font (size 1.27 1.27))))
        (number "11" (effects (font (size 1.27 1.27))))
      )
      (pin bidirectional line (at 12.7 -1.27 180) (length 5.08)
        (name "GPIO0" (effects (font (size 1.27 1.27))))
        (number "12" (effects (font (size 1.27 1.27))))
      )
      (pin bidirectional line (at 12.7 1.27 180) (length 5.08)
        (name "GPIO4" (effects (font (size 1.27 1.27))))
        (number "13" (effects (font (size 1.27 1.27))))
      )
      (pin bidirectional line (at 12.7 3.81 180) (length 5.08)
        (name "GPIO5" (effects (font (size 1.27 1.27))))
        (number "14" (effects (font (size 1.27 1.27))))
      )
      (pin input line (at 12.7 6.35 180) (length 5.08)
        (name "RX" (effects (font (size 1.27 1.27))))
        (number "15" (effects (font (size 1.27 1.27))))
      )
      (pin output line (at 12.7 8.89 180) (length 5.08)
        (name "TX" (effects (font (size 1.27 1.27))))
        (number "16" (effects (font (size 1.27 1.27))))
      )
      (pin input line (at -12.7 6.35 0) (length 5.08)
        (name "ADC" (effects (font (size 1.27 1.27))))
        (number "2" (effects (font (size 1.27 1.27))))
      )
      (pin input line (at -12.7 3.81 0) (length 5.08)
        (name "EN" (effects (font (size 1.27 1.27))))
        (number "3" (effects (font (size 1.27 1.27))))
      )
      (pin bidirectional line (at -12.7 1.27 0) (length 5.08)
        (name "GPIO16" (effects (font (size 1.27 1.27))))
        (number "4" (effects (font (size 1.27 1.27))))
      )
      (pin bidirectional line (at -12.7 -1.27 0) (length 5.08)
        (name "GPIO14" (effects (font (size 1.27 1.27))))
        (number "5" (effects (font (size 1.27 1.27))))
      )
      (pin bidirectional line (at -12.7 -3.81 0) (length 5.08)
        (name "GPIO12" (effects (font (size 1.27 1.27))))
        (number "6" (effects (font (size 1.27 1.27))))
      )
      (pin bidirectional line (at -12.7 -6.35 0) (length 5.08)
        (name "GPIO13" (effects (font (size 1.27 1.27))))
        (number "7" (effects (font (size 1.27 1.27))))
      )
      (pin power_in line (at -12.7 -8.89 0) (length 5.08)
        (name "VCC" (effects (font (size 1.27 1.27))))
        (number "8" (effects (font (size 1.27 1.27))))
      )
      (pin power_in line (at 12.7 -8.89 180) (length 5.08)
        (name "GND" (effects (font (size 1.27 1.27))))
        (number "9" (effects (font (size 1.27 1.27))))
      )
    )
  )
  (symbol "STEPSTICK" (pin_names (offset 1.016)) (in_bom yes) (on_board yes)
    (property "Reference" "XA" (id 0) (at 0 12.7 0)
      (effects (font (size 1.524 1.524)))
    )
    (property "Value" "STEPSTICK" (id 1) (at 0 -12.7 0)
      (effects (font (size 1.524 1.524)))
    )
    (property "Footprint" "" (id 2) (at 0 0 0)
      (effects (font (size 1.524 1.524)))
    )
    (property "Datasheet" "" (id 3) (at 0 0 0)
      (effects (font (size 1.524 1.524)))
    )
    (symbol "STEPSTICK_0_1"
      (rectangle (start -7.62 11.43) (end 7.62 -11.43)
        (stroke (width 0) (type default) (color 0 0 0 0))
        (fill (type none))
      )
      (polyline
        (pts
          (xy -1.27 11.43)
          (xy -1.27 10.16)
          (xy 1.27 10.16)
          (xy 1.27 11.43)
        )
        (stroke (width 0) (type default) (color 0 0 0 0))
        (fill (type none))
      )
    )
    (symbol "STEPSTICK_1_1"
      (pin input line (at -12.7 8.89 0) (length 5.08)
        (name "~{EN}" (effects (font (size 1.27 1.27))))
        (number "1" (effects (font (size 1.27 1.27))))
      )
      (pin power_in line (at 12.7 -6.35 180) (length 5.08)
        (name "VIO" (effects (font (size 1.27 1.27))))
        (number "10" (effects (font (size 1.27 1.27))))
      )
      (pin output line (at 12.7 -3.81 180) (length 5.08)
        (name "M1B" (effects (font (size 1.27 1.27))))
        (number "11" (effects (font (size 1.27 1.27))))
      )
      (pin output line (at 12.7 -1.27 180) (length 5.08)
        (name "M1A" (effects (font (size 1.27 1.27))))
        (number "12" (effects (font (size 1.27 1.27))))
      )
      (pin output line (at 12.7 1.27 180) (length 5.08)
        (name "M2A" (effects (font (size 1.27 1.27))))
        (number "13" (effects (font (size 1.27 1.27))))
      )
      (pin output line (at 12.7 3.81 180) (length 5.08)
        (name "M2B" (effects (font (size 1.27 1.27))))
        (number "14" (effects (font (size 1.27 1.27))))
      )
      (pin power_in line (at 12.7 6.35 180) (length 5.08)
        (name "GND" (effects (font (size 1.27 1.27))))
        (number "15" (effects (font (size 1.27 1.27))))
      )
      (pin power_in line (at 12.7 8.89 180) (length 5.08)
        (name "VM" (effects (font (size 1.27 1.27))))
        (number "16" (effects (font (size 1.27 1.27))))
      )
      (pin input line (at -12.7 6.35 0) (length 5.08)
        (name "MS1" (effects (font (size 1.27 1.27))))
        (number "2" (effects (font (size 1.27 1.27))))
      )
      (pin input line (at -12.7 3.81 0) (length 5.08)
        (name "MS2" (effects (font (size 1.27 1.27))))
        (number "3" (effects (font (size 1.27 1.27))))
      )
      (pin input line (at -12.7 1.27 0) (length 5.08)
        (name "MS3" (effects (font (size 1.27 1.27))))
        (number "4" (effects (font (size 1.27 1.27))))
      )
      (pin input line (at -12.7 -1.27 0) (length 5.08)
        (name "~{RESET}" (effects (font (size 1.27 1.27))))
        (number "5" (effects (font (size 1.27 1.27))))
      )
      (pin input line (at -12.7 -3.81 0) (length 5.08)
        (name "~{SLEEP}" (effects (font (size 1.27 1.27))))
        (number "6" (effects (font (size 1.27 1.27))))
      )
      (pin input line (at -12.7 -6.35 0) (length 5.08)
        (name "STEP" (effects (font (size 1.27 1.27))))
        (number "7" (effects (font (size 1.27 1.27))))
      )
      (pin input line (at -12.7 -8.89 0) (length 5.08)
        (name "DIR" (effects (font (size 1.27 1.27))))
        (number "8" (effects (font (size 1.27 1.27))))
      )
      (pin power_in line (at 12.7 -8.89 180) (length 5.08)
        (name "GND" (effects (font (size 1.27 1.27))))
        (number "9" (effects (font (size 1.27 1.27))))
      )
    )
  )
  (symbol "TMC_SILENT_STEPSTICK" (pin_names (offset 1.016)) (in_bom yes) (on_board yes)
    (property "Reference" "XA" (id 0) (at 0 12.7 0)
      (effects (font (size 1.524 1.524)))
    )
    (property "Value" "TMC_SILENT_STEPSTICK" (id 1) (at 0 -12.7 0)
      (effects (font (size 1.524 1.524)))
    )
    (property "Footprint" "" (id 2) (at 0 0 0)
      (effects (font (size 1.524 1.524)))
    )
    (property "Datasheet" "" (id 3) (at 0 0 0)
      (effects (font (size 1.524 1.524)))
    )
    (symbol "TMC_SILENT_STEPSTICK_0_1"
      (rectangle (start -7.62 11.43) (end 7.62 -11.43)
        (stroke (width 0) (type default) (color 0 0 0 0))
        (fill (type none))
      )
      (polyline
        (pts
          (xy -1.27 11.43)
          (xy -1.27 10.16)
          (xy 1.27 10.16)
          (xy 1.27 11.43)
        )
        (stroke (width 0) (type default) (color 0 0 0 0))
        (fill (type none))
      )
    )
    (symbol "TMC_SILENT_STEPSTICK_1_1"
      (pin input line (at -12.7 8.89 0) (length 5.08)
        (name "~{EN}" (effects (font (size 1.27 1.27))))
        (number "1" (effects (font (size 1.27 1.27))))
      )
      (pin power_in line (at 12.7 -6.35 180) (length 5.08)
        (name "VIO" (effects (font (size 1.27 1.27))))
        (number "10" (effects (font (size 1.27 1.27))))
      )
      (pin output line (at 12.7 -3.81 180) (length 5.08)
        (name "M1B" (effects (font (size 1.27 1.27))))
        (number "11" (effects (font (size 1.27 1.27))))
      )
      (pin output line (at 12.7 -1.27 180) (length 5.08)
        (name "M1A" (effects (font (size 1.27 1.27))))
        (number "12" (effects (font (size 1.27 1.27))))
      )
      (pin output line (at 12.7 1.27 180) (length 5.08)
        (name "M2A" (effects (font (size 1.27 1.27))))
        (number "13" (effects (font (size 1.27 1.27))))
      )
      (pin output line (at 12.7 3.81 180) (length 5.08)
        (name "M2B" (effects (font (size 1.27 1.27))))
        (number "14" (effects (font (size 1.27 1.27))))
      )
      (pin power_in line (at 12.7 6.35 180) (length 5.08)
        (name "GND" (effects (font (size 1.27 1.27))))
        (number "15" (effects (font (size 1.27 1.27))))
      )
      (pin power_in line (at 12.7 8.89 180) (length 5.08)
        (name "VM" (effects (font (size 1.27 1.27))))
        (number "16" (effects (font (size 1.27 1.27))))
      )
      (pin bidirectional line (at -12.7 6.35 0) (length 5.08)
        (name "CFG1" (effects (font (size 1.27 1.27))))
        (number "2" (effects (font (size 1.27 1.27))))
      )
      (pin bidirectional line (at -12.7 3.81 0) (length 5.08)
        (name "CFG2" (effects (font (size 1.27 1.27))))
        (number "3" (effects (font (size 1.27 1.27))))
      )
      (pin bidirectional line (at -12.7 1.27 0) (length 5.08)
        (name "CFG3" (effects (font (size 1.27 1.27))))
        (number "4" (effects (font (size 1.27 1.27))))
      )
      (pin input line (at -12.7 -1.27 0) (length 5.08)
        (name "~{RESET}" (effects (font (size 1.27 1.27))))
        (number "5" (effects (font (size 1.27 1.27))))
      )
      (pin input line (at -12.7 -3.81 0) (length 5.08)
        (name "~{SLEEP}" (effects (font (size 1.27 1.27))))
        (number "6" (effects (font (size 1.27 1.27))))
      )
      (pin input line (at -12.7 -6.35 0) (length 5.08)
        (name "STEP" (effects (font (size 1.27 1.27))))
        (number "7" (effects (font (size 1.27 1.27))))
      )
      (pin input line (at -12.7 -8.89 0) (length 5.08)
        (name "DIR" (effects (font (size 1.27 1.27))))
        (number "8" (effects (font (size 1.27 1.27))))
      )
      (pin power_in line (at 12.7 -8.89 180) (length 5.08)
        (name "GND" (effects (font (size 1.27 1.27))))
        (number "9" (effects (font (size 1.27 1.27))))
      )
    )
  )
)
