(kicad_symbol_lib (version 20211014) (generator kicad_symbol_editor)
  (symbol "AP63357DV" (in_bom yes) (on_board yes)
    (property "Reference" "U" (id 0) (at 0 11.43 0)
      (effects (font (size 1.27 1.27)))
    )
    (property "Value" "AP63357DV" (id 1) (at 0 -11.43 0)
      (effects (font (size 1.27 1.27)))
    )
    (property "Footprint" "" (id 2) (at 0 0 0)
      (effects (font (size 1.27 1.27)) hide)
    )
    (property "Datasheet" "" (id 3) (at 0 0 0)
      (effects (font (size 1.27 1.27)) hide)
    )
    (symbol "AP63357DV_0_1"
      (rectangle (start -7.62 10.16) (end 7.62 -10.16)
        (stroke (width 0) (type default) (color 0 0 0 0))
        (fill (type background))
      )
    )
    (symbol "AP63357DV_1_1"
      (pin power_in line (at -12.7 7.62 0) (length 5.08)
        (name "VIN" (effects (font (size 1.27 1.27))))
        (number "1" (effects (font (size 1.27 1.27))))
      )
      (pin input line (at -12.7 2.54 0) (length 5.08)
        (name "EN" (effects (font (size 1.27 1.27))))
        (number "2" (effects (font (size 1.27 1.27))))
      )
      (pin input line (at 12.7 -2.54 180) (length 5.08)
        (name "FB" (effects (font (size 1.27 1.27))))
        (number "3" (effects (font (size 1.27 1.27))))
      )
      (pin input line (at -12.7 -7.62 0) (length 5.08)
        (name "COMP" (effects (font (size 1.27 1.27))))
        (number "4" (effects (font (size 1.27 1.27))))
      )
      (pin open_collector line (at -12.7 -2.54 0) (length 5.08)
        (name "PG" (effects (font (size 1.27 1.27))))
        (number "5" (effects (font (size 1.27 1.27))))
      )
      (pin input line (at 12.7 7.62 180) (length 5.08)
        (name "BST" (effects (font (size 1.27 1.27))))
        (number "6" (effects (font (size 1.27 1.27))))
      )
      (pin power_in line (at 12.7 -7.62 180) (length 5.08)
        (name "GND" (effects (font (size 1.27 1.27))))
        (number "8" (effects (font (size 1.27 1.27))))
      )
      (pin power_out line (at 12.7 2.54 180) (length 5.08)
        (name "SW" (effects (font (size 1.27 1.27))))
        (number "9" (effects (font (size 1.27 1.27))))
      )
    )
  )
)
