(kicad_symbol_lib (version 20211014) (generator kicad_symbol_editor)
  (symbol "ISL6420BIAZ" (pin_names (offset 1.016)) (in_bom yes) (on_board yes)
    (property "Reference" "U" (id 0) (at 13.97 24.13 0)
      (effects (font (size 1.524 1.524)) (justify right))
    )
    (property "Value" "ISL6420BIAZ" (id 1) (at 13.97 -24.13 0)
      (effects (font (size 1.524 1.524)) (justify right))
    )
    (property "Footprint" "" (id 2) (at -22.86 1.27 0)
      (effects (font (size 1.524 1.524)))
    )
    (property "Datasheet" "" (id 3) (at -22.86 1.27 0)
      (effects (font (size 1.524 1.524)))
    )
    (symbol "ISL6420BIAZ_0_1"
      (rectangle (start -15.24 22.86) (end 15.24 -22.86)
        (stroke (width 0) (type default) (color 0 0 0 0))
        (fill (type none))
      )
    )
    (symbol "ISL6420BIAZ_1_1"
      (pin passive line (at -20.32 -15.24 0) (length 5.08)
        (name "CDEL" (effects (font (size 1.27 1.27))))
        (number "1" (effects (font (size 1.27 1.27))))
      )
      (pin passive line (at 20.32 20.32 180) (length 5.08)
        (name "OCSET" (effects (font (size 1.27 1.27))))
        (number "10" (effects (font (size 1.27 1.27))))
      )
      (pin passive line (at -20.32 2.54 0) (length 5.08)
        (name "REFOUT" (effects (font (size 1.27 1.27))))
        (number "11" (effects (font (size 1.27 1.27))))
      )
      (pin passive line (at -20.32 0 0) (length 5.08)
        (name "VMSET/MODE" (effects (font (size 1.27 1.27))))
        (number "12" (effects (font (size 1.27 1.27))))
      )
      (pin passive line (at -20.32 17.78 0) (length 5.08)
        (name "VCC5" (effects (font (size 1.27 1.27))))
        (number "13" (effects (font (size 1.27 1.27))))
      )
      (pin passive line (at -20.32 20.32 0) (length 5.08)
        (name "VIN" (effects (font (size 1.27 1.27))))
        (number "14" (effects (font (size 1.27 1.27))))
      )
      (pin passive line (at -20.32 -20.32 0) (length 5.08)
        (name "SGND" (effects (font (size 1.27 1.27))))
        (number "15" (effects (font (size 1.27 1.27))))
      )
      (pin passive line (at -20.32 -7.62 0) (length 5.08)
        (name "RT" (effects (font (size 1.27 1.27))))
        (number "16" (effects (font (size 1.27 1.27))))
      )
      (pin passive line (at 20.32 -7.62 180) (length 5.08)
        (name "FB" (effects (font (size 1.27 1.27))))
        (number "17" (effects (font (size 1.27 1.27))))
      )
      (pin passive line (at 20.32 -10.16 180) (length 5.08)
        (name "COMP" (effects (font (size 1.27 1.27))))
        (number "18" (effects (font (size 1.27 1.27))))
      )
      (pin passive line (at -20.32 -10.16 0) (length 5.08)
        (name "ENSS" (effects (font (size 1.27 1.27))))
        (number "19" (effects (font (size 1.27 1.27))))
      )
      (pin passive line (at 20.32 -20.32 180) (length 5.08)
        (name "PGND" (effects (font (size 1.27 1.27))))
        (number "2" (effects (font (size 1.27 1.27))))
      )
      (pin passive line (at -20.32 -2.54 0) (length 5.08)
        (name "PGOOD" (effects (font (size 1.27 1.27))))
        (number "20" (effects (font (size 1.27 1.27))))
      )
      (pin passive line (at 20.32 0 180) (length 5.08)
        (name "LGATE" (effects (font (size 1.27 1.27))))
        (number "3" (effects (font (size 1.27 1.27))))
      )
      (pin passive line (at -20.32 15.24 0) (length 5.08)
        (name "PVCC" (effects (font (size 1.27 1.27))))
        (number "4" (effects (font (size 1.27 1.27))))
      )
      (pin passive line (at 20.32 5.08 180) (length 5.08)
        (name "PHASE" (effects (font (size 1.27 1.27))))
        (number "5" (effects (font (size 1.27 1.27))))
      )
      (pin passive line (at 20.32 10.16 180) (length 5.08)
        (name "UGATE" (effects (font (size 1.27 1.27))))
        (number "6" (effects (font (size 1.27 1.27))))
      )
      (pin passive line (at 20.32 15.24 180) (length 5.08)
        (name "BOOT" (effects (font (size 1.27 1.27))))
        (number "7" (effects (font (size 1.27 1.27))))
      )
      (pin passive line (at -20.32 7.62 0) (length 5.08)
        (name "GPIO2" (effects (font (size 1.27 1.27))))
        (number "8" (effects (font (size 1.27 1.27))))
      )
      (pin passive line (at -20.32 10.16 0) (length 5.08)
        (name "GPIO1/REFIN" (effects (font (size 1.27 1.27))))
        (number "9" (effects (font (size 1.27 1.27))))
      )
    )
  )
  (symbol "ISL6420BIRZ" (pin_names (offset 1.016)) (in_bom yes) (on_board yes)
    (property "Reference" "U" (id 0) (at 13.97 24.13 0)
      (effects (font (size 1.524 1.524)) (justify right))
    )
    (property "Value" "ISL6420BIRZ" (id 1) (at 13.97 -24.13 0)
      (effects (font (size 1.524 1.524)) (justify right))
    )
    (property "Footprint" "" (id 2) (at -22.86 1.27 0)
      (effects (font (size 1.524 1.524)))
    )
    (property "Datasheet" "" (id 3) (at -22.86 1.27 0)
      (effects (font (size 1.524 1.524)))
    )
    (symbol "ISL6420BIRZ_0_1"
      (rectangle (start -15.24 22.86) (end 15.24 -22.86)
        (stroke (width 0) (type default) (color 0 0 0 0))
        (fill (type none))
      )
    )
    (symbol "ISL6420BIRZ_1_1"
      (pin bidirectional line (at -20.32 7.62 0) (length 5.08)
        (name "GPIO2" (effects (font (size 1.27 1.27))))
        (number "1" (effects (font (size 1.27 1.27))))
      )
      (pin input line (at 20.32 -7.62 180) (length 5.08)
        (name "FB" (effects (font (size 1.27 1.27))))
        (number "10" (effects (font (size 1.27 1.27))))
      )
      (pin output line (at 20.32 -10.16 180) (length 5.08)
        (name "COMP" (effects (font (size 1.27 1.27))))
        (number "11" (effects (font (size 1.27 1.27))))
      )
      (pin bidirectional line (at -20.32 -10.16 0) (length 5.08)
        (name "ENSS" (effects (font (size 1.27 1.27))))
        (number "12" (effects (font (size 1.27 1.27))))
      )
      (pin output line (at -20.32 -2.54 0) (length 5.08)
        (name "PGOOD" (effects (font (size 1.27 1.27))))
        (number "13" (effects (font (size 1.27 1.27))))
      )
      (pin input line (at -20.32 -15.24 0) (length 5.08)
        (name "CDEL" (effects (font (size 1.27 1.27))))
        (number "14" (effects (font (size 1.27 1.27))))
      )
      (pin passive line (at 20.32 -20.32 180) (length 5.08)
        (name "PGND" (effects (font (size 1.27 1.27))))
        (number "15" (effects (font (size 1.27 1.27))))
      )
      (pin output line (at 20.32 0 180) (length 5.08)
        (name "LGATE" (effects (font (size 1.27 1.27))))
        (number "16" (effects (font (size 1.27 1.27))))
      )
      (pin power_in line (at -20.32 15.24 0) (length 5.08)
        (name "PVCC" (effects (font (size 1.27 1.27))))
        (number "17" (effects (font (size 1.27 1.27))))
      )
      (pin power_in line (at 20.32 5.08 180) (length 5.08)
        (name "PHASE" (effects (font (size 1.27 1.27))))
        (number "18" (effects (font (size 1.27 1.27))))
      )
      (pin output line (at 20.32 10.16 180) (length 5.08)
        (name "UGATE" (effects (font (size 1.27 1.27))))
        (number "19" (effects (font (size 1.27 1.27))))
      )
      (pin bidirectional line (at -20.32 10.16 0) (length 5.08)
        (name "GPIO1/REFIN" (effects (font (size 1.27 1.27))))
        (number "2" (effects (font (size 1.27 1.27))))
      )
      (pin passive line (at 20.32 15.24 180) (length 5.08)
        (name "BOOT" (effects (font (size 1.27 1.27))))
        (number "20" (effects (font (size 1.27 1.27))))
      )
      (pin passive line (at -5.08 -27.94 90) (length 5.08)
        (name "EP" (effects (font (size 1.27 1.27))))
        (number "21" (effects (font (size 1.27 1.27))))
      )
      (pin passive line (at 20.32 20.32 180) (length 5.08)
        (name "OCSET" (effects (font (size 1.27 1.27))))
        (number "3" (effects (font (size 1.27 1.27))))
      )
      (pin power_out line (at -20.32 2.54 0) (length 5.08)
        (name "REFOUT" (effects (font (size 1.27 1.27))))
        (number "4" (effects (font (size 1.27 1.27))))
      )
      (pin input line (at -20.32 0 0) (length 5.08)
        (name "VMSET/MODE" (effects (font (size 1.27 1.27))))
        (number "5" (effects (font (size 1.27 1.27))))
      )
      (pin bidirectional line (at -20.32 17.78 0) (length 5.08)
        (name "VCC5" (effects (font (size 1.27 1.27))))
        (number "6" (effects (font (size 1.27 1.27))))
      )
      (pin power_in line (at -20.32 20.32 0) (length 5.08)
        (name "VIN" (effects (font (size 1.27 1.27))))
        (number "7" (effects (font (size 1.27 1.27))))
      )
      (pin passive line (at -20.32 -20.32 0) (length 5.08)
        (name "SGND" (effects (font (size 1.27 1.27))))
        (number "8" (effects (font (size 1.27 1.27))))
      )
      (pin passive line (at -20.32 -7.62 0) (length 5.08)
        (name "RT" (effects (font (size 1.27 1.27))))
        (number "9" (effects (font (size 1.27 1.27))))
      )
    )
  )
)
