(kicad_symbol_lib (version 20211014) (generator kicad_symbol_editor)
  (symbol "LTC1622" (pin_names (offset 1.016)) (in_bom yes) (on_board yes)
    (property "Reference" "U" (id 0) (at 6.35 7.62 0)
      (effects (font (size 1.524 1.524)) (justify right))
    )
    (property "Value" "LTC1622" (id 1) (at 6.35 -7.62 0)
      (effects (font (size 1.524 1.524)) (justify right))
    )
    (property "Footprint" "" (id 2) (at 0 0 0)
      (effects (font (size 1.524 1.524)))
    )
    (property "Datasheet" "" (id 3) (at 0 0 0)
      (effects (font (size 1.524 1.524)))
    )
    (symbol "LTC1622_0_1"
      (rectangle (start -7.62 6.35) (end 7.62 -6.35)
        (stroke (width 0) (type default) (color 0 0 0 0))
        (fill (type none))
      )
    )
    (symbol "LTC1622_1_1"
      (pin input line (at 12.7 3.81 180) (length 5.08)
        (name "SNS-" (effects (font (size 1.27 1.27))))
        (number "1" (effects (font (size 1.27 1.27))))
      )
      (pin input line (at -12.7 -3.81 0) (length 5.08)
        (name "ITH" (effects (font (size 1.27 1.27))))
        (number "2" (effects (font (size 1.27 1.27))))
      )
      (pin input line (at 12.7 -1.27 180) (length 5.08)
        (name "VFB" (effects (font (size 1.27 1.27))))
        (number "3" (effects (font (size 1.27 1.27))))
      )
      (pin input line (at -12.7 -1.27 0) (length 5.08)
        (name "RUN_SS" (effects (font (size 1.27 1.27))))
        (number "4" (effects (font (size 1.27 1.27))))
      )
      (pin input line (at -12.7 1.27 0) (length 5.08)
        (name "SNC_MD" (effects (font (size 1.27 1.27))))
        (number "5" (effects (font (size 1.27 1.27))))
      )
      (pin passive line (at 12.7 -3.81 180) (length 5.08)
        (name "GND" (effects (font (size 1.27 1.27))))
        (number "6" (effects (font (size 1.27 1.27))))
      )
      (pin output line (at 12.7 1.27 180) (length 5.08)
        (name "PDRV" (effects (font (size 1.27 1.27))))
        (number "7" (effects (font (size 1.27 1.27))))
      )
      (pin power_in line (at -12.7 3.81 0) (length 5.08)
        (name "VIN" (effects (font (size 1.27 1.27))))
        (number "8" (effects (font (size 1.27 1.27))))
      )
    )
  )
)
