(kicad_symbol_lib (version 20211014) (generator kicad_symbol_editor)
  (symbol "MCP23S17" (pin_names (offset 1.016)) (in_bom yes) (on_board yes)
    (property "Reference" "U" (id 0) (at 6.35 24.13 0)
      (effects (font (size 1.27 1.27)) (justify right))
    )
    (property "Value" "MCP23S17" (id 1) (at 0 -24.13 0)
      (effects (font (size 1.27 1.27)))
    )
    (property "Footprint" "" (id 2) (at -11.43 -16.51 0)
      (effects (font (size 1.27 1.27)))
    )
    (property "Datasheet" "" (id 3) (at -11.43 -16.51 0)
      (effects (font (size 1.27 1.27)))
    )
    (symbol "MCP23S17_0_1"
      (rectangle (start -7.62 22.86) (end 7.62 -22.86)
        (stroke (width 0) (type default) (color 0 0 0 0))
        (fill (type none))
      )
    )
    (symbol "MCP23S17_1_1"
      (pin bidirectional line (at 12.7 -2.54 180) (length 5.08)
        (name "GPB0" (effects (font (size 1.27 1.27))))
        (number "1" (effects (font (size 1.27 1.27))))
      )
      (pin passive line (at -12.7 -20.32 0) (length 5.08)
        (name "VSS" (effects (font (size 1.27 1.27))))
        (number "10" (effects (font (size 1.27 1.27))))
      )
      (pin input line (at -12.7 5.08 0) (length 5.08)
        (name "~{CS}" (effects (font (size 1.27 1.27))))
        (number "11" (effects (font (size 1.27 1.27))))
      )
      (pin input line (at -12.7 2.54 0) (length 5.08)
        (name "SCK" (effects (font (size 1.27 1.27))))
        (number "12" (effects (font (size 1.27 1.27))))
      )
      (pin input line (at -12.7 0 0) (length 5.08)
        (name "SI" (effects (font (size 1.27 1.27))))
        (number "13" (effects (font (size 1.27 1.27))))
      )
      (pin output line (at -12.7 -2.54 0) (length 5.08)
        (name "SO" (effects (font (size 1.27 1.27))))
        (number "14" (effects (font (size 1.27 1.27))))
      )
      (pin input line (at -12.7 15.24 0) (length 5.08)
        (name "A0" (effects (font (size 1.27 1.27))))
        (number "15" (effects (font (size 1.27 1.27))))
      )
      (pin input line (at -12.7 12.7 0) (length 5.08)
        (name "A1" (effects (font (size 1.27 1.27))))
        (number "16" (effects (font (size 1.27 1.27))))
      )
      (pin input line (at -12.7 10.16 0) (length 5.08)
        (name "A2" (effects (font (size 1.27 1.27))))
        (number "17" (effects (font (size 1.27 1.27))))
      )
      (pin input line (at -12.7 -7.62 0) (length 5.08)
        (name "~{RST}" (effects (font (size 1.27 1.27))))
        (number "18" (effects (font (size 1.27 1.27))))
      )
      (pin output line (at -12.7 -15.24 0) (length 5.08)
        (name "INTB" (effects (font (size 1.27 1.27))))
        (number "19" (effects (font (size 1.27 1.27))))
      )
      (pin bidirectional line (at 12.7 -5.08 180) (length 5.08)
        (name "GPB1" (effects (font (size 1.27 1.27))))
        (number "2" (effects (font (size 1.27 1.27))))
      )
      (pin output line (at -12.7 -12.7 0) (length 5.08)
        (name "INTA" (effects (font (size 1.27 1.27))))
        (number "20" (effects (font (size 1.27 1.27))))
      )
      (pin bidirectional line (at 12.7 20.32 180) (length 5.08)
        (name "GPA0" (effects (font (size 1.27 1.27))))
        (number "21" (effects (font (size 1.27 1.27))))
      )
      (pin bidirectional line (at 12.7 17.78 180) (length 5.08)
        (name "GPA1" (effects (font (size 1.27 1.27))))
        (number "22" (effects (font (size 1.27 1.27))))
      )
      (pin bidirectional line (at 12.7 15.24 180) (length 5.08)
        (name "GPA2" (effects (font (size 1.27 1.27))))
        (number "23" (effects (font (size 1.27 1.27))))
      )
      (pin bidirectional line (at 12.7 12.7 180) (length 5.08)
        (name "GPA3" (effects (font (size 1.27 1.27))))
        (number "24" (effects (font (size 1.27 1.27))))
      )
      (pin bidirectional line (at 12.7 10.16 180) (length 5.08)
        (name "GPA4" (effects (font (size 1.27 1.27))))
        (number "25" (effects (font (size 1.27 1.27))))
      )
      (pin bidirectional line (at 12.7 7.62 180) (length 5.08)
        (name "GPA5" (effects (font (size 1.27 1.27))))
        (number "26" (effects (font (size 1.27 1.27))))
      )
      (pin bidirectional line (at 12.7 5.08 180) (length 5.08)
        (name "GPA6" (effects (font (size 1.27 1.27))))
        (number "27" (effects (font (size 1.27 1.27))))
      )
      (pin bidirectional line (at 12.7 2.54 180) (length 5.08)
        (name "GPA7" (effects (font (size 1.27 1.27))))
        (number "28" (effects (font (size 1.27 1.27))))
      )
      (pin bidirectional line (at 12.7 -7.62 180) (length 5.08)
        (name "GPB2" (effects (font (size 1.27 1.27))))
        (number "3" (effects (font (size 1.27 1.27))))
      )
      (pin bidirectional line (at 12.7 -10.16 180) (length 5.08)
        (name "GPB3" (effects (font (size 1.27 1.27))))
        (number "4" (effects (font (size 1.27 1.27))))
      )
      (pin bidirectional line (at 12.7 -12.7 180) (length 5.08)
        (name "GPB4" (effects (font (size 1.27 1.27))))
        (number "5" (effects (font (size 1.27 1.27))))
      )
      (pin bidirectional line (at 12.7 -15.24 180) (length 5.08)
        (name "GPB5" (effects (font (size 1.27 1.27))))
        (number "6" (effects (font (size 1.27 1.27))))
      )
      (pin bidirectional line (at 12.7 -17.78 180) (length 5.08)
        (name "GPB6" (effects (font (size 1.27 1.27))))
        (number "7" (effects (font (size 1.27 1.27))))
      )
      (pin bidirectional line (at 12.7 -20.32 180) (length 5.08)
        (name "GPB7" (effects (font (size 1.27 1.27))))
        (number "8" (effects (font (size 1.27 1.27))))
      )
      (pin power_in line (at -12.7 20.32 0) (length 5.08)
        (name "VDD" (effects (font (size 1.27 1.27))))
        (number "9" (effects (font (size 1.27 1.27))))
      )
    )
  )
  (symbol "MCP23x17" (pin_names (offset 1.016)) (in_bom yes) (on_board yes)
    (property "Reference" "U" (id 0) (at 0 16.51 0)
      (effects (font (size 1.524 1.524)))
    )
    (property "Value" "MCP23x17" (id 1) (at 0 -19.685 0)
      (effects (font (size 1.524 1.524)))
    )
    (property "Footprint" "" (id 2) (at 0 0 0)
      (effects (font (size 1.524 1.524)))
    )
    (property "Datasheet" "" (id 3) (at 0 0 0)
      (effects (font (size 1.524 1.524)))
    )
  )
)
