(kicad_symbol_lib
	(version 20231120)
	(generator "kicad_symbol_editor")
	(generator_version "8.0")
	(symbol "PESD4USB3U"
		(exclude_from_sim no)
		(in_bom yes)
		(on_board yes)
		(property "Reference" "D"
			(at 0 0 0)
			(effects
				(font
					(size 1.27 1.27)
				)
			)
		)
		(property "Value" "PESD4USB3U"
			(at 0 0 0)
			(effects
				(font
					(size 1.27 1.27)
				)
			)
		)
		(property "Footprint" ""
			(at 0 0 0)
			(effects
				(font
					(size 1.27 1.27)
				)
				(hide yes)
			)
		)
		(property "Datasheet" "https://assets.nexperia.com/documents/data-sheet/PESD4USB3U-TBS.pdf"
			(at 0 0 0)
			(effects
				(font
					(size 1.27 1.27)
				)
				(hide yes)
			)
		)
		(property "Description" "ESD protection for high-speed interfaces"
			(at 0 0 0)
			(effects
				(font
					(size 1.27 1.27)
				)
				(hide yes)
			)
		)
		(property "ki_keywords" "ESD, High Speed"
			(at 0 0 0)
			(effects
				(font
					(size 1.27 1.27)
				)
				(hide yes)
			)
		)
		(symbol "PESD4USB3U_0_1"
			(rectangle
				(start -10.16 -3.81)
				(end 10.16 3.81)
				(stroke
					(width 0)
					(type default)
				)
				(fill
					(type none)
				)
			)
			(polyline
				(pts
					(xy -7.62 3.81) (xy -7.62 1.27)
				)
				(stroke
					(width 0)
					(type default)
				)
				(fill
					(type none)
				)
			)
			(polyline
				(pts
					(xy -2.54 -1.27) (xy -2.54 -2.54)
				)
				(stroke
					(width 0)
					(type default)
				)
				(fill
					(type none)
				)
			)
			(polyline
				(pts
					(xy -2.54 3.81) (xy -2.54 1.27)
				)
				(stroke
					(width 0)
					(type default)
				)
				(fill
					(type none)
				)
			)
			(polyline
				(pts
					(xy 0 -2.54) (xy 0 -3.81)
				)
				(stroke
					(width 0)
					(type default)
				)
				(fill
					(type none)
				)
			)
			(polyline
				(pts
					(xy 2.54 -1.27) (xy 2.54 -2.54)
				)
				(stroke
					(width 0)
					(type default)
				)
				(fill
					(type none)
				)
			)
			(polyline
				(pts
					(xy 2.54 3.81) (xy 2.54 1.27)
				)
				(stroke
					(width 0)
					(type default)
				)
				(fill
					(type none)
				)
			)
			(polyline
				(pts
					(xy 7.62 3.81) (xy 7.62 1.27)
				)
				(stroke
					(width 0)
					(type default)
				)
				(fill
					(type none)
				)
			)
			(polyline
				(pts
					(xy -8.89 1.27) (xy -6.35 1.27) (xy -6.35 0.762)
				)
				(stroke
					(width 0.254)
					(type default)
				)
				(fill
					(type none)
				)
			)
			(polyline
				(pts
					(xy -3.81 1.27) (xy -1.27 1.27) (xy -1.27 0.762)
				)
				(stroke
					(width 0.254)
					(type default)
				)
				(fill
					(type none)
				)
			)
			(polyline
				(pts
					(xy 1.27 1.27) (xy 3.81 1.27) (xy 3.81 0.762)
				)
				(stroke
					(width 0.254)
					(type default)
				)
				(fill
					(type none)
				)
			)
			(polyline
				(pts
					(xy 6.35 1.27) (xy 8.89 1.27) (xy 8.89 0.762)
				)
				(stroke
					(width 0.254)
					(type default)
				)
				(fill
					(type none)
				)
			)
			(polyline
				(pts
					(xy -8.89 -1.27) (xy -6.35 -1.27) (xy -7.62 1.27) (xy -8.89 -1.27)
				)
				(stroke
					(width 0.254)
					(type default)
				)
				(fill
					(type none)
				)
			)
			(polyline
				(pts
					(xy -7.62 -1.27) (xy -7.62 -2.54) (xy 7.62 -2.54) (xy 7.62 -1.27)
				)
				(stroke
					(width 0)
					(type default)
				)
				(fill
					(type none)
				)
			)
			(polyline
				(pts
					(xy -3.81 -1.27) (xy -1.27 -1.27) (xy -2.54 1.27) (xy -3.81 -1.27)
				)
				(stroke
					(width 0.254)
					(type default)
				)
				(fill
					(type none)
				)
			)
			(polyline
				(pts
					(xy 1.27 -1.27) (xy 3.81 -1.27) (xy 2.54 1.27) (xy 1.27 -1.27)
				)
				(stroke
					(width 0.254)
					(type default)
				)
				(fill
					(type none)
				)
			)
			(polyline
				(pts
					(xy 6.35 -1.27) (xy 8.89 -1.27) (xy 7.62 1.27) (xy 6.35 -1.27)
				)
				(stroke
					(width 0.254)
					(type default)
				)
				(fill
					(type none)
				)
			)
		)
		(symbol "PESD4USB3U_1_1"
			(pin passive line
				(at -7.62 6.35 270)
				(length 2.54)
				(name "~"
					(effects
						(font
							(size 1.27 1.27)
						)
					)
				)
				(number "1"
					(effects
						(font
							(size 1.27 1.27)
						)
					)
				)
			)
			(pin passive line
				(at 2.54 6.35 270)
				(length 2.54)
				(name "~"
					(effects
						(font
							(size 1.27 1.27)
						)
					)
				)
				(number "1"
					(effects
						(font
							(size 1.27 1.27)
						)
					)
				)
			)
			(pin passive line
				(at 7.62 6.35 270)
				(length 2.54)
				(name "~"
					(effects
						(font
							(size 1.27 1.27)
						)
					)
				)
				(number "1"
					(effects
						(font
							(size 1.27 1.27)
						)
					)
				)
			)
			(pin passive line
				(at -7.62 6.35 270)
				(length 2.54) hide
				(name "~"
					(effects
						(font
							(size 1.27 1.27)
						)
					)
				)
				(number "10"
					(effects
						(font
							(size 1.27 1.27)
						)
					)
				)
			)
			(pin passive line
				(at -2.54 6.35 270)
				(length 2.54)
				(name "~"
					(effects
						(font
							(size 1.27 1.27)
						)
					)
				)
				(number "2"
					(effects
						(font
							(size 1.27 1.27)
						)
					)
				)
			)
			(pin passive line
				(at 0 -6.35 90)
				(length 2.54)
				(name "~"
					(effects
						(font
							(size 1.27 1.27)
						)
					)
				)
				(number "3"
					(effects
						(font
							(size 1.27 1.27)
						)
					)
				)
			)
			(pin passive line
				(at 7.62 6.35 270)
				(length 2.54) hide
				(name "~"
					(effects
						(font
							(size 1.27 1.27)
						)
					)
				)
				(number "6"
					(effects
						(font
							(size 1.27 1.27)
						)
					)
				)
			)
			(pin passive line
				(at 2.54 6.35 270)
				(length 2.54) hide
				(name "~"
					(effects
						(font
							(size 1.27 1.27)
						)
					)
				)
				(number "7"
					(effects
						(font
							(size 1.27 1.27)
						)
					)
				)
			)
			(pin passive line
				(at 0 -6.35 90)
				(length 2.54) hide
				(name "~"
					(effects
						(font
							(size 1.27 1.27)
						)
					)
				)
				(number "8"
					(effects
						(font
							(size 1.27 1.27)
						)
					)
				)
			)
			(pin passive line
				(at -2.54 6.35 270)
				(length 2.54) hide
				(name "~"
					(effects
						(font
							(size 1.27 1.27)
						)
					)
				)
				(number "9"
					(effects
						(font
							(size 1.27 1.27)
						)
					)
				)
			)
		)
	)
)
