(kicad_symbol_lib (version 20220914) (generator kicad_symbol_editor)
  (symbol "IS81801FVEZ" (in_bom yes) (on_board yes)
    (property "Reference" "U" (at 0 0 0)
      (effects (font (size 1.27 1.27)))
    )
    (property "Value" "IS81801" (at 0 0 0)
      (effects (font (size 1.27 1.27)))
    )
    (property "Footprint" "IPC_SOP:SOP39P50_840X970X110L22X80T480X320N" (at 0 0 0)
      (effects (font (size 1.27 1.27)) hide)
    )
    (property "Datasheet" "https://www.renesas.com/us/en/document/dst/isl81801-datasheet?r=1393781" (at 0 0 0)
      (effects (font (size 1.27 1.27)) hide)
    )
    (property "ki_keywords" "Buck-Boost" (at 0 0 0)
      (effects (font (size 1.27 1.27)) hide)
    )
    (property "ki_description" "80V Bidirectional 4-Switch Synchronous Buck-Boost Controller" (at 0 0 0)
      (effects (font (size 1.27 1.27)) hide)
    )
    (symbol "IS81801FVEZ_0_1"
      (rectangle (start -15.24 38.1) (end 15.24 -38.1)
        (stroke (width 0) (type default))
        (fill (type background))
      )
    )
    (symbol "IS81801FVEZ_1_1"
      (pin power_in line (at -20.32 27.94 0) (length 5.08)
        (name "VIN" (effects (font (size 1.27 1.27))))
        (number "1" (effects (font (size 1.27 1.27))))
      )
      (pin power_out line (at -20.32 7.62 0) (length 5.08)
        (name "VCC5V" (effects (font (size 1.27 1.27))))
        (number "10" (effects (font (size 1.27 1.27))))
      )
      (pin power_in line (at -20.32 -33.02 0) (length 5.08)
        (name "SGND" (effects (font (size 1.27 1.27))))
        (number "11" (effects (font (size 1.27 1.27))))
      )
      (pin input line (at -20.32 -12.7 0) (length 5.08)
        (name "RT/SYNC" (effects (font (size 1.27 1.27))))
        (number "12" (effects (font (size 1.27 1.27))))
      )
      (pin passive line (at -20.32 -20.32 0) (length 5.08)
        (name "PLL_COMP" (effects (font (size 1.27 1.27))))
        (number "13" (effects (font (size 1.27 1.27))))
      )
      (pin bidirectional line (at -20.32 -15.24 0) (length 5.08)
        (name "CLKOUT/DITHER" (effects (font (size 1.27 1.27))))
        (number "14" (effects (font (size 1.27 1.27))))
      )
      (pin bidirectional line (at -20.32 -17.78 0) (length 5.08)
        (name "SS/TRK" (effects (font (size 1.27 1.27))))
        (number "15" (effects (font (size 1.27 1.27))))
      )
      (pin passive line (at 20.32 -25.4 180) (length 5.08)
        (name "COMP" (effects (font (size 1.27 1.27))))
        (number "16" (effects (font (size 1.27 1.27))))
      )
      (pin input line (at 20.32 -20.32 180) (length 5.08)
        (name "FB_OUT" (effects (font (size 1.27 1.27))))
        (number "17" (effects (font (size 1.27 1.27))))
      )
      (pin passive line (at 20.32 -30.48 180) (length 5.08)
        (name "IMON_OUT" (effects (font (size 1.27 1.27))))
        (number "18" (effects (font (size 1.27 1.27))))
      )
      (pin output line (at -20.32 -10.16 0) (length 5.08)
        (name "OV" (effects (font (size 1.27 1.27))))
        (number "19" (effects (font (size 1.27 1.27))))
      )
      (pin input line (at -20.32 33.02 0) (length 5.08)
        (name "CS+" (effects (font (size 1.27 1.27))))
        (number "2" (effects (font (size 1.27 1.27))))
      )
      (pin input line (at 20.32 -15.24 180) (length 5.08)
        (name "ISEN-" (effects (font (size 1.27 1.27))))
        (number "20" (effects (font (size 1.27 1.27))))
      )
      (pin input line (at 20.32 -12.7 180) (length 5.08)
        (name "ISEN+" (effects (font (size 1.27 1.27))))
        (number "21" (effects (font (size 1.27 1.27))))
      )
      (pin no_connect line (at -3.81 -38.1 90) (length 5.08) hide
        (name "NC" (effects (font (size 1.27 1.27))))
        (number "22" (effects (font (size 1.27 1.27))))
      )
      (pin open_collector line (at -20.32 -7.62 0) (length 5.08)
        (name "PGOOD" (effects (font (size 1.27 1.27))))
        (number "23" (effects (font (size 1.27 1.27))))
      )
      (pin no_connect line (at -1.27 -38.1 90) (length 5.08) hide
        (name "NC" (effects (font (size 1.27 1.27))))
        (number "24" (effects (font (size 1.27 1.27))))
      )
      (pin output line (at 20.32 5.08 180) (length 5.08)
        (name "UG2" (effects (font (size 1.27 1.27))))
        (number "24" (effects (font (size 1.27 1.27))))
      )
      (pin passive line (at 20.32 0 180) (length 5.08)
        (name "PHASE2" (effects (font (size 1.27 1.27))))
        (number "26" (effects (font (size 1.27 1.27))))
      )
      (pin power_in line (at 20.32 10.16 180) (length 5.08)
        (name "BOOT2" (effects (font (size 1.27 1.27))))
        (number "27" (effects (font (size 1.27 1.27))))
      )
      (pin no_connect line (at 1.27 -38.1 90) (length 5.08) hide
        (name "NC" (effects (font (size 1.27 1.27))))
        (number "28" (effects (font (size 1.27 1.27))))
      )
      (pin bidirectional line (at 20.32 -5.08 180) (length 5.08)
        (name "LG2/OC_MODE" (effects (font (size 1.27 1.27))))
        (number "29" (effects (font (size 1.27 1.27))))
      )
      (pin input line (at -20.32 35.56 0) (length 5.08)
        (name "CS-" (effects (font (size 1.27 1.27))))
        (number "3" (effects (font (size 1.27 1.27))))
      )
      (pin power_out line (at 20.32 15.24 180) (length 5.08)
        (name "VDD" (effects (font (size 1.27 1.27))))
        (number "30" (effects (font (size 1.27 1.27))))
      )
      (pin power_in line (at 20.32 -35.56 180) (length 5.08)
        (name "PGND" (effects (font (size 1.27 1.27))))
        (number "31" (effects (font (size 1.27 1.27))))
      )
      (pin bidirectional line (at 20.32 25.4 180) (length 5.08)
        (name "LG1/PWM_MODE" (effects (font (size 1.27 1.27))))
        (number "32" (effects (font (size 1.27 1.27))))
      )
      (pin no_connect line (at 3.81 -38.1 90) (length 5.08) hide
        (name "NC" (effects (font (size 1.27 1.27))))
        (number "33" (effects (font (size 1.27 1.27))))
      )
      (pin power_in line (at 20.32 20.32 180) (length 5.08)
        (name "BOOT1" (effects (font (size 1.27 1.27))))
        (number "34" (effects (font (size 1.27 1.27))))
      )
      (pin passive line (at 20.32 30.48 180) (length 5.08)
        (name "PHASE1" (effects (font (size 1.27 1.27))))
        (number "35" (effects (font (size 1.27 1.27))))
      )
      (pin output line (at 20.32 35.56 180) (length 5.08)
        (name "UG1" (effects (font (size 1.27 1.27))))
        (number "36" (effects (font (size 1.27 1.27))))
      )
      (pin no_connect line (at 6.35 -38.1 90) (length 5.08) hide
        (name "NC" (effects (font (size 1.27 1.27))))
        (number "37" (effects (font (size 1.27 1.27))))
      )
      (pin power_in line (at -20.32 -30.48 0) (length 5.08)
        (name "EXTBIAS" (effects (font (size 1.27 1.27))))
        (number "38" (effects (font (size 1.27 1.27))))
      )
      (pin power_in line (at -20.32 -35.56 0) (length 5.08)
        (name "EPAD" (effects (font (size 1.27 1.27))))
        (number "39" (effects (font (size 1.27 1.27))))
      )
      (pin no_connect line (at -6.35 -38.1 90) (length 5.08) hide
        (name "NC" (effects (font (size 1.27 1.27))))
        (number "4" (effects (font (size 1.27 1.27))))
      )
      (pin input line (at -20.32 22.86 0) (length 5.08)
        (name "EN/UVLO" (effects (font (size 1.27 1.27))))
        (number "5" (effects (font (size 1.27 1.27))))
      )
      (pin input line (at -20.32 17.78 0) (length 5.08)
        (name "IMON_IN" (effects (font (size 1.27 1.27))))
        (number "6" (effects (font (size 1.27 1.27))))
      )
      (pin input line (at -20.32 -2.54 0) (length 5.08)
        (name "CLKEN" (effects (font (size 1.27 1.27))))
        (number "7" (effects (font (size 1.27 1.27))))
      )
      (pin input line (at -20.32 -5.08 0) (length 5.08)
        (name "BSTEN" (effects (font (size 1.27 1.27))))
        (number "8" (effects (font (size 1.27 1.27))))
      )
      (pin input line (at -20.32 12.7 0) (length 5.08)
        (name "FB_IN" (effects (font (size 1.27 1.27))))
        (number "9" (effects (font (size 1.27 1.27))))
      )
    )
  )
  (symbol "ISL65426" (pin_names (offset 1.27)) (in_bom yes) (on_board yes)
    (property "Reference" "U" (at 0 34.29 0)
      (effects (font (size 1.27 1.27)))
    )
    (property "Value" "ISL65426" (at 0 -34.29 0)
      (effects (font (size 1.27 1.27)))
    )
    (property "Footprint" "" (at 0 0 0)
      (effects (font (size 1.27 1.27)) hide)
    )
    (property "Datasheet" "https://www.renesas.com/us/en/www/doc/datasheet/isl65426.pdf" (at 0 0 0)
      (effects (font (size 1.27 1.27)) hide)
    )
    (symbol "ISL65426_0_1"
      (rectangle (start -10.16 33.02) (end 10.16 -33.02)
        (stroke (width 0) (type default))
        (fill (type background))
      )
    )
    (symbol "ISL65426_1_1"
      (pin power_in line (at 15.24 -30.48 180) (length 5.08)
        (name "PGND" (effects (font (size 1.27 1.27))))
        (number "1" (effects (font (size 1.27 1.27))))
      )
      (pin power_in line (at 15.24 -30.48 180) (length 5.08) hide
        (name "PGND" (effects (font (size 1.27 1.27))))
        (number "10" (effects (font (size 1.27 1.27))))
      )
      (pin power_in line (at 15.24 -30.48 180) (length 5.08) hide
        (name "PGND" (effects (font (size 1.27 1.27))))
        (number "11" (effects (font (size 1.27 1.27))))
      )
      (pin power_out line (at 15.24 22.86 180) (length 5.08)
        (name "LX3" (effects (font (size 1.27 1.27))))
        (number "12" (effects (font (size 1.27 1.27))))
      )
      (pin power_in line (at -15.24 25.4 0) (length 5.08)
        (name "PVIN3" (effects (font (size 1.27 1.27))))
        (number "13" (effects (font (size 1.27 1.27))))
      )
      (pin power_in line (at -15.24 12.7 0) (length 5.08)
        (name "VCC" (effects (font (size 1.27 1.27))))
        (number "14" (effects (font (size 1.27 1.27))))
      )
      (pin power_in line (at -15.24 12.7 0) (length 5.08) hide
        (name "VCC" (effects (font (size 1.27 1.27))))
        (number "15" (effects (font (size 1.27 1.27))))
      )
      (pin power_in line (at -15.24 12.7 0) (length 5.08) hide
        (name "VCC" (effects (font (size 1.27 1.27))))
        (number "16" (effects (font (size 1.27 1.27))))
      )
      (pin power_in line (at 15.24 -30.48 180) (length 5.08) hide
        (name "PGND" (effects (font (size 1.27 1.27))))
        (number "17" (effects (font (size 1.27 1.27))))
      )
      (pin power_in line (at 15.24 -30.48 180) (length 5.08) hide
        (name "PGND" (effects (font (size 1.27 1.27))))
        (number "18" (effects (font (size 1.27 1.27))))
      )
      (pin input line (at -15.24 -10.16 0) (length 5.08)
        (name "V1SET1" (effects (font (size 1.27 1.27))))
        (number "19" (effects (font (size 1.27 1.27))))
      )
      (pin power_in line (at 15.24 -30.48 180) (length 5.08) hide
        (name "PGND" (effects (font (size 1.27 1.27))))
        (number "2" (effects (font (size 1.27 1.27))))
      )
      (pin input line (at -15.24 -12.7 0) (length 5.08)
        (name "V1SET2" (effects (font (size 1.27 1.27))))
        (number "20" (effects (font (size 1.27 1.27))))
      )
      (pin input line (at -15.24 -22.86 0) (length 5.08)
        (name "ISET1" (effects (font (size 1.27 1.27))))
        (number "21" (effects (font (size 1.27 1.27))))
      )
      (pin input line (at -15.24 -15.24 0) (length 5.08)
        (name "V2SET1" (effects (font (size 1.27 1.27))))
        (number "22" (effects (font (size 1.27 1.27))))
      )
      (pin input line (at -15.24 -17.78 0) (length 5.08)
        (name "V2SET2" (effects (font (size 1.27 1.27))))
        (number "23" (effects (font (size 1.27 1.27))))
      )
      (pin power_in line (at 15.24 -30.48 180) (length 5.08) hide
        (name "PGND" (effects (font (size 1.27 1.27))))
        (number "24" (effects (font (size 1.27 1.27))))
      )
      (pin power_in line (at 15.24 -30.48 180) (length 5.08) hide
        (name "PGND" (effects (font (size 1.27 1.27))))
        (number "25" (effects (font (size 1.27 1.27))))
      )
      (pin power_in line (at -15.24 -30.48 0) (length 5.08)
        (name "GND" (effects (font (size 1.27 1.27))))
        (number "26" (effects (font (size 1.27 1.27))))
      )
      (pin power_in line (at -15.24 -30.48 0) (length 5.08) hide
        (name "GND" (effects (font (size 1.27 1.27))))
        (number "27" (effects (font (size 1.27 1.27))))
      )
      (pin power_in line (at 15.24 -30.48 180) (length 5.08) hide
        (name "PGND" (effects (font (size 1.27 1.27))))
        (number "28" (effects (font (size 1.27 1.27))))
      )
      (pin power_in line (at 15.24 -30.48 180) (length 5.08) hide
        (name "PGND" (effects (font (size 1.27 1.27))))
        (number "29" (effects (font (size 1.27 1.27))))
      )
      (pin power_in line (at 15.24 -30.48 180) (length 5.08) hide
        (name "PGND" (effects (font (size 1.27 1.27))))
        (number "3" (effects (font (size 1.27 1.27))))
      )
      (pin power_in line (at -15.24 22.86 0) (length 5.08)
        (name "PVIN4" (effects (font (size 1.27 1.27))))
        (number "30" (effects (font (size 1.27 1.27))))
      )
      (pin power_out line (at 15.24 20.32 180) (length 5.08)
        (name "LX4" (effects (font (size 1.27 1.27))))
        (number "31" (effects (font (size 1.27 1.27))))
      )
      (pin power_in line (at 15.24 -30.48 180) (length 5.08) hide
        (name "PGND" (effects (font (size 1.27 1.27))))
        (number "32" (effects (font (size 1.27 1.27))))
      )
      (pin power_in line (at 15.24 -30.48 180) (length 5.08) hide
        (name "PGND" (effects (font (size 1.27 1.27))))
        (number "33" (effects (font (size 1.27 1.27))))
      )
      (pin power_out line (at 15.24 17.78 180) (length 5.08)
        (name "LX5" (effects (font (size 1.27 1.27))))
        (number "34" (effects (font (size 1.27 1.27))))
      )
      (pin power_in line (at -15.24 20.32 0) (length 5.08)
        (name "PVIN5" (effects (font (size 1.27 1.27))))
        (number "35" (effects (font (size 1.27 1.27))))
      )
      (pin power_in line (at -15.24 17.78 0) (length 5.08)
        (name "PVIN6" (effects (font (size 1.27 1.27))))
        (number "36" (effects (font (size 1.27 1.27))))
      )
      (pin power_out line (at 15.24 15.24 180) (length 5.08)
        (name "LX6" (effects (font (size 1.27 1.27))))
        (number "37" (effects (font (size 1.27 1.27))))
      )
      (pin power_out line (at 15.24 12.7 180) (length 5.08)
        (name "LX6" (effects (font (size 1.27 1.27))))
        (number "38" (effects (font (size 1.27 1.27))))
      )
      (pin power_in line (at 15.24 -30.48 180) (length 5.08) hide
        (name "PGND" (effects (font (size 1.27 1.27))))
        (number "39" (effects (font (size 1.27 1.27))))
      )
      (pin power_in line (at 15.24 -30.48 180) (length 5.08) hide
        (name "PGND" (effects (font (size 1.27 1.27))))
        (number "4" (effects (font (size 1.27 1.27))))
      )
      (pin power_in line (at 15.24 -30.48 180) (length 5.08) hide
        (name "PGND" (effects (font (size 1.27 1.27))))
        (number "40" (effects (font (size 1.27 1.27))))
      )
      (pin power_in line (at 15.24 -30.48 180) (length 5.08) hide
        (name "PGND" (effects (font (size 1.27 1.27))))
        (number "41" (effects (font (size 1.27 1.27))))
      )
      (pin power_in line (at 15.24 -30.48 180) (length 5.08) hide
        (name "PGND" (effects (font (size 1.27 1.27))))
        (number "42" (effects (font (size 1.27 1.27))))
      )
      (pin input line (at 15.24 -15.24 180) (length 5.08)
        (name "FB2" (effects (font (size 1.27 1.27))))
        (number "43" (effects (font (size 1.27 1.27))))
      )
      (pin open_collector line (at -15.24 -5.08 0) (length 5.08)
        (name "PG2" (effects (font (size 1.27 1.27))))
        (number "44" (effects (font (size 1.27 1.27))))
      )
      (pin open_collector line (at -15.24 -2.54 0) (length 5.08)
        (name "PG1" (effects (font (size 1.27 1.27))))
        (number "45" (effects (font (size 1.27 1.27))))
      )
      (pin input line (at -15.24 -25.4 0) (length 5.08)
        (name "ISET2" (effects (font (size 1.27 1.27))))
        (number "46" (effects (font (size 1.27 1.27))))
      )
      (pin input line (at -15.24 7.62 0) (length 5.08)
        (name "EN" (effects (font (size 1.27 1.27))))
        (number "47" (effects (font (size 1.27 1.27))))
      )
      (pin input line (at -15.24 2.54 0) (length 5.08)
        (name "EN2" (effects (font (size 1.27 1.27))))
        (number "48" (effects (font (size 1.27 1.27))))
      )
      (pin input line (at -15.24 5.08 0) (length 5.08)
        (name "EN1" (effects (font (size 1.27 1.27))))
        (number "49" (effects (font (size 1.27 1.27))))
      )
      (pin power_out line (at 15.24 30.48 180) (length 5.08)
        (name "LX1" (effects (font (size 1.27 1.27))))
        (number "5" (effects (font (size 1.27 1.27))))
      )
      (pin input line (at 15.24 0 180) (length 5.08)
        (name "FB1" (effects (font (size 1.27 1.27))))
        (number "50" (effects (font (size 1.27 1.27))))
      )
      (pin power_in line (at 15.24 -30.48 180) (length 5.08) hide
        (name "PGND" (effects (font (size 1.27 1.27))))
        (number "51" (effects (font (size 1.27 1.27))))
      )
      (pin power_out line (at 15.24 27.94 180) (length 5.08)
        (name "LX1" (effects (font (size 1.27 1.27))))
        (number "6" (effects (font (size 1.27 1.27))))
      )
      (pin power_in line (at -15.24 30.48 0) (length 5.08)
        (name "PVIN1" (effects (font (size 1.27 1.27))))
        (number "7" (effects (font (size 1.27 1.27))))
      )
      (pin power_in line (at -15.24 27.94 0) (length 5.08)
        (name "PVIN2" (effects (font (size 1.27 1.27))))
        (number "8" (effects (font (size 1.27 1.27))))
      )
      (pin power_out line (at 15.24 25.4 180) (length 5.08)
        (name "LX2" (effects (font (size 1.27 1.27))))
        (number "9" (effects (font (size 1.27 1.27))))
      )
    )
  )
)
