(kicad_symbol_lib
	(version 20231120)
	(generator "kicad_symbol_editor")
	(generator_version "8.0")
	(symbol "LPS22HH"
		(exclude_from_sim no)
		(in_bom yes)
		(on_board yes)
		(property "Reference" "U"
			(at 0 0 0)
			(effects
				(font
					(size 1.27 1.27)
				)
			)
		)
		(property "Value" "LPS22HH"
			(at 0 0 0)
			(effects
				(font
					(size 1.27 1.27)
				)
			)
		)
		(property "Footprint" "IPC_LGA:LGA10P50_200X200X80L25X275N"
			(at 0 0 0)
			(effects
				(font
					(size 1.27 1.27)
				)
				(hide yes)
			)
		)
		(property "Datasheet" "https://www.st.com/resource/en/datasheet/lps22hh.pdf"
			(at 0 0 0)
			(effects
				(font
					(size 1.27 1.27)
				)
				(hide yes)
			)
		)
		(property "Description" "High-performance MEMS nano pressure sensor: 260-1260 hPa absolute digital output barometer"
			(at 0 0 0)
			(effects
				(font
					(size 1.27 1.27)
				)
				(hide yes)
			)
		)
		(property "ki_keywords" "Barometer, MEMs"
			(at 0 0 0)
			(effects
				(font
					(size 1.27 1.27)
				)
				(hide yes)
			)
		)
		(symbol "LPS22HH_1_1"
			(rectangle
				(start -7.62 11.43)
				(end 7.62 -11.43)
				(stroke
					(width 0)
					(type default)
				)
				(fill
					(type background)
				)
			)
			(pin power_in line
				(at 1.27 13.97 270)
				(length 2.54)
				(name "VDDIO"
					(effects
						(font
							(size 1.27 1.27)
						)
					)
				)
				(number "1"
					(effects
						(font
							(size 1.27 1.27)
						)
					)
				)
			)
			(pin power_in line
				(at -1.27 13.97 270)
				(length 2.54)
				(name "VDD"
					(effects
						(font
							(size 1.27 1.27)
						)
					)
				)
				(number "10"
					(effects
						(font
							(size 1.27 1.27)
						)
					)
				)
			)
			(pin input line
				(at -10.16 1.27 0)
				(length 2.54)
				(name "SCL/SCK"
					(effects
						(font
							(size 1.27 1.27)
						)
					)
				)
				(number "2"
					(effects
						(font
							(size 1.27 1.27)
						)
					)
				)
			)
			(pin passive line
				(at 10.16 -3.81 180)
				(length 2.54)
				(name "RSVD"
					(effects
						(font
							(size 1.27 1.27)
						)
					)
				)
				(number "3"
					(effects
						(font
							(size 1.27 1.27)
						)
					)
				)
			)
			(pin bidirectional line
				(at -10.16 -1.27 0)
				(length 2.54)
				(name "SDA/SDI"
					(effects
						(font
							(size 1.27 1.27)
						)
					)
				)
				(number "4"
					(effects
						(font
							(size 1.27 1.27)
						)
					)
				)
			)
			(pin bidirectional line
				(at -10.16 -3.81 0)
				(length 2.54)
				(name "SDO/SA0"
					(effects
						(font
							(size 1.27 1.27)
						)
					)
				)
				(number "5"
					(effects
						(font
							(size 1.27 1.27)
						)
					)
				)
			)
			(pin bidirectional line
				(at -10.16 3.81 0)
				(length 2.54)
				(name "CS"
					(effects
						(font
							(size 1.27 1.27)
						)
					)
				)
				(number "6"
					(effects
						(font
							(size 1.27 1.27)
						)
					)
				)
			)
			(pin output line
				(at 10.16 3.81 180)
				(length 2.54)
				(name "INT_DRDY"
					(effects
						(font
							(size 1.27 1.27)
						)
					)
				)
				(number "7"
					(effects
						(font
							(size 1.27 1.27)
						)
					)
				)
			)
			(pin power_in line
				(at -1.27 -13.97 90)
				(length 2.54)
				(name "GND"
					(effects
						(font
							(size 1.27 1.27)
						)
					)
				)
				(number "8"
					(effects
						(font
							(size 1.27 1.27)
						)
					)
				)
			)
			(pin power_in line
				(at 1.27 -13.97 90)
				(length 2.54)
				(name "GND"
					(effects
						(font
							(size 1.27 1.27)
						)
					)
				)
				(number "9"
					(effects
						(font
							(size 1.27 1.27)
						)
					)
				)
			)
		)
	)
)
