(kicad_symbol_lib (version 20211014) (generator kicad_symbol_editor)
  (symbol "SFT825N-S" (pin_names (offset 1.27)) (in_bom yes) (on_board yes)
    (property "Reference" "D" (id 0) (at 0 10.16 0)
      (effects (font (size 1.27 1.27)))
    )
    (property "Value" "SFT825N-S" (id 1) (at 0 -10.16 0)
      (effects (font (size 1.27 1.27)))
    )
    (property "Footprint" "" (id 2) (at 0 0 0)
      (effects (font (size 1.27 1.27)) hide)
    )
    (property "Datasheet" "" (id 3) (at 0 0 0)
      (effects (font (size 1.27 1.27)) hide)
    )
    (symbol "SFT825N-S_0_1"
      (rectangle (start -2.54 8.89) (end 2.54 -8.89)
        (stroke (width 0) (type default) (color 0 0 0 0))
        (fill (type background))
      )
    )
    (symbol "SFT825N-S_1_1"
      (rectangle (start -1.27 -6.35) (end -1.27 -3.81)
        (stroke (width 0) (type default) (color 0 0 0 0))
        (fill (type none))
      )
      (rectangle (start -1.27 -3.81) (end -1.27 -3.81)
        (stroke (width 0) (type default) (color 0 0 0 0))
        (fill (type none))
      )
      (rectangle (start -1.27 3.81) (end -1.27 6.35)
        (stroke (width 0) (type default) (color 0 0 0 0))
        (fill (type none))
      )
      (rectangle (start -1.27 6.35) (end -1.27 6.35)
        (stroke (width 0) (type default) (color 0 0 0 0))
        (fill (type none))
      )
      (polyline
        (pts
          (xy -1.27 -5.08)
          (xy -2.54 -5.08)
        )
        (stroke (width 0) (type default) (color 0 0 0 0))
        (fill (type none))
      )
      (polyline
        (pts
          (xy -1.27 -5.08)
          (xy 1.27 -5.08)
        )
        (stroke (width 0) (type default) (color 0 0 0 0))
        (fill (type none))
      )
      (polyline
        (pts
          (xy -1.27 0)
          (xy -2.54 0)
        )
        (stroke (width 0) (type default) (color 0 0 0 0))
        (fill (type none))
      )
      (polyline
        (pts
          (xy -1.27 5.08)
          (xy -2.54 5.08)
        )
        (stroke (width 0) (type default) (color 0 0 0 0))
        (fill (type none))
      )
      (polyline
        (pts
          (xy 1.27 -5.08)
          (xy 2.54 -5.08)
        )
        (stroke (width 0) (type default) (color 0 0 0 0))
        (fill (type none))
      )
      (polyline
        (pts
          (xy 1.27 -3.81)
          (xy 1.27 -6.35)
        )
        (stroke (width 0.2032) (type default) (color 0 0 0 0))
        (fill (type none))
      )
      (polyline
        (pts
          (xy 1.27 0)
          (xy -1.27 0)
        )
        (stroke (width 0) (type default) (color 0 0 0 0))
        (fill (type none))
      )
      (polyline
        (pts
          (xy 1.27 0)
          (xy 2.54 0)
        )
        (stroke (width 0) (type default) (color 0 0 0 0))
        (fill (type none))
      )
      (polyline
        (pts
          (xy 1.27 1.27)
          (xy 1.27 -1.27)
        )
        (stroke (width 0) (type default) (color 0 0 0 0))
        (fill (type none))
      )
      (polyline
        (pts
          (xy 1.27 1.27)
          (xy 1.27 -1.27)
        )
        (stroke (width 0.2032) (type default) (color 0 0 0 0))
        (fill (type none))
      )
      (polyline
        (pts
          (xy 1.27 5.08)
          (xy -1.27 5.08)
        )
        (stroke (width 0) (type default) (color 0 0 0 0))
        (fill (type none))
      )
      (polyline
        (pts
          (xy 1.27 5.08)
          (xy 2.54 5.08)
        )
        (stroke (width 0) (type default) (color 0 0 0 0))
        (fill (type none))
      )
      (polyline
        (pts
          (xy 1.27 6.35)
          (xy 1.27 3.81)
        )
        (stroke (width 0.2032) (type default) (color 0 0 0 0))
        (fill (type none))
      )
      (polyline
        (pts
          (xy 1.27 -3.81)
          (xy 1.27 -6.35)
          (xy 1.27 -6.35)
        )
        (stroke (width 0) (type default) (color 0 0 0 0))
        (fill (type none))
      )
      (polyline
        (pts
          (xy 1.27 6.35)
          (xy 1.27 3.81)
          (xy 1.27 3.81)
        )
        (stroke (width 0) (type default) (color 0 0 0 0))
        (fill (type none))
      )
      (polyline
        (pts
          (xy -1.27 -3.81)
          (xy -1.27 -6.35)
          (xy 1.27 -5.08)
          (xy -1.27 -3.81)
        )
        (stroke (width 0.2032) (type default) (color 0 0 0 0))
        (fill (type none))
      )
      (polyline
        (pts
          (xy -1.27 1.27)
          (xy -1.27 -1.27)
          (xy 1.27 0)
          (xy -1.27 1.27)
        )
        (stroke (width 0.2032) (type default) (color 0 0 0 0))
        (fill (type none))
      )
      (polyline
        (pts
          (xy -1.27 6.35)
          (xy -1.27 3.81)
          (xy 1.27 5.08)
          (xy -1.27 6.35)
        )
        (stroke (width 0.2032) (type default) (color 0 0 0 0))
        (fill (type none))
      )
      (polyline
        (pts
          (xy 0 -3.81)
          (xy -1.524 -2.286)
          (xy -0.762 -2.286)
          (xy -1.524 -2.286)
          (xy -1.524 -3.048)
        )
        (stroke (width 0) (type default) (color 0 0 0 0))
        (fill (type none))
      )
      (polyline
        (pts
          (xy 0 1.27)
          (xy -1.524 2.794)
          (xy -0.762 2.794)
          (xy -1.524 2.794)
          (xy -1.524 2.032)
        )
        (stroke (width 0) (type default) (color 0 0 0 0))
        (fill (type none))
      )
      (polyline
        (pts
          (xy 0 6.35)
          (xy -1.524 7.874)
          (xy -0.762 7.874)
          (xy -1.524 7.874)
          (xy -1.524 7.112)
        )
        (stroke (width 0) (type default) (color 0 0 0 0))
        (fill (type none))
      )
      (polyline
        (pts
          (xy 1.016 -3.81)
          (xy -0.508 -2.286)
          (xy 0.254 -2.286)
          (xy -0.508 -2.286)
          (xy -0.508 -3.048)
        )
        (stroke (width 0) (type default) (color 0 0 0 0))
        (fill (type none))
      )
      (polyline
        (pts
          (xy 1.016 1.27)
          (xy -0.508 2.794)
          (xy 0.254 2.794)
          (xy -0.508 2.794)
          (xy -0.508 2.032)
        )
        (stroke (width 0) (type default) (color 0 0 0 0))
        (fill (type none))
      )
      (polyline
        (pts
          (xy 1.016 6.35)
          (xy -0.508 7.874)
          (xy 0.254 7.874)
          (xy -0.508 7.874)
          (xy -0.508 7.112)
        )
        (stroke (width 0) (type default) (color 0 0 0 0))
        (fill (type none))
      )
      (text "B" (at 1.905 3.81 0)
        (effects (font (size 1.27 1.27)))
      )
      (text "G" (at 1.905 -1.27 0)
        (effects (font (size 1.27 1.27)))
      )
      (text "R" (at 1.905 -6.35 0)
        (effects (font (size 1.27 1.27)))
      )
      (pin passive line (at 5.08 5.08 180) (length 2.54)
        (name "~" (effects (font (size 1.27 1.27))))
        (number "1" (effects (font (size 1.27 1.27))))
      )
      (pin passive line (at 5.08 -5.08 180) (length 2.54)
        (name "~" (effects (font (size 1.27 1.27))))
        (number "3" (effects (font (size 1.27 1.27))))
      )
      (pin passive line (at 5.08 0 180) (length 2.54)
        (name "~" (effects (font (size 1.27 1.27))))
        (number "3" (effects (font (size 1.27 1.27))))
      )
      (pin passive line (at -5.08 5.08 0) (length 2.54)
        (name "~" (effects (font (size 1.27 1.27))))
        (number "4" (effects (font (size 1.27 1.27))))
      )
      (pin passive line (at -5.08 0 0) (length 2.54)
        (name "~" (effects (font (size 1.27 1.27))))
        (number "5" (effects (font (size 1.27 1.27))))
      )
      (pin passive line (at -5.08 -5.08 0) (length 2.54)
        (name "~" (effects (font (size 1.27 1.27))))
        (number "6" (effects (font (size 1.27 1.27))))
      )
    )
  )
)
