(kicad_symbol_lib (version 20211014) (generator kicad_symbol_editor)
  (symbol "Si1427" (pin_names (offset 1.016)) (in_bom yes) (on_board yes)
    (property "Reference" "Q" (id 0) (at 5.08 0.635 0)
      (effects (font (size 1.27 1.27)) (justify left bottom))
    )
    (property "Value" "Si1427" (id 1) (at 5.08 -0.635 0)
      (effects (font (size 1.27 1.27)) (justify left top))
    )
    (property "Footprint" "" (id 2) (at 0.254 0 0)
      (effects (font (size 1.27 1.27)) hide)
    )
    (property "Datasheet" "" (id 3) (at 0.254 0 0)
      (effects (font (size 1.27 1.27)) hide)
    )
    (symbol "Si1427_1_1"
      (polyline
        (pts
          (xy 0.0508 0)
          (xy 0.254 0)
        )
        (stroke (width 0) (type default) (color 0 0 0 0))
        (fill (type none))
      )
      (polyline
        (pts
          (xy 0.762 -1.778)
          (xy 2.54 -1.778)
        )
        (stroke (width 0) (type default) (color 0 0 0 0))
        (fill (type none))
      )
      (polyline
        (pts
          (xy 0.762 -1.27)
          (xy 0.762 -2.286)
        )
        (stroke (width 0.254) (type default) (color 0 0 0 0))
        (fill (type none))
      )
      (polyline
        (pts
          (xy 0.762 0)
          (xy 2.54 0)
        )
        (stroke (width 0) (type default) (color 0 0 0 0))
        (fill (type none))
      )
      (polyline
        (pts
          (xy 0.762 0.508)
          (xy 0.762 -0.508)
        )
        (stroke (width 0.254) (type default) (color 0 0 0 0))
        (fill (type none))
      )
      (polyline
        (pts
          (xy 0.762 1.778)
          (xy 2.54 1.778)
        )
        (stroke (width 0) (type default) (color 0 0 0 0))
        (fill (type none))
      )
      (polyline
        (pts
          (xy 0.762 2.286)
          (xy 0.762 1.27)
        )
        (stroke (width 0.254) (type default) (color 0 0 0 0))
        (fill (type none))
      )
      (polyline
        (pts
          (xy 2.54 -1.778)
          (xy 2.54 -2.54)
        )
        (stroke (width 0) (type default) (color 0 0 0 0))
        (fill (type none))
      )
      (polyline
        (pts
          (xy 2.54 -1.778)
          (xy 2.54 0)
        )
        (stroke (width 0) (type default) (color 0 0 0 0))
        (fill (type none))
      )
      (polyline
        (pts
          (xy 2.54 2.54)
          (xy 2.54 1.778)
        )
        (stroke (width 0) (type default) (color 0 0 0 0))
        (fill (type none))
      )
      (polyline
        (pts
          (xy 0.254 1.905)
          (xy 0.254 -1.905)
          (xy 0.254 -1.905)
        )
        (stroke (width 0.254) (type default) (color 0 0 0 0))
        (fill (type none))
      )
      (polyline
        (pts
          (xy 1.016 0)
          (xy 2.032 0.381)
          (xy 2.032 -0.381)
          (xy 1.016 0)
        )
        (stroke (width 0) (type default) (color 0 0 0 0))
        (fill (type outline))
      )
      (polyline
        (pts
          (xy 2.54 -1.778)
          (xy 3.302 -1.778)
          (xy 3.302 1.778)
          (xy 2.54 1.778)
        )
        (stroke (width 0) (type default) (color 0 0 0 0))
        (fill (type none))
      )
      (polyline
        (pts
          (xy 2.794 0.508)
          (xy 2.921 0.381)
          (xy 3.683 0.381)
          (xy 3.81 0.254)
        )
        (stroke (width 0) (type default) (color 0 0 0 0))
        (fill (type none))
      )
      (polyline
        (pts
          (xy 3.302 0.381)
          (xy 2.921 -0.254)
          (xy 3.683 -0.254)
          (xy 3.302 0.381)
        )
        (stroke (width 0) (type default) (color 0 0 0 0))
        (fill (type none))
      )
      (circle (center 1.651 0) (radius 2.8194)
        (stroke (width 0.254) (type default) (color 0 0 0 0))
        (fill (type none))
      )
      (circle (center 2.54 -1.778) (radius 0.2794)
        (stroke (width 0) (type default) (color 0 0 0 0))
        (fill (type outline))
      )
      (circle (center 2.54 1.778) (radius 0.2794)
        (stroke (width 0) (type default) (color 0 0 0 0))
        (fill (type outline))
      )
      (pin passive line (at 2.54 5.08 270) (length 2.54)
        (name "D" (effects (font (size 1.27 1.27))))
        (number "1" (effects (font (size 1.27 1.27))))
      )
      (pin passive line (at 2.54 5.08 270) (length 2.54) hide
        (name "D" (effects (font (size 1.27 1.27))))
        (number "2" (effects (font (size 1.27 1.27))))
      )
      (pin input line (at -5.08 0 0) (length 5.08)
        (name "G" (effects (font (size 1.27 1.27))))
        (number "3" (effects (font (size 1.27 1.27))))
      )
      (pin passive line (at 2.54 -5.08 90) (length 2.54)
        (name "S" (effects (font (size 1.27 1.27))))
        (number "4" (effects (font (size 1.27 1.27))))
      )
      (pin passive line (at 2.54 5.08 270) (length 2.54) hide
        (name "D" (effects (font (size 1.27 1.27))))
        (number "5" (effects (font (size 1.27 1.27))))
      )
      (pin passive line (at 2.54 5.08 270) (length 2.54) hide
        (name "D" (effects (font (size 1.27 1.27))))
        (number "6" (effects (font (size 1.27 1.27))))
      )
    )
  )
)
