(kicad_symbol_lib (version 20211014) (generator kicad_symbol_editor)
  (symbol "M24M01-DFDW" (in_bom yes) (on_board yes)
    (property "Reference" "U" (id 0) (at 0 7.62 0)
      (effects (font (size 1.27 1.27)))
    )
    (property "Value" "M24M01-DFDW" (id 1) (at 0 -7.62 0)
      (effects (font (size 1.27 1.27)))
    )
    (property "Footprint" "" (id 2) (at 0 0 0)
      (effects (font (size 1.27 1.27)) hide)
    )
    (property "Datasheet" "" (id 3) (at 0 0 0)
      (effects (font (size 1.27 1.27)) hide)
    )
    (symbol "M24M01-DFDW_0_1"
      (rectangle (start -5.08 6.35) (end 5.08 -6.35)
        (stroke (width 0) (type default) (color 0 0 0 0))
        (fill (type background))
      )
    )
    (symbol "M24M01-DFDW_1_1"
      (pin input line (at -10.16 3.81 0) (length 5.08)
        (name "E1" (effects (font (size 1.27 1.27))))
        (number "2" (effects (font (size 1.27 1.27))))
      )
      (pin input line (at -10.16 1.27 0) (length 5.08)
        (name "E2" (effects (font (size 1.27 1.27))))
        (number "3" (effects (font (size 1.27 1.27))))
      )
      (pin power_in line (at 10.16 -3.81 180) (length 5.08)
        (name "VSS" (effects (font (size 1.27 1.27))))
        (number "4" (effects (font (size 1.27 1.27))))
      )
      (pin bidirectional line (at -10.16 -3.81 0) (length 5.08)
        (name "SDA" (effects (font (size 1.27 1.27))))
        (number "5" (effects (font (size 1.27 1.27))))
      )
      (pin input line (at -10.16 -1.27 0) (length 5.08)
        (name "SCL" (effects (font (size 1.27 1.27))))
        (number "6" (effects (font (size 1.27 1.27))))
      )
      (pin input line (at 10.16 0 180) (length 5.08)
        (name "~{WC}" (effects (font (size 1.27 1.27))))
        (number "7" (effects (font (size 1.27 1.27))))
      )
      (pin power_in line (at 10.16 3.81 180) (length 5.08)
        (name "VCC" (effects (font (size 1.27 1.27))))
        (number "8" (effects (font (size 1.27 1.27))))
      )
    )
  )
  (symbol "M24M01-DFMN" (in_bom yes) (on_board yes)
    (property "Reference" "U" (id 0) (at 0 7.62 0)
      (effects (font (size 1.27 1.27)))
    )
    (property "Value" "M24M01-DFMN" (id 1) (at 0 -7.62 0)
      (effects (font (size 1.27 1.27)))
    )
    (property "Footprint" "" (id 2) (at 0 0 0)
      (effects (font (size 1.27 1.27)) hide)
    )
    (property "Datasheet" "" (id 3) (at 0 0 0)
      (effects (font (size 1.27 1.27)) hide)
    )
    (symbol "M24M01-DFMN_0_1"
      (rectangle (start -5.08 6.35) (end 5.08 -6.35)
        (stroke (width 0) (type default) (color 0 0 0 0))
        (fill (type background))
      )
    )
    (symbol "M24M01-DFMN_1_1"
      (pin input line (at -10.16 3.81 0) (length 5.08)
        (name "E1" (effects (font (size 1.27 1.27))))
        (number "2" (effects (font (size 1.27 1.27))))
      )
      (pin input line (at -10.16 1.27 0) (length 5.08)
        (name "E2" (effects (font (size 1.27 1.27))))
        (number "3" (effects (font (size 1.27 1.27))))
      )
      (pin power_in line (at 10.16 -3.81 180) (length 5.08)
        (name "VSS" (effects (font (size 1.27 1.27))))
        (number "4" (effects (font (size 1.27 1.27))))
      )
      (pin bidirectional line (at -10.16 -3.81 0) (length 5.08)
        (name "SDA" (effects (font (size 1.27 1.27))))
        (number "5" (effects (font (size 1.27 1.27))))
      )
      (pin input line (at -10.16 -1.27 0) (length 5.08)
        (name "SCL" (effects (font (size 1.27 1.27))))
        (number "6" (effects (font (size 1.27 1.27))))
      )
      (pin input line (at 10.16 0 180) (length 5.08)
        (name "~{WC}" (effects (font (size 1.27 1.27))))
        (number "7" (effects (font (size 1.27 1.27))))
      )
      (pin power_in line (at 10.16 3.81 180) (length 5.08)
        (name "VCC" (effects (font (size 1.27 1.27))))
        (number "8" (effects (font (size 1.27 1.27))))
      )
    )
  )
)
