(kicad_symbol_lib
	(version 20231120)
	(generator "kicad_symbol_editor")
	(generator_version "8.0")
	(symbol "LM3914V"
		(exclude_from_sim no)
		(in_bom yes)
		(on_board yes)
		(property "Reference" "U"
			(at 0 0 0)
			(effects
				(font
					(size 1.27 1.27)
				)
			)
		)
		(property "Value" "LM3914V"
			(at 0 0 0)
			(effects
				(font
					(size 1.27 1.27)
				)
			)
		)
		(property "Footprint" ""
			(at 0 0 0)
			(effects
				(font
					(size 1.27 1.27)
				)
				(hide yes)
			)
		)
		(property "Datasheet" ""
			(at 0 0 0)
			(effects
				(font
					(size 1.27 1.27)
				)
				(hide yes)
			)
		)
		(property "Description" ""
			(at 0 0 0)
			(effects
				(font
					(size 1.27 1.27)
				)
				(hide yes)
			)
		)
		(symbol "LM3914V_0_1"
			(rectangle
				(start -7.62 13.97)
				(end 7.62 -13.97)
				(stroke
					(width 0)
					(type default)
				)
				(fill
					(type background)
				)
			)
		)
		(symbol "LM3914V_1_1"
			(pin open_collector line
				(at 12.7 11.43 180)
				(length 5.08)
				(name "LED1"
					(effects
						(font
							(size 1.27 1.27)
						)
					)
				)
				(number "1"
					(effects
						(font
							(size 1.27 1.27)
						)
					)
				)
			)
			(pin open_collector line
				(at 12.7 -11.43 180)
				(length 5.08)
				(name "LED10"
					(effects
						(font
							(size 1.27 1.27)
						)
					)
				)
				(number "10"
					(effects
						(font
							(size 1.27 1.27)
						)
					)
				)
			)
			(pin open_collector line
				(at 12.7 -8.89 180)
				(length 5.08)
				(name "LED9"
					(effects
						(font
							(size 1.27 1.27)
						)
					)
				)
				(number "11"
					(effects
						(font
							(size 1.27 1.27)
						)
					)
				)
			)
			(pin open_collector line
				(at 12.7 -6.35 180)
				(length 5.08)
				(name "LED8"
					(effects
						(font
							(size 1.27 1.27)
						)
					)
				)
				(number "12"
					(effects
						(font
							(size 1.27 1.27)
						)
					)
				)
			)
			(pin open_collector line
				(at 12.7 -3.81 180)
				(length 5.08)
				(name "LED7"
					(effects
						(font
							(size 1.27 1.27)
						)
					)
				)
				(number "13"
					(effects
						(font
							(size 1.27 1.27)
						)
					)
				)
			)
			(pin open_collector line
				(at 12.7 -1.27 180)
				(length 5.08)
				(name "LED6"
					(effects
						(font
							(size 1.27 1.27)
						)
					)
				)
				(number "14"
					(effects
						(font
							(size 1.27 1.27)
						)
					)
				)
			)
			(pin open_collector line
				(at 12.7 1.27 180)
				(length 5.08)
				(name "LED5"
					(effects
						(font
							(size 1.27 1.27)
						)
					)
				)
				(number "15"
					(effects
						(font
							(size 1.27 1.27)
						)
					)
				)
			)
			(pin open_collector line
				(at 12.7 3.81 180)
				(length 5.08)
				(name "LED4"
					(effects
						(font
							(size 1.27 1.27)
						)
					)
				)
				(number "16"
					(effects
						(font
							(size 1.27 1.27)
						)
					)
				)
			)
			(pin open_collector line
				(at 12.7 6.35 180)
				(length 5.08)
				(name "LED3"
					(effects
						(font
							(size 1.27 1.27)
						)
					)
				)
				(number "17"
					(effects
						(font
							(size 1.27 1.27)
						)
					)
				)
			)
			(pin open_collector line
				(at 12.7 8.89 180)
				(length 5.08)
				(name "LED2"
					(effects
						(font
							(size 1.27 1.27)
						)
					)
				)
				(number "18"
					(effects
						(font
							(size 1.27 1.27)
						)
					)
				)
			)
			(pin no_connect line
				(at -7.62 6.35 0)
				(length 2.54) hide
				(name "NC"
					(effects
						(font
							(size 1.27 1.27)
						)
					)
				)
				(number "19"
					(effects
						(font
							(size 1.27 1.27)
						)
					)
				)
			)
			(pin power_in line
				(at -12.7 -11.43 0)
				(length 5.08)
				(name "V-"
					(effects
						(font
							(size 1.27 1.27)
						)
					)
				)
				(number "2"
					(effects
						(font
							(size 1.27 1.27)
						)
					)
				)
			)
			(pin no_connect line
				(at -7.62 -6.35 0)
				(length 2.54) hide
				(name "NC"
					(effects
						(font
							(size 1.27 1.27)
						)
					)
				)
				(number "20"
					(effects
						(font
							(size 1.27 1.27)
						)
					)
				)
			)
			(pin power_in line
				(at -12.7 11.43 0)
				(length 5.08)
				(name "V+"
					(effects
						(font
							(size 1.27 1.27)
						)
					)
				)
				(number "3"
					(effects
						(font
							(size 1.27 1.27)
						)
					)
				)
			)
			(pin passive line
				(at -12.7 -8.89 0)
				(length 5.08)
				(name "RLO"
					(effects
						(font
							(size 1.27 1.27)
						)
					)
				)
				(number "4"
					(effects
						(font
							(size 1.27 1.27)
						)
					)
				)
			)
			(pin input line
				(at -12.7 -1.27 0)
				(length 5.08)
				(name "SIG"
					(effects
						(font
							(size 1.27 1.27)
						)
					)
				)
				(number "5"
					(effects
						(font
							(size 1.27 1.27)
						)
					)
				)
			)
			(pin passive line
				(at -12.7 8.89 0)
				(length 5.08)
				(name "RHI"
					(effects
						(font
							(size 1.27 1.27)
						)
					)
				)
				(number "6"
					(effects
						(font
							(size 1.27 1.27)
						)
					)
				)
			)
			(pin power_out line
				(at -12.7 3.81 0)
				(length 5.08)
				(name "REFOUT"
					(effects
						(font
							(size 1.27 1.27)
						)
					)
				)
				(number "7"
					(effects
						(font
							(size 1.27 1.27)
						)
					)
				)
			)
			(pin passive line
				(at -12.7 1.27 0)
				(length 5.08)
				(name "REFADJ"
					(effects
						(font
							(size 1.27 1.27)
						)
					)
				)
				(number "8"
					(effects
						(font
							(size 1.27 1.27)
						)
					)
				)
			)
			(pin input line
				(at -12.7 -3.81 0)
				(length 5.08)
				(name "MODE"
					(effects
						(font
							(size 1.27 1.27)
						)
					)
				)
				(number "9"
					(effects
						(font
							(size 1.27 1.27)
						)
					)
				)
			)
		)
	)
	(symbol "SN74LVC1G14DSF"
		(exclude_from_sim no)
		(in_bom yes)
		(on_board yes)
		(property "Reference" "U"
			(at 1.27 2.54 0)
			(effects
				(font
					(size 1.27 1.27)
				)
			)
		)
		(property "Value" "SN74LVC1G14DSF"
			(at 0 -3.175 0)
			(effects
				(font
					(size 1.27 1.27)
				)
				(justify left)
			)
		)
		(property "Footprint" ""
			(at 0 0 0)
			(effects
				(font
					(size 1.27 1.27)
				)
				(hide yes)
			)
		)
		(property "Datasheet" ""
			(at 0 0 0)
			(effects
				(font
					(size 1.27 1.27)
				)
				(hide yes)
			)
		)
		(property "Description" ""
			(at 0 0 0)
			(effects
				(font
					(size 1.27 1.27)
				)
				(hide yes)
			)
		)
		(symbol "SN74LVC1G14DSF_0_1"
			(polyline
				(pts
					(xy -6.35 6.35) (xy -6.35 -6.35) (xy 6.35 0) (xy -6.35 6.35)
				)
				(stroke
					(width 0.254)
					(type default)
				)
				(fill
					(type background)
				)
			)
			(polyline
				(pts
					(xy -2.54 -1.27) (xy 0 -1.27) (xy 0 1.27) (xy 1.27 1.27) (xy -1.27 1.27) (xy -1.27 -1.27)
				)
				(stroke
					(width 0)
					(type default)
				)
				(fill
					(type none)
				)
			)
		)
		(symbol "SN74LVC1G14DSF_1_1"
			(pin no_connect line
				(at -6.35 -2.54 0)
				(length 2.54) hide
				(name "NC"
					(effects
						(font
							(size 1.27 1.27)
						)
					)
				)
				(number "1"
					(effects
						(font
							(size 1.27 1.27)
						)
					)
				)
			)
			(pin input line
				(at -8.89 0 0)
				(length 2.54)
				(name "~"
					(effects
						(font
							(size 1.27 1.27)
						)
					)
				)
				(number "2"
					(effects
						(font
							(size 1.27 1.27)
						)
					)
				)
			)
			(pin power_in line
				(at -3.81 -7.62 90)
				(length 2.54)
				(name "GND"
					(effects
						(font
							(size 1.27 1.27)
						)
					)
				)
				(number "3"
					(effects
						(font
							(size 1.27 1.27)
						)
					)
				)
			)
			(pin output inverted
				(at 8.89 0 180)
				(length 2.54)
				(name "~"
					(effects
						(font
							(size 1.27 1.27)
						)
					)
				)
				(number "4"
					(effects
						(font
							(size 1.27 1.27)
						)
					)
				)
			)
			(pin power_in line
				(at -3.81 7.62 270)
				(length 2.54)
				(name "VCC"
					(effects
						(font
							(size 1.27 1.27)
						)
					)
				)
				(number "5"
					(effects
						(font
							(size 1.27 1.27)
						)
					)
				)
			)
		)
	)
	(symbol "SN74LVC1G74DQE"
		(exclude_from_sim no)
		(in_bom yes)
		(on_board yes)
		(property "Reference" "U"
			(at 0 7.62 0)
			(effects
				(font
					(size 1.27 1.27)
				)
			)
		)
		(property "Value" "SN74LVC1G74DQE"
			(at 0 -7.62 0)
			(effects
				(font
					(size 1.27 1.27)
				)
			)
		)
		(property "Footprint" ""
			(at 0 0 0)
			(effects
				(font
					(size 1.27 1.27)
				)
				(hide yes)
			)
		)
		(property "Datasheet" ""
			(at 0 0 0)
			(effects
				(font
					(size 1.27 1.27)
				)
				(hide yes)
			)
		)
		(property "Description" ""
			(at 0 0 0)
			(effects
				(font
					(size 1.27 1.27)
				)
				(hide yes)
			)
		)
		(symbol "SN74LVC1G74DQE_1_0"
			(pin input clock
				(at -7.62 -1.27 0)
				(length 2.54)
				(name "C"
					(effects
						(font
							(size 1.27 1.27)
						)
					)
				)
				(number "1"
					(effects
						(font
							(size 1.27 1.27)
						)
					)
				)
			)
			(pin input line
				(at -7.62 1.27 0)
				(length 2.54)
				(name "D"
					(effects
						(font
							(size 1.27 1.27)
						)
					)
				)
				(number "2"
					(effects
						(font
							(size 1.27 1.27)
						)
					)
				)
			)
			(pin output line
				(at 7.62 -1.27 180)
				(length 2.54)
				(name "~{Q}"
					(effects
						(font
							(size 1.27 1.27)
						)
					)
				)
				(number "3"
					(effects
						(font
							(size 1.27 1.27)
						)
					)
				)
			)
			(pin output line
				(at 7.62 1.27 180)
				(length 2.54)
				(name "Q"
					(effects
						(font
							(size 1.27 1.27)
						)
					)
				)
				(number "5"
					(effects
						(font
							(size 1.27 1.27)
						)
					)
				)
			)
			(pin input line
				(at -7.62 -3.81 0)
				(length 2.54)
				(name "~{R}"
					(effects
						(font
							(size 1.27 1.27)
						)
					)
				)
				(number "6"
					(effects
						(font
							(size 1.27 1.27)
						)
					)
				)
			)
			(pin input line
				(at -7.62 3.81 0)
				(length 2.54)
				(name "~{S}"
					(effects
						(font
							(size 1.27 1.27)
						)
					)
				)
				(number "7"
					(effects
						(font
							(size 1.27 1.27)
						)
					)
				)
			)
		)
		(symbol "SN74LVC1G74DQE_1_1"
			(rectangle
				(start -5.08 6.35)
				(end 5.08 -6.35)
				(stroke
					(width 0.254)
					(type default)
				)
				(fill
					(type background)
				)
			)
			(pin power_in line
				(at 7.62 -3.81 180)
				(length 2.54)
				(name "GND"
					(effects
						(font
							(size 1.27 1.27)
						)
					)
				)
				(number "4"
					(effects
						(font
							(size 1.27 1.27)
						)
					)
				)
			)
			(pin power_in line
				(at 7.62 3.81 180)
				(length 2.54)
				(name "VCC"
					(effects
						(font
							(size 1.27 1.27)
						)
					)
				)
				(number "8"
					(effects
						(font
							(size 1.27 1.27)
						)
					)
				)
			)
		)
	)
	(symbol "SN74LVC2G14"
		(exclude_from_sim no)
		(in_bom yes)
		(on_board yes)
		(property "Reference" "U"
			(at 0 2.54 0)
			(effects
				(font
					(size 1.27 1.27)
				)
			)
		)
		(property "Value" "SN74LVC2G14"
			(at 0 -3.81 0)
			(effects
				(font
					(size 1.27 1.27)
				)
			)
		)
		(property "Footprint" ""
			(at 0 0 0)
			(effects
				(font
					(size 1.27 1.27)
				)
				(hide yes)
			)
		)
		(property "Datasheet" ""
			(at 0 0 0)
			(effects
				(font
					(size 1.27 1.27)
				)
				(hide yes)
			)
		)
		(property "Description" ""
			(at 0 0 0)
			(effects
				(font
					(size 1.27 1.27)
				)
				(hide yes)
			)
		)
		(property "ki_locked" ""
			(at 0 0 0)
			(effects
				(font
					(size 1.27 1.27)
				)
			)
		)
		(symbol "SN74LVC2G14_1_1"
			(polyline
				(pts
					(xy -1.524 -0.635) (xy -1.524 0.635) (xy -0.381 0.635)
				)
				(stroke
					(width 0)
					(type default)
				)
				(fill
					(type none)
				)
			)
			(polyline
				(pts
					(xy -1.016 0.635) (xy -1.016 -0.635) (xy -2.159 -0.635)
				)
				(stroke
					(width 0)
					(type default)
				)
				(fill
					(type none)
				)
			)
			(polyline
				(pts
					(xy -3.81 2.54) (xy -3.81 -2.54) (xy 3.81 0) (xy -3.81 2.54)
				)
				(stroke
					(width 0)
					(type default)
				)
				(fill
					(type none)
				)
			)
			(pin input line
				(at -7.62 0 0)
				(length 3.81)
				(name "~"
					(effects
						(font
							(size 1.016 1.016)
						)
					)
				)
				(number "1"
					(effects
						(font
							(size 1.016 1.016)
						)
					)
				)
			)
			(pin output inverted
				(at 7.62 0 180)
				(length 3.81)
				(name "~"
					(effects
						(font
							(size 1.016 1.016)
						)
					)
				)
				(number "6"
					(effects
						(font
							(size 1.016 1.016)
						)
					)
				)
			)
		)
		(symbol "SN74LVC2G14_2_1"
			(polyline
				(pts
					(xy -1.524 -0.635) (xy -1.524 0.635) (xy -0.381 0.635)
				)
				(stroke
					(width 0)
					(type default)
				)
				(fill
					(type none)
				)
			)
			(polyline
				(pts
					(xy -1.016 0.635) (xy -1.016 -0.635) (xy -2.159 -0.635)
				)
				(stroke
					(width 0)
					(type default)
				)
				(fill
					(type none)
				)
			)
			(polyline
				(pts
					(xy -3.81 2.54) (xy -3.81 -2.54) (xy 3.81 0) (xy -3.81 2.54)
				)
				(stroke
					(width 0)
					(type default)
				)
				(fill
					(type none)
				)
			)
			(pin input line
				(at -7.62 0 0)
				(length 3.81)
				(name "~"
					(effects
						(font
							(size 1.016 1.016)
						)
					)
				)
				(number "3"
					(effects
						(font
							(size 1.016 1.016)
						)
					)
				)
			)
			(pin output inverted
				(at 7.62 0 180)
				(length 3.81)
				(name "~"
					(effects
						(font
							(size 1.016 1.016)
						)
					)
				)
				(number "4"
					(effects
						(font
							(size 1.016 1.016)
						)
					)
				)
			)
		)
		(symbol "SN74LVC2G14_3_1"
			(polyline
				(pts
					(xy -3.81 1.27) (xy -3.81 -1.27) (xy 3.81 -1.27) (xy 3.81 1.27) (xy -3.81 1.27)
				)
				(stroke
					(width 0)
					(type default)
				)
				(fill
					(type none)
				)
			)
			(pin power_in line
				(at 7.62 0 180)
				(length 3.81)
				(name "GND"
					(effects
						(font
							(size 1.016 1.016)
						)
					)
				)
				(number "2"
					(effects
						(font
							(size 1.016 1.016)
						)
					)
				)
			)
			(pin power_in line
				(at -7.62 0 0)
				(length 3.81)
				(name "VCC"
					(effects
						(font
							(size 1.016 1.016)
						)
					)
				)
				(number "5"
					(effects
						(font
							(size 1.016 1.016)
						)
					)
				)
			)
		)
	)
	(symbol "SN74LVC2G17"
		(exclude_from_sim no)
		(in_bom yes)
		(on_board yes)
		(property "Reference" "U"
			(at 0 2.54 0)
			(effects
				(font
					(size 1.27 1.27)
				)
			)
		)
		(property "Value" "SN74LVC2G17"
			(at 0 -2.54 0)
			(effects
				(font
					(size 1.27 1.27)
				)
			)
		)
		(property "Footprint" ""
			(at 0 0 0)
			(effects
				(font
					(size 1.27 1.27)
				)
				(hide yes)
			)
		)
		(property "Datasheet" ""
			(at 0 0 0)
			(effects
				(font
					(size 1.27 1.27)
				)
				(hide yes)
			)
		)
		(property "Description" ""
			(at 0 0 0)
			(effects
				(font
					(size 1.27 1.27)
				)
				(hide yes)
			)
		)
		(property "ki_locked" ""
			(at 0 0 0)
			(effects
				(font
					(size 1.27 1.27)
				)
			)
		)
		(symbol "SN74LVC2G17_1_1"
			(polyline
				(pts
					(xy -1.524 -0.635) (xy -1.524 0.635) (xy -0.381 0.635)
				)
				(stroke
					(width 0)
					(type default)
				)
				(fill
					(type none)
				)
			)
			(polyline
				(pts
					(xy -1.016 0.635) (xy -1.016 -0.635) (xy -2.159 -0.635)
				)
				(stroke
					(width 0)
					(type default)
				)
				(fill
					(type none)
				)
			)
			(polyline
				(pts
					(xy -3.81 2.54) (xy -3.81 -2.54) (xy 3.81 0) (xy -3.81 2.54)
				)
				(stroke
					(width 0)
					(type default)
				)
				(fill
					(type none)
				)
			)
			(pin input line
				(at -7.62 0 0)
				(length 3.81)
				(name "~"
					(effects
						(font
							(size 1.016 1.016)
						)
					)
				)
				(number "1"
					(effects
						(font
							(size 1.016 1.016)
						)
					)
				)
			)
			(pin output line
				(at 7.62 0 180)
				(length 3.81)
				(name "~"
					(effects
						(font
							(size 1.016 1.016)
						)
					)
				)
				(number "6"
					(effects
						(font
							(size 1.016 1.016)
						)
					)
				)
			)
		)
		(symbol "SN74LVC2G17_2_1"
			(polyline
				(pts
					(xy -1.524 -0.635) (xy -1.524 0.635) (xy -0.381 0.635)
				)
				(stroke
					(width 0)
					(type default)
				)
				(fill
					(type none)
				)
			)
			(polyline
				(pts
					(xy -1.016 0.635) (xy -1.016 -0.635) (xy -2.159 -0.635)
				)
				(stroke
					(width 0)
					(type default)
				)
				(fill
					(type none)
				)
			)
			(polyline
				(pts
					(xy -3.81 2.54) (xy -3.81 -2.54) (xy 3.81 0) (xy -3.81 2.54)
				)
				(stroke
					(width 0)
					(type default)
				)
				(fill
					(type none)
				)
			)
			(pin input line
				(at -7.62 0 0)
				(length 3.81)
				(name "~"
					(effects
						(font
							(size 1.016 1.016)
						)
					)
				)
				(number "3"
					(effects
						(font
							(size 1.016 1.016)
						)
					)
				)
			)
			(pin output line
				(at 7.62 0 180)
				(length 3.81)
				(name "~"
					(effects
						(font
							(size 1.016 1.016)
						)
					)
				)
				(number "4"
					(effects
						(font
							(size 1.016 1.016)
						)
					)
				)
			)
		)
		(symbol "SN74LVC2G17_3_1"
			(polyline
				(pts
					(xy -3.81 1.27) (xy -3.81 -1.27) (xy 3.81 -1.27) (xy 3.81 1.27) (xy -3.81 1.27)
				)
				(stroke
					(width 0)
					(type default)
				)
				(fill
					(type none)
				)
			)
			(pin power_in line
				(at 7.62 0 180)
				(length 3.81)
				(name "GND"
					(effects
						(font
							(size 1.016 1.016)
						)
					)
				)
				(number "2"
					(effects
						(font
							(size 1.016 1.016)
						)
					)
				)
			)
			(pin power_in line
				(at -7.62 0 0)
				(length 3.81)
				(name "VCC"
					(effects
						(font
							(size 1.016 1.016)
						)
					)
				)
				(number "5"
					(effects
						(font
							(size 1.016 1.016)
						)
					)
				)
			)
		)
	)
	(symbol "TXU0101DCKR"
		(exclude_from_sim no)
		(in_bom yes)
		(on_board yes)
		(property "Reference" "U"
			(at 0 0 0)
			(effects
				(font
					(size 1.27 1.27)
				)
			)
		)
		(property "Value" "TXU0101DCKR"
			(at 0 0 0)
			(effects
				(font
					(size 1.27 1.27)
				)
			)
		)
		(property "Footprint" ""
			(at 0 0 0)
			(effects
				(font
					(size 1.27 1.27)
				)
				(hide yes)
			)
		)
		(property "Datasheet" "https://www.ti.com/lit/ds/symlink/txu0101.pdf"
			(at 0 0 0)
			(effects
				(font
					(size 1.27 1.27)
				)
				(hide yes)
			)
		)
		(property "Description" "Dual-Bit Fixed Direction Voltage-Level Translator with Schmitt-Trigger Inputs and 3-State Outputs"
			(at 0 0 0)
			(effects
				(font
					(size 1.27 1.27)
				)
				(hide yes)
			)
		)
		(symbol "TXU0101DCKR_1_1"
			(rectangle
				(start -6.35 5.08)
				(end 6.35 -5.08)
				(stroke
					(width 0)
					(type default)
				)
				(fill
					(type background)
				)
			)
			(pin power_in line
				(at -8.89 2.54 0)
				(length 2.54)
				(name "VCCA"
					(effects
						(font
							(size 1.27 1.27)
						)
					)
				)
				(number "1"
					(effects
						(font
							(size 1.27 1.27)
						)
					)
				)
			)
			(pin power_in line
				(at 8.89 -2.54 180)
				(length 2.54)
				(name "GND"
					(effects
						(font
							(size 1.27 1.27)
						)
					)
				)
				(number "2"
					(effects
						(font
							(size 1.27 1.27)
						)
					)
				)
			)
			(pin input line
				(at -8.89 0 0)
				(length 2.54)
				(name "A"
					(effects
						(font
							(size 1.27 1.27)
						)
					)
				)
				(number "3"
					(effects
						(font
							(size 1.27 1.27)
						)
					)
				)
			)
			(pin output line
				(at 8.89 0 180)
				(length 2.54)
				(name "BY"
					(effects
						(font
							(size 1.27 1.27)
						)
					)
				)
				(number "4"
					(effects
						(font
							(size 1.27 1.27)
						)
					)
				)
			)
			(pin input line
				(at -8.89 -2.54 0)
				(length 2.54)
				(name "OE"
					(effects
						(font
							(size 1.27 1.27)
						)
					)
				)
				(number "5"
					(effects
						(font
							(size 1.27 1.27)
						)
					)
				)
			)
			(pin power_in line
				(at 8.89 2.54 180)
				(length 2.54)
				(name "VCCB"
					(effects
						(font
							(size 1.27 1.27)
						)
					)
				)
				(number "6"
					(effects
						(font
							(size 1.27 1.27)
						)
					)
				)
			)
		)
	)
)
