(footprint "CAPAE830X1000N"
	(version 20240108)
	(generator "pcbnew")
	(generator_version "8.0")
	(layer "F.Cu")
	(property "Reference" "REF**"
		(at 0 -0.5 0)
		(unlocked yes)
		(layer "F.SilkS")
		(uuid "0f3dfaa7-8ea5-4845-86b1-a3dc9cd28068")
		(effects
			(font
				(size 1 1)
				(thickness 0.1)
			)
		)
	)
	(property "Value" "CAPAE830X1000N"
		(at 0 1 0)
		(unlocked yes)
		(layer "F.Fab")
		(uuid "2c164d6a-dc41-4a68-b3dd-d6e9a547825b")
		(effects
			(font
				(size 1 1)
				(thickness 0.15)
			)
		)
	)
	(property "Footprint" ""
		(at 0 0 0)
		(unlocked yes)
		(layer "F.Fab")
		(hide yes)
		(uuid "c88716ea-328a-4bf5-9dad-f9a71d788bd4")
		(effects
			(font
				(size 1 1)
				(thickness 0.15)
			)
		)
	)
	(property "Datasheet" ""
		(at 0 0 0)
		(unlocked yes)
		(layer "F.Fab")
		(hide yes)
		(uuid "16f6c123-00fb-4acc-bec5-c7cb47de6918")
		(effects
			(font
				(size 1 1)
				(thickness 0.15)
			)
		)
	)
	(property "Description" ""
		(at 0 0 0)
		(unlocked yes)
		(layer "F.Fab")
		(hide yes)
		(uuid "6f840353-2a4b-4a63-b6e8-49e30bce9c9d")
		(effects
			(font
				(size 1 1)
				(thickness 0.15)
			)
		)
	)
	(attr smd)
	(fp_text user "${REFERENCE}"
		(at 0 2.5 0)
		(unlocked yes)
		(layer "F.Fab")
		(uuid "e077d3cf-ee89-4cd3-bd58-efd649f02a8f")
		(effects
			(font
				(size 1 1)
				(thickness 0.15)
			)
		)
	)
)
