(module CAPC100X50X55L25N (layer F.Cu) (tedit 5C9F7BA7)
  (descr "Capacitor, Chip; 1.00 mm L X 0.50 mm W X 0.55 mm H body")
  (attr smd)
  (fp_text reference C3 (at 0 0) (layer F.SilkS)
    (effects (font (size 1.2 1.2) (thickness 0.12)))
  )
  (fp_text value 0u1 (at 0 0) (layer F.Fab)
    (effects (font (size 1.2 1.2) (thickness 0.12)))
  )
  (fp_line (start 0 -0.22) (end 0 0.22) (layer Dwgs.User) (width 0.05))
  (fp_line (start 0.22 0) (end -0.22 0) (layer Dwgs.User) (width 0.05))
  (fp_circle (center 0 0) (end 0.165 0) (layer Dwgs.User) (width 0.05))
  (fp_line (start 0.9 0.44) (end -0.9 0.44) (layer F.CrtYd) (width 0.05))
  (fp_line (start 0.9 -0.44) (end 0.9 0.44) (layer F.CrtYd) (width 0.05))
  (fp_line (start -0.9 -0.44) (end 0.9 -0.44) (layer F.CrtYd) (width 0.05))
  (fp_line (start -0.9 0.44) (end -0.9 -0.44) (layer F.CrtYd) (width 0.05))
  (fp_line (start 0.53 0.28) (end -0.53 0.28) (layer F.Fab) (width 0.12))
  (fp_line (start 0.53 -0.28) (end 0.53 0.28) (layer F.Fab) (width 0.12))
  (fp_line (start -0.53 -0.28) (end 0.53 -0.28) (layer F.Fab) (width 0.12))
  (fp_line (start -0.53 0.28) (end -0.53 -0.28) (layer F.Fab) (width 0.12))
  (fp_line (start 0.5 0.25) (end -0.5 0.25) (layer Dwgs.User) (width 0.025))
  (fp_line (start 0.5 -0.25) (end 0.5 0.25) (layer Dwgs.User) (width 0.025))
  (fp_line (start -0.5 -0.25) (end 0.5 -0.25) (layer Dwgs.User) (width 0.025))
  (fp_line (start -0.5 0.25) (end -0.5 -0.25) (layer Dwgs.User) (width 0.025))
  (fp_line (start 0.5 0.25) (end 0.25 0.25) (layer Dwgs.User) (width 0.025))
  (fp_line (start 0.5 -0.25) (end 0.5 0.25) (layer Dwgs.User) (width 0.025))
  (fp_line (start 0.25 -0.25) (end 0.5 -0.25) (layer Dwgs.User) (width 0.025))
  (fp_line (start 0.25 0.25) (end 0.25 -0.25) (layer Dwgs.User) (width 0.025))
  (fp_line (start -0.5 -0.25) (end -0.25 -0.25) (layer Dwgs.User) (width 0.025))
  (fp_line (start -0.5 0.25) (end -0.5 -0.25) (layer Dwgs.User) (width 0.025))
  (fp_line (start -0.25 0.25) (end -0.5 0.25) (layer Dwgs.User) (width 0.025))
  (fp_line (start -0.25 -0.25) (end -0.25 0.25) (layer Dwgs.User) (width 0.025))
  (fp_text user %R (at 0 0) (layer F.Fab)
    (effects (font (size 0.5 0.5) (thickness 0.05)))
  )
  (pad 2 smd rect (at 0.46 0) (size 0.58 0.58) (layers F.Cu F.Paste F.Mask))
  (pad 1 smd rect (at -0.46 0) (size 0.58 0.58) (layers F.Cu F.Paste F.Mask))
)
