(module CAPC160X80X95L37N (layer F.Cu) (tedit 0)
  (descr "Capacitor, Chip; 1.60 mm L X 0.80 mm W X 0.95 mm H body")
  (attr smd)
  (fp_text user %R (at 0 0) (layer F.Fab)
    (effects (font (size 0.5 0.5) (thickness 0.05)))
  )
  (fp_text value VAL** (at 0 0) (layer F.Fab)
    (effects (font (size 1.2 1.2) (thickness 0.12)))
  )
  (fp_text reference REF** (at 0 0) (layer F.SilkS)
    (effects (font (size 1.2 1.2) (thickness 0.12)))
  )
  (fp_line (start -0.425 -0.4) (end -0.425 0.4) (layer Dwgs.User) (width 0.025))
  (fp_line (start -0.425 0.4) (end -0.8 0.4) (layer Dwgs.User) (width 0.025))
  (fp_line (start -0.8 0.4) (end -0.8 -0.4) (layer Dwgs.User) (width 0.025))
  (fp_line (start -0.8 -0.4) (end -0.425 -0.4) (layer Dwgs.User) (width 0.025))
  (fp_line (start 0.425 0.4) (end 0.425 -0.4) (layer Dwgs.User) (width 0.025))
  (fp_line (start 0.425 -0.4) (end 0.8 -0.4) (layer Dwgs.User) (width 0.025))
  (fp_line (start 0.8 -0.4) (end 0.8 0.4) (layer Dwgs.User) (width 0.025))
  (fp_line (start 0.8 0.4) (end 0.425 0.4) (layer Dwgs.User) (width 0.025))
  (fp_line (start -0.8 0.4) (end -0.8 -0.4) (layer Dwgs.User) (width 0.025))
  (fp_line (start -0.8 -0.4) (end 0.8 -0.4) (layer Dwgs.User) (width 0.025))
  (fp_line (start 0.8 -0.4) (end 0.8 0.4) (layer Dwgs.User) (width 0.025))
  (fp_line (start 0.8 0.4) (end -0.8 0.4) (layer Dwgs.User) (width 0.025))
  (fp_line (start -0.88 0.48) (end -0.88 -0.48) (layer F.Fab) (width 0.12))
  (fp_line (start -0.88 -0.48) (end 0.88 -0.48) (layer F.Fab) (width 0.12))
  (fp_line (start 0.88 -0.48) (end 0.88 0.48) (layer F.Fab) (width 0.12))
  (fp_line (start 0.88 0.48) (end -0.88 0.48) (layer F.Fab) (width 0.12))
  (fp_line (start -1.39 0.69) (end -1.39 -0.69) (layer F.CrtYd) (width 0.05))
  (fp_line (start -1.39 -0.69) (end 1.39 -0.69) (layer F.CrtYd) (width 0.05))
  (fp_line (start 1.39 -0.69) (end 1.39 0.69) (layer F.CrtYd) (width 0.05))
  (fp_line (start 1.39 0.69) (end -1.39 0.69) (layer F.CrtYd) (width 0.05))
  (fp_circle (center 0 0) (end 0 0.25) (layer F.CrtYd) (width 0.05))
  (fp_line (start 0.345 0) (end -0.345 0) (layer F.CrtYd) (width 0.05))
  (fp_line (start 0 -0.345) (end 0 0.345) (layer F.CrtYd) (width 0.05))
  (pad 1 smd roundrect (at -0.73 0) (size 0.91 0.97) (layers F.Cu F.Paste F.Mask) (roundrect_rratio 0.2527))
  (pad 2 smd roundrect (at 0.73 0) (size 0.91 0.97) (layers F.Cu F.Paste F.Mask) (roundrect_rratio 0.2527))
)
