(footprint "CAPPM730X430X290L130X240N"
	(version 20240108)
	(generator "pcbnew")
	(generator_version "8.0")
	(layer "F.Cu")
	(property "Reference" "REF**"
		(at 0 -0.5 0)
		(unlocked yes)
		(layer "F.SilkS")
		(uuid "df38ef3c-b9df-453c-9a51-8fbd28600476")
		(effects
			(font
				(size 1 1)
				(thickness 0.1)
			)
		)
	)
	(property "Value" "CAPPM730X430X290L130X240N"
		(at 0 1 0)
		(unlocked yes)
		(layer "F.Fab")
		(uuid "af33c8f8-8ed2-47e6-a00c-aac477ce1263")
		(effects
			(font
				(size 1 1)
				(thickness 0.15)
			)
		)
	)
	(property "Footprint" ""
		(at 0 0 0)
		(unlocked yes)
		(layer "F.Fab")
		(hide yes)
		(uuid "b05b0ef3-3dae-4c35-b0c4-c27874cbc542")
		(effects
			(font
				(size 1 1)
				(thickness 0.15)
			)
		)
	)
	(property "Datasheet" ""
		(at 0 0 0)
		(unlocked yes)
		(layer "F.Fab")
		(hide yes)
		(uuid "bf5793e8-0c20-4334-9d84-7f13e1eade8d")
		(effects
			(font
				(size 1 1)
				(thickness 0.15)
			)
		)
	)
	(property "Description" ""
		(at 0 0 0)
		(unlocked yes)
		(layer "F.Fab")
		(hide yes)
		(uuid "d0f87152-2ed2-416f-83f5-0f74aaf81274")
		(effects
			(font
				(size 1 1)
				(thickness 0.15)
			)
		)
	)
	(attr smd)
	(fp_line
		(start -4.75 2)
		(end -4 2)
		(stroke
			(width 0.1)
			(type default)
		)
		(layer "F.SilkS")
		(uuid "03be01ec-7a4a-4650-8429-ffc679e85dbd")
	)
	(fp_line
		(start -4.375 1.625)
		(end -4.375 2.375)
		(stroke
			(width 0.1)
			(type default)
		)
		(layer "F.SilkS")
		(uuid "7657d9d6-d751-4f9c-8d0a-2eed04e1eef3")
	)
	(fp_line
		(start -3.65 -2.15)
		(end 3.65 -2.15)
		(stroke
			(width 0.1)
			(type default)
		)
		(layer "F.SilkS")
		(uuid "4c013677-a874-4c1d-bd22-15b3515f49f6")
	)
	(fp_line
		(start -3.65 -1.35)
		(end -3.65 -2.15)
		(stroke
			(width 0.1)
			(type default)
		)
		(layer "F.SilkS")
		(uuid "94119078-aa43-4821-84cb-2e0c6a7f01c1")
	)
	(fp_line
		(start -3.65 1.35)
		(end -3.65 2.15)
		(stroke
			(width 0.1)
			(type default)
		)
		(layer "F.SilkS")
		(uuid "15691935-1111-41cf-9d64-9fe91961a792")
	)
	(fp_line
		(start -3.65 2.15)
		(end 3.65 2.15)
		(stroke
			(width 0.1)
			(type default)
		)
		(layer "F.SilkS")
		(uuid "b48ec9f6-9092-47b2-84f4-34a2b98f4959")
	)
	(fp_line
		(start 3.65 -2.15)
		(end 3.65 -1.35)
		(stroke
			(width 0.1)
			(type default)
		)
		(layer "F.SilkS")
		(uuid "3fb3913a-f59a-4364-95a9-3b39aecd3dcd")
	)
	(fp_line
		(start 3.65 1.35)
		(end 3.65 2.15)
		(stroke
			(width 0.1)
			(type default)
		)
		(layer "F.SilkS")
		(uuid "42aebb0a-dda7-449f-827f-6de10d5fcdb0")
	)
	(fp_rect
		(start -1.75 -2.1)
		(end -1.5 2.1)
		(stroke
			(width 0.1)
			(type default)
		)
		(fill none)
		(layer "F.SilkS")
		(uuid "a75104e2-ac81-4d49-a24e-7f4ac6076d6e")
	)
	(fp_rect
		(start -1.675 -2.05)
		(end -1.55 2.025)
		(stroke
			(width 0.1)
			(type default)
		)
		(fill none)
		(layer "F.SilkS")
		(uuid "54b79fbe-55f7-4eb1-a0f1-7cc6cbb33144")
	)
	(fp_rect
		(start -1.625 -2)
		(end -1.6 1.975)
		(stroke
			(width 0.1)
			(type default)
		)
		(fill none)
		(layer "F.SilkS")
		(uuid "8bcb5015-38f9-481b-a0ab-84bd160dd00a")
	)
	(fp_rect
		(start -3.75 -2.25)
		(end 3.75 2.25)
		(stroke
			(width 0.1)
			(type default)
		)
		(fill none)
		(layer "Dwgs.User")
		(uuid "d3d09cc6-c2ad-4366-9285-f6b47c343277")
	)
	(fp_line
		(start -4.7 -1.45)
		(end -4.7 1.45)
		(stroke
			(width 0.05)
			(type default)
		)
		(layer "F.CrtYd")
		(uuid "5e16b8d3-a44e-44db-8aae-d33af21cbedb")
	)
	(fp_line
		(start -4.7 1.45)
		(end -3.85 1.45)
		(stroke
			(width 0.05)
			(type default)
		)
		(layer "F.CrtYd")
		(uuid "58d1f029-0de0-4208-a436-06b01c1e7908")
	)
	(fp_line
		(start -3.85 -2.35)
		(end -3.85 -1.45)
		(stroke
			(width 0.05)
			(type default)
		)
		(layer "F.CrtYd")
		(uuid "9307eeeb-6cb4-43a2-892b-6f07864f8217")
	)
	(fp_line
		(start -3.85 -1.45)
		(end -4.7 -1.45)
		(stroke
			(width 0.05)
			(type default)
		)
		(layer "F.CrtYd")
		(uuid "42fe4b9e-06b5-4606-8881-96a784a3cb16")
	)
	(fp_line
		(start -3.85 1.45)
		(end -3.85 2.35)
		(stroke
			(width 0.05)
			(type default)
		)
		(layer "F.CrtYd")
		(uuid "0a3f29ad-95b9-472d-a131-d31dfec54611")
	)
	(fp_line
		(start -3.85 2.35)
		(end 3.85 2.35)
		(stroke
			(width 0.05)
			(type default)
		)
		(layer "F.CrtYd")
		(uuid "379ae4a3-7d27-437f-b387-ea956df58c81")
	)
	(fp_line
		(start 3.85 -2.35)
		(end -3.85 -2.35)
		(stroke
			(width 0.05)
			(type default)
		)
		(layer "F.CrtYd")
		(uuid "373130d5-51a6-49ad-8c3f-dc32872eef53")
	)
	(fp_line
		(start 3.85 -1.45)
		(end 3.85 -2.35)
		(stroke
			(width 0.05)
			(type default)
		)
		(layer "F.CrtYd")
		(uuid "3f9faacc-fb10-4a2b-9bb5-2a9cbf8f3d07")
	)
	(fp_line
		(start 3.85 1.45)
		(end 4.7 1.45)
		(stroke
			(width 0.05)
			(type default)
		)
		(layer "F.CrtYd")
		(uuid "5e1eb530-634a-4481-b100-fd5c7b57c29f")
	)
	(fp_line
		(start 3.85 2.35)
		(end 3.85 1.45)
		(stroke
			(width 0.05)
			(type default)
		)
		(layer "F.CrtYd")
		(uuid "e8f7f798-db81-4cd6-ab21-62ac3cad4c18")
	)
	(fp_line
		(start 4.7 -1.45)
		(end 3.85 -1.45)
		(stroke
			(width 0.05)
			(type default)
		)
		(layer "F.CrtYd")
		(uuid "98fd4333-b66a-4f43-bafd-b52566d67ba6")
	)
	(fp_line
		(start 4.7 1.45)
		(end 4.7 -1.45)
		(stroke
			(width 0.05)
			(type default)
		)
		(layer "F.CrtYd")
		(uuid "9403ab9b-0326-470a-aef1-4e4c10d98aa5")
	)
	(fp_text user "${REFERENCE}"
		(at 0 2.5 0)
		(unlocked yes)
		(layer "F.Fab")
		(uuid "d9c03f04-55f5-4024-a0e4-f78d04b27e7f")
		(effects
			(font
				(size 1 1)
				(thickness 0.15)
			)
		)
	)
	(pad "1" smd roundrect
		(at -3.3 0)
		(size 2.4 2.5)
		(layers "F.Cu" "F.Paste" "F.Mask")
		(roundrect_rratio 0.25)
		(thermal_bridge_angle 45)
		(uuid "a4ede3e6-e056-4aa9-882d-9f79dc952b07")
	)
	(pad "2" smd roundrect
		(at 3.3 0)
		(size 2.4 2.5)
		(layers "F.Cu" "F.Paste" "F.Mask")
		(roundrect_rratio 0.25)
		(thermal_bridge_angle 45)
		(uuid "8e0398b2-ced6-4b7d-9d21-07a34d0aabbe")
	)
)
