(footprint "CAPRR500W50L360T230H620" (version 20221018) (generator pcbnew)
  (layer "F.Cu")
  (descr "Capacitor, Radial (Dipped) rect.; 5.00 mm pitch X 0.50 mm W X 3.60 mm L X 2.30 mm T X 6.20 mm H body")
  (attr through_hole)
  (fp_text reference "REF**" (at 0 0) (layer "F.SilkS")
      (effects (font (size 1.2 1.2) (thickness 0.12)))
    (tstamp 3281b6fc-1c71-458d-b882-5577f6eb4ee1)
  )
  (fp_text value "Val**" (at 0 0) (layer "F.SilkS")
      (effects (font (size 1.27 1.27) (thickness 0.15)))
    (tstamp eb2f17ba-3af2-428c-a2d2-41cea2346977)
  )
  (fp_text user "${REFERENCE}" (at 0 0) (layer "F.Fab")
      (effects (font (size 1.82 1.82) (thickness 0.18)))
    (tstamp 1c58104b-62e6-40c5-b612-f42f527a5cc3)
  )
  (fp_line (start -1.8 -1.15) (end 1.8 -1.15)
    (stroke (width 0.12) (type solid)) (layer "F.SilkS") (tstamp 6691758a-f62d-4e5a-89a1-a009db37cfac))
  (fp_line (start -1.8 -0.755) (end -1.8 -1.15)
    (stroke (width 0.12) (type solid)) (layer "F.SilkS") (tstamp 342cdddd-78fc-4778-a5fd-3664a3ebcf1c))
  (fp_line (start -1.8 1.15) (end -1.8 0.755)
    (stroke (width 0.12) (type solid)) (layer "F.SilkS") (tstamp 70a9e691-5cb4-453a-ae7d-57dd0c0ffe7a))
  (fp_line (start 1.8 -1.15) (end 1.8 -0.755)
    (stroke (width 0.12) (type solid)) (layer "F.SilkS") (tstamp 446e1879-10c7-4ba8-b6e8-8a4e3b3f4b76))
  (fp_line (start 1.8 0.755) (end 1.8 1.15)
    (stroke (width 0.12) (type solid)) (layer "F.SilkS") (tstamp 558ac232-6deb-453a-a83b-037f8b0dd788))
  (fp_line (start 1.8 1.15) (end -1.8 1.15)
    (stroke (width 0.12) (type solid)) (layer "F.SilkS") (tstamp 5ee1f8e2-a6fd-46c5-9c32-3eb27374d01c))
  (fp_line (start -1.8 -1.15) (end 1.8 -1.15)
    (stroke (width 0.025) (type solid)) (layer "Dwgs.User") (tstamp 9ef7528d-8f1c-4f42-97a5-0f9fc66fd1f1))
  (fp_line (start -1.8 1.15) (end -1.8 -1.15)
    (stroke (width 0.025) (type solid)) (layer "Dwgs.User") (tstamp acfde85e-d51f-4a55-b10f-a71508c0692d))
  (fp_line (start 1.8 -1.15) (end 1.8 1.15)
    (stroke (width 0.025) (type solid)) (layer "Dwgs.User") (tstamp 36316c12-cbe8-4b0e-929d-a47cfb62af80))
  (fp_line (start 1.8 1.15) (end -1.8 1.15)
    (stroke (width 0.025) (type solid)) (layer "Dwgs.User") (tstamp cd4e870b-ea7d-4073-888d-9cd9562a9316))
  (fp_circle (center -2.5 0) (end -2.5 0.275)
    (stroke (width 0.025) (type solid)) (fill none) (layer "Dwgs.User") (tstamp 9b53c097-997f-4341-ac98-43509791c4fb))
  (fp_circle (center 2.5 0) (end 2.5 0.275)
    (stroke (width 0.025) (type solid)) (fill none) (layer "Dwgs.User") (tstamp eca8bbfb-cb46-4011-941b-f6a31109ad47))
  (fp_line (start -3.325 -0.825) (end -3.325 0.825)
    (stroke (width 0.05) (type solid)) (layer "F.CrtYd") (tstamp deaabe75-4637-4144-a8b2-85026442203f))
  (fp_line (start -3.325 0.825) (end -2.05 0.825)
    (stroke (width 0.05) (type solid)) (layer "F.CrtYd") (tstamp b00a3a01-1c0d-443e-ae3b-978a3d614c21))
  (fp_line (start -2.05 -1.4) (end -2.05 -0.825)
    (stroke (width 0.05) (type solid)) (layer "F.CrtYd") (tstamp a5453a17-3c62-475d-8407-b1822a43212f))
  (fp_line (start -2.05 -0.825) (end -3.325 -0.825)
    (stroke (width 0.05) (type solid)) (layer "F.CrtYd") (tstamp 2869b388-ef12-43ab-a2c1-c02c4f0d3f02))
  (fp_line (start -2.05 0.825) (end -2.05 1.4)
    (stroke (width 0.05) (type solid)) (layer "F.CrtYd") (tstamp 6737b081-f667-4acd-abfe-af1ad21293c5))
  (fp_line (start -2.05 1.4) (end 2.05 1.4)
    (stroke (width 0.05) (type solid)) (layer "F.CrtYd") (tstamp f3dc04d2-f828-4ef7-bc9d-c1269a0b96dd))
  (fp_line (start 0 -0.35) (end 0 0.35)
    (stroke (width 0.05) (type solid)) (layer "F.CrtYd") (tstamp 1cc39e11-3a13-4179-84fd-5fc0ee362040))
  (fp_line (start 0.35 0) (end -0.35 0)
    (stroke (width 0.05) (type solid)) (layer "F.CrtYd") (tstamp 0894d5c6-2003-439d-98d7-9d0df344321e))
  (fp_line (start 2.05 -1.4) (end -2.05 -1.4)
    (stroke (width 0.05) (type solid)) (layer "F.CrtYd") (tstamp ddb8b2cf-1cc0-4aee-8f47-967c795fc0b8))
  (fp_line (start 2.05 -0.825) (end 2.05 -1.4)
    (stroke (width 0.05) (type solid)) (layer "F.CrtYd") (tstamp 4c417689-3b19-48bf-ab7c-88a3014de2e4))
  (fp_line (start 2.05 0.825) (end 3.325 0.825)
    (stroke (width 0.05) (type solid)) (layer "F.CrtYd") (tstamp c2b2cf3a-b966-4247-bfcb-b1e1a1c54c90))
  (fp_line (start 2.05 1.4) (end 2.05 0.825)
    (stroke (width 0.05) (type solid)) (layer "F.CrtYd") (tstamp 94899426-d8c3-4141-b595-2983890962f9))
  (fp_line (start 3.325 -0.825) (end 2.05 -0.825)
    (stroke (width 0.05) (type solid)) (layer "F.CrtYd") (tstamp fb067a16-ec5c-4e1e-ab36-26ab6d23705f))
  (fp_line (start 3.325 0.825) (end 3.325 -0.825)
    (stroke (width 0.05) (type solid)) (layer "F.CrtYd") (tstamp 2390cb78-10bf-430e-8ef7-56b183716ead))
  (fp_circle (center 0 0) (end 0 0.25)
    (stroke (width 0.05) (type solid)) (fill none) (layer "F.CrtYd") (tstamp 5f273ed3-0160-4cef-a021-83c378724268))
  (fp_line (start -1.8 -1.15) (end 1.8 -1.15)
    (stroke (width 0.12) (type solid)) (layer "F.Fab") (tstamp c990f609-a96c-4d45-b34a-78ca00c7f3a8))
  (fp_line (start -1.8 1.15) (end -1.8 -1.15)
    (stroke (width 0.12) (type solid)) (layer "F.Fab") (tstamp 924d42ce-9e62-4eab-a45e-6792f1949b3b))
  (fp_line (start 1.8 -1.15) (end 1.8 1.15)
    (stroke (width 0.12) (type solid)) (layer "F.Fab") (tstamp 3ffeb066-5817-4c56-a171-e6289cfec82d))
  (fp_line (start 1.8 1.15) (end -1.8 1.15)
    (stroke (width 0.12) (type solid)) (layer "F.Fab") (tstamp f26051ef-86f2-4038-aaf1-69292ac29867))
  (pad "1" thru_hole circle (at -2.5 0) (size 1.15 1.15) (drill 0.75) (layers "*.Cu" "*.Mask") (tstamp 965501fd-431a-4560-8bdf-38dc840b94d5))
  (pad "2" thru_hole circle (at 2.5 0) (size 1.15 1.15) (drill 0.75) (layers "*.Cu" "*.Mask") (tstamp 0852de3c-2642-4bb5-a78e-5af103c149ad))
  (model "D:/Users/Enforcer83/Documents/Repos/Library/KiCAD/3D Models/IPC_CAP.3dshapes/CAPRR500W50L360T230H620.step"
    (offset (xyz -2.22 0 2))
    (scale (xyz 1 1 1))
    (rotate (xyz 0 0 0))
  )
)
