(module CAPRR254W54L508T318H736 (layer F.Cu) (tedit 0)
  (descr "Capacitor, Radial (Dipped) rect.; 2.54 mm pitch X 0.548 mm W X 5.08 mm L X 3.18 mm T X 7.36 mm H body")
  (fp_text user %R (at 0 0) (layer F.Fab)
    (effects (font (size 2 2) (thickness 0.2)))
  )
  (fp_text reference REF** (at 0 0) (layer F.SilkS)
    (effects (font (size 1.2 1.2) (thickness 0.12)))
  )
  (fp_circle (center -1.27 0) (end -1.27 0.305) (layer Dwgs.User) (width 0.025))
  (fp_circle (center 1.27 0) (end 1.27 0.305) (layer Dwgs.User) (width 0.025))
  (fp_line (start -2.54 1.59) (end -2.54 -1.59) (layer Dwgs.User) (width 0.025))
  (fp_line (start -2.54 -1.59) (end 2.54 -1.59) (layer Dwgs.User) (width 0.025))
  (fp_line (start 2.54 -1.59) (end 2.54 1.59) (layer Dwgs.User) (width 0.025))
  (fp_line (start 2.54 1.59) (end -2.54 1.59) (layer Dwgs.User) (width 0.025))
  (fp_line (start -2.54 1.59) (end -2.54 -1.59) (layer F.Fab) (width 0.12))
  (fp_line (start -2.54 -1.59) (end 2.54 -1.59) (layer F.Fab) (width 0.12))
  (fp_line (start 2.54 -1.59) (end 2.54 1.59) (layer F.Fab) (width 0.12))
  (fp_line (start 2.54 1.59) (end -2.54 1.59) (layer F.Fab) (width 0.12))
  (fp_line (start -2.54 1.59) (end -2.54 -1.59) (layer F.SilkS) (width 0.12))
  (fp_line (start -2.54 -1.59) (end 2.54 -1.59) (layer F.SilkS) (width 0.12))
  (fp_line (start 2.54 -1.59) (end 2.54 1.59) (layer F.SilkS) (width 0.12))
  (fp_line (start 2.54 1.59) (end -2.54 1.59) (layer F.SilkS) (width 0.12))
  (fp_circle (center 0 0) (end 0 0.25) (layer F.CrtYd) (width 0.05))
  (fp_line (start 0.35 0) (end -0.35 0) (layer F.CrtYd) (width 0.05))
  (fp_line (start 0 -0.35) (end 0 0.35) (layer F.CrtYd) (width 0.05))
  (fp_line (start -2.79 1.84) (end 2.79 1.84) (layer F.CrtYd) (width 0.05))
  (fp_line (start 2.79 1.84) (end 2.79 -1.84) (layer F.CrtYd) (width 0.05))
  (fp_line (start 2.79 -1.84) (end -2.79 -1.84) (layer F.CrtYd) (width 0.05))
  (fp_line (start -2.79 -1.84) (end -2.79 1.84) (layer F.CrtYd) (width 0.05))
  (pad 1 thru_hole circle (at -1.27 0) (size 1.2 1.2) (drill 0.8) (layers *.Cu *.Mask))
  (pad 2 thru_hole circle (at 1.27 0) (size 1.2 1.2) (drill 0.8) (layers *.Cu *.Mask))
)
