(footprint "PCAP_10x10-ELECT_NCA" (version 20211014) (generator pcbnew)
  (layer "F.Cu")
  (tags "UUX2A470MNL1GS ")
  (attr smd)
  (fp_text reference "REF**" (at 0 0 unlocked) (layer F.SilkS)
    (effects (font (size 1 1) (thickness 0.15)))
  )
  (fp_text value PCAP_10x10-ELECT_NCA (at 0 0 unlocked) (layer F.Fab)
    (effects (font (size 1 1) (thickness 0.15)))
  )
  (fp_text user "${REFERENCE}" (at 0 0 unlocked) (layer F.Fab)
    (effects (font (size 1 1) (thickness 0.15)))
  )
  (zone (net 0) (net_name "") (layer "F.Cu") (hatch full 0.508)
    (connect_pads (clearance 0))
    (min_thickness 0.254)
    (keepout (tracks not_allowed) (vias not_allowed) (pads allowed ) (copperpour not_allowed) (footprints allowed))
    (fill (thermal_gap 0.508) (thermal_bridge_width 0.508))
    (polygon
      (pts
        (xy -2.2479 -0.8509)
        (xy 2.2479 -0.8509)
        (xy 2.2479 0.8509)
        (xy -2.2479 0.8509)
      )
    )
  )
  (zone (net 0) (net_name "") (layer "F.Cu") (hatch full 0.508)
    (connect_pads (clearance 0))
    (min_thickness 0.254)
    (keepout (tracks not_allowed) (vias not_allowed) (pads allowed ) (copperpour not_allowed) (footprints allowed))
    (fill (thermal_gap 0.508) (thermal_bridge_width 0.508))
    (polygon
      (pts
        (xy -5.1943 -5.1943)
        (xy 5.1943 -5.1943)
        (xy 5.1943 -0.8509)
        (xy -5.1943 -0.8509)
      )
    )
  )
  (zone (net 0) (net_name "") (layer "F.Cu") (hatch full 0.508)
    (connect_pads (clearance 0))
    (min_thickness 0.254)
    (keepout (tracks not_allowed) (vias not_allowed) (pads allowed ) (copperpour not_allowed) (footprints allowed))
    (fill (thermal_gap 0.508) (thermal_bridge_width 0.508))
    (polygon
      (pts
        (xy -5.1943 0.8509)
        (xy 5.1943 0.8509)
        (xy 5.1943 5.1943)
        (xy -5.1943 5.1943)
      )
    )
  )
  (fp_line (start -6.8199 1.3081) (end -6.8199 -1.3081) (layer "F.CrtYd") (width 0.1524))
  (fp_line (start -6.8199 -1.3081) (end -5.7531 -1.3081) (layer "F.CrtYd") (width 0.1524))
  (fp_line (start 5.7531 -1.3081) (end 6.8199 -1.3081) (layer "F.CrtYd") (width 0.1524))
  (fp_line (start 6.8199 -1.3081) (end 6.8199 1.3081) (layer "F.CrtYd") (width 0.1524))
  (fp_line (start 6.8199 1.3081) (end 5.7531 1.3081) (layer "F.CrtYd") (width 0.1524))
  (fp_line (start -5.7531 1.3081) (end -6.8199 1.3081) (layer "F.CrtYd") (width 0.1524))
  (fp_line (start -5.7531 5.7531) (end -5.7531 1.3081) (layer "F.CrtYd") (width 0.1524))
  (fp_line (start -5.7531 -1.3081) (end -5.7531 -5.7531) (layer "F.CrtYd") (width 0.1524))
  (fp_line (start -5.7531 -5.7531) (end 5.7531 -5.7531) (layer "F.CrtYd") (width 0.1524))
  (fp_line (start 5.7531 -5.7531) (end 5.7531 -1.3081) (layer "F.CrtYd") (width 0.1524))
  (fp_line (start 5.7531 1.3081) (end 5.7531 5.7531) (layer "F.CrtYd") (width 0.1524))
  (fp_line (start 5.7531 5.7531) (end -5.7531 5.7531) (layer "F.CrtYd") (width 0.1524))
  (fp_line (start -7.0485 0) (end -7.8105 0) (layer "F.Fab") (width 0.0254))
  (fp_line (start -7.4295 -0.381) (end -7.4295 0.381) (layer "F.Fab") (width 0.0254))
  (fp_line (start -7.0485 0) (end -7.8105 0) (layer "F.SilkS") (width 0.1524))
  (fp_line (start -7.4295 -0.381) (end -7.4295 0.381) (layer "F.SilkS") (width 0.1524))
  (fp_line (start -5.2451 -2.62255) (end -2.62255 -5.2451) (layer "F.Fab") (width 0.0254))
  (fp_line (start -5.2451 2.62255) (end -2.62255 5.2451) (layer "F.Fab") (width 0.0254))
  (fp_line (start -5.3721 5.3721) (end 5.3721 5.3721) (layer "F.SilkS") (width 0.1524))
  (fp_line (start 5.3721 5.3721) (end 5.3721 1.13284) (layer "F.SilkS") (width 0.1524))
  (fp_line (start 5.3721 -5.3721) (end -5.3721 -5.3721) (layer "F.SilkS") (width 0.1524))
  (fp_line (start -5.3721 -5.3721) (end -5.3721 -1.13284) (layer "F.SilkS") (width 0.1524))
  (fp_line (start -5.2451 5.2451) (end 5.2451 5.2451) (layer "F.Fab") (width 0.0254))
  (fp_line (start 5.2451 5.2451) (end 5.2451 -5.2451) (layer "F.Fab") (width 0.0254))
  (fp_line (start 5.2451 -5.2451) (end -5.2451 -5.2451) (layer "F.Fab") (width 0.0254))
  (fp_line (start -5.2451 -5.2451) (end -5.2451 5.2451) (layer "F.Fab") (width 0.0254))
  (fp_line (start -5.3721 1.13284) (end -5.3721 5.3721) (layer "F.SilkS") (width 0.1524))
  (fp_line (start 5.3721 -1.13284) (end 5.3721 -5.3721) (layer "F.SilkS") (width 0.1524))
  (pad "1" smd rect (at -4.2037 0) (size 4.2164 1.6002) (layers "F.Cu" "F.Paste" "F.Mask"))
  (pad "2" smd rect (at 4.2037 0) (size 4.2164 1.6002) (layers "F.Cu" "F.Paste" "F.Mask"))
)
