(module SOT23-8P65_280X145L45X30N (layer F.Cu) (tedit 0)
  (descr "Small Outline Transistor (SOT23), 0.65 mm pitch; 8 pin, 2.90 mm L X 1.60 mm W X 1.45 mm H body")
  (attr smd)
  (fp_text user %R (at 0 0) (layer F.SilkS)
    (effects (font (size 1.22 1.22) (thickness 0.12)))
  )
  (fp_text value VAL** (at 0 0) (layer F.Fab)
    (effects (font (size 1.2 1.2) (thickness 0.12)))
  )
  (fp_text reference REF** (at 0 0) (layer F.Fab)
    (effects (font (size 1.2 1.2) (thickness 0.12)))
  )
  (fp_line (start -1.125 0.95) (end -0.825 0.95) (layer Dwgs.User) (width 0.025))
  (fp_line (start -0.825 0.95) (end -0.825 1.4) (layer Dwgs.User) (width 0.025))
  (fp_line (start -0.825 1.4) (end -1.125 1.4) (layer Dwgs.User) (width 0.025))
  (fp_line (start -1.125 1.4) (end -1.125 0.95) (layer Dwgs.User) (width 0.025))
  (fp_line (start -0.475 0.95) (end -0.175 0.95) (layer Dwgs.User) (width 0.025))
  (fp_line (start -0.175 0.95) (end -0.175 1.4) (layer Dwgs.User) (width 0.025))
  (fp_line (start -0.175 1.4) (end -0.475 1.4) (layer Dwgs.User) (width 0.025))
  (fp_line (start -0.475 1.4) (end -0.475 0.95) (layer Dwgs.User) (width 0.025))
  (fp_line (start 0.175 0.95) (end 0.475 0.95) (layer Dwgs.User) (width 0.025))
  (fp_line (start 0.475 0.95) (end 0.475 1.4) (layer Dwgs.User) (width 0.025))
  (fp_line (start 0.475 1.4) (end 0.175 1.4) (layer Dwgs.User) (width 0.025))
  (fp_line (start 0.175 1.4) (end 0.175 0.95) (layer Dwgs.User) (width 0.025))
  (fp_line (start 0.825 0.95) (end 1.125 0.95) (layer Dwgs.User) (width 0.025))
  (fp_line (start 1.125 0.95) (end 1.125 1.4) (layer Dwgs.User) (width 0.025))
  (fp_line (start 1.125 1.4) (end 0.825 1.4) (layer Dwgs.User) (width 0.025))
  (fp_line (start 0.825 1.4) (end 0.825 0.95) (layer Dwgs.User) (width 0.025))
  (fp_line (start 1.125 -0.95) (end 0.825 -0.95) (layer Dwgs.User) (width 0.025))
  (fp_line (start 0.825 -0.95) (end 0.825 -1.4) (layer Dwgs.User) (width 0.025))
  (fp_line (start 0.825 -1.4) (end 1.125 -1.4) (layer Dwgs.User) (width 0.025))
  (fp_line (start 1.125 -1.4) (end 1.125 -0.95) (layer Dwgs.User) (width 0.025))
  (fp_line (start 0.475 -0.95) (end 0.175 -0.95) (layer Dwgs.User) (width 0.025))
  (fp_line (start 0.175 -0.95) (end 0.175 -1.4) (layer Dwgs.User) (width 0.025))
  (fp_line (start 0.175 -1.4) (end 0.475 -1.4) (layer Dwgs.User) (width 0.025))
  (fp_line (start 0.475 -1.4) (end 0.475 -0.95) (layer Dwgs.User) (width 0.025))
  (fp_line (start -0.175 -0.95) (end -0.475 -0.95) (layer Dwgs.User) (width 0.025))
  (fp_line (start -0.475 -0.95) (end -0.475 -1.4) (layer Dwgs.User) (width 0.025))
  (fp_line (start -0.475 -1.4) (end -0.175 -1.4) (layer Dwgs.User) (width 0.025))
  (fp_line (start -0.175 -1.4) (end -0.175 -0.95) (layer Dwgs.User) (width 0.025))
  (fp_line (start -0.825 -0.95) (end -1.125 -0.95) (layer Dwgs.User) (width 0.025))
  (fp_line (start -1.125 -0.95) (end -1.125 -1.4) (layer Dwgs.User) (width 0.025))
  (fp_line (start -1.125 -1.4) (end -0.825 -1.4) (layer Dwgs.User) (width 0.025))
  (fp_line (start -0.825 -1.4) (end -0.825 -0.95) (layer Dwgs.User) (width 0.025))
  (fp_line (start -1.45 0.8) (end -1.45 -0.8) (layer Dwgs.User) (width 0.025))
  (fp_line (start -1.45 -0.8) (end 1.45 -0.8) (layer Dwgs.User) (width 0.025))
  (fp_line (start 1.45 -0.8) (end 1.45 0.8) (layer Dwgs.User) (width 0.025))
  (fp_line (start 1.45 0.8) (end -1.45 0.8) (layer Dwgs.User) (width 0.025))
  (fp_line (start -1.5 0.85) (end -1.5 -0.85) (layer F.Fab) (width 0.12))
  (fp_line (start -1.5 -0.85) (end 1.5 -0.85) (layer F.Fab) (width 0.12))
  (fp_line (start 1.5 -0.85) (end 1.5 0.85) (layer F.Fab) (width 0.12))
  (fp_line (start 1.5 0.85) (end -1.5 0.85) (layer F.Fab) (width 0.12))
  (fp_circle (center 0 0) (end 0 0.25) (layer F.CrtYd) (width 0.05))
  (fp_line (start 0 -0.35) (end 0 0.35) (layer F.CrtYd) (width 0.05))
  (fp_line (start -0.35 0) (end 0.35 0) (layer F.CrtYd) (width 0.05))
  (fp_line (start -1.5 0.85) (end -1.5 -0.85) (layer F.SilkS) (width 0.12))
  (fp_line (start 1.5 0.85) (end 1.5 -0.85) (layer F.SilkS) (width 0.12))
  (fp_line (start -1.385 0.85) (end -1.385 1.7) (layer F.SilkS) (width 0.12))
  (fp_line (start 1.7 1.05) (end 1.7 -1.05) (layer F.CrtYd) (width 0.05))
  (fp_line (start 1.7 -1.05) (end 1.405 -1.05) (layer F.CrtYd) (width 0.05))
  (fp_line (start 1.405 -1.05) (end 1.405 -1.96) (layer F.CrtYd) (width 0.05))
  (fp_line (start 1.405 -1.96) (end -1.405 -1.96) (layer F.CrtYd) (width 0.05))
  (fp_line (start -1.405 -1.96) (end -1.405 -1.05) (layer F.CrtYd) (width 0.05))
  (fp_line (start -1.405 -1.05) (end -1.7 -1.05) (layer F.CrtYd) (width 0.05))
  (fp_line (start -1.7 -1.05) (end -1.7 1.05) (layer F.CrtYd) (width 0.05))
  (fp_line (start -1.7 1.05) (end -1.405 1.05) (layer F.CrtYd) (width 0.05))
  (fp_line (start -1.405 1.05) (end -1.405 1.96) (layer F.CrtYd) (width 0.05))
  (fp_line (start -1.405 1.96) (end 1.405 1.96) (layer F.CrtYd) (width 0.05))
  (fp_line (start 1.405 1.96) (end 1.405 1.05) (layer F.CrtYd) (width 0.05))
  (fp_line (start 1.405 1.05) (end 1.7 1.05) (layer F.CrtYd) (width 0.05))
  (pad 1 smd rect (at -0.975 1.205 90) (size 1.11 0.46) (layers F.Cu F.Paste F.Mask))
  (pad 2 smd rect (at -0.325 1.205 90) (size 1.11 0.46) (layers F.Cu F.Paste F.Mask))
  (pad 3 smd rect (at 0.325 1.205 90) (size 1.11 0.46) (layers F.Cu F.Paste F.Mask))
  (pad 4 smd rect (at 0.975 1.205 90) (size 1.11 0.46) (layers F.Cu F.Paste F.Mask))
  (pad 5 smd rect (at 0.975 -1.205 90) (size 1.11 0.46) (layers F.Cu F.Paste F.Mask))
  (pad 6 smd rect (at 0.325 -1.205 90) (size 1.11 0.46) (layers F.Cu F.Paste F.Mask))
  (pad 7 smd rect (at -0.325 -1.205 90) (size 1.11 0.46) (layers F.Cu F.Paste F.Mask))
  (pad 8 smd rect (at -0.975 -1.205 90) (size 1.11 0.46) (layers F.Cu F.Paste F.Mask))
)
