(module SOT23-6P95_280X145L45X37N (layer F.Cu) (tedit 0)
  (descr "Small Outline Transistor (SOT23), 0.95 mm pitch; 6 pin, 2.90 mm L X 1.60 mm W X 1.45 mm H body")
  (attr smd)
  (fp_text user %R (at 0 0) (layer F.Fab)
    (effects (font (size 1.27 1.27) (thickness 0.13)))
  )
  (fp_text value VAL** (at 0 0) (layer F.Fab)
    (effects (font (size 1.2 1.2) (thickness 0.12)))
  )
  (fp_text reference REF** (at 0 0) (layer F.SilkS)
    (effects (font (size 1.2 1.2) (thickness 0.12)))
  )
  (fp_line (start -1.1375 0.95) (end -0.7625 0.95) (layer Dwgs.User) (width 0.025))
  (fp_line (start -0.7625 0.95) (end -0.7625 1.4) (layer Dwgs.User) (width 0.025))
  (fp_line (start -0.7625 1.4) (end -1.1375 1.4) (layer Dwgs.User) (width 0.025))
  (fp_line (start -1.1375 1.4) (end -1.1375 0.95) (layer Dwgs.User) (width 0.025))
  (fp_line (start -0.1875 0.95) (end 0.1875 0.95) (layer Dwgs.User) (width 0.025))
  (fp_line (start 0.1875 0.95) (end 0.1875 1.4) (layer Dwgs.User) (width 0.025))
  (fp_line (start 0.1875 1.4) (end -0.1875 1.4) (layer Dwgs.User) (width 0.025))
  (fp_line (start -0.1875 1.4) (end -0.1875 0.95) (layer Dwgs.User) (width 0.025))
  (fp_line (start 0.7625 0.95) (end 1.1375 0.95) (layer Dwgs.User) (width 0.025))
  (fp_line (start 1.1375 0.95) (end 1.1375 1.4) (layer Dwgs.User) (width 0.025))
  (fp_line (start 1.1375 1.4) (end 0.7625 1.4) (layer Dwgs.User) (width 0.025))
  (fp_line (start 0.7625 1.4) (end 0.7625 0.95) (layer Dwgs.User) (width 0.025))
  (fp_line (start 1.1375 -0.95) (end 0.7625 -0.95) (layer Dwgs.User) (width 0.025))
  (fp_line (start 0.7625 -0.95) (end 0.7625 -1.4) (layer Dwgs.User) (width 0.025))
  (fp_line (start 0.7625 -1.4) (end 1.1375 -1.4) (layer Dwgs.User) (width 0.025))
  (fp_line (start 1.1375 -1.4) (end 1.1375 -0.95) (layer Dwgs.User) (width 0.025))
  (fp_line (start 0.1875 -0.95) (end -0.1875 -0.95) (layer Dwgs.User) (width 0.025))
  (fp_line (start -0.1875 -0.95) (end -0.1875 -1.4) (layer Dwgs.User) (width 0.025))
  (fp_line (start -0.1875 -1.4) (end 0.1875 -1.4) (layer Dwgs.User) (width 0.025))
  (fp_line (start 0.1875 -1.4) (end 0.1875 -0.95) (layer Dwgs.User) (width 0.025))
  (fp_line (start -0.7625 -0.95) (end -1.1375 -0.95) (layer Dwgs.User) (width 0.025))
  (fp_line (start -1.1375 -0.95) (end -1.1375 -1.4) (layer Dwgs.User) (width 0.025))
  (fp_line (start -1.1375 -1.4) (end -0.7625 -1.4) (layer Dwgs.User) (width 0.025))
  (fp_line (start -0.7625 -1.4) (end -0.7625 -0.95) (layer Dwgs.User) (width 0.025))
  (fp_line (start -1.45 0.8) (end -1.45 -0.8) (layer Dwgs.User) (width 0.025))
  (fp_line (start -1.45 -0.8) (end 1.45 -0.8) (layer Dwgs.User) (width 0.025))
  (fp_line (start 1.45 -0.8) (end 1.45 0.8) (layer Dwgs.User) (width 0.025))
  (fp_line (start 1.45 0.8) (end -1.45 0.8) (layer Dwgs.User) (width 0.025))
  (fp_line (start -1.53 0.88) (end -1.53 -0.88) (layer F.Fab) (width 0.12))
  (fp_line (start -1.53 -0.88) (end 1.53 -0.88) (layer F.Fab) (width 0.12))
  (fp_line (start 1.53 -0.88) (end 1.53 0.88) (layer F.Fab) (width 0.12))
  (fp_line (start 1.53 0.88) (end -1.53 0.88) (layer F.Fab) (width 0.12))
  (fp_circle (center 0 0) (end 0 0.25) (layer F.CrtYd) (width 0.05))
  (fp_line (start 0 -0.35) (end 0 0.35) (layer F.CrtYd) (width 0.05))
  (fp_line (start -0.35 0) (end 0.35 0) (layer F.CrtYd) (width 0.05))
  (fp_line (start -1.53 0.88) (end -1.53 -0.88) (layer F.SilkS) (width 0.12))
  (fp_line (start 1.53 0.88) (end 1.53 -0.88) (layer F.SilkS) (width 0.12))
  (fp_line (start -1.43 0.88) (end -1.43 1.75) (layer F.SilkS) (width 0.12))
  (fp_line (start 1.73 1.08) (end 1.73 -1.08) (layer F.CrtYd) (width 0.05))
  (fp_line (start 1.73 -1.08) (end 1.45 -1.08) (layer F.CrtYd) (width 0.05))
  (fp_line (start 1.45 -1.08) (end 1.45 -2.01) (layer F.CrtYd) (width 0.05))
  (fp_line (start 1.45 -2.01) (end -1.45 -2.01) (layer F.CrtYd) (width 0.05))
  (fp_line (start -1.45 -2.01) (end -1.45 -1.08) (layer F.CrtYd) (width 0.05))
  (fp_line (start -1.45 -1.08) (end -1.73 -1.08) (layer F.CrtYd) (width 0.05))
  (fp_line (start -1.73 -1.08) (end -1.73 1.08) (layer F.CrtYd) (width 0.05))
  (fp_line (start -1.73 1.08) (end -1.45 1.08) (layer F.CrtYd) (width 0.05))
  (fp_line (start -1.45 1.08) (end -1.45 2.01) (layer F.CrtYd) (width 0.05))
  (fp_line (start -1.45 2.01) (end 1.45 2.01) (layer F.CrtYd) (width 0.05))
  (fp_line (start 1.45 2.01) (end 1.45 1.08) (layer F.CrtYd) (width 0.05))
  (fp_line (start 1.45 1.08) (end 1.73 1.08) (layer F.CrtYd) (width 0.05))
  (pad 1 smd roundrect (at -0.95 1.23 90) (size 1.16 0.6) (layers F.Cu F.Paste F.Mask) (roundrect_rratio 0.25))
  (pad 2 smd roundrect (at 0 1.23 90) (size 1.16 0.6) (layers F.Cu F.Paste F.Mask) (roundrect_rratio 0.25))
  (pad 3 smd roundrect (at 0.95 1.23 90) (size 1.16 0.6) (layers F.Cu F.Paste F.Mask) (roundrect_rratio 0.25))
  (pad 4 smd roundrect (at 0.95 -1.23 90) (size 1.16 0.6) (layers F.Cu F.Paste F.Mask) (roundrect_rratio 0.25))
  (pad 5 smd roundrect (at 0 -1.23 90) (size 1.16 0.6) (layers F.Cu F.Paste F.Mask) (roundrect_rratio 0.25))
  (pad 6 smd roundrect (at -0.95 -1.23 90) (size 1.16 0.6) (layers F.Cu F.Paste F.Mask) (roundrect_rratio 0.25))
)
