(module SOT23-6P95_280X125L45X40N (layer F.Cu) (tedit 0)
  (descr "Small Outline Transistor (SOT23), 0.95 mm pitch; 6 pin, 2.90 mm L X 1.60 mm W X 1.25 mm H body")
  (attr smd)
  (fp_text user %R (at 0 0) (layer F.Fab)
    (effects (font (size 1.22 1.22) (thickness 0.12)))
  )
  (fp_text value VAL** (at 0 0) (layer F.Fab)
    (effects (font (size 1.2 1.2) (thickness 0.12)))
  )
  (fp_text reference REF** (at 0 0) (layer F.SilkS)
    (effects (font (size 1.2 1.2) (thickness 0.12)))
  )
  (fp_line (start -1.15 0.95) (end -0.75 0.95) (layer Dwgs.User) (width 0.025))
  (fp_line (start -0.75 0.95) (end -0.75 1.4) (layer Dwgs.User) (width 0.025))
  (fp_line (start -0.75 1.4) (end -1.15 1.4) (layer Dwgs.User) (width 0.025))
  (fp_line (start -1.15 1.4) (end -1.15 0.95) (layer Dwgs.User) (width 0.025))
  (fp_line (start -0.2 0.95) (end 0.2 0.95) (layer Dwgs.User) (width 0.025))
  (fp_line (start 0.2 0.95) (end 0.2 1.4) (layer Dwgs.User) (width 0.025))
  (fp_line (start 0.2 1.4) (end -0.2 1.4) (layer Dwgs.User) (width 0.025))
  (fp_line (start -0.2 1.4) (end -0.2 0.95) (layer Dwgs.User) (width 0.025))
  (fp_line (start 0.75 0.95) (end 1.15 0.95) (layer Dwgs.User) (width 0.025))
  (fp_line (start 1.15 0.95) (end 1.15 1.4) (layer Dwgs.User) (width 0.025))
  (fp_line (start 1.15 1.4) (end 0.75 1.4) (layer Dwgs.User) (width 0.025))
  (fp_line (start 0.75 1.4) (end 0.75 0.95) (layer Dwgs.User) (width 0.025))
  (fp_line (start 1.15 -0.95) (end 0.75 -0.95) (layer Dwgs.User) (width 0.025))
  (fp_line (start 0.75 -0.95) (end 0.75 -1.4) (layer Dwgs.User) (width 0.025))
  (fp_line (start 0.75 -1.4) (end 1.15 -1.4) (layer Dwgs.User) (width 0.025))
  (fp_line (start 1.15 -1.4) (end 1.15 -0.95) (layer Dwgs.User) (width 0.025))
  (fp_line (start 0.2 -0.95) (end -0.2 -0.95) (layer Dwgs.User) (width 0.025))
  (fp_line (start -0.2 -0.95) (end -0.2 -1.4) (layer Dwgs.User) (width 0.025))
  (fp_line (start -0.2 -1.4) (end 0.2 -1.4) (layer Dwgs.User) (width 0.025))
  (fp_line (start 0.2 -1.4) (end 0.2 -0.95) (layer Dwgs.User) (width 0.025))
  (fp_line (start -0.75 -0.95) (end -1.15 -0.95) (layer Dwgs.User) (width 0.025))
  (fp_line (start -1.15 -0.95) (end -1.15 -1.4) (layer Dwgs.User) (width 0.025))
  (fp_line (start -1.15 -1.4) (end -0.75 -1.4) (layer Dwgs.User) (width 0.025))
  (fp_line (start -0.75 -1.4) (end -0.75 -0.95) (layer Dwgs.User) (width 0.025))
  (fp_line (start -1.45 0.8) (end -1.45 -0.8) (layer Dwgs.User) (width 0.025))
  (fp_line (start -1.45 -0.8) (end 1.45 -0.8) (layer Dwgs.User) (width 0.025))
  (fp_line (start 1.45 -0.8) (end 1.45 0.8) (layer Dwgs.User) (width 0.025))
  (fp_line (start 1.45 0.8) (end -1.45 0.8) (layer Dwgs.User) (width 0.025))
  (fp_line (start -1.55 0.85) (end -1.55 -0.85) (layer F.Fab) (width 0.12))
  (fp_line (start -1.55 -0.85) (end 1.55 -0.85) (layer F.Fab) (width 0.12))
  (fp_line (start 1.55 -0.85) (end 1.55 0.85) (layer F.Fab) (width 0.12))
  (fp_line (start 1.55 0.85) (end -1.55 0.85) (layer F.Fab) (width 0.12))
  (fp_circle (center 0 0) (end 0 0.25) (layer F.CrtYd) (width 0.05))
  (fp_line (start 0 -0.35) (end 0 0.35) (layer F.CrtYd) (width 0.05))
  (fp_line (start -0.35 0) (end 0.35 0) (layer F.CrtYd) (width 0.05))
  (fp_line (start -1.55 0.85) (end -1.55 -0.85) (layer F.SilkS) (width 0.12))
  (fp_line (start 1.55 0.85) (end 1.55 -0.85) (layer F.SilkS) (width 0.12))
  (fp_line (start 1.75 1.05) (end 1.75 -1.05) (layer F.CrtYd) (width 0.05))
  (fp_line (start 1.75 -1.05) (end 1.455 -1.05) (layer F.CrtYd) (width 0.05))
  (fp_line (start 1.455 -1.05) (end 1.455 -2.055) (layer F.CrtYd) (width 0.05))
  (fp_line (start 1.455 -2.055) (end -1.455 -2.055) (layer F.CrtYd) (width 0.05))
  (fp_line (start -1.455 -2.055) (end -1.455 -1.05) (layer F.CrtYd) (width 0.05))
  (fp_line (start -1.455 -1.05) (end -1.75 -1.05) (layer F.CrtYd) (width 0.05))
  (fp_line (start -1.75 -1.05) (end -1.75 1.05) (layer F.CrtYd) (width 0.05))
  (fp_line (start -1.75 1.05) (end -1.455 1.05) (layer F.CrtYd) (width 0.05))
  (fp_line (start -1.455 1.05) (end -1.455 2.055) (layer F.CrtYd) (width 0.05))
  (fp_line (start -1.455 2.055) (end 1.455 2.055) (layer F.CrtYd) (width 0.05))
  (fp_line (start 1.455 2.055) (end 1.455 1.05) (layer F.CrtYd) (width 0.05))
  (fp_line (start 1.455 1.05) (end 1.75 1.05) (layer F.CrtYd) (width 0.05))
  (pad 1 smd roundrect (at -0.95 1.235 90) (size 1.24 0.61) (layers F.Cu F.Paste F.Mask) (roundrect_rratio 0.2459))
  (pad 2 smd roundrect (at 0 1.235 90) (size 1.24 0.61) (layers F.Cu F.Paste F.Mask) (roundrect_rratio 0.2459))
  (pad 3 smd roundrect (at 0.95 1.235 90) (size 1.24 0.61) (layers F.Cu F.Paste F.Mask) (roundrect_rratio 0.2459))
  (pad 4 smd roundrect (at 0.95 -1.235 90) (size 1.24 0.61) (layers F.Cu F.Paste F.Mask) (roundrect_rratio 0.2459))
  (pad 5 smd roundrect (at 0 -1.235 90) (size 1.24 0.61) (layers F.Cu F.Paste F.Mask) (roundrect_rratio 0.2459))
  (pad 6 smd roundrect (at -0.95 -1.235 90) (size 1.24 0.61) (layers F.Cu F.Paste F.Mask) (roundrect_rratio 0.2459))
)
