(module SOT363-3P65_210X110L20X36N (layer F.Cu) (tedit 5B4A9D34)
  (attr smd)
  (fp_text reference REF** (at 0 0) (layer F.Fab)
    (effects (font (size 1.2 1.2) (thickness 0.12)))
  )
  (fp_text value SOT363-3P65_210X110L36 (at 0 0) (layer F.Fab)
    (effects (font (size 1.2 1.2) (thickness 0.12)))
  )
  (fp_text user %R (at 0 0) (layer F.SilkS)
    (effects (font (size 0.87 0.87) (thickness 0.09)))
  )
  (fp_line (start -0.7625 0.85) (end -0.5375 0.85) (layer Dwgs.User) (width 0.025))
  (fp_line (start -0.5375 0.85) (end -0.5375 1.05) (layer Dwgs.User) (width 0.025))
  (fp_line (start -0.5375 1.05) (end -0.7625 1.05) (layer Dwgs.User) (width 0.025))
  (fp_line (start -0.7625 1.05) (end -0.7625 0.85) (layer Dwgs.User) (width 0.025))
  (fp_line (start 0.5375 0.85) (end 0.7625 0.85) (layer Dwgs.User) (width 0.025))
  (fp_line (start 0.7625 0.85) (end 0.7625 1.05) (layer Dwgs.User) (width 0.025))
  (fp_line (start 0.7625 1.05) (end 0.5375 1.05) (layer Dwgs.User) (width 0.025))
  (fp_line (start 0.5375 1.05) (end 0.5375 0.85) (layer Dwgs.User) (width 0.025))
  (fp_line (start 0.1125 -0.85) (end -0.1125 -0.85) (layer Dwgs.User) (width 0.025))
  (fp_line (start -0.1125 -0.85) (end -0.1125 -1.05) (layer Dwgs.User) (width 0.025))
  (fp_line (start -0.1125 -1.05) (end 0.1125 -1.05) (layer Dwgs.User) (width 0.025))
  (fp_line (start 0.1125 -1.05) (end 0.1125 -0.85) (layer Dwgs.User) (width 0.025))
  (fp_line (start -1 0.625) (end -1 -0.625) (layer Dwgs.User) (width 0.025))
  (fp_line (start -1 -0.625) (end 1 -0.625) (layer Dwgs.User) (width 0.025))
  (fp_line (start 1 -0.625) (end 1 0.625) (layer Dwgs.User) (width 0.025))
  (fp_line (start 1 0.625) (end -1 0.625) (layer Dwgs.User) (width 0.025))
  (fp_line (start -1.1 0.68) (end -1.1 -0.68) (layer F.Fab) (width 0.12))
  (fp_line (start -1.1 -0.68) (end 1.1 -0.68) (layer F.Fab) (width 0.12))
  (fp_line (start 1.1 -0.68) (end 1.1 0.68) (layer F.Fab) (width 0.12))
  (fp_line (start 1.1 0.68) (end -1.1 0.68) (layer F.Fab) (width 0.12))
  (fp_circle (center 0 0) (end 0 0.25) (layer F.CrtYd) (width 0.05))
  (fp_line (start 0 -0.35) (end 0 0.35) (layer F.CrtYd) (width 0.05))
  (fp_line (start -0.35 0) (end 0.35 0) (layer F.CrtYd) (width 0.05))
  (fp_line (start -1.1 0.68) (end -1.1 -0.68) (layer F.SilkS) (width 0.12))
  (fp_line (start 1.1 0.68) (end 1.1 -0.68) (layer F.SilkS) (width 0.12))
  (fp_line (start -1.02 0.68) (end -1.02 1.345) (layer F.SilkS) (width 0.12))
  (fp_line (start 1.3 0.88) (end 1.3 -0.88) (layer F.CrtYd) (width 0.05))
  (fp_line (start 1.3 -0.88) (end 1.04 -0.88) (layer F.CrtYd) (width 0.05))
  (fp_line (start 1.04 -0.88) (end 1.04 -1.605) (layer F.CrtYd) (width 0.05))
  (fp_line (start 1.04 -1.605) (end -1.04 -1.605) (layer F.CrtYd) (width 0.05))
  (fp_line (start -1.04 -1.605) (end -1.04 -0.88) (layer F.CrtYd) (width 0.05))
  (fp_line (start -1.04 -0.88) (end -1.3 -0.88) (layer F.CrtYd) (width 0.05))
  (fp_line (start -1.3 -0.88) (end -1.3 0.88) (layer F.CrtYd) (width 0.05))
  (fp_line (start -1.3 0.88) (end -1.04 0.88) (layer F.CrtYd) (width 0.05))
  (fp_line (start -1.04 0.88) (end -1.04 1.605) (layer F.CrtYd) (width 0.05))
  (fp_line (start -1.04 1.605) (end 1.04 1.605) (layer F.CrtYd) (width 0.05))
  (fp_line (start 1.04 1.605) (end 1.04 0.88) (layer F.CrtYd) (width 0.05))
  (fp_line (start 1.04 0.88) (end 1.3 0.88) (layer F.CrtYd) (width 0.05))
  (pad 1 smd rect (at -0.65 0.89 90) (size 1.03 0.38) (layers F.Cu F.Paste F.Mask))
  (pad 2 smd rect (at 0.65 0.89 90) (size 1.03 0.38) (layers F.Cu F.Paste F.Mask))
  (pad 3 smd rect (at 0 -0.89 90) (size 1.03 0.38) (layers F.Cu F.Paste F.Mask))
)
