ISO-10303-21;
HEADER;
FILE_DESCRIPTION (( 'STEP AP214' ),
    '1' );
FILE_NAME ('929974-01-13-RK.STEP',
    '2024-01-28T23:50:09',
    ( '' ),
    ( '' ),
    'SwSTEP 2.0',
    'SolidWorks 2023',
    '' );
FILE_SCHEMA (( 'AUTOMOTIVE_DESIGN' ));
ENDSEC;

DATA;
#1 = DIRECTION ( 'NONE',  ( 0.000000000000000000, 0.000000000000000000, 1.000000000000000000 ) ) ;
#2 = ORIENTED_EDGE ( 'NONE', *, *, #595, .F. ) ;
#3 = UNCERTAINTY_MEASURE_WITH_UNIT (LENGTH_MEASURE( 1.000000000000000082E-05 ), #795, 'distance_accuracy_value', 'NONE');
#4 = ORIENTED_EDGE ( 'NONE', *, *, #425, .F. ) ;
#5 = DIRECTION ( 'NONE',  ( 0.000000000000000000, 0.000000000000000000, 1.000000000000000000 ) ) ;
#6 = ADVANCED_FACE ( 'NONE', ( #660 ), #767, .T. ) ;
#7 = AXIS2_PLACEMENT_3D ( 'NONE', #326, #889, #633 ) ;
#8 = CONTEXT_DEPENDENT_SHAPE_REPRESENTATION ( #162, #327 ) ;
#9 = VECTOR ( 'NONE', #770, 1.000000000000000000 ) ;
#10 = DIRECTION ( 'NONE',  ( 0.000000000000000000, 0.000000000000000000, 1.000000000000000000 ) ) ;
#11 = PRESENTATION_STYLE_ASSIGNMENT (( #725 ) ) ;
#12 = ITEM_DEFINED_TRANSFORMATION ( 'NONE', 'NONE', #73,  #283 ) ;
#13 = ADVANCED_FACE ( 'NONE', ( #258 ), #469, .F. ) ;
#14 = DIRECTION ( 'NONE',  ( 0.000000000000000000, 0.000000000000000000, 1.000000000000000000 ) ) ;
#15 = DIRECTION ( 'NONE',  ( 1.000000000000000000, -1.050710766793947553E-16, 0.000000000000000000 ) ) ;
#16 = UNCERTAINTY_MEASURE_WITH_UNIT (LENGTH_MEASURE( 1.000000000000000082E-05 ), #814, 'distance_accuracy_value', 'NONE');
#17 = ORIENTED_EDGE ( 'NONE', *, *, #834, .F. ) ;
#18 =( LENGTH_UNIT ( ) NAMED_UNIT ( * ) SI_UNIT ( $, .METRE. ) );
#19 = PLANE ( 'NONE',  #138 ) ;
#20 = ITEM_DEFINED_TRANSFORMATION ( 'NONE', 'NONE', #464,  #283 ) ;
#21 = PRODUCT_CONTEXT ( 'NONE', #142, 'mechanical' ) ;
#22 = AXIS2_PLACEMENT_3D ( 'NONE', #48, #263, #835 ) ;
#23 = DIRECTION ( 'NONE',  ( 0.000000000000000000, 0.000000000000000000, 1.000000000000000000 ) ) ;
#24 = DIRECTION ( 'NONE',  ( -1.000000000000000000, -0.000000000000000000, -0.000000000000000000 ) ) ;
#25 = CLOSED_SHELL ( 'NONE', ( #117, #717, #494, #819, #611, #665 ) ) ;
#26 = CARTESIAN_POINT ( 'NONE',  ( -0.01651000000000000731, -3.469446951953614189E-18, 0.001270000000000000078 ) ) ;
#27 = CONTEXT_DEPENDENT_SHAPE_REPRESENTATION ( #642, #851 ) ;
#28 = ORIENTED_EDGE ( 'NONE', *, *, #679, .F. ) ;
#29 = CONTEXT_DEPENDENT_SHAPE_REPRESENTATION ( #181, #673 ) ;
#30 = PRODUCT_DEFINITION_SHAPE ( 'NONE', 'NONE',  #646 ) ;
#31 = CARTESIAN_POINT ( 'NONE',  ( 0.002261208208804517741, -0.003136209471793992808, 0.003878233249054119369 ) ) ;
#32 = CARTESIAN_POINT ( 'NONE',  ( -0.0002049999999999999956, -0.001589999999999999834, -0.0003800000000000000209 ) ) ;
#33 = EDGE_LOOP ( 'NONE', ( #454, #244, #739, #883 ) ) ;
#34 = CARTESIAN_POINT ( 'NONE',  ( -0.01043879179119548348, -0.003136209471793992808, 0.003878233249054119369 ) ) ;
#35 = DIRECTION ( 'NONE',  ( 1.000000000000000000, 0.000000000000000000, 0.000000000000000000 ) ) ;
#36 = ITEM_DEFINED_TRANSFORMATION ( 'NONE', 'NONE', #853,  #283 ) ;
#37 = CARTESIAN_POINT ( 'NONE',  ( 0.000000000000000000, 0.000000000000000000, -0.0003800000000000000209 ) ) ;
#38 = CONTEXT_DEPENDENT_SHAPE_REPRESENTATION ( #574, #207 ) ;
#39 = DIRECTION ( 'NONE',  ( 0.000000000000000000, 0.000000000000000000, 1.000000000000000000 ) ) ;
#40 = CARTESIAN_POINT ( 'NONE',  ( 0.000000000000000000, 0.000000000000000000, 0.001270000000000000078 ) ) ;
#41 = AXIS2_PLACEMENT_3D ( 'NONE', #687, #470, #612 ) ;
#42 =( NAMED_UNIT ( * ) PLANE_ANGLE_UNIT ( ) SI_UNIT ( $, .RADIAN. ) );
#43 = STYLED_ITEM ( 'NONE', ( #703 ), #282 ) ;
#44 = DIRECTION ( 'NONE',  ( -1.000000000000000000, 0.000000000000000000, -0.000000000000000000 ) ) ;
#45 = DIRECTION ( 'NONE',  ( 1.000000000000000000, 0.000000000000000000, 0.000000000000000000 ) ) ;
#46 = PRODUCT_DEFINITION_SHAPE ( 'NONE', 'NONE',  #935 ) ;
#47 =( REPRESENTATION_RELATIONSHIP ('NONE','NONE', #447, #765 ) REPRESENTATION_RELATIONSHIP_WITH_TRANSFORMATION ( #726 )SHAPE_REPRESENTATION_RELATIONSHIP( ) );
#48 = CARTESIAN_POINT ( 'NONE',  ( -0.01043879179119548348, -0.003136209471793992808, 0.003878233249054119369 ) ) ;
#49 = EDGE_CURVE ( 'NONE', #722, #305, #331, .T. ) ;
#50 = FILL_AREA_STYLE ('',( #408 ) ) ;
#51 = CARTESIAN_POINT ( 'NONE',  ( 0.000000000000000000, 0.000000000000000000, 0.0003800000000000000209 ) ) ;
#52 = UNCERTAINTY_MEASURE_WITH_UNIT (LENGTH_MEASURE( 1.000000000000000082E-05 ), #488, 'distance_accuracy_value', 'NONE');
#53 = DIRECTION ( 'NONE',  ( 1.000000000000000000, 0.000000000000000000, 0.000000000000000000 ) ) ;
#54 =( REPRESENTATION_RELATIONSHIP ('NONE','NONE', #447, #765 ) REPRESENTATION_RELATIONSHIP_WITH_TRANSFORMATION ( #89 )SHAPE_REPRESENTATION_RELATIONSHIP( ) );
#55 = CONTEXT_DEPENDENT_SHAPE_REPRESENTATION ( #759, #111 ) ;
#56 = PRODUCT_DEFINITION_SHAPE ( 'NONE', 'NONE',  #908 ) ;
#57 = VECTOR ( 'NONE', #493, 1.000000000000000000 ) ;
#58 = LINE ( 'NONE', #503, #510 ) ;
#59 = ADVANCED_FACE ( 'NONE', ( #621 ), #336, .F. ) ;
#60 =( NAMED_UNIT ( * ) SI_UNIT ( $, .STERADIAN. ) SOLID_ANGLE_UNIT ( ) );
#61 = VECTOR ( 'NONE', #280, 1.000000000000000000 ) ;
#62 = CARTESIAN_POINT ( 'NONE',  ( -0.01651000000000000731, -3.469446951953614189E-18, 0.001270000000000000078 ) ) ;
#63 = CARTESIAN_POINT ( 'NONE',  ( 0.0002049999999999999956, -0.001589999999999999834, -0.0003800000000000000209 ) ) ;
#64 =( REPRESENTATION_RELATIONSHIP ('NONE','NONE', #447, #765 ) REPRESENTATION_RELATIONSHIP_WITH_TRANSFORMATION ( #700 )SHAPE_REPRESENTATION_RELATIONSHIP( ) );
#65 = PRODUCT_DEFINITION_SHAPE ( 'NONE', 'NONE',  #924 ) ;
#66 = DIRECTION ( 'NONE',  ( -0.000000000000000000, -0.000000000000000000, -1.000000000000000000 ) ) ;
#67 = CARTESIAN_POINT ( 'NONE',  ( 0.0002049999999999999956, 0.001590000000000000267, 0.0003800000000000000209 ) ) ;
#68 =( REPRESENTATION_RELATIONSHIP ('NONE','NONE', #447, #765 ) REPRESENTATION_RELATIONSHIP_WITH_TRANSFORMATION ( #528 )SHAPE_REPRESENTATION_RELATIONSHIP( ) );
#69 = UNCERTAINTY_MEASURE_WITH_UNIT (LENGTH_MEASURE( 1.000000000000000082E-05 ), #152, 'distance_accuracy_value', 'NONE');
#70 =( REPRESENTATION_RELATIONSHIP ('NONE','NONE', #447, #765 ) REPRESENTATION_RELATIONSHIP_WITH_TRANSFORMATION ( #682 )SHAPE_REPRESENTATION_RELATIONSHIP( ) );
#71 = PLANE ( 'NONE',  #556 ) ;
#72 =( LENGTH_UNIT ( ) NAMED_UNIT ( * ) SI_UNIT ( $, .METRE. ) );
#73 = AXIS2_PLACEMENT_3D ( 'NONE', #379, #604, #241 ) ;
#74 = DIRECTION ( 'NONE',  ( 0.000000000000000000, 0.000000000000000000, 1.000000000000000000 ) ) ;
#75 = AXIS2_PLACEMENT_3D ( 'NONE', #148, #208, #53 ) ;
#76 = DIRECTION ( 'NONE',  ( 1.000000000000000000, 0.000000000000000000, 0.000000000000000000 ) ) ;
#77 = PRODUCT_DEFINITION_SHAPE ( 'NONE', 'NONE',  #931 ) ;
#78 = CARTESIAN_POINT ( 'NONE',  ( -0.01650999999999999690, 0.008259999999999999981, 0.001270000000000000078 ) ) ;
#79 = CARTESIAN_POINT ( 'NONE',  ( -0.0002787917911954811145, -0.003136209471793992808, 0.003878233249054119369 ) ) ;
#80 = DIRECTION ( 'NONE',  ( 0.000000000000000000, 0.000000000000000000, 1.000000000000000000 ) ) ;
#81 = LINE ( 'NONE', #456, #328 ) ;
#82 = CONTEXT_DEPENDENT_SHAPE_REPRESENTATION ( #487, #648 ) ;
#83 =( REPRESENTATION_RELATIONSHIP ('NONE','NONE', #447, #765 ) REPRESENTATION_RELATIONSHIP_WITH_TRANSFORMATION ( #846 )SHAPE_REPRESENTATION_RELATIONSHIP( ) );
#84 = ORIENTED_EDGE ( 'NONE', *, *, #184, .F. ) ;
#85 = VERTEX_POINT ( 'NONE', #32 ) ;
#86 = DIRECTION ( 'NONE',  ( 1.000000000000000000, 0.000000000000000000, 0.000000000000000000 ) ) ;
#87 = CONTEXT_DEPENDENT_SHAPE_REPRESENTATION ( #47, #561 ) ;
#88 = ORIENTED_EDGE ( 'NONE', *, *, #531, .T. ) ;
#89 = ITEM_DEFINED_TRANSFORMATION ( 'NONE', 'NONE', #668,  #283 ) ;
#90 = AXIS2_PLACEMENT_3D ( 'NONE', #384, #23, #311 ) ;
#91 = AXIS2_PLACEMENT_3D ( 'NONE', #79, #273, #367 ) ;
#92 = COLOUR_RGB ( '',0.1019607843137254888, 0.1019607843137254888, 0.1019607843137254888 ) ;
#93 =( LENGTH_UNIT ( ) NAMED_UNIT ( * ) SI_UNIT ( $, .METRE. ) );
#94 = ORIENTED_EDGE ( 'NONE', *, *, #352, .F. ) ;
#95 = SHAPE_DEFINITION_REPRESENTATION ( #885, #514 ) ;
#96 = CARTESIAN_POINT ( 'NONE',  ( -0.007898791791195482886, -0.003136209471793992808, 0.003878233249054119369 ) ) ;
#97 =( NAMED_UNIT ( * ) PLANE_ANGLE_UNIT ( ) SI_UNIT ( $, .RADIAN. ) );
#98 = ORIENTED_EDGE ( 'NONE', *, *, #293, .F. ) ;
#99 = CONTEXT_DEPENDENT_SHAPE_REPRESENTATION ( #155, #812 ) ;
#100 = PRODUCT ( '929974-01-13-RK', '929974-01-13-RK', '', ( #743 ) ) ;
#101 = DIRECTION ( 'NONE',  ( 1.000000000000000000, 0.000000000000000000, 0.000000000000000000 ) ) ;
#102 = CARTESIAN_POINT ( 'NONE',  ( -0.01650999999999999690, 0.008259999999999999981, 0.001270000000000000078 ) ) ;
#103 = AXIS2_PLACEMENT_3D ( 'NONE', #333, #186, #623 ) ;
#104 = DIRECTION ( 'NONE',  ( 0.000000000000000000, 0.000000000000000000, 1.000000000000000000 ) ) ;
#105 = PRODUCT_DEFINITION_SHAPE ( 'NONE', 'NONE',  #936 ) ;
#106 = PRODUCT_DEFINITION_FORMATION_WITH_SPECIFIED_SOURCE ( 'ANY', '', #749, .NOT_KNOWN. ) ;
#107 =( GEOMETRIC_REPRESENTATION_CONTEXT ( 3 ) GLOBAL_UNCERTAINTY_ASSIGNED_CONTEXT ( ( #858 ) ) GLOBAL_UNIT_ASSIGNED_CONTEXT ( ( #93, #97, #605 ) ) REPRESENTATION_CONTEXT ( 'NONE', 'WORKASPACE' ) );
#108 = EDGE_LOOP ( 'NONE', ( #233, #28, #84, #94 ) ) ;
#109 = ORIENTED_EDGE ( 'NONE', *, *, #348, .F. ) ;
#110 = APPLICATION_PROTOCOL_DEFINITION ( 'draft international standard', 'automotive_design', 1998, #142 ) ;
#111 = PRODUCT_DEFINITION_SHAPE ( 'NONE', 'NONE',  #899 ) ;
#112 = STYLED_ITEM ( 'NONE', ( #596 ), #598 ) ;
#113 = COLOUR_RGB ( '',0.1019607843137254888, 0.1019607843137254888, 0.1019607843137254888 ) ;
#114 = DIRECTION ( 'NONE',  ( 0.000000000000000000, 0.000000000000000000, 1.000000000000000000 ) ) ;
#115 = LINE ( 'NONE', #322, #526 ) ;
#116 = CONTEXT_DEPENDENT_SHAPE_REPRESENTATION ( #171, #639 ) ;
#117 = ADVANCED_FACE ( 'NONE', ( #390 ), #824, .F. ) ;
#118 = DIRECTION ( 'NONE',  ( 1.000000000000000000, 0.000000000000000000, 0.000000000000000000 ) ) ;
#119 =( REPRESENTATION_RELATIONSHIP ('NONE','NONE', #447, #765 ) REPRESENTATION_RELATIONSHIP_WITH_TRANSFORMATION ( #128 )SHAPE_REPRESENTATION_RELATIONSHIP( ) );
#120 = DIRECTION ( 'NONE',  ( 0.000000000000000000, 0.000000000000000000, 1.000000000000000000 ) ) ;
#121 =( REPRESENTATION_RELATIONSHIP ('NONE','NONE', #447, #765 ) REPRESENTATION_RELATIONSHIP_WITH_TRANSFORMATION ( #397 )SHAPE_REPRESENTATION_RELATIONSHIP( ) );
#122 =( GEOMETRIC_REPRESENTATION_CONTEXT ( 3 ) GLOBAL_UNCERTAINTY_ASSIGNED_CONTEXT ( ( #3 ) ) GLOBAL_UNIT_ASSIGNED_CONTEXT ( ( #795, #874, #600 ) ) REPRESENTATION_CONTEXT ( 'NONE', 'WORKASPACE' ) );
#123 = PLANE ( 'NONE',  #696 ) ;
#124 = CONTEXT_DEPENDENT_SHAPE_REPRESENTATION ( #271, #888 ) ;
#125 = AXIS2_PLACEMENT_3D ( 'NONE', #391, #399, #760 ) ;
#126 = CARTESIAN_POINT ( 'NONE',  ( -0.002818791791195481705, -0.003136209471793992808, 0.003878233249054119369 ) ) ;
#127 = FACE_OUTER_BOUND ( 'NONE', #33, .T. ) ;
#128 = ITEM_DEFINED_TRANSFORMATION ( 'NONE', 'NONE', #343,  #283 ) ;
#129 = SURFACE_SIDE_STYLE ('',( #833 ) ) ;
#130 = UNCERTAINTY_MEASURE_WITH_UNIT (LENGTH_MEASURE( 1.000000000000000082E-05 ), #817, 'distance_accuracy_value', 'NONE');
#131 = DIRECTION ( 'NONE',  ( 0.000000000000000000, 0.000000000000000000, 1.000000000000000000 ) ) ;
#132 = DIRECTION ( 'NONE',  ( 0.000000000000000000, -1.000000000000000000, 0.000000000000000000 ) ) ;
#133 = PRODUCT_DEFINITION_SHAPE ( 'NONE', 'NONE',  #903 ) ;
#134 = AXIS2_PLACEMENT_3D ( 'NONE', #544, #466, #406 ) ;
#135 = CARTESIAN_POINT ( 'NONE',  ( -0.0002049999999999999956, 0.001590000000000000267, 0.0003800000000000000209 ) ) ;
#136 = ITEM_DEFINED_TRANSFORMATION ( 'NONE', 'NONE', #325,  #283 ) ;
#137 = FACE_OUTER_BOUND ( 'NONE', #165, .T. ) ;
#138 = AXIS2_PLACEMENT_3D ( 'NONE', #369, #876, #530 ) ;
#139 =( REPRESENTATION_RELATIONSHIP ('NONE','NONE', #447, #765 ) REPRESENTATION_RELATIONSHIP_WITH_TRANSFORMATION ( #597 )SHAPE_REPRESENTATION_RELATIONSHIP( ) );
#140 = DIRECTION ( 'NONE',  ( 1.000000000000000000, -1.260089691992837367E-15, 0.000000000000000000 ) ) ;
#141 = ITEM_DEFINED_TRANSFORMATION ( 'NONE', 'NONE', #22,  #283 ) ;
#142 = APPLICATION_CONTEXT ( 'automotive_design' ) ;
#143 = DIRECTION ( 'NONE',  ( 1.050710766793947430E-16, 1.000000000000000000, -0.000000000000000000 ) ) ;
#144 =( REPRESENTATION_RELATIONSHIP ('NONE','NONE', #447, #765 ) REPRESENTATION_RELATIONSHIP_WITH_TRANSFORMATION ( #168 )SHAPE_REPRESENTATION_RELATIONSHIP( ) );
#145 = DIRECTION ( 'NONE',  ( 0.000000000000000000, 0.000000000000000000, 1.000000000000000000 ) ) ;
#146 = DIRECTION ( 'NONE',  ( 0.000000000000000000, -0.000000000000000000, -1.000000000000000000 ) ) ;
#147 = LINE ( 'NONE', #496, #468 ) ;
#148 = CARTESIAN_POINT ( 'NONE',  ( -0.002818791791195481705, -0.003136209471793992808, 0.003878233249054119369 ) ) ;
#149 = LINE ( 'NONE', #355, #787 ) ;
#150 = VECTOR ( 'NONE', #374, 1.000000000000000000 ) ;
#151 = PRODUCT_DEFINITION_SHAPE ( 'NONE', 'NONE',  #930 ) ;
#152 =( LENGTH_UNIT ( ) NAMED_UNIT ( * ) SI_UNIT ( $, .METRE. ) );
#153 = PRESENTATION_LAYER_ASSIGNMENT (  '', '', ( #650 ) ) ;
#154 = DIRECTION ( 'NONE',  ( 1.000000000000000000, 0.000000000000000000, 0.000000000000000000 ) ) ;
#155 =( REPRESENTATION_RELATIONSHIP ('NONE','NONE', #447, #765 ) REPRESENTATION_RELATIONSHIP_WITH_TRANSFORMATION ( #884 )SHAPE_REPRESENTATION_RELATIONSHIP( ) );
#156 = DIRECTION ( 'NONE',  ( 1.000000000000000000, 0.000000000000000000, 0.000000000000000000 ) ) ;
#157 = EDGE_CURVE ( 'NONE', #535, #592, #346, .T. ) ;
#158 = SURFACE_SIDE_STYLE ('',( #791 ) ) ;
#159 = CONTEXT_DEPENDENT_SHAPE_REPRESENTATION ( #319, #625 ) ;
#160 = ORIENTED_EDGE ( 'NONE', *, *, #228, .T. ) ;
#161 = ITEM_DEFINED_TRANSFORMATION ( 'NONE', 'NONE', #407,  #283 ) ;
#162 =( REPRESENTATION_RELATIONSHIP ('NONE','NONE', #447, #765 ) REPRESENTATION_RELATIONSHIP_WITH_TRANSFORMATION ( #713 )SHAPE_REPRESENTATION_RELATIONSHIP( ) );
#163 = SHAPE_REPRESENTATION_RELATIONSHIP ( 'NONE' , 'NONE' ,  #514, #594 ) ;
#164 =( NAMED_UNIT ( * ) PLANE_ANGLE_UNIT ( ) SI_UNIT ( $, .RADIAN. ) );
#165 = EDGE_LOOP ( 'NONE', ( #2, #448, #410, #518 ) ) ;
#166 = APPLICATION_PROTOCOL_DEFINITION ( 'draft international standard', 'automotive_design', 1998, #332 ) ;
#167 = AXIS2_PLACEMENT_3D ( 'NONE', #886, #114, #680 ) ;
#168 = ITEM_DEFINED_TRANSFORMATION ( 'NONE', 'NONE', #370,  #283 ) ;
#169 = VECTOR ( 'NONE', #275, 1.000000000000000000 ) ;
#170 = CARTESIAN_POINT ( 'NONE',  ( 0.000000000000000000, 0.000000000000000000, 0.000000000000000000 ) ) ;
#171 =( REPRESENTATION_RELATIONSHIP ('NONE','NONE', #447, #765 ) REPRESENTATION_RELATIONSHIP_WITH_TRANSFORMATION ( #272 )SHAPE_REPRESENTATION_RELATIONSHIP( ) );
#172 = FILL_AREA_STYLE ('',( #238 ) ) ;
#173 = DIRECTION ( 'NONE',  ( 0.000000000000000000, 0.000000000000000000, 1.000000000000000000 ) ) ;
#174 = ORIENTED_EDGE ( 'NONE', *, *, #746, .F. ) ;
#175 = APPLICATION_PROTOCOL_DEFINITION ( 'draft international standard', 'automotive_design', 1998, #444 ) ;
#176 = DIRECTION ( 'NONE',  ( 1.000000000000000000, 0.000000000000000000, 0.000000000000000000 ) ) ;
#177 =( LENGTH_UNIT ( ) NAMED_UNIT ( * ) SI_UNIT ( $, .METRE. ) );
#178 = EDGE_LOOP ( 'NONE', ( #810, #614, #4, #317 ) ) ;
#179 = VECTOR ( 'NONE', #569, 1.000000000000000000 ) ;
#180 = CARTESIAN_POINT ( 'NONE',  ( -0.007898791791195482886, -0.003136209471793992808, 0.003878233249054119369 ) ) ;
#181 =( REPRESENTATION_RELATIONSHIP ('NONE','NONE', #447, #765 ) REPRESENTATION_RELATIONSHIP_WITH_TRANSFORMATION ( #12 )SHAPE_REPRESENTATION_RELATIONSHIP( ) );
#182 = VECTOR ( 'NONE', #423, 1.000000000000000000 ) ;
#183 = DIRECTION ( 'NONE',  ( -0.000000000000000000, 0.000000000000000000, 1.000000000000000000 ) ) ;
#184 = EDGE_CURVE ( 'NONE', #457, #85, #287, .T. ) ;
#185 = PRESENTATION_LAYER_ASSIGNMENT (  '', '', ( #869 ) ) ;
#186 = DIRECTION ( 'NONE',  ( 0.000000000000000000, 0.000000000000000000, 1.000000000000000000 ) ) ;
#187 = CARTESIAN_POINT ( 'NONE',  ( -0.0002049999999999999956, -0.001589999999999999834, 0.0003800000000000000209 ) ) ;
#188 = CONTEXT_DEPENDENT_SHAPE_REPRESENTATION ( #431, #320 ) ;
#189 = PRODUCT_DEFINITION ( 'UNKNOWN', '', #106, #206 ) ;
#190 = AXIS2_PLACEMENT_3D ( 'NONE', #476, #183, #35 ) ;
#191 = DIRECTION ( 'NONE',  ( 0.000000000000000000, 0.000000000000000000, 1.000000000000000000 ) ) ;
#192 = SURFACE_STYLE_USAGE ( .BOTH. , #688 ) ;
#193 = CONTEXT_DEPENDENT_SHAPE_REPRESENTATION ( #689, #46 ) ;
#194 = DIRECTION ( 'NONE',  ( 0.000000000000000000, 0.000000000000000000, 1.000000000000000000 ) ) ;
#195 =( GEOMETRIC_REPRESENTATION_CONTEXT ( 3 ) GLOBAL_UNCERTAINTY_ASSIGNED_CONTEXT ( ( #345 ) ) GLOBAL_UNIT_ASSIGNED_CONTEXT ( ( #843, #338, #781 ) ) REPRESENTATION_CONTEXT ( 'NONE', 'WORKASPACE' ) );
#196 = DIRECTION ( 'NONE',  ( -0.000000000000000000, 0.000000000000000000, 1.000000000000000000 ) ) ;
#197 = ITEM_DEFINED_TRANSFORMATION ( 'NONE', 'NONE', #270,  #283 ) ;
#198 = PRODUCT_DEFINITION_SHAPE ( 'NONE', 'NONE',  #912 ) ;
#199 = SURFACE_STYLE_USAGE ( .BOTH. , #129 ) ;
#200 = PRODUCT_DEFINITION_SHAPE ( 'NONE', 'NONE',  #918 ) ;
#201 = ITEM_DEFINED_TRANSFORMATION ( 'NONE', 'NONE', #507,  #283 ) ;
#202 = CARTESIAN_POINT ( 'NONE',  ( 0.009881208208804517779, -0.003136209471793992808, 0.003878233249054119369 ) ) ;
#203 = CARTESIAN_POINT ( 'NONE',  ( -0.0002049999999999999956, 0.001590000000000000267, 0.0003800000000000000209 ) ) ;
#204 =( NAMED_UNIT ( * ) PLANE_ANGLE_UNIT ( ) SI_UNIT ( $, .RADIAN. ) );
#205 = PRODUCT_DEFINITION_SHAPE ( 'NONE', 'NONE',  #928 ) ;
#206 = PRODUCT_DEFINITION_CONTEXT ( 'detailed design', #444, 'design' ) ;
#207 = PRODUCT_DEFINITION_SHAPE ( 'NONE', 'NONE',  #905 ) ;
#208 = DIRECTION ( 'NONE',  ( 0.000000000000000000, 0.000000000000000000, 1.000000000000000000 ) ) ;
#209 = CARTESIAN_POINT ( 'NONE',  ( -0.01650999999999999690, 0.008259999999999999981, 0.001270000000000000078 ) ) ;
#210 = DIRECTION ( 'NONE',  ( -0.000000000000000000, -1.000000000000000000, -0.000000000000000000 ) ) ;
#211 = ADVANCED_BREP_SHAPE_REPRESENTATION ( '', ( #282, #283 ), #632 ) ;
#212 = SURFACE_STYLE_FILL_AREA ( #274 ) ;
#213 = EDGE_CURVE ( 'NONE', #882, #878, #706, .T. ) ;
#214 = AXIS2_PLACEMENT_3D ( 'NONE', #288, #783, #45 ) ;
#215 = CARTESIAN_POINT ( 'NONE',  ( 0.01651000000000000731, -3.469446951953614189E-18, -0.001270000000000000078 ) ) ;
#216 = AXIS2_PLACEMENT_3D ( 'NONE', #430, #145, #847 ) ;
#217 = VECTOR ( 'NONE', #15, 1.000000000000000000 ) ;
#218 = LINE ( 'NONE', #576, #169 ) ;
#219 = DIRECTION ( 'NONE',  ( 0.000000000000000000, 1.000000000000000000, 0.000000000000000000 ) ) ;
#220 = CONTEXT_DEPENDENT_SHAPE_REPRESENTATION ( #439, #841 ) ;
#221 = DIRECTION ( 'NONE',  ( 1.000000000000000000, 0.000000000000000000, 0.000000000000000000 ) ) ;
#222 = CARTESIAN_POINT ( 'NONE',  ( -0.01805879179119548178, -0.003136209471793992808, 0.003878233249054119369 ) ) ;
#223 = SURFACE_SIDE_STYLE ('',( #301 ) ) ;
#224 = ITEM_DEFINED_TRANSFORMATION ( 'NONE', 'NONE', #710,  #283 ) ;
#225 = CARTESIAN_POINT ( 'NONE',  ( -0.007898791791195482886, -0.003136209471793992808, 0.003878233249054119369 ) ) ;
#226 = EDGE_CURVE ( 'NONE', #305, #441, #803, .T. ) ;
#227 =( GEOMETRIC_REPRESENTATION_CONTEXT ( 3 ) GLOBAL_UNCERTAINTY_ASSIGNED_CONTEXT ( ( #652 ) ) GLOBAL_UNIT_ASSIGNED_CONTEXT ( ( #72, #204, #362 ) ) REPRESENTATION_CONTEXT ( 'NONE', 'WORKASPACE' ) );
#228 = EDGE_CURVE ( 'NONE', #608, #296, #218, .T. ) ;
#229 =( REPRESENTATION_RELATIONSHIP ('NONE','NONE', #447, #765 ) REPRESENTATION_RELATIONSHIP_WITH_TRANSFORMATION ( #774 )SHAPE_REPRESENTATION_RELATIONSHIP( ) );
#230 = DIRECTION ( 'NONE',  ( 1.000000000000000000, 0.000000000000000000, 0.000000000000000000 ) ) ;
#231 = VECTOR ( 'NONE', #395, 1.000000000000000000 ) ;
#232 = CARTESIAN_POINT ( 'NONE',  ( 0.0002049999999999999956, -0.001589999999999999834, -0.0003800000000000000209 ) ) ;
#233 = ORIENTED_EDGE ( 'NONE', *, *, #157, .F. ) ;
#234 = CONTEXT_DEPENDENT_SHAPE_REPRESENTATION ( #54, #242 ) ;
#235 = DIRECTION ( 'NONE',  ( 1.000000000000000000, 8.400597946618920709E-16, -0.000000000000000000 ) ) ;
#236 = ITEM_DEFINED_TRANSFORMATION ( 'NONE', 'NONE', #216,  #283 ) ;
#237 = VERTEX_POINT ( 'NONE', #428 ) ;
#238 = FILL_AREA_STYLE_COLOUR ( '', #255 ) ;
#239 = AXIS2_PLACEMENT_3D ( 'NONE', #126, #635, #509 ) ;
#240 = AXIS2_PLACEMENT_3D ( 'NONE', #37, #473, #323 ) ;
#241 = DIRECTION ( 'NONE',  ( 1.000000000000000000, 0.000000000000000000, 0.000000000000000000 ) ) ;
#242 = PRODUCT_DEFINITION_SHAPE ( 'NONE', 'NONE',  #897 ) ;
#243 = FILL_AREA_STYLE ('',( #446 ) ) ;
#244 = ORIENTED_EDGE ( 'NONE', *, *, #834, .T. ) ;
#245 = DIRECTION ( 'NONE',  ( 1.000000000000000000, 0.000000000000000000, 0.000000000000000000 ) ) ;
#246 = DIRECTION ( 'NONE',  ( 1.000000000000000000, 0.000000000000000000, 0.000000000000000000 ) ) ;
#247 = ORIENTED_EDGE ( 'NONE', *, *, #587, .T. ) ;
#248 = PRODUCT_DEFINITION_SHAPE ( 'NONE', 'NONE',  #898 ) ;
#249 = DIRECTION ( 'NONE',  ( 1.000000000000000000, 0.000000000000000000, 0.000000000000000000 ) ) ;
#250 = CONTEXT_DEPENDENT_SHAPE_REPRESENTATION ( #655, #495 ) ;
#251 = ORIENTED_EDGE ( 'NONE', *, *, #616, .T. ) ;
#252 = AXIS2_PLACEMENT_3D ( 'NONE', #553, #532, #118 ) ;
#253 = DIRECTION ( 'NONE',  ( 0.000000000000000000, 0.000000000000000000, 1.000000000000000000 ) ) ;
#254 = PRODUCT_DEFINITION_SHAPE ( 'NONE', 'NONE',  #927 ) ;
#255 = COLOUR_RGB ( '',0.7921568627450980005, 0.8196078431372548767, 0.9333333333333333481 ) ;
#256 = FILL_AREA_STYLE_COLOUR ( '', #347 ) ;
#257 = ITEM_DEFINED_TRANSFORMATION ( 'NONE', 'NONE', #789,  #283 ) ;
#258 = FACE_OUTER_BOUND ( 'NONE', #386, .T. ) ;
#259 = PRODUCT ( '929974-01-13-RK_Pin', '929974-01-13-RK_Pin', '', ( #387 ) ) ;
#260 = ORIENTED_EDGE ( 'NONE', *, *, #788, .T. ) ;
#261 = CARTESIAN_POINT ( 'NONE',  ( -0.01297879179119548407, -0.003136209471793992808, 0.003878233249054119369 ) ) ;
#262 = FILL_AREA_STYLE ('',( #838 ) ) ;
#263 = DIRECTION ( 'NONE',  ( 0.000000000000000000, 0.000000000000000000, 1.000000000000000000 ) ) ;
#264 = PRESENTATION_STYLE_ASSIGNMENT (( #827 ) ) ;
#265 = ITEM_DEFINED_TRANSFORMATION ( 'NONE', 'NONE', #644,  #283 ) ;
#266 = ITEM_DEFINED_TRANSFORMATION ( 'NONE', 'NONE', #103,  #283 ) ;
#267 = CARTESIAN_POINT ( 'NONE',  ( -0.0002787917911954819819, -0.003136209471793992808, 0.003878233249054119369 ) ) ;
#268 = VECTOR ( 'NONE', #848, 1.000000000000000000 ) ;
#269 = FACE_OUTER_BOUND ( 'NONE', #801, .T. ) ;
#270 = AXIS2_PLACEMENT_3D ( 'NONE', #443, #482, #691 ) ;
#271 =( REPRESENTATION_RELATIONSHIP ('NONE','NONE', #447, #765 ) REPRESENTATION_RELATIONSHIP_WITH_TRANSFORMATION ( #36 )SHAPE_REPRESENTATION_RELATIONSHIP( ) );
#272 = ITEM_DEFINED_TRANSFORMATION ( 'NONE', 'NONE', #167,  #283 ) ;
#273 = DIRECTION ( 'NONE',  ( 0.000000000000000000, 0.000000000000000000, 1.000000000000000000 ) ) ;
#274 = FILL_AREA_STYLE ('',( #562 ) ) ;
#275 = DIRECTION ( 'NONE',  ( 0.000000000000000000, 1.000000000000000000, 0.000000000000000000 ) ) ;
#276 = CONTEXT_DEPENDENT_SHAPE_REPRESENTATION ( #334, #489 ) ;
#277 = PRODUCT_DEFINITION_SHAPE ( 'NONE', 'NONE',  #926 ) ;
#278 = PRODUCT_DEFINITION_SHAPE ( 'NONE', 'NONE',  #911 ) ;
#279 = DIRECTION ( 'NONE',  ( -1.000000000000000000, 1.050710766793947430E-16, 0.000000000000000000 ) ) ;
#280 = DIRECTION ( 'NONE',  ( 1.000000000000000000, 0.000000000000000000, 0.000000000000000000 ) ) ;
#281 =( REPRESENTATION_RELATIONSHIP ('NONE','NONE', #447, #765 ) REPRESENTATION_RELATIONSHIP_WITH_TRANSFORMATION ( #201 )SHAPE_REPRESENTATION_RELATIONSHIP( ) );
#282 = MANIFOLD_SOLID_BREP ( 'Boss-Extrude1', #806 ) ;
#283 = AXIS2_PLACEMENT_3D ( 'NONE', #871, #173, #156 ) ;
#284 = AXIS2_PLACEMENT_3D ( 'NONE', #170, #521, #797 ) ;
#285 = APPLICATION_CONTEXT ( 'automotive_design' ) ;
#286 = LINE ( 'NONE', #578, #57 ) ;
#287 = LINE ( 'NONE', #350, #508 ) ;
#288 = CARTESIAN_POINT ( 'NONE',  ( 0.002261208208804517741, -0.003136209471793992808, 0.003878233249054119369 ) ) ;
#289 = DIRECTION ( 'NONE',  ( 1.000000000000000000, 0.000000000000000000, 0.000000000000000000 ) ) ;
#290 = LINE ( 'NONE', #568, #344 ) ;
#291 = PRODUCT_DEFINITION_CONTEXT ( 'detailed design', #654, 'design' ) ;
#292 = DIRECTION ( 'NONE',  ( 0.000000000000000000, 0.000000000000000000, 1.000000000000000000 ) ) ;
#293 = EDGE_CURVE ( 'NONE', #873, #237, #290, .T. ) ;
#294 = LINE ( 'NONE', #591, #150 ) ;
#295 = PRESENTATION_LAYER_ASSIGNMENT (  '', '', ( #588 ) ) ;
#296 = VERTEX_POINT ( 'NONE', #67 ) ;
#297 = CARTESIAN_POINT ( 'NONE',  ( 0.002261208208804518609, -0.003136209471793992808, 0.003878233249054119369 ) ) ;
#298 = AXIS2_PLACEMENT_3D ( 'NONE', #627, #414, #694 ) ;
#299 = STYLED_ITEM ( 'NONE', ( #11 ), #494 ) ;
#300 = DIRECTION ( 'NONE',  ( 1.000000000000000000, 0.000000000000000000, 0.000000000000000000 ) ) ;
#301 = SURFACE_STYLE_FILL_AREA ( #172 ) ;
#302 = STYLED_ITEM ( 'NONE', ( #676 ), #717 ) ;
#303 = LINE ( 'NONE', #513, #393 ) ;
#304 = ITEM_DEFINED_TRANSFORMATION ( 'NONE', 'NONE', #840,  #283 ) ;
#305 = VERTEX_POINT ( 'NONE', #640 ) ;
#306 = EDGE_LOOP ( 'NONE', ( #260, #828, #109, #442 ) ) ;
#307 = CONTEXT_DEPENDENT_SHAPE_REPRESENTATION ( #740, #758 ) ;
#308 = AXIS2_PLACEMENT_3D ( 'NONE', #31, #39, #176 ) ;
#309 =( NAMED_UNIT ( * ) PLANE_ANGLE_UNIT ( ) SI_UNIT ( $, .RADIAN. ) );
#310 = DIRECTION ( 'NONE',  ( 0.000000000000000000, 0.000000000000000000, 1.000000000000000000 ) ) ;
#311 = DIRECTION ( 'NONE',  ( 1.000000000000000000, 0.000000000000000000, 0.000000000000000000 ) ) ;
#312 =( NAMED_UNIT ( * ) SI_UNIT ( $, .STERADIAN. ) SOLID_ANGLE_UNIT ( ) );
#313 = CONTEXT_DEPENDENT_SHAPE_REPRESENTATION ( #736, #277 ) ;
#314 = ORIENTED_EDGE ( 'NONE', *, *, #394, .T. ) ;
#315 = APPLICATION_PROTOCOL_DEFINITION ( 'draft international standard', 'automotive_design', 1998, #775 ) ;
#316 = DIRECTION ( 'NONE',  ( 0.000000000000000000, 0.000000000000000000, 1.000000000000000000 ) ) ;
#317 = ORIENTED_EDGE ( 'NONE', *, *, #875, .T. ) ;
#318 = CONTEXT_DEPENDENT_SHAPE_REPRESENTATION ( #121, #619 ) ;
#319 =( REPRESENTATION_RELATIONSHIP ('NONE','NONE', #447, #765 ) REPRESENTATION_RELATIONSHIP_WITH_TRANSFORMATION ( #719 )SHAPE_REPRESENTATION_RELATIONSHIP( ) );
#320 = PRODUCT_DEFINITION_SHAPE ( 'NONE', 'NONE',  #940 ) ;
#321 = CARTESIAN_POINT ( 'NONE',  ( -0.002818791791195482139, -0.003136209471793992808, 0.003878233249054119369 ) ) ;
#322 = CARTESIAN_POINT ( 'NONE',  ( -0.0002049999999999999956, -0.001589999999999999834, -0.0003800000000000000209 ) ) ;
#323 = DIRECTION ( 'NONE',  ( -1.000000000000000000, 0.000000000000000000, -0.000000000000000000 ) ) ;
#324 =( REPRESENTATION_RELATIONSHIP ('NONE','NONE', #447, #765 ) REPRESENTATION_RELATIONSHIP_WITH_TRANSFORMATION ( #266 )SHAPE_REPRESENTATION_RELATIONSHIP( ) );
#325 = AXIS2_PLACEMENT_3D ( 'NONE', #261, #402, #684 ) ;
#326 = CARTESIAN_POINT ( 'NONE',  ( -0.0002787917911954828493, -0.003136209471793992808, 0.003878233249054119369 ) ) ;
#327 = PRODUCT_DEFINITION_SHAPE ( 'NONE', 'NONE',  #919 ) ;
#328 = VECTOR ( 'NONE', #584, 1.000000000000000000 ) ;
#329 = PRODUCT_DEFINITION_SHAPE ( 'NONE', 'NONE',  #939 ) ;
#330 = DIRECTION ( 'NONE',  ( 0.000000000000000000, -0.000000000000000000, 1.000000000000000000 ) ) ;
#331 = LINE ( 'NONE', #753, #231 ) ;
#332 = APPLICATION_CONTEXT ( 'automotive_design' ) ;
#333 = CARTESIAN_POINT ( 'NONE',  ( -0.01043879179119548174, -0.003136209471793992808, 0.003878233249054119369 ) ) ;
#334 =( REPRESENTATION_RELATIONSHIP ('NONE','NONE', #447, #765 ) REPRESENTATION_RELATIONSHIP_WITH_TRANSFORMATION ( #857 )SHAPE_REPRESENTATION_RELATIONSHIP( ) );
#335 = SURFACE_STYLE_FILL_AREA ( #50 ) ;
#336 = PLANE ( 'NONE',  #634 ) ;
#337 = DIRECTION ( 'NONE',  ( 1.000000000000000000, 0.000000000000000000, 0.000000000000000000 ) ) ;
#338 =( NAMED_UNIT ( * ) PLANE_ANGLE_UNIT ( ) SI_UNIT ( $, .RADIAN. ) );
#339 = DIRECTION ( 'NONE',  ( 1.000000000000000000, 0.000000000000000000, 0.000000000000000000 ) ) ;
#340 = PRODUCT_DEFINITION_SHAPE ( 'NONE', 'NONE',  #915 ) ;
#341 = AXIS2_PLACEMENT_3D ( 'NONE', #203, #132, #146 ) ;
#342 =( NAMED_UNIT ( * ) SI_UNIT ( $, .STERADIAN. ) SOLID_ANGLE_UNIT ( ) );
#343 = AXIS2_PLACEMENT_3D ( 'NONE', #506, #653, #337 ) ;
#344 = VECTOR ( 'NONE', #436, 1.000000000000000000 ) ;
#345 = UNCERTAINTY_MEASURE_WITH_UNIT (LENGTH_MEASURE( 1.000000000000000082E-05 ), #843, 'distance_accuracy_value', 'NONE');
#346 = LINE ( 'NONE', #63, #9 ) ;
#347 = COLOUR_RGB ( '',0.1019607843137254888, 0.1019607843137254888, 0.1019607843137254888 ) ;
#348 = EDGE_CURVE ( 'NONE', #873, #565, #147, .T. ) ;
#349 = PLANE ( 'NONE',  #341 ) ;
#350 = CARTESIAN_POINT ( 'NONE',  ( -0.0002049999999999999956, -0.001589999999999999834, -0.0003800000000000000209 ) ) ;
#351 = COLOUR_RGB ( '',0.1019607843137254888, 0.1019607843137254888, 0.1019607843137254888 ) ;
#352 = EDGE_CURVE ( 'NONE', #592, #457, #58, .T. ) ;
#353 = DIRECTION ( 'NONE',  ( 1.000000000000000000, -1.050710766793947553E-16, 0.000000000000000000 ) ) ;
#354 = CARTESIAN_POINT ( 'NONE',  ( -0.01651000000000000731, -3.469446951953614189E-18, 0.001270000000000000078 ) ) ;
#355 = CARTESIAN_POINT ( 'NONE',  ( -0.0002049999999999999956, -0.001589999999999999834, 0.0003800000000000000209 ) ) ;
#356 = AXIS2_PLACEMENT_3D ( 'NONE', #78, #140, #570 ) ;
#357 = CONTEXT_DEPENDENT_SHAPE_REPRESENTATION ( #798, #198 ) ;
#358 = AXIS2_PLACEMENT_3D ( 'NONE', #202, #363, #221 ) ;
#359 = DIRECTION ( 'NONE',  ( 0.000000000000000000, 0.000000000000000000, 1.000000000000000000 ) ) ;
#360 = CARTESIAN_POINT ( 'NONE',  ( -0.01297879179119548233, -0.003136209471793992808, 0.003878233249054119369 ) ) ;
#361 = EDGE_CURVE ( 'NONE', #882, #457, #490, .T. ) ;
#362 =( NAMED_UNIT ( * ) SI_UNIT ( $, .STERADIAN. ) SOLID_ANGLE_UNIT ( ) );
#363 = DIRECTION ( 'NONE',  ( 0.000000000000000000, 0.000000000000000000, 1.000000000000000000 ) ) ;
#364 = CARTESIAN_POINT ( 'NONE',  ( -0.01551879179119548292, -0.003136209471793992808, 0.003878233249054119369 ) ) ;
#365 = PLANE ( 'NONE',  #575 ) ;
#366 = ITEM_DEFINED_TRANSFORMATION ( 'NONE', 'NONE', #91,  #283 ) ;
#367 = DIRECTION ( 'NONE',  ( 1.000000000000000000, 0.000000000000000000, 0.000000000000000000 ) ) ;
#368 = CARTESIAN_POINT ( 'NONE',  ( 0.000000000000000000, 0.000000000000000000, 0.000000000000000000 ) ) ;
#369 = CARTESIAN_POINT ( 'NONE',  ( 0.0002049999999999999956, -0.001589999999999999834, 0.0003800000000000000209 ) ) ;
#370 = AXIS2_PLACEMENT_3D ( 'NONE', #744, #550, #830 ) ;
#371 = ITEM_DEFINED_TRANSFORMATION ( 'NONE', 'NONE', #404,  #283 ) ;
#372 = PRESENTATION_LAYER_ASSIGNMENT (  '', '', ( #112 ) ) ;
#373 =( REPRESENTATION_RELATIONSHIP ('NONE','NONE', #447, #765 ) REPRESENTATION_RELATIONSHIP_WITH_TRANSFORMATION ( #771 )SHAPE_REPRESENTATION_RELATIONSHIP( ) );
#374 = DIRECTION ( 'NONE',  ( -1.000000000000000000, -0.000000000000000000, -0.000000000000000000 ) ) ;
#375 = PRODUCT_DEFINITION_CONTEXT ( 'detailed design', #775, 'design' ) ;
#376 = ORIENTED_EDGE ( 'NONE', *, *, #213, .F. ) ;
#377 = APPLICATION_PROTOCOL_DEFINITION ( 'draft international standard', 'automotive_design', 1998, #654 ) ;
#378 = PRODUCT_DEFINITION ( 'UNKNOWN', '', #805, #375 ) ;
#379 = CARTESIAN_POINT ( 'NONE',  ( -0.01043879179119548348, -0.003136209471793992808, 0.003878233249054119369 ) ) ;
#380 = LINE ( 'NONE', #662, #421 ) ;
#381 = CONTEXT_DEPENDENT_SHAPE_REPRESENTATION ( #626, #205 ) ;
#382 =( REPRESENTATION_RELATIONSHIP ('NONE','NONE', #447, #765 ) REPRESENTATION_RELATIONSHIP_WITH_TRANSFORMATION ( #304 )SHAPE_REPRESENTATION_RELATIONSHIP( ) );
#383 = ORIENTED_EDGE ( 'NONE', *, *, #875, .F. ) ;
#384 = CARTESIAN_POINT ( 'NONE',  ( -0.01297879179119548233, -0.003136209471793992808, 0.003878233249054119369 ) ) ;
#385 = ITEM_DEFINED_TRANSFORMATION ( 'NONE', 'NONE', #75,  #283 ) ;
#386 = EDGE_LOOP ( 'NONE', ( #160, #247, #603, #870 ) ) ;
#387 = PRODUCT_CONTEXT ( 'NONE', #285, 'mechanical' ) ;
#388 = AXIS2_PLACEMENT_3D ( 'NONE', #364, #716, #583 ) ;
#389 =( GEOMETRIC_REPRESENTATION_CONTEXT ( 3 ) GLOBAL_UNCERTAINTY_ASSIGNED_CONTEXT ( ( #130 ) ) GLOBAL_UNIT_ASSIGNED_CONTEXT ( ( #817, #809, #879 ) ) REPRESENTATION_CONTEXT ( 'NONE', 'WORKASPACE' ) );
#390 = FACE_OUTER_BOUND ( 'NONE', #306, .T. ) ;
#391 = CARTESIAN_POINT ( 'NONE',  ( -0.005358791791195482296, -0.003136209471793992808, 0.003878233249054119369 ) ) ;
#392 = PRODUCT_DEFINITION_SHAPE ( 'NONE', 'NONE',  #891 ) ;
#393 = VECTOR ( 'NONE', #738, 1.000000000000000000 ) ;
#394 = EDGE_CURVE ( 'NONE', #565, #677, #427, .T. ) ;
#395 = DIRECTION ( 'NONE',  ( 8.400597946618920709E-16, -1.000000000000000000, 0.000000000000000000 ) ) ;
#396 = ORIENTED_EDGE ( 'NONE', *, *, #512, .T. ) ;
#397 = ITEM_DEFINED_TRANSFORMATION ( 'NONE', 'NONE', #388,  #283 ) ;
#398 =( REPRESENTATION_RELATIONSHIP ('NONE','NONE', #447, #765 ) REPRESENTATION_RELATIONSHIP_WITH_TRANSFORMATION ( #557 )SHAPE_REPRESENTATION_RELATIONSHIP( ) );
#399 = DIRECTION ( 'NONE',  ( 0.000000000000000000, 0.000000000000000000, 1.000000000000000000 ) ) ;
#400 = SURFACE_SIDE_STYLE ('',( #831 ) ) ;
#401 = CONTEXT_DEPENDENT_SHAPE_REPRESENTATION ( #83, #56 ) ;
#402 = DIRECTION ( 'NONE',  ( 0.000000000000000000, 0.000000000000000000, 1.000000000000000000 ) ) ;
#403 = ITEM_DEFINED_TRANSFORMATION ( 'NONE', 'NONE', #777,  #283 ) ;
#404 = AXIS2_PLACEMENT_3D ( 'NONE', #667, #253, #763 ) ;
#405 = MECHANICAL_DESIGN_GEOMETRIC_PRESENTATION_REPRESENTATION (  '', ( #588 ), #729 ) ;
#406 = DIRECTION ( 'NONE',  ( 1.000000000000000000, 0.000000000000000000, 0.000000000000000000 ) ) ;
#407 = AXIS2_PLACEMENT_3D ( 'NONE', #517, #451, #76 ) ;
#408 = FILL_AREA_STYLE_COLOUR ( '', #351 ) ;
#409 = PRODUCT_DEFINITION_SHAPE ( 'NONE', 'NONE',  #933 ) ;
#410 = ORIENTED_EDGE ( 'NONE', *, *, #49, .T. ) ;
#411 = CARTESIAN_POINT ( 'NONE',  ( 0.004801208208804518332, -0.003136209471793992808, 0.003878233249054119369 ) ) ;
#412 = PRESENTATION_STYLE_ASSIGNMENT (( #199 ) ) ;
#413 = PRODUCT_DEFINITION_SHAPE ( 'NONE', 'NONE',  #922 ) ;
#414 = DIRECTION ( 'NONE',  ( 0.000000000000000000, 0.000000000000000000, 1.000000000000000000 ) ) ;
#415 = FILL_AREA_STYLE_COLOUR ( '', #790 ) ;
#416 = ITEM_DEFINED_TRANSFORMATION ( 'NONE', 'NONE', #252,  #283 ) ;
#417 =( REPRESENTATION_RELATIONSHIP ('NONE','NONE', #447, #765 ) REPRESENTATION_RELATIONSHIP_WITH_TRANSFORMATION ( #403 )SHAPE_REPRESENTATION_RELATIONSHIP( ) );
#418 = PRODUCT_DEFINITION_SHAPE ( 'NONE', 'NONE',  #910 ) ;
#419 = CARTESIAN_POINT ( 'NONE',  ( -0.01650999999999999690, 0.008259999999999999981, 0.001270000000000000078 ) ) ;
#420 = PRODUCT_DEFINITION_SHAPE ( 'NONE', 'NONE',  #913 ) ;
#421 = VECTOR ( 'NONE', #807, 1.000000000000000000 ) ;
#422 = CONTEXT_DEPENDENT_SHAPE_REPRESENTATION ( #533, #151 ) ;
#423 = DIRECTION ( 'NONE',  ( -0.000000000000000000, -0.000000000000000000, -1.000000000000000000 ) ) ;
#424 = CONTEXT_DEPENDENT_SHAPE_REPRESENTATION ( #229, #420 ) ;
#425 = EDGE_CURVE ( 'NONE', #878, #608, #637, .T. ) ;
#426 =( REPRESENTATION_RELATIONSHIP ('NONE','NONE', #447, #765 ) REPRESENTATION_RELATIONSHIP_WITH_TRANSFORMATION ( #371 )SHAPE_REPRESENTATION_RELATIONSHIP( ) );
#427 = LINE ( 'NONE', #354, #674 ) ;
#428 = CARTESIAN_POINT ( 'NONE',  ( -0.01650999999999999690, 0.008259999999999999981, -0.001270000000000000078 ) ) ;
#429 = CONTEXT_DEPENDENT_SHAPE_REPRESENTATION ( #144, #340 ) ;
#430 = CARTESIAN_POINT ( 'NONE',  ( -0.005358791791195482296, -0.003136209471793992808, 0.003878233249054119369 ) ) ;
#431 =( REPRESENTATION_RELATIONSHIP ('NONE','NONE', #447, #765 ) REPRESENTATION_RELATIONSHIP_WITH_TRANSFORMATION ( #832 )SHAPE_REPRESENTATION_RELATIONSHIP( ) );
#432 = PRESENTATION_STYLE_ASSIGNMENT (( #849 ) ) ;
#433 = AXIS2_PLACEMENT_3D ( 'NONE', #321, #316, #537 ) ;
#434 = LINE ( 'NONE', #641, #268 ) ;
#435 = PRESENTATION_LAYER_ASSIGNMENT (  '', '', ( #299 ) ) ;
#436 = DIRECTION ( 'NONE',  ( -0.000000000000000000, -0.000000000000000000, -1.000000000000000000 ) ) ;
#437 = CONTEXT_DEPENDENT_SHAPE_REPRESENTATION ( #501, #200 ) ;
#438 = CARTESIAN_POINT ( 'NONE',  ( 0.007341208208804518923, -0.003136209471793992808, 0.003878233249054119369 ) ) ;
#439 =( REPRESENTATION_RELATIONSHIP ('NONE','NONE', #447, #765 ) REPRESENTATION_RELATIONSHIP_WITH_TRANSFORMATION ( #224 )SHAPE_REPRESENTATION_RELATIONSHIP( ) );
#440 = CONTEXT_DEPENDENT_SHAPE_REPRESENTATION ( #630, #278 ) ;
#441 = VERTEX_POINT ( 'NONE', #215 ) ;
#442 = ORIENTED_EDGE ( 'NONE', *, *, #293, .T. ) ;
#443 = CARTESIAN_POINT ( 'NONE',  ( -0.002818791791195483440, -0.003136209471793992808, 0.003878233249054119369 ) ) ;
#444 = APPLICATION_CONTEXT ( 'automotive_design' ) ;
#445 = DIRECTION ( 'NONE',  ( 1.000000000000000000, 0.000000000000000000, 0.000000000000000000 ) ) ;
#446 = FILL_AREA_STYLE_COLOUR ( '', #564 ) ;
#447 = SHAPE_REPRESENTATION ( '929974-01-13-RK', ( #284, #407, #572, #709, #73, #802, #388, #668, #685, #433, #804, #507, #103, #41, #404, #543, #134, #167, #125, #252, #777, #325, #525, #308, #7, #370, #710, #497, #22, #90, #615, #214, #852, #75, #216, #464, #778, #840, #697, #686, #91, #239, #789, #644, #358, #823, #343, #853, #762, #270, #298 ), #389 ) ;
#448 = ORIENTED_EDGE ( 'NONE', *, *, #504, .F. ) ;
#449 = CARTESIAN_POINT ( 'NONE',  ( -0.007898791791195481152, -0.003136209471793992808, 0.003878233249054119369 ) ) ;
#450 =( GEOMETRIC_REPRESENTATION_CONTEXT ( 3 ) GLOBAL_UNCERTAINTY_ASSIGNED_CONTEXT ( ( #69 ) ) GLOBAL_UNIT_ASSIGNED_CONTEXT ( ( #152, #164, #732 ) ) REPRESENTATION_CONTEXT ( 'NONE', 'WORKASPACE' ) );
#451 = DIRECTION ( 'NONE',  ( 0.000000000000000000, 0.000000000000000000, 1.000000000000000000 ) ) ;
#452 = CARTESIAN_POINT ( 'NONE',  ( 0.0002049999999999999956, 0.001590000000000000267, -0.0003800000000000000209 ) ) ;
#453 = ITEM_DEFINED_TRANSFORMATION ( 'NONE', 'NONE', #852,  #283 ) ;
#454 = ORIENTED_EDGE ( 'NONE', *, *, #788, .F. ) ;
#455 = CARTESIAN_POINT ( 'NONE',  ( -0.01551879179119548119, -0.003136209471793992808, 0.003878233249054119369 ) ) ;
#456 = CARTESIAN_POINT ( 'NONE',  ( 0.01651000000000000037, 0.008259999999999996512, 0.001270000000000000078 ) ) ;
#457 = VERTEX_POINT ( 'NONE', #500 ) ;
#458 = ITEM_DEFINED_TRANSFORMATION ( 'NONE', 'NONE', #572,  #283 ) ;
#459 = DIRECTION ( 'NONE',  ( 1.000000000000000000, 0.000000000000000000, 0.000000000000000000 ) ) ;
#460 = CARTESIAN_POINT ( 'NONE',  ( -0.01651000000000000731, -3.469446951953614189E-18, -0.001270000000000000078 ) ) ;
#461 = CONTEXT_DEPENDENT_SHAPE_REPRESENTATION ( #863, #65 ) ;
#462 = VERTEX_POINT ( 'NONE', #643 ) ;
#463 = SHAPE_DEFINITION_REPRESENTATION ( #30, #447 ) ;
#464 = AXIS2_PLACEMENT_3D ( 'NONE', #225, #5, #492 ) ;
#465 = PRESENTATION_LAYER_ASSIGNMENT (  '', '', ( #43 ) ) ;
#466 = DIRECTION ( 'NONE',  ( 0.000000000000000000, 0.000000000000000000, 1.000000000000000000 ) ) ;
#467 =( REPRESENTATION_RELATIONSHIP ('NONE','NONE', #447, #765 ) REPRESENTATION_RELATIONSHIP_WITH_TRANSFORMATION ( #453 )SHAPE_REPRESENTATION_RELATIONSHIP( ) );
#468 = VECTOR ( 'NONE', #712, 1.000000000000000000 ) ;
#469 = PLANE ( 'NONE',  #731 ) ;
#470 = DIRECTION ( 'NONE',  ( 0.000000000000000000, 0.000000000000000000, 1.000000000000000000 ) ) ;
#471 =( NAMED_UNIT ( * ) PLANE_ANGLE_UNIT ( ) SI_UNIT ( $, .RADIAN. ) );
#472 = CONTEXT_DEPENDENT_SHAPE_REPRESENTATION ( #68, #474 ) ;
#473 = DIRECTION ( 'NONE',  ( 0.000000000000000000, 0.000000000000000000, -1.000000000000000000 ) ) ;
#474 = PRODUCT_DEFINITION_SHAPE ( 'NONE', 'NONE',  #934 ) ;
#475 = CARTESIAN_POINT ( 'NONE',  ( -0.007898791791195482886, -0.003136209471793992808, 0.003878233249054119369 ) ) ;
#476 = CARTESIAN_POINT ( 'NONE',  ( 0.000000000000000000, 0.000000000000000000, -0.001270000000000000078 ) ) ;
#477 = CARTESIAN_POINT ( 'NONE',  ( -0.0002049999999999999956, -0.001589999999999999834, 0.0003800000000000000209 ) ) ;
#478 = CONTEXT_DEPENDENT_SHAPE_REPRESENTATION ( #324, #769 ) ;
#479 = PRODUCT_RELATED_PRODUCT_CATEGORY ( 'part', '', ( #259 ) ) ;
#480 = VECTOR ( 'NONE', #66, 1.000000000000000000 ) ;
#481 = PRESENTATION_LAYER_ASSIGNMENT (  '', '', ( #302 ) ) ;
#482 = DIRECTION ( 'NONE',  ( 0.000000000000000000, 0.000000000000000000, 1.000000000000000000 ) ) ;
#483 =( NAMED_UNIT ( * ) PLANE_ANGLE_UNIT ( ) SI_UNIT ( $, .RADIAN. ) );
#484 = ORIENTED_EDGE ( 'NONE', *, *, #348, .T. ) ;
#485 = CONTEXT_DEPENDENT_SHAPE_REPRESENTATION ( #373, #133 ) ;
#486 = CARTESIAN_POINT ( 'NONE',  ( 0.007341208208804517188, -0.003136209471793992808, 0.003878233249054119369 ) ) ;
#487 =( REPRESENTATION_RELATIONSHIP ('NONE','NONE', #447, #765 ) REPRESENTATION_RELATIONSHIP_WITH_TRANSFORMATION ( #666 )SHAPE_REPRESENTATION_RELATIONSHIP( ) );
#488 =( LENGTH_UNIT ( ) NAMED_UNIT ( * ) SI_UNIT ( $, .METRE. ) );
#489 = PRODUCT_DEFINITION_SHAPE ( 'NONE', 'NONE',  #914 ) ;
#490 = LINE ( 'NONE', #135, #182 ) ;
#491 = CONTEXT_DEPENDENT_SHAPE_REPRESENTATION ( #398, #881 ) ;
#492 = DIRECTION ( 'NONE',  ( 1.000000000000000000, 0.000000000000000000, 0.000000000000000000 ) ) ;
#493 = DIRECTION ( 'NONE',  ( -0.000000000000000000, -0.000000000000000000, -1.000000000000000000 ) ) ;
#494 = ADVANCED_FACE ( 'NONE', ( #137 ), #365, .T. ) ;
#495 = PRODUCT_DEFINITION_SHAPE ( 'NONE', 'NONE',  #938 ) ;
#496 = CARTESIAN_POINT ( 'NONE',  ( -0.01650999999999999690, 0.008259999999999999981, 0.001270000000000000078 ) ) ;
#497 = AXIS2_PLACEMENT_3D ( 'NONE', #475, #120, #101 ) ;
#498 = LINE ( 'NONE', #702, #837 ) ;
#499 = EDGE_LOOP ( 'NONE', ( #721, #541, #742, #816 ) ) ;
#500 = CARTESIAN_POINT ( 'NONE',  ( -0.0002049999999999999956, 0.001590000000000000267, -0.0003800000000000000209 ) ) ;
#501 =( REPRESENTATION_RELATIONSHIP ('NONE','NONE', #447, #765 ) REPRESENTATION_RELATIONSHIP_WITH_TRANSFORMATION ( #141 )SHAPE_REPRESENTATION_RELATIONSHIP( ) );
#502 = DIRECTION ( 'NONE',  ( -0.000000000000000000, -0.000000000000000000, -1.000000000000000000 ) ) ;
#503 = CARTESIAN_POINT ( 'NONE',  ( -0.0002049999999999999956, 0.001590000000000000267, -0.0003800000000000000209 ) ) ;
#504 = EDGE_CURVE ( 'NONE', #722, #462, #81, .T. ) ;
#505 = CARTESIAN_POINT ( 'NONE',  ( 0.0002049999999999999956, 0.001590000000000000267, 0.0003800000000000000209 ) ) ;
#506 = CARTESIAN_POINT ( 'NONE',  ( 0.004801208208804516597, -0.003136209471793992808, 0.003878233249054119369 ) ) ;
#507 = AXIS2_PLACEMENT_3D ( 'NONE', #180, #607, #818 ) ;
#508 = VECTOR ( 'NONE', #210, 1.000000000000000000 ) ;
#509 = DIRECTION ( 'NONE',  ( 1.000000000000000000, 0.000000000000000000, 0.000000000000000000 ) ) ;
#510 = VECTOR ( 'NONE', #24, 1.000000000000000000 ) ;
#511 = DIRECTION ( 'NONE',  ( 1.000000000000000000, 0.000000000000000000, 0.000000000000000000 ) ) ;
#512 = EDGE_CURVE ( 'NONE', #873, #722, #868, .T. ) ;
#513 = CARTESIAN_POINT ( 'NONE',  ( -0.01651000000000000731, -3.469446951953614189E-18, 0.001270000000000000078 ) ) ;
#514 = SHAPE_REPRESENTATION ( '929974-01-13-RK_Top', ( #283 ), #122 ) ;
#515 = EDGE_LOOP ( 'NONE', ( #484, #88, #527, #734 ) ) ;
#516 = CONTEXT_DEPENDENT_SHAPE_REPRESENTATION ( #139, #248 ) ;
#517 = CARTESIAN_POINT ( 'NONE',  ( -0.005358791791195471887, -0.001546209471793989071, 0.003878233249054119369 ) ) ;
#518 = ORIENTED_EDGE ( 'NONE', *, *, #226, .T. ) ;
#519 = UNCERTAINTY_MEASURE_WITH_UNIT (LENGTH_MEASURE( 1.000000000000000082E-05 ), #681, 'distance_accuracy_value', 'NONE');
#520 = ORIENTED_EDGE ( 'NONE', *, *, #504, .T. ) ;
#521 = DIRECTION ( 'NONE',  ( 0.000000000000000000, 0.000000000000000000, 1.000000000000000000 ) ) ;
#522 = SHAPE_REPRESENTATION_RELATIONSHIP ( 'NONE' , 'NONE' ,  #765, #211 ) ;
#523 = SURFACE_STYLE_USAGE ( .BOTH. , #223 ) ;
#524 = ITEM_DEFINED_TRANSFORMATION ( 'NONE', 'NONE', #697,  #283 ) ;
#525 = AXIS2_PLACEMENT_3D ( 'NONE', #455, #811, #675 ) ;
#526 = VECTOR ( 'NONE', #554, 1.000000000000000000 ) ;
#527 = ORIENTED_EDGE ( 'NONE', *, *, #49, .F. ) ;
#528 = ITEM_DEFINED_TRANSFORMATION ( 'NONE', 'NONE', #358,  #283 ) ;
#529 = FILL_AREA_STYLE_COLOUR ( '', #113 ) ;
#530 = DIRECTION ( 'NONE',  ( 0.000000000000000000, 0.000000000000000000, 1.000000000000000000 ) ) ;
#531 = EDGE_CURVE ( 'NONE', #565, #305, #303, .T. ) ;
#532 = DIRECTION ( 'NONE',  ( 0.000000000000000000, 0.000000000000000000, 1.000000000000000000 ) ) ;
#533 =( REPRESENTATION_RELATIONSHIP ('NONE','NONE', #447, #765 ) REPRESENTATION_RELATIONSHIP_WITH_TRANSFORMATION ( #366 )SHAPE_REPRESENTATION_RELATIONSHIP( ) );
#534 = FILL_AREA_STYLE ('',( #529 ) ) ;
#535 = VERTEX_POINT ( 'NONE', #232 ) ;
#536 = PRODUCT_DEFINITION_SHAPE ( 'NONE', 'NONE',  #895 ) ;
#537 = DIRECTION ( 'NONE',  ( 1.000000000000000000, 0.000000000000000000, 0.000000000000000000 ) ) ;
#538 = CARTESIAN_POINT ( 'NONE',  ( 0.0002049999999999999956, -0.001589999999999999834, 0.0003800000000000000209 ) ) ;
#539 = CONTEXT_DEPENDENT_SHAPE_REPRESENTATION ( #757, #793 ) ;
#540 = DIRECTION ( 'NONE',  ( 0.000000000000000000, 0.000000000000000000, -1.000000000000000000 ) ) ;
#541 = ORIENTED_EDGE ( 'NONE', *, *, #361, .F. ) ;
#542 = ITEM_DEFINED_TRANSFORMATION ( 'NONE', 'NONE', #543,  #283 ) ;
#543 = AXIS2_PLACEMENT_3D ( 'NONE', #546, #755, #741 ) ;
#544 = CARTESIAN_POINT ( 'NONE',  ( -0.0002787917911954819819, -0.003136209471793992808, 0.003878233249054119369 ) ) ;
#545 = MECHANICAL_DESIGN_GEOMETRIC_PRESENTATION_REPRESENTATION (  '', ( #299 ), #450 ) ;
#546 = CARTESIAN_POINT ( 'NONE',  ( -0.01805879179119548178, -0.003136209471793992808, 0.003878233249054119369 ) ) ;
#547 = ADVANCED_FACE ( 'NONE', ( #601 ), #19, .F. ) ;
#548 = ITEM_DEFINED_TRANSFORMATION ( 'NONE', 'NONE', #762,  #283 ) ;
#549 = CONTEXT_DEPENDENT_SHAPE_REPRESENTATION ( #70, #631 ) ;
#550 = DIRECTION ( 'NONE',  ( 0.000000000000000000, 0.000000000000000000, 1.000000000000000000 ) ) ;
#551 =( NAMED_UNIT ( * ) SI_UNIT ( $, .STERADIAN. ) SOLID_ANGLE_UNIT ( ) );
#552 = PRODUCT_RELATED_PRODUCT_CATEGORY ( 'part', '', ( #100 ) ) ;
#553 = CARTESIAN_POINT ( 'NONE',  ( -0.007898791791195482886, -0.003136209471793992808, 0.003878233249054119369 ) ) ;
#554 = DIRECTION ( 'NONE',  ( 1.000000000000000000, 0.000000000000000000, 0.000000000000000000 ) ) ;
#555 = DIRECTION ( 'NONE',  ( 0.000000000000000000, 0.000000000000000000, -1.000000000000000000 ) ) ;
#556 = AXIS2_PLACEMENT_3D ( 'NONE', #419, #143, #279 ) ;
#557 = ITEM_DEFINED_TRANSFORMATION ( 'NONE', 'NONE', #804,  #283 ) ;
#558 = PRESENTATION_LAYER_ASSIGNMENT (  '', '', ( #661 ) ) ;
#559 = CARTESIAN_POINT ( 'NONE',  ( -0.005358791791195482296, -0.003136209471793992808, 0.003878233249054119369 ) ) ;
#560 = DIRECTION ( 'NONE',  ( 1.000000000000000000, 0.000000000000000000, 0.000000000000000000 ) ) ;
#561 = PRODUCT_DEFINITION_SHAPE ( 'NONE', 'NONE',  #921 ) ;
#562 = FILL_AREA_STYLE_COLOUR ( '', #864 ) ;
#563 = CONTEXT_DEPENDENT_SHAPE_REPRESENTATION ( #813, #409 ) ;
#564 = COLOUR_RGB ( '',0.1019607843137254888, 0.1019607843137254888, 0.1019607843137254888 ) ;
#565 = VERTEX_POINT ( 'NONE', #26 ) ;
#566 = DIRECTION ( 'NONE',  ( 1.000000000000000000, 0.000000000000000000, 0.000000000000000000 ) ) ;
#567 = PRODUCT_DEFINITION_SHAPE ( 'NONE', 'NONE',  #909 ) ;
#568 = CARTESIAN_POINT ( 'NONE',  ( -0.01650999999999999690, 0.008259999999999999981, 0.001270000000000000078 ) ) ;
#569 = DIRECTION ( 'NONE',  ( -1.260089691992837564E-15, -1.000000000000000000, 0.000000000000000000 ) ) ;
#570 = DIRECTION ( 'NONE',  ( 1.260089691992837367E-15, 1.000000000000000000, 0.000000000000000000 ) ) ;
#571 = ITEM_DEFINED_TRANSFORMATION ( 'NONE', 'NONE', #525,  #283 ) ;
#572 = AXIS2_PLACEMENT_3D ( 'NONE', #737, #14, #230 ) ;
#573 = FACE_OUTER_BOUND ( 'NONE', #499, .T. ) ;
#574 =( REPRESENTATION_RELATIONSHIP ('NONE','NONE', #447, #765 ) REPRESENTATION_RELATIONSHIP_WITH_TRANSFORMATION ( #542 )SHAPE_REPRESENTATION_RELATIONSHIP( ) );
#575 = AXIS2_PLACEMENT_3D ( 'NONE', #718, #235, #799 ) ;
#576 = CARTESIAN_POINT ( 'NONE',  ( 0.0002049999999999999956, -0.001589999999999999834, 0.0003800000000000000209 ) ) ;
#577 = MECHANICAL_DESIGN_GEOMETRIC_PRESENTATION_REPRESENTATION (  '', ( #650 ), #720 ) ;
#578 = CARTESIAN_POINT ( 'NONE',  ( 0.0002049999999999999956, -0.001589999999999999834, 0.0003800000000000000209 ) ) ;
#579 = DIRECTION ( 'NONE',  ( -0.000000000000000000, -1.000000000000000000, -0.000000000000000000 ) ) ;
#580 =( REPRESENTATION_RELATIONSHIP ('NONE','NONE', #447, #765 ) REPRESENTATION_RELATIONSHIP_WITH_TRANSFORMATION ( #197 )SHAPE_REPRESENTATION_RELATIONSHIP( ) );
#581 = DIRECTION ( 'NONE',  ( 1.000000000000000000, 0.000000000000000000, 0.000000000000000000 ) ) ;
#582 = AXIS2_PLACEMENT_3D ( 'NONE', #187, #756, #330 ) ;
#583 = DIRECTION ( 'NONE',  ( 1.000000000000000000, 0.000000000000000000, 0.000000000000000000 ) ) ;
#584 = DIRECTION ( 'NONE',  ( -0.000000000000000000, -0.000000000000000000, -1.000000000000000000 ) ) ;
#585 = CONTEXT_DEPENDENT_SHAPE_REPRESENTATION ( #417, #418 ) ;
#586 = DIRECTION ( 'NONE',  ( 1.000000000000000000, 0.000000000000000000, 0.000000000000000000 ) ) ;
#587 = EDGE_CURVE ( 'NONE', #296, #882, #294, .T. ) ;
#588 = STYLED_ITEM ( 'NONE', ( #432 ), #819 ) ;
#589 = CONTEXT_DEPENDENT_SHAPE_REPRESENTATION ( #119, #105 ) ;
#590 = MECHANICAL_DESIGN_GEOMETRIC_PRESENTATION_REPRESENTATION (  '', ( #43 ), #227 ) ;
#591 = CARTESIAN_POINT ( 'NONE',  ( -0.0002049999999999999956, 0.001590000000000000267, 0.0003800000000000000209 ) ) ;
#592 = VERTEX_POINT ( 'NONE', #452 ) ;
#593 = CARTESIAN_POINT ( 'NONE',  ( 0.002261208208804517741, -0.003136209471793992808, 0.003878233249054119369 ) ) ;
#594 = ADVANCED_BREP_SHAPE_REPRESENTATION ( '', ( #598, #283 ), #122 ) ;
#595 = EDGE_CURVE ( 'NONE', #462, #441, #380, .T. ) ;
#596 = PRESENTATION_STYLE_ASSIGNMENT (( #523 ) ) ;
#597 = ITEM_DEFINED_TRANSFORMATION ( 'NONE', 'NONE', #685,  #283 ) ;
#598 = MANIFOLD_SOLID_BREP ( 'Boss-Extrude1', #25 ) ;
#599 =( REPRESENTATION_RELATIONSHIP ('NONE','NONE', #447, #765 ) REPRESENTATION_RELATIONSHIP_WITH_TRANSFORMATION ( #385 )SHAPE_REPRESENTATION_RELATIONSHIP( ) );
#600 =( NAMED_UNIT ( * ) SI_UNIT ( $, .STERADIAN. ) SOLID_ANGLE_UNIT ( ) );
#601 = FACE_OUTER_BOUND ( 'NONE', #610, .T. ) ;
#602 = CONTEXT_DEPENDENT_SHAPE_REPRESENTATION ( #382, #254 ) ;
#603 = ORIENTED_EDGE ( 'NONE', *, *, #213, .T. ) ;
#604 = DIRECTION ( 'NONE',  ( 0.000000000000000000, 0.000000000000000000, 1.000000000000000000 ) ) ;
#605 =( NAMED_UNIT ( * ) SI_UNIT ( $, .STERADIAN. ) SOLID_ANGLE_UNIT ( ) );
#606 = PRODUCT_DEFINITION_FORMATION_WITH_SPECIFIED_SOURCE ( 'ANY', '', #100, .NOT_KNOWN. ) ;
#607 = DIRECTION ( 'NONE',  ( 0.000000000000000000, 0.000000000000000000, 1.000000000000000000 ) ) ;
#608 = VERTEX_POINT ( 'NONE', #538 ) ;
#609 = CARTESIAN_POINT ( 'NONE',  ( -0.005358791791195482296, -0.003136209471793992808, 0.003878233249054119369 ) ) ;
#610 = EDGE_LOOP ( 'NONE', ( #796, #174, #727, #251 ) ) ;
#611 = ADVANCED_FACE ( 'NONE', ( #620 ), #861, .T. ) ;
#612 = DIRECTION ( 'NONE',  ( 1.000000000000000000, 0.000000000000000000, 0.000000000000000000 ) ) ;
#613 = FACE_OUTER_BOUND ( 'NONE', #178, .T. ) ;
#614 = ORIENTED_EDGE ( 'NONE', *, *, #616, .F. ) ;
#615 = AXIS2_PLACEMENT_3D ( 'NONE', #764, #74, #586 ) ;
#616 = EDGE_CURVE ( 'NONE', #608, #535, #286, .T. ) ;
#617 = CARTESIAN_POINT ( 'NONE',  ( -0.005358791791195482296, -0.003136209471793992808, 0.003878233249054119369 ) ) ;
#618 = PRODUCT_RELATED_PRODUCT_CATEGORY ( 'part', '', ( #749 ) ) ;
#619 = PRODUCT_DEFINITION_SHAPE ( 'NONE', 'NONE',  #896 ) ;
#620 = FACE_OUTER_BOUND ( 'NONE', #515, .T. ) ;
#621 = FACE_OUTER_BOUND ( 'NONE', #678, .T. ) ;
#622 = ITEM_DEFINED_TRANSFORMATION ( 'NONE', 'NONE', #433,  #283 ) ;
#623 = DIRECTION ( 'NONE',  ( 1.000000000000000000, 0.000000000000000000, 0.000000000000000000 ) ) ;
#624 = SURFACE_SIDE_STYLE ('',( #335 ) ) ;
#625 = PRODUCT_DEFINITION_SHAPE ( 'NONE', 'NONE',  #920 ) ;
#626 =( REPRESENTATION_RELATIONSHIP ('NONE','NONE', #447, #765 ) REPRESENTATION_RELATIONSHIP_WITH_TRANSFORMATION ( #524 )SHAPE_REPRESENTATION_RELATIONSHIP( ) );
#627 = CARTESIAN_POINT ( 'NONE',  ( -0.005358791791195482296, -0.003136209471793992808, 0.003878233249054119369 ) ) ;
#628 = DIRECTION ( 'NONE',  ( 0.000000000000000000, -0.000000000000000000, 1.000000000000000000 ) ) ;
#629 = ITEM_DEFINED_TRANSFORMATION ( 'NONE', 'NONE', #823,  #283 ) ;
#630 =( REPRESENTATION_RELATIONSHIP ('NONE','NONE', #447, #765 ) REPRESENTATION_RELATIONSHIP_WITH_TRANSFORMATION ( #136 )SHAPE_REPRESENTATION_RELATIONSHIP( ) );
#631 = PRODUCT_DEFINITION_SHAPE ( 'NONE', 'NONE',  #906 ) ;
#632 =( GEOMETRIC_REPRESENTATION_CONTEXT ( 3 ) GLOBAL_UNCERTAINTY_ASSIGNED_CONTEXT ( ( #701 ) ) GLOBAL_UNIT_ASSIGNED_CONTEXT ( ( #18, #42, #867 ) ) REPRESENTATION_CONTEXT ( 'NONE', 'WORKASPACE' ) );
#633 = DIRECTION ( 'NONE',  ( 1.000000000000000000, 0.000000000000000000, 0.000000000000000000 ) ) ;
#634 = AXIS2_PLACEMENT_3D ( 'NONE', #477, #560, #540 ) ;
#635 = DIRECTION ( 'NONE',  ( 0.000000000000000000, 0.000000000000000000, 1.000000000000000000 ) ) ;
#636 = PRODUCT_DEFINITION_SHAPE ( 'NONE', 'NONE',  #923 ) ;
#637 = LINE ( 'NONE', #699, #61 ) ;
#638 = LINE ( 'NONE', #779, #179 ) ;
#639 = PRODUCT_DEFINITION_SHAPE ( 'NONE', 'NONE',  #907 ) ;
#640 = CARTESIAN_POINT ( 'NONE',  ( 0.01651000000000000731, -3.469446951953614189E-18, 0.001270000000000000078 ) ) ;
#641 = CARTESIAN_POINT ( 'NONE',  ( -0.01651000000000000731, -3.469446951953614189E-18, -0.001270000000000000078 ) ) ;
#642 =( REPRESENTATION_RELATIONSHIP ('NONE','NONE', #447, #765 ) REPRESENTATION_RELATIONSHIP_WITH_TRANSFORMATION ( #20 )SHAPE_REPRESENTATION_RELATIONSHIP( ) );
#643 = CARTESIAN_POINT ( 'NONE',  ( 0.01651000000000000037, 0.008259999999999996512, -0.001270000000000000078 ) ) ;
#644 = AXIS2_PLACEMENT_3D ( 'NONE', #449, #131, #786 ) ;
#645 = CARTESIAN_POINT ( 'NONE',  ( -0.0002049999999999999956, 0.001590000000000000267, 0.0003800000000000000209 ) ) ;
#646 = PRODUCT_DEFINITION ( 'UNKNOWN', '', #606, #291 ) ;
#647 = PRODUCT_DEFINITION_SHAPE ( 'NONE', 'NONE',  #378 ) ;
#648 = PRODUCT_DEFINITION_SHAPE ( 'NONE', 'NONE',  #929 ) ;
#649 = DIRECTION ( 'NONE',  ( 1.000000000000000000, 0.000000000000000000, 0.000000000000000000 ) ) ;
#650 = STYLED_ITEM ( 'NONE', ( #820 ), #665 ) ;
#651 = DIRECTION ( 'NONE',  ( 0.000000000000000000, 0.000000000000000000, 1.000000000000000000 ) ) ;
#652 = UNCERTAINTY_MEASURE_WITH_UNIT (LENGTH_MEASURE( 1.000000000000000082E-05 ), #72, 'distance_accuracy_value', 'NONE');
#653 = DIRECTION ( 'NONE',  ( 0.000000000000000000, 0.000000000000000000, 1.000000000000000000 ) ) ;
#654 = APPLICATION_CONTEXT ( 'automotive_design' ) ;
#655 =( REPRESENTATION_RELATIONSHIP ('NONE','NONE', #447, #765 ) REPRESENTATION_RELATIONSHIP_WITH_TRANSFORMATION ( #548 )SHAPE_REPRESENTATION_RELATIONSHIP( ) );
#656 = CARTESIAN_POINT ( 'NONE',  ( -0.02059879179119548237, -0.003136209471793992808, 0.003878233249054119369 ) ) ;
#657 = ORIENTED_EDGE ( 'NONE', *, *, #531, .F. ) ;
#658 = DIRECTION ( 'NONE',  ( 0.000000000000000000, 0.000000000000000000, 1.000000000000000000 ) ) ;
#659 =( REPRESENTATION_RELATIONSHIP ('NONE','NONE', #447, #765 ) REPRESENTATION_RELATIONSHIP_WITH_TRANSFORMATION ( #416 )SHAPE_REPRESENTATION_RELATIONSHIP( ) );
#660 = FACE_OUTER_BOUND ( 'NONE', #108, .T. ) ;
#661 = STYLED_ITEM ( 'NONE', ( #412 ), #117 ) ;
#662 = CARTESIAN_POINT ( 'NONE',  ( 0.01651000000000000037, 0.008259999999999996512, -0.001270000000000000078 ) ) ;
#663 = ITEM_DEFINED_TRANSFORMATION ( 'NONE', 'NONE', #778,  #283 ) ;
#664 = CONTEXT_DEPENDENT_SHAPE_REPRESENTATION ( #780, #392 ) ;
#665 = ADVANCED_FACE ( 'NONE', ( #127 ), #751, .F. ) ;
#666 = ITEM_DEFINED_TRANSFORMATION ( 'NONE', 'NONE', #686,  #283 ) ;
#667 = CARTESIAN_POINT ( 'NONE',  ( -0.01551879179119548292, -0.003136209471793992808, 0.003878233249054119369 ) ) ;
#668 = AXIS2_PLACEMENT_3D ( 'NONE', #222, #80, #445 ) ;
#669 = MECHANICAL_DESIGN_GEOMETRIC_PRESENTATION_REPRESENTATION (  '', ( #112 ), #107 ) ;
#670 = MECHANICAL_DESIGN_GEOMETRIC_PRESENTATION_REPRESENTATION (  '', ( #869 ), #866 ) ;
#671 = ORIENTED_EDGE ( 'NONE', *, *, #872, .T. ) ;
#672 = APPLICATION_PROTOCOL_DEFINITION ( 'draft international standard', 'automotive_design', 1998, #285 ) ;
#673 = PRODUCT_DEFINITION_SHAPE ( 'NONE', 'NONE',  #894 ) ;
#674 = VECTOR ( 'NONE', #773, 1.000000000000000000 ) ;
#675 = DIRECTION ( 'NONE',  ( 1.000000000000000000, 0.000000000000000000, 0.000000000000000000 ) ) ;
#676 = PRESENTATION_STYLE_ASSIGNMENT (( #836 ) ) ;
#677 = VERTEX_POINT ( 'NONE', #460 ) ;
#678 = EDGE_LOOP ( 'NONE', ( #815, #383, #376, #690 ) ) ;
#679 = EDGE_CURVE ( 'NONE', #85, #535, #115, .T. ) ;
#680 = DIRECTION ( 'NONE',  ( 1.000000000000000000, 0.000000000000000000, 0.000000000000000000 ) ) ;
#681 =( LENGTH_UNIT ( ) NAMED_UNIT ( * ) SI_UNIT ( $, .METRE. ) );
#682 = ITEM_DEFINED_TRANSFORMATION ( 'NONE', 'NONE', #134,  #283 ) ;
#683 = ADVANCED_FACE ( 'NONE', ( #613 ), #745, .F. ) ;
#684 = DIRECTION ( 'NONE',  ( 1.000000000000000000, 0.000000000000000000, 0.000000000000000000 ) ) ;
#685 = AXIS2_PLACEMENT_3D ( 'NONE', #656, #1, #245 ) ;
#686 = AXIS2_PLACEMENT_3D ( 'NONE', #297, #890, #714 ) ;
#687 = CARTESIAN_POINT ( 'NONE',  ( -0.01297879179119548233, -0.003136209471793992808, 0.003878233249054119369 ) ) ;
#688 = SURFACE_SIDE_STYLE ('',( #766 ) ) ;
#689 =( REPRESENTATION_RELATIONSHIP ('NONE','NONE', #447, #765 ) REPRESENTATION_RELATIONSHIP_WITH_TRANSFORMATION ( #629 )SHAPE_REPRESENTATION_RELATIONSHIP( ) );
#690 = ORIENTED_EDGE ( 'NONE', *, *, #361, .T. ) ;
#691 = DIRECTION ( 'NONE',  ( 1.000000000000000000, 0.000000000000000000, 0.000000000000000000 ) ) ;
#692 = FILL_AREA_STYLE ('',( #256 ) ) ;
#693 = PRODUCT_DEFINITION_SHAPE ( 'NONE', 'NONE',  #917 ) ;
#694 = DIRECTION ( 'NONE',  ( 1.000000000000000000, 0.000000000000000000, 0.000000000000000000 ) ) ;
#695 = PRODUCT_DEFINITION_SHAPE ( 'NONE', 'NONE',  #901 ) ;
#696 = AXIS2_PLACEMENT_3D ( 'NONE', #62, #219, #628 ) ;
#697 = AXIS2_PLACEMENT_3D ( 'NONE', #411, #359, #649 ) ;
#698 =( GEOMETRIC_REPRESENTATION_CONTEXT ( 3 ) GLOBAL_UNCERTAINTY_ASSIGNED_CONTEXT ( ( #733 ) ) GLOBAL_UNIT_ASSIGNED_CONTEXT ( ( #177, #747, #60 ) ) REPRESENTATION_CONTEXT ( 'NONE', 'WORKASPACE' ) );
#699 = CARTESIAN_POINT ( 'NONE',  ( -0.0002049999999999999956, -0.001589999999999999834, 0.0003800000000000000209 ) ) ;
#700 = ITEM_DEFINED_TRANSFORMATION ( 'NONE', 'NONE', #497,  #283 ) ;
#701 = UNCERTAINTY_MEASURE_WITH_UNIT (LENGTH_MEASURE( 1.000000000000000082E-05 ), #18, 'distance_accuracy_value', 'NONE');
#702 = CARTESIAN_POINT ( 'NONE',  ( -0.01650999999999999690, 0.008259999999999999981, -0.001270000000000000078 ) ) ;
#703 = PRESENTATION_STYLE_ASSIGNMENT (( #845 ) ) ;
#704 =( REPRESENTATION_RELATIONSHIP ('NONE','NONE', #447, #765 ) REPRESENTATION_RELATIONSHIP_WITH_TRANSFORMATION ( #887 )SHAPE_REPRESENTATION_RELATIONSHIP( ) );
#705 = CARTESIAN_POINT ( 'NONE',  ( -0.0002049999999999999956, -0.001589999999999999834, 0.0003800000000000000209 ) ) ;
#706 = LINE ( 'NONE', #785, #854 ) ;
#707 = CONTEXT_DEPENDENT_SHAPE_REPRESENTATION ( #64, #693 ) ;
#708 = DIRECTION ( 'NONE',  ( 0.000000000000000000, 0.000000000000000000, 1.000000000000000000 ) ) ;
#709 = AXIS2_PLACEMENT_3D ( 'NONE', #96, #724, #511 ) ;
#710 = AXIS2_PLACEMENT_3D ( 'NONE', #609, #191, #249 ) ;
#711 = CARTESIAN_POINT ( 'NONE',  ( 0.01651000000000000731, -3.469446951953614189E-18, 0.001270000000000000078 ) ) ;
#712 = DIRECTION ( 'NONE',  ( -1.260089691992837564E-15, -1.000000000000000000, 0.000000000000000000 ) ) ;
#713 = ITEM_DEFINED_TRANSFORMATION ( 'NONE', 'NONE', #90,  #283 ) ;
#714 = DIRECTION ( 'NONE',  ( 1.000000000000000000, 0.000000000000000000, 0.000000000000000000 ) ) ;
#715 =( REPRESENTATION_RELATIONSHIP ('NONE','NONE', #447, #765 ) REPRESENTATION_RELATIONSHIP_WITH_TRANSFORMATION ( #821 )SHAPE_REPRESENTATION_RELATIONSHIP( ) );
#716 = DIRECTION ( 'NONE',  ( 0.000000000000000000, 0.000000000000000000, 1.000000000000000000 ) ) ;
#717 = ADVANCED_FACE ( 'NONE', ( #761 ), #123, .F. ) ;
#718 = CARTESIAN_POINT ( 'NONE',  ( 0.01651000000000000037, 0.008259999999999996512, 0.001270000000000000078 ) ) ;
#719 = ITEM_DEFINED_TRANSFORMATION ( 'NONE', 'NONE', #615,  #283 ) ;
#720 =( GEOMETRIC_REPRESENTATION_CONTEXT ( 3 ) GLOBAL_UNCERTAINTY_ASSIGNED_CONTEXT ( ( #16 ) ) GLOBAL_UNIT_ASSIGNED_CONTEXT ( ( #814, #471, #551 ) ) REPRESENTATION_CONTEXT ( 'NONE', 'WORKASPACE' ) );
#721 = ORIENTED_EDGE ( 'NONE', *, *, #352, .T. ) ;
#722 = VERTEX_POINT ( 'NONE', #784 ) ;
#723 = DIRECTION ( 'NONE',  ( 0.000000000000000000, 0.000000000000000000, 1.000000000000000000 ) ) ;
#724 = DIRECTION ( 'NONE',  ( 0.000000000000000000, 0.000000000000000000, 1.000000000000000000 ) ) ;
#725 = SURFACE_STYLE_USAGE ( .BOTH. , #158 ) ;
#726 = ITEM_DEFINED_TRANSFORMATION ( 'NONE', 'NONE', #214,  #283 ) ;
#727 = ORIENTED_EDGE ( 'NONE', *, *, #228, .F. ) ;
#728 = CONTEXT_DEPENDENT_SHAPE_REPRESENTATION ( #704, #536 ) ;
#729 =( GEOMETRIC_REPRESENTATION_CONTEXT ( 3 ) GLOBAL_UNCERTAINTY_ASSIGNED_CONTEXT ( ( #52 ) ) GLOBAL_UNIT_ASSIGNED_CONTEXT ( ( #488, #309, #342 ) ) REPRESENTATION_CONTEXT ( 'NONE', 'WORKASPACE' ) );
#730 = CONTEXT_DEPENDENT_SHAPE_REPRESENTATION ( #715, #77 ) ;
#731 = AXIS2_PLACEMENT_3D ( 'NONE', #51, #555, #44 ) ;
#732 =( NAMED_UNIT ( * ) SI_UNIT ( $, .STERADIAN. ) SOLID_ANGLE_UNIT ( ) );
#733 = UNCERTAINTY_MEASURE_WITH_UNIT (LENGTH_MEASURE( 1.000000000000000082E-05 ), #177, 'distance_accuracy_value', 'NONE');
#734 = ORIENTED_EDGE ( 'NONE', *, *, #512, .F. ) ;
#735 = SHAPE_DEFINITION_REPRESENTATION ( #647, #765 ) ;
#736 =( REPRESENTATION_RELATIONSHIP ('NONE','NONE', #447, #765 ) REPRESENTATION_RELATIONSHIP_WITH_TRANSFORMATION ( #663 )SHAPE_REPRESENTATION_RELATIONSHIP( ) );
#737 = CARTESIAN_POINT ( 'NONE',  ( -0.005358791791195482296, -0.003136209471793992808, 0.003878233249054119369 ) ) ;
#738 = DIRECTION ( 'NONE',  ( 1.000000000000000000, 0.000000000000000000, 0.000000000000000000 ) ) ;
#739 = ORIENTED_EDGE ( 'NONE', *, *, #595, .T. ) ;
#740 =( REPRESENTATION_RELATIONSHIP ('NONE','NONE', #447, #765 ) REPRESENTATION_RELATIONSHIP_WITH_TRANSFORMATION ( #458 )SHAPE_REPRESENTATION_RELATIONSHIP( ) );
#741 = DIRECTION ( 'NONE',  ( 1.000000000000000000, 0.000000000000000000, 0.000000000000000000 ) ) ;
#742 = ORIENTED_EDGE ( 'NONE', *, *, #587, .F. ) ;
#743 = PRODUCT_CONTEXT ( 'NONE', #332, 'mechanical' ) ;
#744 = CARTESIAN_POINT ( 'NONE',  ( -0.002818791791195482573, -0.003136209471793992808, 0.003878233249054119369 ) ) ;
#745 = PLANE ( 'NONE',  #582 ) ;
#746 = EDGE_CURVE ( 'NONE', #296, #592, #855, .T. ) ;
#747 =( NAMED_UNIT ( * ) PLANE_ANGLE_UNIT ( ) SI_UNIT ( $, .RADIAN. ) );
#748 = EDGE_LOOP ( 'NONE', ( #671, #865, #657, #314 ) ) ;
#749 = PRODUCT ( '929974-01-13-RK_Top', '929974-01-13-RK_Top', '', ( #21 ) ) ;
#750 = DIRECTION ( 'NONE',  ( 0.000000000000000000, 0.000000000000000000, 1.000000000000000000 ) ) ;
#751 = PLANE ( 'NONE',  #190 ) ;
#752 = CONTEXT_DEPENDENT_SHAPE_REPRESENTATION ( #580, #329 ) ;
#753 = CARTESIAN_POINT ( 'NONE',  ( 0.01651000000000000037, 0.008259999999999996512, 0.001270000000000000078 ) ) ;
#754 = MECHANICAL_DESIGN_GEOMETRIC_PRESENTATION_REPRESENTATION (  '', ( #302 ), #195 ) ;
#755 = DIRECTION ( 'NONE',  ( 0.000000000000000000, 0.000000000000000000, 1.000000000000000000 ) ) ;
#756 = DIRECTION ( 'NONE',  ( 0.000000000000000000, 1.000000000000000000, 0.000000000000000000 ) ) ;
#757 =( REPRESENTATION_RELATIONSHIP ('NONE','NONE', #447, #765 ) REPRESENTATION_RELATIONSHIP_WITH_TRANSFORMATION ( #257 )SHAPE_REPRESENTATION_RELATIONSHIP( ) );
#758 = PRODUCT_DEFINITION_SHAPE ( 'NONE', 'NONE',  #892 ) ;
#759 =( REPRESENTATION_RELATIONSHIP ('NONE','NONE', #447, #765 ) REPRESENTATION_RELATIONSHIP_WITH_TRANSFORMATION ( #622 )SHAPE_REPRESENTATION_RELATIONSHIP( ) );
#760 = DIRECTION ( 'NONE',  ( 1.000000000000000000, 0.000000000000000000, 0.000000000000000000 ) ) ;
#761 = FACE_OUTER_BOUND ( 'NONE', #748, .T. ) ;
#762 = AXIS2_PLACEMENT_3D ( 'NONE', #794, #194, #154 ) ;
#763 = DIRECTION ( 'NONE',  ( 1.000000000000000000, 0.000000000000000000, 0.000000000000000000 ) ) ;
#764 = CARTESIAN_POINT ( 'NONE',  ( 0.004801208208804518332, -0.003136209471793992808, 0.003878233249054119369 ) ) ;
#765 = SHAPE_REPRESENTATION ( '929974-01-13-RK_Pin', ( #283 ), #632 ) ;
#766 = SURFACE_STYLE_FILL_AREA ( #534 ) ;
#767 = PLANE ( 'NONE',  #240 ) ;
#768 = DIRECTION ( 'NONE',  ( 1.000000000000000000, 0.000000000000000000, 0.000000000000000000 ) ) ;
#769 = PRODUCT_DEFINITION_SHAPE ( 'NONE', 'NONE',  #902 ) ;
#770 = DIRECTION ( 'NONE',  ( 0.000000000000000000, 1.000000000000000000, 0.000000000000000000 ) ) ;
#771 = ITEM_DEFINED_TRANSFORMATION ( 'NONE', 'NONE', #41,  #283 ) ;
#772 = SURFACE_SIDE_STYLE ('',( #212 ) ) ;
#773 = DIRECTION ( 'NONE',  ( -0.000000000000000000, -0.000000000000000000, -1.000000000000000000 ) ) ;
#774 = ITEM_DEFINED_TRANSFORMATION ( 'NONE', 'NONE', #308,  #283 ) ;
#775 = APPLICATION_CONTEXT ( 'automotive_design' ) ;
#776 = PRODUCT_DEFINITION_SHAPE ( 'NONE', 'NONE',  #904 ) ;
#777 = AXIS2_PLACEMENT_3D ( 'NONE', #34, #104, #459 ) ;
#778 = AXIS2_PLACEMENT_3D ( 'NONE', #859, #292, #566 ) ;
#779 = CARTESIAN_POINT ( 'NONE',  ( -0.01650999999999999690, 0.008259999999999999981, -0.001270000000000000078 ) ) ;
#780 =( REPRESENTATION_RELATIONSHIP ('NONE','NONE', #447, #514 ) REPRESENTATION_RELATIONSHIP_WITH_TRANSFORMATION ( #161 )SHAPE_REPRESENTATION_RELATIONSHIP( ) );
#781 =( NAMED_UNIT ( * ) SI_UNIT ( $, .STERADIAN. ) SOLID_ANGLE_UNIT ( ) );
#782 = FILL_AREA_STYLE ('',( #415 ) ) ;
#783 = DIRECTION ( 'NONE',  ( 0.000000000000000000, 0.000000000000000000, 1.000000000000000000 ) ) ;
#784 = CARTESIAN_POINT ( 'NONE',  ( 0.01651000000000000037, 0.008259999999999996512, 0.001270000000000000078 ) ) ;
#785 = CARTESIAN_POINT ( 'NONE',  ( -0.0002049999999999999956, -0.001589999999999999834, 0.0003800000000000000209 ) ) ;
#786 = DIRECTION ( 'NONE',  ( 1.000000000000000000, 0.000000000000000000, 0.000000000000000000 ) ) ;
#787 = VECTOR ( 'NONE', #502, 1.000000000000000000 ) ;
#788 = EDGE_CURVE ( 'NONE', #237, #677, #638, .T. ) ;
#789 = AXIS2_PLACEMENT_3D ( 'NONE', #559, #658, #581 ) ;
#790 = COLOUR_RGB ( '',0.6313725490196078205, 0.5882352941176470784, 0.5098039215686274161 ) ;
#791 = SURFACE_STYLE_FILL_AREA ( #243 ) ;
#792 = MECHANICAL_DESIGN_GEOMETRIC_PRESENTATION_REPRESENTATION (  '', ( #661 ), #698 ) ;
#793 = PRODUCT_DEFINITION_SHAPE ( 'NONE', 'NONE',  #932 ) ;
#794 = CARTESIAN_POINT ( 'NONE',  ( -0.0002787917911954828493, -0.003136209471793992808, 0.003878233249054119369 ) ) ;
#795 =( LENGTH_UNIT ( ) NAMED_UNIT ( * ) SI_UNIT ( $, .METRE. ) );
#796 = ORIENTED_EDGE ( 'NONE', *, *, #157, .T. ) ;
#797 = DIRECTION ( 'NONE',  ( 1.000000000000000000, 0.000000000000000000, 0.000000000000000000 ) ) ;
#798 =( REPRESENTATION_RELATIONSHIP ('NONE','NONE', #447, #765 ) REPRESENTATION_RELATIONSHIP_WITH_TRANSFORMATION ( #571 )SHAPE_REPRESENTATION_RELATIONSHIP( ) );
#799 = DIRECTION ( 'NONE',  ( -8.400597946618920709E-16, 1.000000000000000000, 0.000000000000000000 ) ) ;
#800 = ADVANCED_FACE ( 'NONE', ( #573 ), #349, .F. ) ;
#801 = EDGE_LOOP ( 'NONE', ( #17, #98, #396, #520 ) ) ;
#802 = AXIS2_PLACEMENT_3D ( 'NONE', #360, #651, #289 ) ;
#803 = LINE ( 'NONE', #711, #822 ) ;
#804 = AXIS2_PLACEMENT_3D ( 'NONE', #617, #750, #826 ) ;
#805 = PRODUCT_DEFINITION_FORMATION_WITH_SPECIFIED_SOURCE ( 'ANY', '', #259, .NOT_KNOWN. ) ;
#806 = CLOSED_SHELL ( 'NONE', ( #547, #800, #59, #683, #13, #6 ) ) ;
#807 = DIRECTION ( 'NONE',  ( 8.400597946618920709E-16, -1.000000000000000000, 0.000000000000000000 ) ) ;
#808 = CONTEXT_DEPENDENT_SHAPE_REPRESENTATION ( #599, #636 ) ;
#809 =( NAMED_UNIT ( * ) PLANE_ANGLE_UNIT ( ) SI_UNIT ( $, .RADIAN. ) );
#810 = ORIENTED_EDGE ( 'NONE', *, *, #679, .T. ) ;
#811 = DIRECTION ( 'NONE',  ( 0.000000000000000000, 0.000000000000000000, 1.000000000000000000 ) ) ;
#812 = PRODUCT_DEFINITION_SHAPE ( 'NONE', 'NONE',  #893 ) ;
#813 =( REPRESENTATION_RELATIONSHIP ('NONE','NONE', #447, #765 ) REPRESENTATION_RELATIONSHIP_WITH_TRANSFORMATION ( #265 )SHAPE_REPRESENTATION_RELATIONSHIP( ) );
#814 =( LENGTH_UNIT ( ) NAMED_UNIT ( * ) SI_UNIT ( $, .METRE. ) );
#815 = ORIENTED_EDGE ( 'NONE', *, *, #184, .T. ) ;
#816 = ORIENTED_EDGE ( 'NONE', *, *, #746, .T. ) ;
#817 =( LENGTH_UNIT ( ) NAMED_UNIT ( * ) SI_UNIT ( $, .METRE. ) );
#818 = DIRECTION ( 'NONE',  ( 1.000000000000000000, 0.000000000000000000, 0.000000000000000000 ) ) ;
#819 = ADVANCED_FACE ( 'NONE', ( #269 ), #71, .T. ) ;
#820 = PRESENTATION_STYLE_ASSIGNMENT (( #192 ) ) ;
#821 = ITEM_DEFINED_TRANSFORMATION ( 'NONE', 'NONE', #239,  #283 ) ;
#822 = VECTOR ( 'NONE', #860, 1.000000000000000000 ) ;
#823 = AXIS2_PLACEMENT_3D ( 'NONE', #486, #310, #86 ) ;
#824 = PLANE ( 'NONE',  #356 ) ;
#825 = CONTEXT_DEPENDENT_SHAPE_REPRESENTATION ( #426, #776 ) ;
#826 = DIRECTION ( 'NONE',  ( 1.000000000000000000, 0.000000000000000000, 0.000000000000000000 ) ) ;
#827 = SURFACE_STYLE_USAGE ( .BOTH. , #400 ) ;
#828 = ORIENTED_EDGE ( 'NONE', *, *, #394, .F. ) ;
#829 = CONTEXT_DEPENDENT_SHAPE_REPRESENTATION ( #659, #567 ) ;
#830 = DIRECTION ( 'NONE',  ( 1.000000000000000000, 0.000000000000000000, 0.000000000000000000 ) ) ;
#831 = SURFACE_STYLE_FILL_AREA ( #692 ) ;
#832 = ITEM_DEFINED_TRANSFORMATION ( 'NONE', 'NONE', #298,  #283 ) ;
#833 = SURFACE_STYLE_FILL_AREA ( #262 ) ;
#834 = EDGE_CURVE ( 'NONE', #237, #462, #498, .T. ) ;
#835 = DIRECTION ( 'NONE',  ( 1.000000000000000000, 0.000000000000000000, 0.000000000000000000 ) ) ;
#836 = SURFACE_STYLE_USAGE ( .BOTH. , #624 ) ;
#837 = VECTOR ( 'NONE', #353, 1.000000000000000000 ) ;
#838 = FILL_AREA_STYLE_COLOUR ( '', #92 ) ;
#839 = CONTEXT_DEPENDENT_SHAPE_REPRESENTATION ( #281, #695 ) ;
#840 = AXIS2_PLACEMENT_3D ( 'NONE', #438, #708, #339 ) ;
#841 = PRODUCT_DEFINITION_SHAPE ( 'NONE', 'NONE',  #916 ) ;
#842 = DIRECTION ( 'NONE',  ( 0.000000000000000000, 0.000000000000000000, 1.000000000000000000 ) ) ;
#843 =( LENGTH_UNIT ( ) NAMED_UNIT ( * ) SI_UNIT ( $, .METRE. ) );
#844 = AXIS2_PLACEMENT_3D ( 'NONE', #40, #196, #246 ) ;
#845 = SURFACE_STYLE_USAGE ( .BOTH. , #850 ) ;
#846 = ITEM_DEFINED_TRANSFORMATION ( 'NONE', 'NONE', #125,  #283 ) ;
#847 = DIRECTION ( 'NONE',  ( 1.000000000000000000, 0.000000000000000000, 0.000000000000000000 ) ) ;
#848 = DIRECTION ( 'NONE',  ( 1.000000000000000000, 0.000000000000000000, 0.000000000000000000 ) ) ;
#849 = SURFACE_STYLE_USAGE ( .BOTH. , #772 ) ;
#850 = SURFACE_SIDE_STYLE ('',( #856 ) ) ;
#851 = PRODUCT_DEFINITION_SHAPE ( 'NONE', 'NONE',  #925 ) ;
#852 = AXIS2_PLACEMENT_3D ( 'NONE', #267, #842, #862 ) ;
#853 = AXIS2_PLACEMENT_3D ( 'NONE', #593, #723, #768 ) ;
#854 = VECTOR ( 'NONE', #579, 1.000000000000000000 ) ;
#855 = LINE ( 'NONE', #505, #480 ) ;
#856 = SURFACE_STYLE_FILL_AREA ( #782 ) ;
#857 = ITEM_DEFINED_TRANSFORMATION ( 'NONE', 'NONE', #7,  #283 ) ;
#858 = UNCERTAINTY_MEASURE_WITH_UNIT (LENGTH_MEASURE( 1.000000000000000082E-05 ), #93, 'distance_accuracy_value', 'NONE');
#859 = CARTESIAN_POINT ( 'NONE',  ( -0.01043879179119548174, -0.003136209471793992808, 0.003878233249054119369 ) ) ;
#860 = DIRECTION ( 'NONE',  ( -0.000000000000000000, -0.000000000000000000, -1.000000000000000000 ) ) ;
#861 = PLANE ( 'NONE',  #844 ) ;
#862 = DIRECTION ( 'NONE',  ( 1.000000000000000000, 0.000000000000000000, 0.000000000000000000 ) ) ;
#863 =( REPRESENTATION_RELATIONSHIP ('NONE','NONE', #447, #765 ) REPRESENTATION_RELATIONSHIP_WITH_TRANSFORMATION ( #236 )SHAPE_REPRESENTATION_RELATIONSHIP( ) );
#864 = COLOUR_RGB ( '',0.1019607843137254888, 0.1019607843137254888, 0.1019607843137254888 ) ;
#865 = ORIENTED_EDGE ( 'NONE', *, *, #226, .F. ) ;
#866 =( GEOMETRIC_REPRESENTATION_CONTEXT ( 3 ) GLOBAL_UNCERTAINTY_ASSIGNED_CONTEXT ( ( #519 ) ) GLOBAL_UNIT_ASSIGNED_CONTEXT ( ( #681, #483, #312 ) ) REPRESENTATION_CONTEXT ( 'NONE', 'WORKASPACE' ) );
#867 =( NAMED_UNIT ( * ) SI_UNIT ( $, .STERADIAN. ) SOLID_ANGLE_UNIT ( ) );
#868 = LINE ( 'NONE', #102, #217 ) ;
#869 = STYLED_ITEM ( 'NONE', ( #264 ), #611 ) ;
#870 = ORIENTED_EDGE ( 'NONE', *, *, #425, .T. ) ;
#871 = CARTESIAN_POINT ( 'NONE',  ( 0.000000000000000000, 0.000000000000000000, 0.000000000000000000 ) ) ;
#872 = EDGE_CURVE ( 'NONE', #677, #441, #434, .T. ) ;
#873 = VERTEX_POINT ( 'NONE', #209 ) ;
#874 =( NAMED_UNIT ( * ) PLANE_ANGLE_UNIT ( ) SI_UNIT ( $, .RADIAN. ) );
#875 = EDGE_CURVE ( 'NONE', #878, #85, #149, .T. ) ;
#876 = DIRECTION ( 'NONE',  ( -1.000000000000000000, 0.000000000000000000, 0.000000000000000000 ) ) ;
#877 = CONTEXT_DEPENDENT_SHAPE_REPRESENTATION ( #467, #413 ) ;
#878 = VERTEX_POINT ( 'NONE', #705 ) ;
#879 =( NAMED_UNIT ( * ) SI_UNIT ( $, .STERADIAN. ) SOLID_ANGLE_UNIT ( ) );
#880 = AXIS2_PLACEMENT_3D ( 'NONE', #368, #10, #300 ) ;
#881 = PRODUCT_DEFINITION_SHAPE ( 'NONE', 'NONE',  #900 ) ;
#882 = VERTEX_POINT ( 'NONE', #645 ) ;
#883 = ORIENTED_EDGE ( 'NONE', *, *, #872, .F. ) ;
#884 = ITEM_DEFINED_TRANSFORMATION ( 'NONE', 'NONE', #709,  #283 ) ;
#885 = PRODUCT_DEFINITION_SHAPE ( 'NONE', 'NONE',  #189 ) ;
#886 = CARTESIAN_POINT ( 'NONE',  ( -0.002818791791195482139, -0.003136209471793992808, 0.003878233249054119369 ) ) ;
#887 = ITEM_DEFINED_TRANSFORMATION ( 'NONE', 'NONE', #802,  #283 ) ;
#888 = PRODUCT_DEFINITION_SHAPE ( 'NONE', 'NONE',  #937 ) ;
#889 = DIRECTION ( 'NONE',  ( 0.000000000000000000, 0.000000000000000000, 1.000000000000000000 ) ) ;
#890 = DIRECTION ( 'NONE',  ( 0.000000000000000000, 0.000000000000000000, 1.000000000000000000 ) ) ;
#891 = NEXT_ASSEMBLY_USAGE_OCCURRENCE ( 'NAUO1', ' ', ' ', #646, #189, $ ) ;
#892 = NEXT_ASSEMBLY_USAGE_OCCURRENCE ( 'NAUO2', ' ', ' ', #646, #378, $ ) ;
#893 = NEXT_ASSEMBLY_USAGE_OCCURRENCE ( 'NAUO3', ' ', ' ', #646, #378, $ ) ;
#894 = NEXT_ASSEMBLY_USAGE_OCCURRENCE ( 'NAUO4', ' ', ' ', #646, #378, $ ) ;
#895 = NEXT_ASSEMBLY_USAGE_OCCURRENCE ( 'NAUO5', ' ', ' ', #646, #378, $ ) ;
#896 = NEXT_ASSEMBLY_USAGE_OCCURRENCE ( 'NAUO6', ' ', ' ', #646, #378, $ ) ;
#897 = NEXT_ASSEMBLY_USAGE_OCCURRENCE ( 'NAUO7', ' ', ' ', #646, #378, $ ) ;
#898 = NEXT_ASSEMBLY_USAGE_OCCURRENCE ( 'NAUO8', ' ', ' ', #646, #378, $ ) ;
#899 = NEXT_ASSEMBLY_USAGE_OCCURRENCE ( 'NAUO9', ' ', ' ', #646, #378, $ ) ;
#900 = NEXT_ASSEMBLY_USAGE_OCCURRENCE ( 'NAUO10', ' ', ' ', #646, #378, $ ) ;
#901 = NEXT_ASSEMBLY_USAGE_OCCURRENCE ( 'NAUO11', ' ', ' ', #646, #378, $ ) ;
#902 = NEXT_ASSEMBLY_USAGE_OCCURRENCE ( 'NAUO12', ' ', ' ', #646, #378, $ ) ;
#903 = NEXT_ASSEMBLY_USAGE_OCCURRENCE ( 'NAUO13', ' ', ' ', #646, #378, $ ) ;
#904 = NEXT_ASSEMBLY_USAGE_OCCURRENCE ( 'NAUO14', ' ', ' ', #646, #378, $ ) ;
#905 = NEXT_ASSEMBLY_USAGE_OCCURRENCE ( 'NAUO15', ' ', ' ', #646, #378, $ ) ;
#906 = NEXT_ASSEMBLY_USAGE_OCCURRENCE ( 'NAUO16', ' ', ' ', #646, #378, $ ) ;
#907 = NEXT_ASSEMBLY_USAGE_OCCURRENCE ( 'NAUO17', ' ', ' ', #646, #378, $ ) ;
#908 = NEXT_ASSEMBLY_USAGE_OCCURRENCE ( 'NAUO18', ' ', ' ', #646, #378, $ ) ;
#909 = NEXT_ASSEMBLY_USAGE_OCCURRENCE ( 'NAUO19', ' ', ' ', #646, #378, $ ) ;
#910 = NEXT_ASSEMBLY_USAGE_OCCURRENCE ( 'NAUO20', ' ', ' ', #646, #378, $ ) ;
#911 = NEXT_ASSEMBLY_USAGE_OCCURRENCE ( 'NAUO21', ' ', ' ', #646, #378, $ ) ;
#912 = NEXT_ASSEMBLY_USAGE_OCCURRENCE ( 'NAUO22', ' ', ' ', #646, #378, $ ) ;
#913 = NEXT_ASSEMBLY_USAGE_OCCURRENCE ( 'NAUO23', ' ', ' ', #646, #378, $ ) ;
#914 = NEXT_ASSEMBLY_USAGE_OCCURRENCE ( 'NAUO24', ' ', ' ', #646, #378, $ ) ;
#915 = NEXT_ASSEMBLY_USAGE_OCCURRENCE ( 'NAUO25', ' ', ' ', #646, #378, $ ) ;
#916 = NEXT_ASSEMBLY_USAGE_OCCURRENCE ( 'NAUO26', ' ', ' ', #646, #378, $ ) ;
#917 = NEXT_ASSEMBLY_USAGE_OCCURRENCE ( 'NAUO27', ' ', ' ', #646, #378, $ ) ;
#918 = NEXT_ASSEMBLY_USAGE_OCCURRENCE ( 'NAUO28', ' ', ' ', #646, #378, $ ) ;
#919 = NEXT_ASSEMBLY_USAGE_OCCURRENCE ( 'NAUO29', ' ', ' ', #646, #378, $ ) ;
#920 = NEXT_ASSEMBLY_USAGE_OCCURRENCE ( 'NAUO30', ' ', ' ', #646, #378, $ ) ;
#921 = NEXT_ASSEMBLY_USAGE_OCCURRENCE ( 'NAUO31', ' ', ' ', #646, #378, $ ) ;
#922 = NEXT_ASSEMBLY_USAGE_OCCURRENCE ( 'NAUO32', ' ', ' ', #646, #378, $ ) ;
#923 = NEXT_ASSEMBLY_USAGE_OCCURRENCE ( 'NAUO33', ' ', ' ', #646, #378, $ ) ;
#924 = NEXT_ASSEMBLY_USAGE_OCCURRENCE ( 'NAUO34', ' ', ' ', #646, #378, $ ) ;
#925 = NEXT_ASSEMBLY_USAGE_OCCURRENCE ( 'NAUO35', ' ', ' ', #646, #378, $ ) ;
#926 = NEXT_ASSEMBLY_USAGE_OCCURRENCE ( 'NAUO36', ' ', ' ', #646, #378, $ ) ;
#927 = NEXT_ASSEMBLY_USAGE_OCCURRENCE ( 'NAUO37', ' ', ' ', #646, #378, $ ) ;
#928 = NEXT_ASSEMBLY_USAGE_OCCURRENCE ( 'NAUO38', ' ', ' ', #646, #378, $ ) ;
#929 = NEXT_ASSEMBLY_USAGE_OCCURRENCE ( 'NAUO39', ' ', ' ', #646, #378, $ ) ;
#930 = NEXT_ASSEMBLY_USAGE_OCCURRENCE ( 'NAUO40', ' ', ' ', #646, #378, $ ) ;
#931 = NEXT_ASSEMBLY_USAGE_OCCURRENCE ( 'NAUO41', ' ', ' ', #646, #378, $ ) ;
#932 = NEXT_ASSEMBLY_USAGE_OCCURRENCE ( 'NAUO42', ' ', ' ', #646, #378, $ ) ;
#933 = NEXT_ASSEMBLY_USAGE_OCCURRENCE ( 'NAUO43', ' ', ' ', #646, #378, $ ) ;
#934 = NEXT_ASSEMBLY_USAGE_OCCURRENCE ( 'NAUO44', ' ', ' ', #646, #378, $ ) ;
#935 = NEXT_ASSEMBLY_USAGE_OCCURRENCE ( 'NAUO45', ' ', ' ', #646, #378, $ ) ;
#936 = NEXT_ASSEMBLY_USAGE_OCCURRENCE ( 'NAUO46', ' ', ' ', #646, #378, $ ) ;
#937 = NEXT_ASSEMBLY_USAGE_OCCURRENCE ( 'NAUO47', ' ', ' ', #646, #378, $ ) ;
#938 = NEXT_ASSEMBLY_USAGE_OCCURRENCE ( 'NAUO48', ' ', ' ', #646, #378, $ ) ;
#939 = NEXT_ASSEMBLY_USAGE_OCCURRENCE ( 'NAUO49', ' ', ' ', #646, #378, $ ) ;
#940 = NEXT_ASSEMBLY_USAGE_OCCURRENCE ( 'NAUO50', ' ', ' ', #646, #378, $ ) ;
ENDSEC;
END-ISO-10303-21;
