(module DIOAD762W78L520D272 (layer F.Cu) (tedit 0)
  (descr "Diode, Axial; 7.62 mm pitch X 0.785 mm W 5.20 mm L X 2.72 mm dia. body")
  (fp_text user %R (at 0 0) (layer F.Fab)
    (effects (font (size 2 2) (thickness 0.2)))
  )
  (fp_text reference REF** (at 0 0) (layer F.SilkS)
    (effects (font (size 1.2 1.2) (thickness 0.12)))
  )
  (fp_circle (center -3.81 0) (end -3.81 0.43) (layer Dwgs.User) (width 0.025))
  (fp_circle (center 3.81 0) (end 3.81 0.43) (layer Dwgs.User) (width 0.025))
  (fp_line (start -2.6 1.36) (end -2.6 -1.36) (layer Dwgs.User) (width 0.025))
  (fp_line (start -2.6 -1.36) (end 2.6 -1.36) (layer Dwgs.User) (width 0.025))
  (fp_line (start 2.6 -1.36) (end 2.6 1.36) (layer Dwgs.User) (width 0.025))
  (fp_line (start 2.6 1.36) (end -2.6 1.36) (layer Dwgs.User) (width 0.025))
  (fp_line (start -3.81 0) (end -2.6 0) (layer F.Fab) (width 0.12))
  (fp_line (start 3.81 0) (end 2.6 0) (layer F.Fab) (width 0.12))
  (fp_line (start -2.6 1.36) (end -2.6 -1.36) (layer F.SilkS) (width 0.12))
  (fp_line (start -2.6 -1.36) (end 2.6 -1.36) (layer F.SilkS) (width 0.12))
  (fp_line (start 2.6 -1.36) (end 2.6 1.36) (layer F.SilkS) (width 0.12))
  (fp_line (start 2.6 1.36) (end -2.6 1.36) (layer F.SilkS) (width 0.12))
  (fp_line (start -2.84 -0.73) (end -2.84 0.73) (layer F.SilkS) (width 0.12))
  (fp_circle (center 0 0) (end 0 0.25) (layer F.CrtYd) (width 0.05))
  (fp_line (start 0.35 0) (end -0.35 0) (layer F.CrtYd) (width 0.05))
  (fp_line (start 0 -0.35) (end 0 0.35) (layer F.CrtYd) (width 0.05))
  (fp_line (start -2.6 -1.36) (end -2.6 0.453) (layer F.Fab) (width 0.12))
  (fp_line (start -2.6 0.453) (end -1.693 1.36) (layer F.Fab) (width 0.12))
  (fp_line (start -1.693 1.36) (end 2.6 1.36) (layer F.Fab) (width 0.12))
  (fp_line (start 2.6 1.36) (end 2.6 -1.36) (layer F.Fab) (width 0.12))
  (fp_line (start 2.6 -1.36) (end -2.6 -1.36) (layer F.Fab) (width 0.12))
  (fp_line (start -2.85 1.61) (end 2.85 1.61) (layer F.CrtYd) (width 0.05))
  (fp_line (start 2.85 1.61) (end 2.85 1.04) (layer F.CrtYd) (width 0.05))
  (fp_line (start 2.85 1.04) (end 4.85 1.04) (layer F.CrtYd) (width 0.05))
  (fp_line (start 4.85 1.04) (end 4.85 -1.04) (layer F.CrtYd) (width 0.05))
  (fp_line (start 4.85 -1.04) (end 2.85 -1.04) (layer F.CrtYd) (width 0.05))
  (fp_line (start 2.85 -1.04) (end 2.85 -1.61) (layer F.CrtYd) (width 0.05))
  (fp_line (start 2.85 -1.61) (end -2.85 -1.61) (layer F.CrtYd) (width 0.05))
  (fp_line (start -2.85 -1.61) (end -2.85 -1.04) (layer F.CrtYd) (width 0.05))
  (fp_line (start -2.85 -1.04) (end -4.85 -1.04) (layer F.CrtYd) (width 0.05))
  (fp_line (start -4.85 -1.04) (end -4.85 1.04) (layer F.CrtYd) (width 0.05))
  (fp_line (start -4.85 1.04) (end -2.85 1.04) (layer F.CrtYd) (width 0.05))
  (fp_line (start -2.85 1.04) (end -2.85 1.61) (layer F.CrtYd) (width 0.05))
  (pad C thru_hole rect (at -3.81 0) (size 1.58 1.58) (drill 1.05) (layers *.Cu *.Mask))
  (pad A thru_hole circle (at 3.81 0) (size 1.58 1.58) (drill 1.05) (layers *.Cu *.Mask))
)
