ISO-10303-21;
HEADER;
FILE_DESCRIPTION (( 'STEP AP214' ), '1' );
FILE_NAME ( 'CAPC100X50X55L25.STEP',
    '2019-03-22T08:13:01',
    ( '' ),
    ( '' ),
    'Part was generated with the free Library Expert Lite available at www.PCBLibraries.com. Removing line will violate the End User License Agreement.',
    '©2017 PCB Libraries, Inc.',
    '' );
FILE_SCHEMA (( 'AUTOMOTIVE_DESIGN' ));
ENDSEC;

DATA;
#1 = APPLICATION_CONTEXT ( 'automotive_design' ) ;
#2 = APPLICATION_PROTOCOL_DEFINITION ( 'draft international standard', '', 0, #1 ) ;
#3 = APPLICATION_CONTEXT ( 'automotive_design' ) ;
#4 = PRODUCT_CONTEXT ( 'NONE', #3, 'mechanical' ) ;
#5 = PRODUCT ( 'CAPC100X50X55L25', 'CAPC100X50X55L25', '', ( #4 ) ) ;
#6 = PRODUCT_RELATED_PRODUCT_CATEGORY ( 'part', '', ( #5 ) ) ;
#7 = APPLICATION_PROTOCOL_DEFINITION ( 'draft international standard', '', 0, #3 ) ;
#8 = COLOUR_RGB ( '',0.75294117647059, 0.75294117647059, 0.75294117647059 ) ;
#9 = FILL_AREA_STYLE_COLOUR ( '', #8 ) ;
#10 = FILL_AREA_STYLE ('',( #9 ) ) ;
#11 = SURFACE_STYLE_FILL_AREA ( #10 ) ;
#12 = SURFACE_SIDE_STYLE ( '',( #11 ) ) ;
#13 = SURFACE_STYLE_USAGE ( .BOTH. , #12 ) ;
#14 = PRESENTATION_STYLE_ASSIGNMENT (( #13 ) ) ;
#15 = CARTESIAN_POINT ( 'NONE',  ( -0.450000000000000, 0.500000000000000, 0.250000000000000 ) ) ;
#16 = VERTEX_POINT ( 'NONE', #15 ) ;
#17 = CARTESIAN_POINT ( 'NONE',  ( -0.500000000000000, 0.500000000000000, 0.200000000000000 ) ) ;
#18 = VERTEX_POINT ( 'NONE', #17 ) ;
#19 = CARTESIAN_POINT ( 'NONE',  ( -0.450000000000000, 0.500000000000000, 0.200000000000000 ) ) ;
#20 = DIRECTION ( 'NONE',  ( 0.000000000000000, -1.000000000000000, 0.000000000000000 ) ) ;
#21 = DIRECTION ( 'NONE',  ( 0.000000000000000, 0.000000000000000, 1.000000000000000 ) ) ;
#22 = AXIS2_PLACEMENT_3D ( 'NONE', #19, #20, #21 ) ;
#23 = CIRCLE ( 'NONE', #22, 0.05) ;
#24 = EDGE_CURVE ( 'NONE', #16, #18, #23, .T. ) ;
#25 = ORIENTED_EDGE ( 'NONE', *, *, #24, .T. ) ;
#26 = CARTESIAN_POINT ( 'NONE',  ( -0.500000000000000, 0.050000000000000, 0.200000000000000 ) ) ;
#27 = VERTEX_POINT ( 'NONE', #26 ) ;
#28 = CARTESIAN_POINT ( 'NONE',  ( -0.500000000000000, 0.550000000000000, 0.200000000000000 ) ) ;
#29 = DIRECTION ( 'NONE',  ( 0.000000000000000, 1.000000000000000, 0.000000000000000 ) ) ;
#30 = VECTOR ( 'NONE', #29, 1000.000000000000000 ) ;
#31 = LINE ( 'NONE', #28, #30 ) ;
#32 = EDGE_CURVE ( 'NONE', #27, #18, #31, .T. ) ;
#33 = ORIENTED_EDGE ( 'NONE', *, *, #32, .F. ) ;
#34 = CARTESIAN_POINT ( 'NONE',  ( -0.450000000000000, 0.050000000000000, 0.250000000000000 ) ) ;
#35 = VERTEX_POINT ( 'NONE', #34 ) ;
#36 = CARTESIAN_POINT ( 'NONE',  ( -0.450000000000000, 0.050000000000000, 0.200000000000000 ) ) ;
#37 = DIRECTION ( 'NONE',  ( 0.000000000000000, -1.000000000000000, 0.000000000000000 ) ) ;
#38 = DIRECTION ( 'NONE',  ( 0.000000000000000, 0.000000000000000, -1.000000000000000 ) ) ;
#39 = AXIS2_PLACEMENT_3D ( 'NONE', #36, #37, #38 ) ;
#40 = CIRCLE ( 'NONE', #39, 0.05) ;
#41 = EDGE_CURVE ( 'NONE', #35, #27, #40, .T. ) ;
#42 = ORIENTED_EDGE ( 'NONE', *, *, #41, .F. ) ;
#43 = CARTESIAN_POINT ( 'NONE',  ( -0.450000000000000, 0.000000000000000, 0.250000000000000 ) ) ;
#44 = DIRECTION ( 'NONE',  ( 0.000000000000000, -1.000000000000000, 0.000000000000000 ) ) ;
#45 = VECTOR ( 'NONE', #44, 1000.000000000000000 ) ;
#46 = LINE ( 'NONE', #43, #45 ) ;
#47 = EDGE_CURVE ( 'NONE', #16, #35, #46, .T. ) ;
#48 = ORIENTED_EDGE ( 'NONE', *, *, #47, .F. ) ;
#49 = EDGE_LOOP ( 'NONE', ( #25, #33, #42, #48 ) ) ;
#50 = FACE_OUTER_BOUND ( 'NONE', #49, .T. ) ;
#51 = CARTESIAN_POINT ( 'NONE',  ( -0.450000000000000, 0.000000000000000, 0.200000000000000 ) ) ;
#52 = DIRECTION ( 'NONE',  ( 0.000000000000000, -1.000000000000000, 0.000000000000000 ) ) ;
#53 = DIRECTION ( 'NONE',  ( 0.000000000000000, 0.000000000000000, -1.000000000000000 ) ) ;
#54 = AXIS2_PLACEMENT_3D ( 'NONE', #51, #52, #53 ) ;
#55 = CYLINDRICAL_SURFACE ( 'NONE', #54, 0.05) ;
#56 = ADVANCED_FACE ( 'NONE', ( #50 ), #55, .T. ) ;
#57 = CARTESIAN_POINT ( 'NONE',  ( -0.500000000000000, 0.500000000000000, -0.200000000000000 ) ) ;
#58 = VERTEX_POINT ( 'NONE', #57 ) ;
#59 = CARTESIAN_POINT ( 'NONE',  ( -0.450000000000000, 0.500000000000000, -0.250000000000000 ) ) ;
#60 = VERTEX_POINT ( 'NONE', #59 ) ;
#61 = CARTESIAN_POINT ( 'NONE',  ( -0.450000000000000, 0.500000000000000, -0.200000000000000 ) ) ;
#62 = DIRECTION ( 'NONE',  ( 0.000000000000000, -1.000000000000000, 0.000000000000000 ) ) ;
#63 = DIRECTION ( 'NONE',  ( 0.000000000000000, 0.000000000000000, 1.000000000000000 ) ) ;
#64 = AXIS2_PLACEMENT_3D ( 'NONE', #61, #62, #63 ) ;
#65 = CIRCLE ( 'NONE', #64, 0.05) ;
#66 = EDGE_CURVE ( 'NONE', #58, #60, #65, .T. ) ;
#67 = ORIENTED_EDGE ( 'NONE', *, *, #66, .T. ) ;
#68 = CARTESIAN_POINT ( 'NONE',  ( -0.450000000000000, 0.050000000000000, -0.250000000000000 ) ) ;
#69 = VERTEX_POINT ( 'NONE', #68 ) ;
#70 = CARTESIAN_POINT ( 'NONE',  ( -0.450000000000000, 0.550000000000000, -0.250000000000000 ) ) ;
#71 = DIRECTION ( 'NONE',  ( 0.000000000000000, 1.000000000000000, 0.000000000000000 ) ) ;
#72 = VECTOR ( 'NONE', #71, 1000.000000000000000 ) ;
#73 = LINE ( 'NONE', #70, #72 ) ;
#74 = EDGE_CURVE ( 'NONE', #69, #60, #73, .T. ) ;
#75 = ORIENTED_EDGE ( 'NONE', *, *, #74, .F. ) ;
#76 = CARTESIAN_POINT ( 'NONE',  ( -0.500000000000000, 0.050000000000000, -0.200000000000000 ) ) ;
#77 = VERTEX_POINT ( 'NONE', #76 ) ;
#78 = CARTESIAN_POINT ( 'NONE',  ( -0.450000000000000, 0.050000000000000, -0.200000000000000 ) ) ;
#79 = DIRECTION ( 'NONE',  ( 0.000000000000000, -1.000000000000000, 0.000000000000000 ) ) ;
#80 = DIRECTION ( 'NONE',  ( 0.000000000000000, 0.000000000000000, -1.000000000000000 ) ) ;
#81 = AXIS2_PLACEMENT_3D ( 'NONE', #78, #79, #80 ) ;
#82 = CIRCLE ( 'NONE', #81, 0.05) ;
#83 = EDGE_CURVE ( 'NONE', #77, #69, #82, .T. ) ;
#84 = ORIENTED_EDGE ( 'NONE', *, *, #83, .F. ) ;
#85 = CARTESIAN_POINT ( 'NONE',  ( -0.500000000000000, 0.000000000000000, -0.200000000000000 ) ) ;
#86 = DIRECTION ( 'NONE',  ( 0.000000000000000, -1.000000000000000, 0.000000000000000 ) ) ;
#87 = VECTOR ( 'NONE', #86, 1000.000000000000000 ) ;
#88 = LINE ( 'NONE', #85, #87 ) ;
#89 = EDGE_CURVE ( 'NONE', #58, #77, #88, .T. ) ;
#90 = ORIENTED_EDGE ( 'NONE', *, *, #89, .F. ) ;
#91 = EDGE_LOOP ( 'NONE', ( #67, #75, #84, #90 ) ) ;
#92 = FACE_OUTER_BOUND ( 'NONE', #91, .T. ) ;
#93 = CARTESIAN_POINT ( 'NONE',  ( -0.450000000000000, 0.000000000000000, -0.200000000000000 ) ) ;
#94 = DIRECTION ( 'NONE',  ( 0.000000000000000, 1.000000000000000, 0.000000000000000 ) ) ;
#95 = DIRECTION ( 'NONE',  ( 0.000000000000000, 0.000000000000000, 1.000000000000000 ) ) ;
#96 = AXIS2_PLACEMENT_3D ( 'NONE', #93, #94, #95 ) ;
#97 = CYLINDRICAL_SURFACE ( 'NONE', #96, 0.05) ;
#98 = ADVANCED_FACE ( 'NONE', ( #92 ), #97, .T. ) ;
#99 = CARTESIAN_POINT ( 'NONE',  ( -0.250000000000000, 0.550000000000000, 0.200000000000000 ) ) ;
#100 = VERTEX_POINT ( 'NONE', #99 ) ;
#101 = CARTESIAN_POINT ( 'NONE',  ( -0.250000000000000, 0.550000000000000, -0.200000000000000 ) ) ;
#102 = VERTEX_POINT ( 'NONE', #101 ) ;
#103 = CARTESIAN_POINT ( 'NONE',  ( -0.250000000000000, 0.550000000000000, 0.250000000000000 ) ) ;
#104 = DIRECTION ( 'NONE',  ( 0.000000000000000, 0.000000000000000, -1.000000000000000 ) ) ;
#105 = VECTOR ( 'NONE', #104, 1000.000000000000000 ) ;
#106 = LINE ( 'NONE', #103, #105 ) ;
#107 = EDGE_CURVE ( 'NONE', #100, #102, #106, .T. ) ;
#108 = ORIENTED_EDGE ( 'NONE', *, *, #107, .T. ) ;
#109 = CARTESIAN_POINT ( 'NONE',  ( -0.450000000000000, 0.550000000000000, -0.200000000000000 ) ) ;
#110 = VERTEX_POINT ( 'NONE', #109 ) ;
#111 = CARTESIAN_POINT ( 'NONE',  ( -0.500000000000000, 0.550000000000000, -0.200000000000000 ) ) ;
#112 = DIRECTION ( 'NONE',  ( -1.000000000000000, 0.000000000000000, 0.000000000000000 ) ) ;
#113 = VECTOR ( 'NONE', #112, 1000.000000000000000 ) ;
#114 = LINE ( 'NONE', #111, #113 ) ;
#115 = EDGE_CURVE ( 'NONE', #102, #110, #114, .T. ) ;
#116 = ORIENTED_EDGE ( 'NONE', *, *, #115, .T. ) ;
#117 = CARTESIAN_POINT ( 'NONE',  ( -0.450000000000000, 0.550000000000000, 0.200000000000000 ) ) ;
#118 = VERTEX_POINT ( 'NONE', #117 ) ;
#119 = CARTESIAN_POINT ( 'NONE',  ( -0.450000000000000, 0.550000000000000, 0.250000000000000 ) ) ;
#120 = DIRECTION ( 'NONE',  ( 0.000000000000000, 0.000000000000000, 1.000000000000000 ) ) ;
#121 = VECTOR ( 'NONE', #120, 1000.000000000000000 ) ;
#122 = LINE ( 'NONE', #119, #121 ) ;
#123 = EDGE_CURVE ( 'NONE', #110, #118, #122, .T. ) ;
#124 = ORIENTED_EDGE ( 'NONE', *, *, #123, .T. ) ;
#125 = CARTESIAN_POINT ( 'NONE',  ( -0.500000000000000, 0.550000000000000, 0.200000000000000 ) ) ;
#126 = DIRECTION ( 'NONE',  ( 1.000000000000000, 0.000000000000000, 0.000000000000000 ) ) ;
#127 = VECTOR ( 'NONE', #126, 1000.000000000000000 ) ;
#128 = LINE ( 'NONE', #125, #127 ) ;
#129 = EDGE_CURVE ( 'NONE', #118, #100, #128, .T. ) ;
#130 = ORIENTED_EDGE ( 'NONE', *, *, #129, .T. ) ;
#131 = EDGE_LOOP ( 'NONE', ( #108, #116, #124, #130 ) ) ;
#132 = FACE_OUTER_BOUND ( 'NONE', #131, .T. ) ;
#133 = CARTESIAN_POINT ( 'NONE',  ( -0.500000000000000, 0.550000000000000, 0.250000000000000 ) ) ;
#134 = DIRECTION ( 'NONE',  ( 0.000000000000000, -1.000000000000000, 0.000000000000000 ) ) ;
#135 = DIRECTION ( 'NONE',  ( 0.000000000000000, 0.000000000000000, -1.000000000000000 ) ) ;
#136 = AXIS2_PLACEMENT_3D ( 'NONE', #133, #134, #135 ) ;
#137 = PLANE ( 'NONE', #136 ) ;
#138 = ADVANCED_FACE ( 'NONE', ( #132 ), #137, .F. ) ;
#139 = CARTESIAN_POINT ( 'NONE',  ( -0.450000000000000, 0.000000000000000, -0.200000000000000 ) ) ;
#140 = VERTEX_POINT ( 'NONE', #139 ) ;
#141 = CARTESIAN_POINT ( 'NONE',  ( -0.450000000000000, 0.050000000000000, -0.200000000000000 ) ) ;
#142 = DIRECTION ( 'NONE',  ( 0.000000000000000, 0.000000000000000, -1.000000000000000 ) ) ;
#143 = DIRECTION ( 'NONE',  ( -1.000000000000000, 0.000000000000000, 0.000000000000000 ) ) ;
#144 = AXIS2_PLACEMENT_3D ( 'NONE', #141, #142, #143 ) ;
#145 = CIRCLE ( 'NONE', #144, 0.05) ;
#146 = EDGE_CURVE ( 'NONE', #140, #77, #145, .T. ) ;
#147 = ORIENTED_EDGE ( 'NONE', *, *, #146, .T. ) ;
#148 = ORIENTED_EDGE ( 'NONE', *, *, #83, .T. ) ;
#149 = CARTESIAN_POINT ( 'NONE',  ( -0.450000000000000, 0.050000000000000, -0.200000000000000 ) ) ;
#150 = DIRECTION ( 'NONE',  ( 1.000000000000000, 0.000000000000000, 0.000000000000000 ) ) ;
#151 = DIRECTION ( 'NONE',  ( 0.000000000000000, 0.000000000000000, 1.000000000000000 ) ) ;
#152 = AXIS2_PLACEMENT_3D ( 'NONE', #149, #150, #151 ) ;
#153 = CIRCLE ( 'NONE', #152, 0.05) ;
#154 = EDGE_CURVE ( 'NONE', #140, #69, #153, .T. ) ;
#155 = ORIENTED_EDGE ( 'NONE', *, *, #154, .F. ) ;
#156 = EDGE_LOOP ( 'NONE', ( #147, #148, #155 ) ) ;
#157 = FACE_OUTER_BOUND ( 'NONE', #156, .T. ) ;
#158 = CARTESIAN_POINT ( 'NONE',  ( -0.450000000000000, 0.050000000000000, -0.200000000000000 ) ) ;
#159 = DIRECTION ( 'NONE',  ( 0.000000000000000, 1.000000000000000, 0.000000000000000 ) ) ;
#160 = DIRECTION ( 'NONE',  ( 1.000000000000000, 0.000000000000000, 0.000000000000000 ) ) ;
#161 = AXIS2_PLACEMENT_3D ( 'NONE', #158, #159, #160 ) ;
#162 = SPHERICAL_SURFACE ( 'NONE', #161, 0.05) ;
#163 = ADVANCED_FACE ( 'NONE', ( #157 ), #162, .T. ) ;
#164 = CARTESIAN_POINT ( 'NONE',  ( -0.450000000000000, 0.500000000000000, 0.200000000000000 ) ) ;
#165 = DIRECTION ( 'NONE',  ( 0.000000000000000, 0.000000000000000, -1.000000000000000 ) ) ;
#166 = DIRECTION ( 'NONE',  ( 1.000000000000000, 0.000000000000000, 0.000000000000000 ) ) ;
#167 = AXIS2_PLACEMENT_3D ( 'NONE', #164, #165, #166 ) ;
#168 = CIRCLE ( 'NONE', #167, 0.05) ;
#169 = EDGE_CURVE ( 'NONE', #18, #118, #168, .T. ) ;
#170 = ORIENTED_EDGE ( 'NONE', *, *, #169, .T. ) ;
#171 = ORIENTED_EDGE ( 'NONE', *, *, #123, .F. ) ;
#172 = CARTESIAN_POINT ( 'NONE',  ( -0.450000000000000, 0.500000000000000, -0.200000000000000 ) ) ;
#173 = DIRECTION ( 'NONE',  ( 0.000000000000000, 0.000000000000000, -1.000000000000000 ) ) ;
#174 = DIRECTION ( 'NONE',  ( -1.000000000000000, 0.000000000000000, 0.000000000000000 ) ) ;
#175 = AXIS2_PLACEMENT_3D ( 'NONE', #172, #173, #174 ) ;
#176 = CIRCLE ( 'NONE', #175, 0.05) ;
#177 = EDGE_CURVE ( 'NONE', #58, #110, #176, .T. ) ;
#178 = ORIENTED_EDGE ( 'NONE', *, *, #177, .F. ) ;
#179 = CARTESIAN_POINT ( 'NONE',  ( -0.500000000000000, 0.500000000000000, -0.250000000000000 ) ) ;
#180 = DIRECTION ( 'NONE',  ( 0.000000000000000, 0.000000000000000, -1.000000000000000 ) ) ;
#181 = VECTOR ( 'NONE', #180, 1000.000000000000000 ) ;
#182 = LINE ( 'NONE', #179, #181 ) ;
#183 = EDGE_CURVE ( 'NONE', #18, #58, #182, .T. ) ;
#184 = ORIENTED_EDGE ( 'NONE', *, *, #183, .F. ) ;
#185 = EDGE_LOOP ( 'NONE', ( #170, #171, #178, #184 ) ) ;
#186 = FACE_OUTER_BOUND ( 'NONE', #185, .T. ) ;
#187 = CARTESIAN_POINT ( 'NONE',  ( -0.450000000000000, 0.500000000000000, 0.000000000000000 ) ) ;
#188 = DIRECTION ( 'NONE',  ( 0.000000000000000, 0.000000000000000, 1.000000000000000 ) ) ;
#189 = DIRECTION ( 'NONE',  ( 1.000000000000000, 0.000000000000000, 0.000000000000000 ) ) ;
#190 = AXIS2_PLACEMENT_3D ( 'NONE', #187, #188, #189 ) ;
#191 = CYLINDRICAL_SURFACE ( 'NONE', #190, 0.05) ;
#192 = ADVANCED_FACE ( 'NONE', ( #186 ), #191, .T. ) ;
#193 = CARTESIAN_POINT ( 'NONE',  ( -0.250000000000000, 0.500000000000000, -0.250000000000000 ) ) ;
#194 = VERTEX_POINT ( 'NONE', #193 ) ;
#195 = CARTESIAN_POINT ( 'NONE',  ( -0.250000000000000, 0.050000000000000, -0.250000000000000 ) ) ;
#196 = VERTEX_POINT ( 'NONE', #195 ) ;
#197 = CARTESIAN_POINT ( 'NONE',  ( -0.250000000000000, 0.000000000000000, -0.250000000000000 ) ) ;
#198 = DIRECTION ( 'NONE',  ( 0.000000000000000, -1.000000000000000, 0.000000000000000 ) ) ;
#199 = VECTOR ( 'NONE', #198, 1000.000000000000000 ) ;
#200 = LINE ( 'NONE', #197, #199 ) ;
#201 = EDGE_CURVE ( 'NONE', #194, #196, #200, .T. ) ;
#202 = ORIENTED_EDGE ( 'NONE', *, *, #201, .T. ) ;
#203 = CARTESIAN_POINT ( 'NONE',  ( -0.500000000000000, 0.050000000000000, -0.250000000000000 ) ) ;
#204 = DIRECTION ( 'NONE',  ( -1.000000000000000, 0.000000000000000, 0.000000000000000 ) ) ;
#205 = VECTOR ( 'NONE', #204, 1000.000000000000000 ) ;
#206 = LINE ( 'NONE', #203, #205 ) ;
#207 = EDGE_CURVE ( 'NONE', #196, #69, #206, .T. ) ;
#208 = ORIENTED_EDGE ( 'NONE', *, *, #207, .T. ) ;
#209 = ORIENTED_EDGE ( 'NONE', *, *, #74, .T. ) ;
#210 = CARTESIAN_POINT ( 'NONE',  ( -0.500000000000000, 0.500000000000000, -0.250000000000000 ) ) ;
#211 = DIRECTION ( 'NONE',  ( 1.000000000000000, 0.000000000000000, 0.000000000000000 ) ) ;
#212 = VECTOR ( 'NONE', #211, 1000.000000000000000 ) ;
#213 = LINE ( 'NONE', #210, #212 ) ;
#214 = EDGE_CURVE ( 'NONE', #60, #194, #213, .T. ) ;
#215 = ORIENTED_EDGE ( 'NONE', *, *, #214, .T. ) ;
#216 = EDGE_LOOP ( 'NONE', ( #202, #208, #209, #215 ) ) ;
#217 = FACE_OUTER_BOUND ( 'NONE', #216, .T. ) ;
#218 = CARTESIAN_POINT ( 'NONE',  ( -0.500000000000000, 0.000000000000000, -0.250000000000000 ) ) ;
#219 = DIRECTION ( 'NONE',  ( 0.000000000000000, 0.000000000000000, 1.000000000000000 ) ) ;
#220 = DIRECTION ( 'NONE',  ( 1.000000000000000, 0.000000000000000, 0.000000000000000 ) ) ;
#221 = AXIS2_PLACEMENT_3D ( 'NONE', #218, #219, #220 ) ;
#222 = PLANE ( 'NONE', #221 ) ;
#223 = ADVANCED_FACE ( 'NONE', ( #217 ), #222, .F. ) ;
#224 = ORIENTED_EDGE ( 'NONE', *, *, #177, .T. ) ;
#225 = CARTESIAN_POINT ( 'NONE',  ( -0.450000000000000, 0.500000000000000, -0.200000000000000 ) ) ;
#226 = DIRECTION ( 'NONE',  ( -1.000000000000000, 0.000000000000000, 0.000000000000000 ) ) ;
#227 = DIRECTION ( 'NONE',  ( 0.000000000000000, 0.000000000000000, 1.000000000000000 ) ) ;
#228 = AXIS2_PLACEMENT_3D ( 'NONE', #225, #226, #227 ) ;
#229 = CIRCLE ( 'NONE', #228, 0.05) ;
#230 = EDGE_CURVE ( 'NONE', #110, #60, #229, .T. ) ;
#231 = ORIENTED_EDGE ( 'NONE', *, *, #230, .T. ) ;
#232 = ORIENTED_EDGE ( 'NONE', *, *, #66, .F. ) ;
#233 = EDGE_LOOP ( 'NONE', ( #224, #231, #232 ) ) ;
#234 = FACE_OUTER_BOUND ( 'NONE', #233, .T. ) ;
#235 = CARTESIAN_POINT ( 'NONE',  ( -0.450000000000000, 0.500000000000000, -0.200000000000000 ) ) ;
#236 = DIRECTION ( 'NONE',  ( 0.000000000000000, 1.000000000000000, 0.000000000000000 ) ) ;
#237 = DIRECTION ( 'NONE',  ( 1.000000000000000, 0.000000000000000, 0.000000000000000 ) ) ;
#238 = AXIS2_PLACEMENT_3D ( 'NONE', #235, #236, #237 ) ;
#239 = SPHERICAL_SURFACE ( 'NONE', #238, 0.05) ;
#240 = ADVANCED_FACE ( 'NONE', ( #234 ), #239, .T. ) ;
#241 = ORIENTED_EDGE ( 'NONE', *, *, #183, .T. ) ;
#242 = ORIENTED_EDGE ( 'NONE', *, *, #89, .T. ) ;
#243 = CARTESIAN_POINT ( 'NONE',  ( -0.500000000000000, 0.050000000000000, 0.250000000000000 ) ) ;
#244 = DIRECTION ( 'NONE',  ( 0.000000000000000, 0.000000000000000, 1.000000000000000 ) ) ;
#245 = VECTOR ( 'NONE', #244, 1000.000000000000000 ) ;
#246 = LINE ( 'NONE', #243, #245 ) ;
#247 = EDGE_CURVE ( 'NONE', #77, #27, #246, .T. ) ;
#248 = ORIENTED_EDGE ( 'NONE', *, *, #247, .T. ) ;
#249 = ORIENTED_EDGE ( 'NONE', *, *, #32, .T. ) ;
#250 = EDGE_LOOP ( 'NONE', ( #241, #242, #248, #249 ) ) ;
#251 = FACE_OUTER_BOUND ( 'NONE', #250, .T. ) ;
#252 = CARTESIAN_POINT ( 'NONE',  ( -0.500000000000000, 0.000000000000000, 0.000000000000000 ) ) ;
#253 = DIRECTION ( 'NONE',  ( -1.000000000000000, 0.000000000000000, 0.000000000000000 ) ) ;
#254 = DIRECTION ( 'NONE',  ( 0.000000000000000, 0.000000000000000, 1.000000000000000 ) ) ;
#255 = AXIS2_PLACEMENT_3D ( 'NONE', #252, #253, #254 ) ;
#256 = PLANE ( 'NONE', #255 ) ;
#257 = ADVANCED_FACE ( 'NONE', ( #251 ), #256, .T. ) ;
#258 = CARTESIAN_POINT ( 'NONE',  ( -0.450000000000000, 0.000000000000000, 0.200000000000000 ) ) ;
#259 = VERTEX_POINT ( 'NONE', #258 ) ;
#260 = CARTESIAN_POINT ( 'NONE',  ( -0.450000000000000, 0.050000000000000, 0.200000000000000 ) ) ;
#261 = DIRECTION ( 'NONE',  ( -1.000000000000000, 0.000000000000000, 0.000000000000000 ) ) ;
#262 = DIRECTION ( 'NONE',  ( 0.000000000000000, 0.000000000000000, 1.000000000000000 ) ) ;
#263 = AXIS2_PLACEMENT_3D ( 'NONE', #260, #261, #262 ) ;
#264 = CIRCLE ( 'NONE', #263, 0.05) ;
#265 = EDGE_CURVE ( 'NONE', #259, #35, #264, .T. ) ;
#266 = ORIENTED_EDGE ( 'NONE', *, *, #265, .T. ) ;
#267 = ORIENTED_EDGE ( 'NONE', *, *, #41, .T. ) ;
#268 = CARTESIAN_POINT ( 'NONE',  ( -0.450000000000000, 0.050000000000000, 0.200000000000000 ) ) ;
#269 = DIRECTION ( 'NONE',  ( 0.000000000000000, 0.000000000000000, -1.000000000000000 ) ) ;
#270 = DIRECTION ( 'NONE',  ( 1.000000000000000, 0.000000000000000, 0.000000000000000 ) ) ;
#271 = AXIS2_PLACEMENT_3D ( 'NONE', #268, #269, #270 ) ;
#272 = CIRCLE ( 'NONE', #271, 0.05) ;
#273 = EDGE_CURVE ( 'NONE', #259, #27, #272, .T. ) ;
#274 = ORIENTED_EDGE ( 'NONE', *, *, #273, .F. ) ;
#275 = EDGE_LOOP ( 'NONE', ( #266, #267, #274 ) ) ;
#276 = FACE_OUTER_BOUND ( 'NONE', #275, .T. ) ;
#277 = CARTESIAN_POINT ( 'NONE',  ( -0.450000000000000, 0.050000000000000, 0.200000000000000 ) ) ;
#278 = DIRECTION ( 'NONE',  ( 0.000000000000000, 1.000000000000000, 0.000000000000000 ) ) ;
#279 = DIRECTION ( 'NONE',  ( 1.000000000000000, 0.000000000000000, 0.000000000000000 ) ) ;
#280 = AXIS2_PLACEMENT_3D ( 'NONE', #277, #278, #279 ) ;
#281 = SPHERICAL_SURFACE ( 'NONE', #280, 0.05) ;
#282 = ADVANCED_FACE ( 'NONE', ( #276 ), #281, .T. ) ;
#283 = CARTESIAN_POINT ( 'NONE',  ( -0.450000000000000, 0.500000000000000, 0.200000000000000 ) ) ;
#284 = DIRECTION ( 'NONE',  ( -1.000000000000000, 0.000000000000000, 0.000000000000000 ) ) ;
#285 = DIRECTION ( 'NONE',  ( 0.000000000000000, 0.000000000000000, 1.000000000000000 ) ) ;
#286 = AXIS2_PLACEMENT_3D ( 'NONE', #283, #284, #285 ) ;
#287 = CIRCLE ( 'NONE', #286, 0.05) ;
#288 = EDGE_CURVE ( 'NONE', #16, #118, #287, .T. ) ;
#289 = ORIENTED_EDGE ( 'NONE', *, *, #288, .F. ) ;
#290 = CARTESIAN_POINT ( 'NONE',  ( -0.250000000000000, 0.500000000000000, 0.250000000000000 ) ) ;
#291 = VERTEX_POINT ( 'NONE', #290 ) ;
#292 = CARTESIAN_POINT ( 'NONE',  ( -0.500000000000000, 0.500000000000000, 0.250000000000000 ) ) ;
#293 = DIRECTION ( 'NONE',  ( -1.000000000000000, 0.000000000000000, 0.000000000000000 ) ) ;
#294 = VECTOR ( 'NONE', #293, 1000.000000000000000 ) ;
#295 = LINE ( 'NONE', #292, #294 ) ;
#296 = EDGE_CURVE ( 'NONE', #291, #16, #295, .T. ) ;
#297 = ORIENTED_EDGE ( 'NONE', *, *, #296, .F. ) ;
#298 = CARTESIAN_POINT ( 'NONE',  ( -0.250000000000000, 0.500000000000000, 0.200000000000000 ) ) ;
#299 = DIRECTION ( 'NONE',  ( 1.000000000000000, 0.000000000000000, 0.000000000000000 ) ) ;
#300 = DIRECTION ( 'NONE',  ( 0.000000000000000, 0.000000000000000, 1.000000000000000 ) ) ;
#301 = AXIS2_PLACEMENT_3D ( 'NONE', #298, #299, #300 ) ;
#302 = CIRCLE ( 'NONE', #301, 0.05) ;
#303 = EDGE_CURVE ( 'NONE', #100, #291, #302, .T. ) ;
#304 = ORIENTED_EDGE ( 'NONE', *, *, #303, .F. ) ;
#305 = ORIENTED_EDGE ( 'NONE', *, *, #129, .F. ) ;
#306 = EDGE_LOOP ( 'NONE', ( #289, #297, #304, #305 ) ) ;
#307 = FACE_OUTER_BOUND ( 'NONE', #306, .T. ) ;
#308 = CARTESIAN_POINT ( 'NONE',  ( -0.500000000000000, 0.500000000000000, 0.200000000000000 ) ) ;
#309 = DIRECTION ( 'NONE',  ( 1.000000000000000, 0.000000000000000, 0.000000000000000 ) ) ;
#310 = DIRECTION ( 'NONE',  ( 0.000000000000000, 0.000000000000000, -1.000000000000000 ) ) ;
#311 = AXIS2_PLACEMENT_3D ( 'NONE', #308, #309, #310 ) ;
#312 = CYLINDRICAL_SURFACE ( 'NONE', #311, 0.05) ;
#313 = ADVANCED_FACE ( 'NONE', ( #307 ), #312, .T. ) ;
#314 = ORIENTED_EDGE ( 'NONE', *, *, #24, .F. ) ;
#315 = ORIENTED_EDGE ( 'NONE', *, *, #288, .T. ) ;
#316 = ORIENTED_EDGE ( 'NONE', *, *, #169, .F. ) ;
#317 = EDGE_LOOP ( 'NONE', ( #314, #315, #316 ) ) ;
#318 = FACE_OUTER_BOUND ( 'NONE', #317, .T. ) ;
#319 = CARTESIAN_POINT ( 'NONE',  ( -0.450000000000000, 0.500000000000000, 0.200000000000000 ) ) ;
#320 = DIRECTION ( 'NONE',  ( 0.000000000000000, 1.000000000000000, 0.000000000000000 ) ) ;
#321 = DIRECTION ( 'NONE',  ( 1.000000000000000, 0.000000000000000, 0.000000000000000 ) ) ;
#322 = AXIS2_PLACEMENT_3D ( 'NONE', #319, #320, #321 ) ;
#323 = SPHERICAL_SURFACE ( 'NONE', #322, 0.05) ;
#324 = ADVANCED_FACE ( 'NONE', ( #318 ), #323, .T. ) ;
#325 = ORIENTED_EDGE ( 'NONE', *, *, #273, .T. ) ;
#326 = ORIENTED_EDGE ( 'NONE', *, *, #247, .F. ) ;
#327 = ORIENTED_EDGE ( 'NONE', *, *, #146, .F. ) ;
#328 = CARTESIAN_POINT ( 'NONE',  ( -0.450000000000000, 0.000000000000000, -0.250000000000000 ) ) ;
#329 = DIRECTION ( 'NONE',  ( 0.000000000000000, 0.000000000000000, -1.000000000000000 ) ) ;
#330 = VECTOR ( 'NONE', #329, 1000.000000000000000 ) ;
#331 = LINE ( 'NONE', #328, #330 ) ;
#332 = EDGE_CURVE ( 'NONE', #259, #140, #331, .T. ) ;
#333 = ORIENTED_EDGE ( 'NONE', *, *, #332, .F. ) ;
#334 = EDGE_LOOP ( 'NONE', ( #325, #326, #327, #333 ) ) ;
#335 = FACE_OUTER_BOUND ( 'NONE', #334, .T. ) ;
#336 = CARTESIAN_POINT ( 'NONE',  ( -0.450000000000000, 0.050000000000000, 0.000000000000000 ) ) ;
#337 = DIRECTION ( 'NONE',  ( 0.000000000000000, 0.000000000000000, -1.000000000000000 ) ) ;
#338 = DIRECTION ( 'NONE',  ( -1.000000000000000, 0.000000000000000, 0.000000000000000 ) ) ;
#339 = AXIS2_PLACEMENT_3D ( 'NONE', #336, #337, #338 ) ;
#340 = CYLINDRICAL_SURFACE ( 'NONE', #339, 0.05) ;
#341 = ADVANCED_FACE ( 'NONE', ( #335 ), #340, .T. ) ;
#342 = CARTESIAN_POINT ( 'NONE',  ( -0.250000000000000, 0.500000000000000, -0.200000000000000 ) ) ;
#343 = DIRECTION ( 'NONE',  ( 1.000000000000000, 0.000000000000000, 0.000000000000000 ) ) ;
#344 = DIRECTION ( 'NONE',  ( 0.000000000000000, 0.000000000000000, 1.000000000000000 ) ) ;
#345 = AXIS2_PLACEMENT_3D ( 'NONE', #342, #343, #344 ) ;
#346 = CIRCLE ( 'NONE', #345, 0.05) ;
#347 = EDGE_CURVE ( 'NONE', #194, #102, #346, .T. ) ;
#348 = ORIENTED_EDGE ( 'NONE', *, *, #347, .F. ) ;
#349 = ORIENTED_EDGE ( 'NONE', *, *, #214, .F. ) ;
#350 = ORIENTED_EDGE ( 'NONE', *, *, #230, .F. ) ;
#351 = ORIENTED_EDGE ( 'NONE', *, *, #115, .F. ) ;
#352 = EDGE_LOOP ( 'NONE', ( #348, #349, #350, #351 ) ) ;
#353 = FACE_OUTER_BOUND ( 'NONE', #352, .T. ) ;
#354 = CARTESIAN_POINT ( 'NONE',  ( -0.500000000000000, 0.500000000000000, -0.200000000000000 ) ) ;
#355 = DIRECTION ( 'NONE',  ( 1.000000000000000, 0.000000000000000, 0.000000000000000 ) ) ;
#356 = DIRECTION ( 'NONE',  ( 0.000000000000000, 0.000000000000000, -1.000000000000000 ) ) ;
#357 = AXIS2_PLACEMENT_3D ( 'NONE', #354, #355, #356 ) ;
#358 = CYLINDRICAL_SURFACE ( 'NONE', #357, 0.05) ;
#359 = ADVANCED_FACE ( 'NONE', ( #353 ), #358, .T. ) ;
#360 = ORIENTED_EDGE ( 'NONE', *, *, #332, .T. ) ;
#361 = CARTESIAN_POINT ( 'NONE',  ( -0.250000000000000, 0.000000000000000, -0.200000000000000 ) ) ;
#362 = VERTEX_POINT ( 'NONE', #361 ) ;
#363 = CARTESIAN_POINT ( 'NONE',  ( -0.500000000000000, 0.000000000000000, -0.200000000000000 ) ) ;
#364 = DIRECTION ( 'NONE',  ( 1.000000000000000, 0.000000000000000, 0.000000000000000 ) ) ;
#365 = VECTOR ( 'NONE', #364, 1000.000000000000000 ) ;
#366 = LINE ( 'NONE', #363, #365 ) ;
#367 = EDGE_CURVE ( 'NONE', #140, #362, #366, .T. ) ;
#368 = ORIENTED_EDGE ( 'NONE', *, *, #367, .T. ) ;
#369 = CARTESIAN_POINT ( 'NONE',  ( -0.250000000000000, 0.000000000000000, 0.200000000000000 ) ) ;
#370 = VERTEX_POINT ( 'NONE', #369 ) ;
#371 = CARTESIAN_POINT ( 'NONE',  ( -0.250000000000000, 0.000000000000000, 0.250000000000000 ) ) ;
#372 = DIRECTION ( 'NONE',  ( 0.000000000000000, 0.000000000000000, 1.000000000000000 ) ) ;
#373 = VECTOR ( 'NONE', #372, 1000.000000000000000 ) ;
#374 = LINE ( 'NONE', #371, #373 ) ;
#375 = EDGE_CURVE ( 'NONE', #362, #370, #374, .T. ) ;
#376 = ORIENTED_EDGE ( 'NONE', *, *, #375, .T. ) ;
#377 = CARTESIAN_POINT ( 'NONE',  ( -0.500000000000000, 0.000000000000000, 0.200000000000000 ) ) ;
#378 = DIRECTION ( 'NONE',  ( -1.000000000000000, 0.000000000000000, 0.000000000000000 ) ) ;
#379 = VECTOR ( 'NONE', #378, 1000.000000000000000 ) ;
#380 = LINE ( 'NONE', #377, #379 ) ;
#381 = EDGE_CURVE ( 'NONE', #370, #259, #380, .T. ) ;
#382 = ORIENTED_EDGE ( 'NONE', *, *, #381, .T. ) ;
#383 = EDGE_LOOP ( 'NONE', ( #360, #368, #376, #382 ) ) ;
#384 = FACE_OUTER_BOUND ( 'NONE', #383, .T. ) ;
#385 = CARTESIAN_POINT ( 'NONE',  ( -0.500000000000000, 0.000000000000000, 0.250000000000000 ) ) ;
#386 = DIRECTION ( 'NONE',  ( 0.000000000000000, 1.000000000000000, 0.000000000000000 ) ) ;
#387 = DIRECTION ( 'NONE',  ( 0.000000000000000, 0.000000000000000, 1.000000000000000 ) ) ;
#388 = AXIS2_PLACEMENT_3D ( 'NONE', #385, #386, #387 ) ;
#389 = PLANE ( 'NONE', #388 ) ;
#390 = ADVANCED_FACE ( 'NONE', ( #384 ), #389, .F. ) ;
#391 = ORIENTED_EDGE ( 'NONE', *, *, #47, .T. ) ;
#392 = CARTESIAN_POINT ( 'NONE',  ( -0.250000000000000, 0.050000000000000, 0.250000000000000 ) ) ;
#393 = VERTEX_POINT ( 'NONE', #392 ) ;
#394 = CARTESIAN_POINT ( 'NONE',  ( -0.500000000000000, 0.050000000000000, 0.250000000000000 ) ) ;
#395 = DIRECTION ( 'NONE',  ( 1.000000000000000, 0.000000000000000, 0.000000000000000 ) ) ;
#396 = VECTOR ( 'NONE', #395, 1000.000000000000000 ) ;
#397 = LINE ( 'NONE', #394, #396 ) ;
#398 = EDGE_CURVE ( 'NONE', #35, #393, #397, .T. ) ;
#399 = ORIENTED_EDGE ( 'NONE', *, *, #398, .T. ) ;
#400 = CARTESIAN_POINT ( 'NONE',  ( -0.250000000000000, 0.000000000000000, 0.250000000000000 ) ) ;
#401 = DIRECTION ( 'NONE',  ( 0.000000000000000, 1.000000000000000, 0.000000000000000 ) ) ;
#402 = VECTOR ( 'NONE', #401, 1000.000000000000000 ) ;
#403 = LINE ( 'NONE', #400, #402 ) ;
#404 = EDGE_CURVE ( 'NONE', #393, #291, #403, .T. ) ;
#405 = ORIENTED_EDGE ( 'NONE', *, *, #404, .T. ) ;
#406 = ORIENTED_EDGE ( 'NONE', *, *, #296, .T. ) ;
#407 = EDGE_LOOP ( 'NONE', ( #391, #399, #405, #406 ) ) ;
#408 = FACE_OUTER_BOUND ( 'NONE', #407, .T. ) ;
#409 = CARTESIAN_POINT ( 'NONE',  ( -0.500000000000000, 0.000000000000000, 0.250000000000000 ) ) ;
#410 = DIRECTION ( 'NONE',  ( 0.000000000000000, 0.000000000000000, -1.000000000000000 ) ) ;
#411 = DIRECTION ( 'NONE',  ( -1.000000000000000, 0.000000000000000, 0.000000000000000 ) ) ;
#412 = AXIS2_PLACEMENT_3D ( 'NONE', #409, #410, #411 ) ;
#413 = PLANE ( 'NONE', #412 ) ;
#414 = ADVANCED_FACE ( 'NONE', ( #408 ), #413, .F. ) ;
#415 = ORIENTED_EDGE ( 'NONE', *, *, #375, .F. ) ;
#416 = CARTESIAN_POINT ( 'NONE',  ( -0.250000000000000, 0.050000000000000, -0.200000000000000 ) ) ;
#417 = DIRECTION ( 'NONE',  ( 1.000000000000000, 0.000000000000000, 0.000000000000000 ) ) ;
#418 = DIRECTION ( 'NONE',  ( 0.000000000000000, 0.000000000000000, 1.000000000000000 ) ) ;
#419 = AXIS2_PLACEMENT_3D ( 'NONE', #416, #417, #418 ) ;
#420 = CIRCLE ( 'NONE', #419, 0.05) ;
#421 = EDGE_CURVE ( 'NONE', #362, #196, #420, .T. ) ;
#422 = ORIENTED_EDGE ( 'NONE', *, *, #421, .T. ) ;
#423 = ORIENTED_EDGE ( 'NONE', *, *, #201, .F. ) ;
#424 = ORIENTED_EDGE ( 'NONE', *, *, #347, .T. ) ;
#425 = ORIENTED_EDGE ( 'NONE', *, *, #107, .F. ) ;
#426 = ORIENTED_EDGE ( 'NONE', *, *, #303, .T. ) ;
#427 = ORIENTED_EDGE ( 'NONE', *, *, #404, .F. ) ;
#428 = CARTESIAN_POINT ( 'NONE',  ( -0.250000000000000, 0.050000000000000, 0.200000000000000 ) ) ;
#429 = DIRECTION ( 'NONE',  ( 1.000000000000000, 0.000000000000000, 0.000000000000000 ) ) ;
#430 = DIRECTION ( 'NONE',  ( 0.000000000000000, 0.000000000000000, 1.000000000000000 ) ) ;
#431 = AXIS2_PLACEMENT_3D ( 'NONE', #428, #429, #430 ) ;
#432 = CIRCLE ( 'NONE', #431, 0.05) ;
#433 = EDGE_CURVE ( 'NONE', #393, #370, #432, .T. ) ;
#434 = ORIENTED_EDGE ( 'NONE', *, *, #433, .T. ) ;
#435 = EDGE_LOOP ( 'NONE', ( #415, #422, #423, #424, #425, #426, #427, #434 ) ) ;
#436 = FACE_OUTER_BOUND ( 'NONE', #435, .T. ) ;
#437 = CARTESIAN_POINT ( 'NONE',  ( -0.250000000000000, 0.000000000000000, 0.000000000000000 ) ) ;
#438 = DIRECTION ( 'NONE',  ( -1.000000000000000, 0.000000000000000, 0.000000000000000 ) ) ;
#439 = DIRECTION ( 'NONE',  ( 0.000000000000000, 0.000000000000000, 1.000000000000000 ) ) ;
#440 = AXIS2_PLACEMENT_3D ( 'NONE', #437, #438, #439 ) ;
#441 = PLANE ( 'NONE', #440 ) ;
#442 = ADVANCED_FACE ( 'NONE', ( #436 ), #441, .F. ) ;
#443 = ORIENTED_EDGE ( 'NONE', *, *, #433, .F. ) ;
#444 = ORIENTED_EDGE ( 'NONE', *, *, #398, .F. ) ;
#445 = ORIENTED_EDGE ( 'NONE', *, *, #265, .F. ) ;
#446 = ORIENTED_EDGE ( 'NONE', *, *, #381, .F. ) ;
#447 = EDGE_LOOP ( 'NONE', ( #443, #444, #445, #446 ) ) ;
#448 = FACE_OUTER_BOUND ( 'NONE', #447, .T. ) ;
#449 = CARTESIAN_POINT ( 'NONE',  ( -0.500000000000000, 0.050000000000000, 0.200000000000000 ) ) ;
#450 = DIRECTION ( 'NONE',  ( 1.000000000000000, 0.000000000000000, 0.000000000000000 ) ) ;
#451 = DIRECTION ( 'NONE',  ( 0.000000000000000, 0.000000000000000, -1.000000000000000 ) ) ;
#452 = AXIS2_PLACEMENT_3D ( 'NONE', #449, #450, #451 ) ;
#453 = CYLINDRICAL_SURFACE ( 'NONE', #452, 0.05) ;
#454 = ADVANCED_FACE ( 'NONE', ( #448 ), #453, .T. ) ;
#455 = ORIENTED_EDGE ( 'NONE', *, *, #154, .T. ) ;
#456 = ORIENTED_EDGE ( 'NONE', *, *, #207, .F. ) ;
#457 = ORIENTED_EDGE ( 'NONE', *, *, #421, .F. ) ;
#458 = ORIENTED_EDGE ( 'NONE', *, *, #367, .F. ) ;
#459 = EDGE_LOOP ( 'NONE', ( #455, #456, #457, #458 ) ) ;
#460 = FACE_OUTER_BOUND ( 'NONE', #459, .T. ) ;
#461 = CARTESIAN_POINT ( 'NONE',  ( -0.500000000000000, 0.050000000000000, -0.200000000000000 ) ) ;
#462 = DIRECTION ( 'NONE',  ( 1.000000000000000, 0.000000000000000, 0.000000000000000 ) ) ;
#463 = DIRECTION ( 'NONE',  ( 0.000000000000000, 0.000000000000000, -1.000000000000000 ) ) ;
#464 = AXIS2_PLACEMENT_3D ( 'NONE', #461, #462, #463 ) ;
#465 = CYLINDRICAL_SURFACE ( 'NONE', #464, 0.05) ;
#466 = ADVANCED_FACE ( 'NONE', ( #460 ), #465, .T. ) ;
#467 = CLOSED_SHELL ( 'NONE', ( #56, #98, #138, #163, #192, #223, #240, #257, #282, #313, #324, #341, #359, #390, #414, #442, #454, #466 ) ) ;
#468 = MANIFOLD_SOLID_BREP ( 'Pin1', #467 ) ;
#469 = STYLED_ITEM ( 'NONE', ( #14 ), #468 ) ;
#470 = PRESENTATION_LAYER_ASSIGNMENT (  '',  '', ( #469 ) ) ;
#471 = ( LENGTH_UNIT ( ) NAMED_UNIT ( * ) SI_UNIT ( .MILLI., .METRE. ) ) ;
#472 = UNCERTAINTY_MEASURE_WITH_UNIT (LENGTH_MEASURE( 1.000000000000000100E-005 ), #471, 'distance_accuracy_value', 'NONE') ;
#473 = ( NAMED_UNIT ( * ) PLANE_ANGLE_UNIT ( ) SI_UNIT ( $, .RADIAN. ) ) ;
#474 = ( NAMED_UNIT ( * ) SI_UNIT ( $, .STERADIAN. ) SOLID_ANGLE_UNIT ( ) ) ;
#475 = ( GEOMETRIC_REPRESENTATION_CONTEXT ( 3 ) GLOBAL_UNCERTAINTY_ASSIGNED_CONTEXT ( ( #472 ) ) GLOBAL_UNIT_ASSIGNED_CONTEXT ( ( #471, #473, #474 ) ) REPRESENTATION_CONTEXT ( 'NONE', 'WORKASPACE' ) ) ;
#476 = MECHANICAL_DESIGN_GEOMETRIC_PRESENTATION_REPRESENTATION (  '', ( #469 ), #475 ) ;
#477 = STYLED_ITEM ( 'NONE', ( #14 ), #56 ) ;
#478 = PRESENTATION_LAYER_ASSIGNMENT (  '',  '', ( #477 ) ) ;
#479 = MECHANICAL_DESIGN_GEOMETRIC_PRESENTATION_REPRESENTATION (  '', ( #477 ), #475 ) ;
#480 = STYLED_ITEM ( 'NONE', ( #14 ), #98 ) ;
#481 = PRESENTATION_LAYER_ASSIGNMENT (  '',  '', ( #480 ) ) ;
#482 = MECHANICAL_DESIGN_GEOMETRIC_PRESENTATION_REPRESENTATION (  '', ( #480 ), #475 ) ;
#483 = STYLED_ITEM ( 'NONE', ( #14 ), #138 ) ;
#484 = PRESENTATION_LAYER_ASSIGNMENT (  '',  '', ( #483 ) ) ;
#485 = MECHANICAL_DESIGN_GEOMETRIC_PRESENTATION_REPRESENTATION (  '', ( #483 ), #475 ) ;
#486 = STYLED_ITEM ( 'NONE', ( #14 ), #163 ) ;
#487 = PRESENTATION_LAYER_ASSIGNMENT (  '',  '', ( #486 ) ) ;
#488 = MECHANICAL_DESIGN_GEOMETRIC_PRESENTATION_REPRESENTATION (  '', ( #486 ), #475 ) ;
#489 = STYLED_ITEM ( 'NONE', ( #14 ), #192 ) ;
#490 = PRESENTATION_LAYER_ASSIGNMENT (  '',  '', ( #489 ) ) ;
#491 = MECHANICAL_DESIGN_GEOMETRIC_PRESENTATION_REPRESENTATION (  '', ( #489 ), #475 ) ;
#492 = STYLED_ITEM ( 'NONE', ( #14 ), #223 ) ;
#493 = PRESENTATION_LAYER_ASSIGNMENT (  '',  '', ( #492 ) ) ;
#494 = MECHANICAL_DESIGN_GEOMETRIC_PRESENTATION_REPRESENTATION (  '', ( #492 ), #475 ) ;
#495 = STYLED_ITEM ( 'NONE', ( #14 ), #240 ) ;
#496 = PRESENTATION_LAYER_ASSIGNMENT (  '',  '', ( #495 ) ) ;
#497 = MECHANICAL_DESIGN_GEOMETRIC_PRESENTATION_REPRESENTATION (  '', ( #495 ), #475 ) ;
#498 = STYLED_ITEM ( 'NONE', ( #14 ), #257 ) ;
#499 = PRESENTATION_LAYER_ASSIGNMENT (  '',  '', ( #498 ) ) ;
#500 = MECHANICAL_DESIGN_GEOMETRIC_PRESENTATION_REPRESENTATION (  '', ( #498 ), #475 ) ;
#501 = STYLED_ITEM ( 'NONE', ( #14 ), #282 ) ;
#502 = PRESENTATION_LAYER_ASSIGNMENT (  '',  '', ( #501 ) ) ;
#503 = MECHANICAL_DESIGN_GEOMETRIC_PRESENTATION_REPRESENTATION (  '', ( #501 ), #475 ) ;
#504 = STYLED_ITEM ( 'NONE', ( #14 ), #313 ) ;
#505 = PRESENTATION_LAYER_ASSIGNMENT (  '',  '', ( #504 ) ) ;
#506 = MECHANICAL_DESIGN_GEOMETRIC_PRESENTATION_REPRESENTATION (  '', ( #504 ), #475 ) ;
#507 = STYLED_ITEM ( 'NONE', ( #14 ), #324 ) ;
#508 = PRESENTATION_LAYER_ASSIGNMENT (  '',  '', ( #507 ) ) ;
#509 = MECHANICAL_DESIGN_GEOMETRIC_PRESENTATION_REPRESENTATION (  '', ( #507 ), #475 ) ;
#510 = STYLED_ITEM ( 'NONE', ( #14 ), #341 ) ;
#511 = PRESENTATION_LAYER_ASSIGNMENT (  '',  '', ( #510 ) ) ;
#512 = MECHANICAL_DESIGN_GEOMETRIC_PRESENTATION_REPRESENTATION (  '', ( #510 ), #475 ) ;
#513 = STYLED_ITEM ( 'NONE', ( #14 ), #359 ) ;
#514 = PRESENTATION_LAYER_ASSIGNMENT (  '',  '', ( #513 ) ) ;
#515 = MECHANICAL_DESIGN_GEOMETRIC_PRESENTATION_REPRESENTATION (  '', ( #513 ), #475 ) ;
#516 = STYLED_ITEM ( 'NONE', ( #14 ), #390 ) ;
#517 = PRESENTATION_LAYER_ASSIGNMENT (  '',  '', ( #516 ) ) ;
#518 = MECHANICAL_DESIGN_GEOMETRIC_PRESENTATION_REPRESENTATION (  '', ( #516 ), #475 ) ;
#519 = STYLED_ITEM ( 'NONE', ( #14 ), #414 ) ;
#520 = PRESENTATION_LAYER_ASSIGNMENT (  '',  '', ( #519 ) ) ;
#521 = MECHANICAL_DESIGN_GEOMETRIC_PRESENTATION_REPRESENTATION (  '', ( #519 ), #475 ) ;
#522 = STYLED_ITEM ( 'NONE', ( #14 ), #442 ) ;
#523 = PRESENTATION_LAYER_ASSIGNMENT (  '',  '', ( #522 ) ) ;
#524 = MECHANICAL_DESIGN_GEOMETRIC_PRESENTATION_REPRESENTATION (  '', ( #522 ), #475 ) ;
#525 = STYLED_ITEM ( 'NONE', ( #14 ), #454 ) ;
#526 = PRESENTATION_LAYER_ASSIGNMENT (  '',  '', ( #525 ) ) ;
#527 = MECHANICAL_DESIGN_GEOMETRIC_PRESENTATION_REPRESENTATION (  '', ( #525 ), #475 ) ;
#528 = STYLED_ITEM ( 'NONE', ( #14 ), #466 ) ;
#529 = PRESENTATION_LAYER_ASSIGNMENT (  '',  '', ( #528 ) ) ;
#530 = MECHANICAL_DESIGN_GEOMETRIC_PRESENTATION_REPRESENTATION (  '', ( #528 ), #475 ) ;
#531 = COLOUR_RGB ( '',0.75294117647059, 0.75294117647059, 0.75294117647059 ) ;
#532 = FILL_AREA_STYLE_COLOUR ( '', #531 ) ;
#533 = FILL_AREA_STYLE ('',( #532 ) ) ;
#534 = SURFACE_STYLE_FILL_AREA ( #533 ) ;
#535 = SURFACE_SIDE_STYLE ( '',( #534 ) ) ;
#536 = SURFACE_STYLE_USAGE ( .BOTH. , #535 ) ;
#537 = PRESENTATION_STYLE_ASSIGNMENT (( #536 ) ) ;
#538 = CARTESIAN_POINT ( 'NONE',  ( 0.450000000000000, 0.000000000000000, -0.200000000000000 ) ) ;
#539 = VERTEX_POINT ( 'NONE', #538 ) ;
#540 = CARTESIAN_POINT ( 'NONE',  ( 0.450000000000000, 0.050000000000000, -0.250000000000000 ) ) ;
#541 = VERTEX_POINT ( 'NONE', #540 ) ;
#542 = CARTESIAN_POINT ( 'NONE',  ( 0.450000000000000, 0.050000000000000, -0.200000000000000 ) ) ;
#543 = DIRECTION ( 'NONE',  ( 1.000000000000000, 0.000000000000000, 0.000000000000000 ) ) ;
#544 = DIRECTION ( 'NONE',  ( 0.000000000000000, 0.000000000000000, 1.000000000000000 ) ) ;
#545 = AXIS2_PLACEMENT_3D ( 'NONE', #542, #543, #544 ) ;
#546 = CIRCLE ( 'NONE', #545, 0.05) ;
#547 = EDGE_CURVE ( 'NONE', #539, #541, #546, .T. ) ;
#548 = ORIENTED_EDGE ( 'NONE', *, *, #547, .F. ) ;
#549 = CARTESIAN_POINT ( 'NONE',  ( 0.250000000000000, 0.000000000000000, -0.200000000000000 ) ) ;
#550 = VERTEX_POINT ( 'NONE', #549 ) ;
#551 = CARTESIAN_POINT ( 'NONE',  ( 0.500000000000000, 0.000000000000000, -0.200000000000000 ) ) ;
#552 = DIRECTION ( 'NONE',  ( -1.000000000000000, 0.000000000000000, 0.000000000000000 ) ) ;
#553 = VECTOR ( 'NONE', #552, 1000.000000000000000 ) ;
#554 = LINE ( 'NONE', #551, #553 ) ;
#555 = EDGE_CURVE ( 'NONE', #539, #550, #554, .T. ) ;
#556 = ORIENTED_EDGE ( 'NONE', *, *, #555, .T. ) ;
#557 = CARTESIAN_POINT ( 'NONE',  ( 0.250000000000000, 0.050000000000000, -0.250000000000000 ) ) ;
#558 = VERTEX_POINT ( 'NONE', #557 ) ;
#559 = CARTESIAN_POINT ( 'NONE',  ( 0.250000000000000, 0.050000000000000, -0.200000000000000 ) ) ;
#560 = DIRECTION ( 'NONE',  ( 1.000000000000000, 0.000000000000000, 0.000000000000000 ) ) ;
#561 = DIRECTION ( 'NONE',  ( 0.000000000000000, 0.000000000000000, 1.000000000000000 ) ) ;
#562 = AXIS2_PLACEMENT_3D ( 'NONE', #559, #560, #561 ) ;
#563 = CIRCLE ( 'NONE', #562, 0.05) ;
#564 = EDGE_CURVE ( 'NONE', #550, #558, #563, .T. ) ;
#565 = ORIENTED_EDGE ( 'NONE', *, *, #564, .T. ) ;
#566 = CARTESIAN_POINT ( 'NONE',  ( 0.500000000000000, 0.050000000000000, -0.250000000000000 ) ) ;
#567 = DIRECTION ( 'NONE',  ( 1.000000000000000, 0.000000000000000, 0.000000000000000 ) ) ;
#568 = VECTOR ( 'NONE', #567, 1000.000000000000000 ) ;
#569 = LINE ( 'NONE', #566, #568 ) ;
#570 = EDGE_CURVE ( 'NONE', #558, #541, #569, .T. ) ;
#571 = ORIENTED_EDGE ( 'NONE', *, *, #570, .T. ) ;
#572 = EDGE_LOOP ( 'NONE', ( #548, #556, #565, #571 ) ) ;
#573 = FACE_OUTER_BOUND ( 'NONE', #572, .T. ) ;
#574 = CARTESIAN_POINT ( 'NONE',  ( 0.500000000000000, 0.050000000000000, -0.200000000000000 ) ) ;
#575 = DIRECTION ( 'NONE',  ( -1.000000000000000, 0.000000000000000, 0.000000000000000 ) ) ;
#576 = DIRECTION ( 'NONE',  ( 0.000000000000000, 0.000000000000000, -1.000000000000000 ) ) ;
#577 = AXIS2_PLACEMENT_3D ( 'NONE', #574, #575, #576 ) ;
#578 = CYLINDRICAL_SURFACE ( 'NONE', #577, 0.05) ;
#579 = ADVANCED_FACE ( 'NONE', ( #573 ), #578, .T. ) ;
#580 = CARTESIAN_POINT ( 'NONE',  ( 0.250000000000000, 0.550000000000000, 0.200000000000000 ) ) ;
#581 = VERTEX_POINT ( 'NONE', #580 ) ;
#582 = CARTESIAN_POINT ( 'NONE',  ( 0.250000000000000, 0.550000000000000, -0.200000000000000 ) ) ;
#583 = VERTEX_POINT ( 'NONE', #582 ) ;
#584 = CARTESIAN_POINT ( 'NONE',  ( 0.250000000000000, 0.550000000000000, 0.250000000000000 ) ) ;
#585 = DIRECTION ( 'NONE',  ( 0.000000000000000, 0.000000000000000, -1.000000000000000 ) ) ;
#586 = VECTOR ( 'NONE', #585, 1000.000000000000000 ) ;
#587 = LINE ( 'NONE', #584, #586 ) ;
#588 = EDGE_CURVE ( 'NONE', #581, #583, #587, .T. ) ;
#589 = ORIENTED_EDGE ( 'NONE', *, *, #588, .F. ) ;
#590 = CARTESIAN_POINT ( 'NONE',  ( 0.450000000000000, 0.550000000000000, 0.200000000000000 ) ) ;
#591 = VERTEX_POINT ( 'NONE', #590 ) ;
#592 = CARTESIAN_POINT ( 'NONE',  ( 0.500000000000000, 0.550000000000000, 0.200000000000000 ) ) ;
#593 = DIRECTION ( 'NONE',  ( -1.000000000000000, 0.000000000000000, 0.000000000000000 ) ) ;
#594 = VECTOR ( 'NONE', #593, 1000.000000000000000 ) ;
#595 = LINE ( 'NONE', #592, #594 ) ;
#596 = EDGE_CURVE ( 'NONE', #591, #581, #595, .T. ) ;
#597 = ORIENTED_EDGE ( 'NONE', *, *, #596, .F. ) ;
#598 = CARTESIAN_POINT ( 'NONE',  ( 0.450000000000000, 0.550000000000000, -0.200000000000000 ) ) ;
#599 = VERTEX_POINT ( 'NONE', #598 ) ;
#600 = CARTESIAN_POINT ( 'NONE',  ( 0.450000000000000, 0.550000000000000, 0.250000000000000 ) ) ;
#601 = DIRECTION ( 'NONE',  ( 0.000000000000000, 0.000000000000000, 1.000000000000000 ) ) ;
#602 = VECTOR ( 'NONE', #601, 1000.000000000000000 ) ;
#603 = LINE ( 'NONE', #600, #602 ) ;
#604 = EDGE_CURVE ( 'NONE', #599, #591, #603, .T. ) ;
#605 = ORIENTED_EDGE ( 'NONE', *, *, #604, .F. ) ;
#606 = CARTESIAN_POINT ( 'NONE',  ( 0.500000000000000, 0.550000000000000, -0.200000000000000 ) ) ;
#607 = DIRECTION ( 'NONE',  ( 1.000000000000000, 0.000000000000000, 0.000000000000000 ) ) ;
#608 = VECTOR ( 'NONE', #607, 1000.000000000000000 ) ;
#609 = LINE ( 'NONE', #606, #608 ) ;
#610 = EDGE_CURVE ( 'NONE', #583, #599, #609, .T. ) ;
#611 = ORIENTED_EDGE ( 'NONE', *, *, #610, .F. ) ;
#612 = EDGE_LOOP ( 'NONE', ( #589, #597, #605, #611 ) ) ;
#613 = FACE_OUTER_BOUND ( 'NONE', #612, .T. ) ;
#614 = CARTESIAN_POINT ( 'NONE',  ( 0.500000000000000, 0.550000000000000, 0.250000000000000 ) ) ;
#615 = DIRECTION ( 'NONE',  ( 0.000000000000000, -1.000000000000000, 0.000000000000000 ) ) ;
#616 = DIRECTION ( 'NONE',  ( 0.000000000000000, 0.000000000000000, -1.000000000000000 ) ) ;
#617 = AXIS2_PLACEMENT_3D ( 'NONE', #614, #615, #616 ) ;
#618 = PLANE ( 'NONE', #617 ) ;
#619 = ADVANCED_FACE ( 'NONE', ( #613 ), #618, .F. ) ;
#620 = CARTESIAN_POINT ( 'NONE',  ( 0.450000000000000, 0.000000000000000, 0.200000000000000 ) ) ;
#621 = VERTEX_POINT ( 'NONE', #620 ) ;
#622 = CARTESIAN_POINT ( 'NONE',  ( 0.450000000000000, 0.000000000000000, -0.250000000000000 ) ) ;
#623 = DIRECTION ( 'NONE',  ( 0.000000000000000, 0.000000000000000, -1.000000000000000 ) ) ;
#624 = VECTOR ( 'NONE', #623, 1000.000000000000000 ) ;
#625 = LINE ( 'NONE', #622, #624 ) ;
#626 = EDGE_CURVE ( 'NONE', #621, #539, #625, .T. ) ;
#627 = ORIENTED_EDGE ( 'NONE', *, *, #626, .F. ) ;
#628 = CARTESIAN_POINT ( 'NONE',  ( 0.250000000000000, 0.000000000000000, 0.200000000000000 ) ) ;
#629 = VERTEX_POINT ( 'NONE', #628 ) ;
#630 = CARTESIAN_POINT ( 'NONE',  ( 0.500000000000000, 0.000000000000000, 0.200000000000000 ) ) ;
#631 = DIRECTION ( 'NONE',  ( 1.000000000000000, 0.000000000000000, 0.000000000000000 ) ) ;
#632 = VECTOR ( 'NONE', #631, 1000.000000000000000 ) ;
#633 = LINE ( 'NONE', #630, #632 ) ;
#634 = EDGE_CURVE ( 'NONE', #629, #621, #633, .T. ) ;
#635 = ORIENTED_EDGE ( 'NONE', *, *, #634, .F. ) ;
#636 = CARTESIAN_POINT ( 'NONE',  ( 0.250000000000000, 0.000000000000000, 0.250000000000000 ) ) ;
#637 = DIRECTION ( 'NONE',  ( 0.000000000000000, 0.000000000000000, 1.000000000000000 ) ) ;
#638 = VECTOR ( 'NONE', #637, 1000.000000000000000 ) ;
#639 = LINE ( 'NONE', #636, #638 ) ;
#640 = EDGE_CURVE ( 'NONE', #550, #629, #639, .T. ) ;
#641 = ORIENTED_EDGE ( 'NONE', *, *, #640, .F. ) ;
#642 = ORIENTED_EDGE ( 'NONE', *, *, #555, .F. ) ;
#643 = EDGE_LOOP ( 'NONE', ( #627, #635, #641, #642 ) ) ;
#644 = FACE_OUTER_BOUND ( 'NONE', #643, .T. ) ;
#645 = CARTESIAN_POINT ( 'NONE',  ( 0.500000000000000, 0.000000000000000, 0.250000000000000 ) ) ;
#646 = DIRECTION ( 'NONE',  ( 0.000000000000000, 1.000000000000000, 0.000000000000000 ) ) ;
#647 = DIRECTION ( 'NONE',  ( 0.000000000000000, 0.000000000000000, 1.000000000000000 ) ) ;
#648 = AXIS2_PLACEMENT_3D ( 'NONE', #645, #646, #647 ) ;
#649 = PLANE ( 'NONE', #648 ) ;
#650 = ADVANCED_FACE ( 'NONE', ( #644 ), #649, .F. ) ;
#651 = CARTESIAN_POINT ( 'NONE',  ( 0.500000000000000, 0.050000000000000, 0.200000000000000 ) ) ;
#652 = VERTEX_POINT ( 'NONE', #651 ) ;
#653 = CARTESIAN_POINT ( 'NONE',  ( 0.450000000000000, 0.050000000000000, 0.200000000000000 ) ) ;
#654 = DIRECTION ( 'NONE',  ( 0.000000000000000, 0.000000000000000, 1.000000000000000 ) ) ;
#655 = DIRECTION ( 'NONE',  ( -1.000000000000000, 0.000000000000000, 0.000000000000000 ) ) ;
#656 = AXIS2_PLACEMENT_3D ( 'NONE', #653, #654, #655 ) ;
#657 = CIRCLE ( 'NONE', #656, 0.05) ;
#658 = EDGE_CURVE ( 'NONE', #621, #652, #657, .T. ) ;
#659 = ORIENTED_EDGE ( 'NONE', *, *, #658, .F. ) ;
#660 = ORIENTED_EDGE ( 'NONE', *, *, #626, .T. ) ;
#661 = CARTESIAN_POINT ( 'NONE',  ( 0.500000000000000, 0.050000000000000, -0.200000000000000 ) ) ;
#662 = VERTEX_POINT ( 'NONE', #661 ) ;
#663 = CARTESIAN_POINT ( 'NONE',  ( 0.450000000000000, 0.050000000000000, -0.200000000000000 ) ) ;
#664 = DIRECTION ( 'NONE',  ( 0.000000000000000, 0.000000000000000, 1.000000000000000 ) ) ;
#665 = DIRECTION ( 'NONE',  ( 1.000000000000000, 0.000000000000000, 0.000000000000000 ) ) ;
#666 = AXIS2_PLACEMENT_3D ( 'NONE', #663, #664, #665 ) ;
#667 = CIRCLE ( 'NONE', #666, 0.05) ;
#668 = EDGE_CURVE ( 'NONE', #539, #662, #667, .T. ) ;
#669 = ORIENTED_EDGE ( 'NONE', *, *, #668, .T. ) ;
#670 = CARTESIAN_POINT ( 'NONE',  ( 0.500000000000000, 0.050000000000000, 0.250000000000000 ) ) ;
#671 = DIRECTION ( 'NONE',  ( 0.000000000000000, 0.000000000000000, 1.000000000000000 ) ) ;
#672 = VECTOR ( 'NONE', #671, 1000.000000000000000 ) ;
#673 = LINE ( 'NONE', #670, #672 ) ;
#674 = EDGE_CURVE ( 'NONE', #662, #652, #673, .T. ) ;
#675 = ORIENTED_EDGE ( 'NONE', *, *, #674, .T. ) ;
#676 = EDGE_LOOP ( 'NONE', ( #659, #660, #669, #675 ) ) ;
#677 = FACE_OUTER_BOUND ( 'NONE', #676, .T. ) ;
#678 = CARTESIAN_POINT ( 'NONE',  ( 0.450000000000000, 0.050000000000000, 0.000000000000000 ) ) ;
#679 = DIRECTION ( 'NONE',  ( 0.000000000000000, 0.000000000000000, -1.000000000000000 ) ) ;
#680 = DIRECTION ( 'NONE',  ( 1.000000000000000, 0.000000000000000, 0.000000000000000 ) ) ;
#681 = AXIS2_PLACEMENT_3D ( 'NONE', #678, #679, #680 ) ;
#682 = CYLINDRICAL_SURFACE ( 'NONE', #681, 0.05) ;
#683 = ADVANCED_FACE ( 'NONE', ( #677 ), #682, .T. ) ;
#684 = CARTESIAN_POINT ( 'NONE',  ( 0.500000000000000, 0.500000000000000, 0.200000000000000 ) ) ;
#685 = VERTEX_POINT ( 'NONE', #684 ) ;
#686 = CARTESIAN_POINT ( 'NONE',  ( 0.500000000000000, 0.500000000000000, -0.200000000000000 ) ) ;
#687 = VERTEX_POINT ( 'NONE', #686 ) ;
#688 = CARTESIAN_POINT ( 'NONE',  ( 0.500000000000000, 0.500000000000000, -0.250000000000000 ) ) ;
#689 = DIRECTION ( 'NONE',  ( 0.000000000000000, 0.000000000000000, -1.000000000000000 ) ) ;
#690 = VECTOR ( 'NONE', #689, 1000.000000000000000 ) ;
#691 = LINE ( 'NONE', #688, #690 ) ;
#692 = EDGE_CURVE ( 'NONE', #685, #687, #691, .T. ) ;
#693 = ORIENTED_EDGE ( 'NONE', *, *, #692, .F. ) ;
#694 = CARTESIAN_POINT ( 'NONE',  ( 0.500000000000000, 0.550000000000000, 0.200000000000000 ) ) ;
#695 = DIRECTION ( 'NONE',  ( 0.000000000000000, 1.000000000000000, 0.000000000000000 ) ) ;
#696 = VECTOR ( 'NONE', #695, 1000.000000000000000 ) ;
#697 = LINE ( 'NONE', #694, #696 ) ;
#698 = EDGE_CURVE ( 'NONE', #652, #685, #697, .T. ) ;
#699 = ORIENTED_EDGE ( 'NONE', *, *, #698, .F. ) ;
#700 = ORIENTED_EDGE ( 'NONE', *, *, #674, .F. ) ;
#701 = CARTESIAN_POINT ( 'NONE',  ( 0.500000000000000, 0.000000000000000, -0.200000000000000 ) ) ;
#702 = DIRECTION ( 'NONE',  ( 0.000000000000000, -1.000000000000000, 0.000000000000000 ) ) ;
#703 = VECTOR ( 'NONE', #702, 1000.000000000000000 ) ;
#704 = LINE ( 'NONE', #701, #703 ) ;
#705 = EDGE_CURVE ( 'NONE', #687, #662, #704, .T. ) ;
#706 = ORIENTED_EDGE ( 'NONE', *, *, #705, .F. ) ;
#707 = EDGE_LOOP ( 'NONE', ( #693, #699, #700, #706 ) ) ;
#708 = FACE_OUTER_BOUND ( 'NONE', #707, .T. ) ;
#709 = CARTESIAN_POINT ( 'NONE',  ( 0.500000000000000, 0.000000000000000, 0.000000000000000 ) ) ;
#710 = DIRECTION ( 'NONE',  ( 1.000000000000000, 0.000000000000000, 0.000000000000000 ) ) ;
#711 = DIRECTION ( 'NONE',  ( 0.000000000000000, 0.000000000000000, 1.000000000000000 ) ) ;
#712 = AXIS2_PLACEMENT_3D ( 'NONE', #709, #710, #711 ) ;
#713 = PLANE ( 'NONE', #712 ) ;
#714 = ADVANCED_FACE ( 'NONE', ( #708 ), #713, .T. ) ;
#715 = CARTESIAN_POINT ( 'NONE',  ( 0.450000000000000, 0.500000000000000, -0.250000000000000 ) ) ;
#716 = VERTEX_POINT ( 'NONE', #715 ) ;
#717 = CARTESIAN_POINT ( 'NONE',  ( 0.450000000000000, 0.500000000000000, -0.200000000000000 ) ) ;
#718 = DIRECTION ( 'NONE',  ( 0.000000000000000, 1.000000000000000, 0.000000000000000 ) ) ;
#719 = DIRECTION ( 'NONE',  ( 0.000000000000000, 0.000000000000000, 1.000000000000000 ) ) ;
#720 = AXIS2_PLACEMENT_3D ( 'NONE', #717, #718, #719 ) ;
#721 = CIRCLE ( 'NONE', #720, 0.05) ;
#722 = EDGE_CURVE ( 'NONE', #687, #716, #721, .T. ) ;
#723 = ORIENTED_EDGE ( 'NONE', *, *, #722, .F. ) ;
#724 = ORIENTED_EDGE ( 'NONE', *, *, #705, .T. ) ;
#725 = CARTESIAN_POINT ( 'NONE',  ( 0.450000000000000, 0.050000000000000, -0.200000000000000 ) ) ;
#726 = DIRECTION ( 'NONE',  ( 0.000000000000000, 1.000000000000000, 0.000000000000000 ) ) ;
#727 = DIRECTION ( 'NONE',  ( 0.000000000000000, 0.000000000000000, -1.000000000000000 ) ) ;
#728 = AXIS2_PLACEMENT_3D ( 'NONE', #725, #726, #727 ) ;
#729 = CIRCLE ( 'NONE', #728, 0.05) ;
#730 = EDGE_CURVE ( 'NONE', #662, #541, #729, .T. ) ;
#731 = ORIENTED_EDGE ( 'NONE', *, *, #730, .T. ) ;
#732 = CARTESIAN_POINT ( 'NONE',  ( 0.450000000000000, 0.550000000000000, -0.250000000000000 ) ) ;
#733 = DIRECTION ( 'NONE',  ( 0.000000000000000, 1.000000000000000, 0.000000000000000 ) ) ;
#734 = VECTOR ( 'NONE', #733, 1000.000000000000000 ) ;
#735 = LINE ( 'NONE', #732, #734 ) ;
#736 = EDGE_CURVE ( 'NONE', #541, #716, #735, .T. ) ;
#737 = ORIENTED_EDGE ( 'NONE', *, *, #736, .T. ) ;
#738 = EDGE_LOOP ( 'NONE', ( #723, #724, #731, #737 ) ) ;
#739 = FACE_OUTER_BOUND ( 'NONE', #738, .T. ) ;
#740 = CARTESIAN_POINT ( 'NONE',  ( 0.450000000000000, 0.000000000000000, -0.200000000000000 ) ) ;
#741 = DIRECTION ( 'NONE',  ( 0.000000000000000, 1.000000000000000, 0.000000000000000 ) ) ;
#742 = DIRECTION ( 'NONE',  ( 0.000000000000000, 0.000000000000000, 1.000000000000000 ) ) ;
#743 = AXIS2_PLACEMENT_3D ( 'NONE', #740, #741, #742 ) ;
#744 = CYLINDRICAL_SURFACE ( 'NONE', #743, 0.05) ;
#745 = ADVANCED_FACE ( 'NONE', ( #739 ), #744, .T. ) ;
#746 = CARTESIAN_POINT ( 'NONE',  ( 0.250000000000000, 0.050000000000000, 0.250000000000000 ) ) ;
#747 = VERTEX_POINT ( 'NONE', #746 ) ;
#748 = CARTESIAN_POINT ( 'NONE',  ( 0.250000000000000, 0.050000000000000, 0.200000000000000 ) ) ;
#749 = DIRECTION ( 'NONE',  ( 1.000000000000000, 0.000000000000000, 0.000000000000000 ) ) ;
#750 = DIRECTION ( 'NONE',  ( 0.000000000000000, 0.000000000000000, 1.000000000000000 ) ) ;
#751 = AXIS2_PLACEMENT_3D ( 'NONE', #748, #749, #750 ) ;
#752 = CIRCLE ( 'NONE', #751, 0.05) ;
#753 = EDGE_CURVE ( 'NONE', #747, #629, #752, .T. ) ;
#754 = ORIENTED_EDGE ( 'NONE', *, *, #753, .T. ) ;
#755 = ORIENTED_EDGE ( 'NONE', *, *, #634, .T. ) ;
#756 = CARTESIAN_POINT ( 'NONE',  ( 0.450000000000000, 0.050000000000000, 0.250000000000000 ) ) ;
#757 = VERTEX_POINT ( 'NONE', #756 ) ;
#758 = CARTESIAN_POINT ( 'NONE',  ( 0.450000000000000, 0.050000000000000, 0.200000000000000 ) ) ;
#759 = DIRECTION ( 'NONE',  ( -1.000000000000000, 0.000000000000000, 0.000000000000000 ) ) ;
#760 = DIRECTION ( 'NONE',  ( 0.000000000000000, 0.000000000000000, 1.000000000000000 ) ) ;
#761 = AXIS2_PLACEMENT_3D ( 'NONE', #758, #759, #760 ) ;
#762 = CIRCLE ( 'NONE', #761, 0.05) ;
#763 = EDGE_CURVE ( 'NONE', #621, #757, #762, .T. ) ;
#764 = ORIENTED_EDGE ( 'NONE', *, *, #763, .T. ) ;
#765 = CARTESIAN_POINT ( 'NONE',  ( 0.500000000000000, 0.050000000000000, 0.250000000000000 ) ) ;
#766 = DIRECTION ( 'NONE',  ( -1.000000000000000, 0.000000000000000, 0.000000000000000 ) ) ;
#767 = VECTOR ( 'NONE', #766, 1000.000000000000000 ) ;
#768 = LINE ( 'NONE', #765, #767 ) ;
#769 = EDGE_CURVE ( 'NONE', #757, #747, #768, .T. ) ;
#770 = ORIENTED_EDGE ( 'NONE', *, *, #769, .T. ) ;
#771 = EDGE_LOOP ( 'NONE', ( #754, #755, #764, #770 ) ) ;
#772 = FACE_OUTER_BOUND ( 'NONE', #771, .T. ) ;
#773 = CARTESIAN_POINT ( 'NONE',  ( 0.500000000000000, 0.050000000000000, 0.200000000000000 ) ) ;
#774 = DIRECTION ( 'NONE',  ( -1.000000000000000, 0.000000000000000, 0.000000000000000 ) ) ;
#775 = DIRECTION ( 'NONE',  ( 0.000000000000000, 0.000000000000000, -1.000000000000000 ) ) ;
#776 = AXIS2_PLACEMENT_3D ( 'NONE', #773, #774, #775 ) ;
#777 = CYLINDRICAL_SURFACE ( 'NONE', #776, 0.05) ;
#778 = ADVANCED_FACE ( 'NONE', ( #772 ), #777, .T. ) ;
#779 = CARTESIAN_POINT ( 'NONE',  ( 0.450000000000000, 0.500000000000000, 0.200000000000000 ) ) ;
#780 = DIRECTION ( 'NONE',  ( 0.000000000000000, 0.000000000000000, 1.000000000000000 ) ) ;
#781 = DIRECTION ( 'NONE',  ( -1.000000000000000, 0.000000000000000, 0.000000000000000 ) ) ;
#782 = AXIS2_PLACEMENT_3D ( 'NONE', #779, #780, #781 ) ;
#783 = CIRCLE ( 'NONE', #782, 0.05) ;
#784 = EDGE_CURVE ( 'NONE', #685, #591, #783, .T. ) ;
#785 = ORIENTED_EDGE ( 'NONE', *, *, #784, .F. ) ;
#786 = ORIENTED_EDGE ( 'NONE', *, *, #692, .T. ) ;
#787 = CARTESIAN_POINT ( 'NONE',  ( 0.450000000000000, 0.500000000000000, -0.200000000000000 ) ) ;
#788 = DIRECTION ( 'NONE',  ( 0.000000000000000, 0.000000000000000, 1.000000000000000 ) ) ;
#789 = DIRECTION ( 'NONE',  ( 1.000000000000000, 0.000000000000000, 0.000000000000000 ) ) ;
#790 = AXIS2_PLACEMENT_3D ( 'NONE', #787, #788, #789 ) ;
#791 = CIRCLE ( 'NONE', #790, 0.05) ;
#792 = EDGE_CURVE ( 'NONE', #687, #599, #791, .T. ) ;
#793 = ORIENTED_EDGE ( 'NONE', *, *, #792, .T. ) ;
#794 = ORIENTED_EDGE ( 'NONE', *, *, #604, .T. ) ;
#795 = EDGE_LOOP ( 'NONE', ( #785, #786, #793, #794 ) ) ;
#796 = FACE_OUTER_BOUND ( 'NONE', #795, .T. ) ;
#797 = CARTESIAN_POINT ( 'NONE',  ( 0.450000000000000, 0.500000000000000, 0.000000000000000 ) ) ;
#798 = DIRECTION ( 'NONE',  ( 0.000000000000000, 0.000000000000000, 1.000000000000000 ) ) ;
#799 = DIRECTION ( 'NONE',  ( -1.000000000000000, 0.000000000000000, 0.000000000000000 ) ) ;
#800 = AXIS2_PLACEMENT_3D ( 'NONE', #797, #798, #799 ) ;
#801 = CYLINDRICAL_SURFACE ( 'NONE', #800, 0.05) ;
#802 = ADVANCED_FACE ( 'NONE', ( #796 ), #801, .T. ) ;
#803 = ORIENTED_EDGE ( 'NONE', *, *, #792, .F. ) ;
#804 = ORIENTED_EDGE ( 'NONE', *, *, #722, .T. ) ;
#805 = CARTESIAN_POINT ( 'NONE',  ( 0.450000000000000, 0.500000000000000, -0.200000000000000 ) ) ;
#806 = DIRECTION ( 'NONE',  ( -1.000000000000000, 0.000000000000000, 0.000000000000000 ) ) ;
#807 = DIRECTION ( 'NONE',  ( 0.000000000000000, 0.000000000000000, 1.000000000000000 ) ) ;
#808 = AXIS2_PLACEMENT_3D ( 'NONE', #805, #806, #807 ) ;
#809 = CIRCLE ( 'NONE', #808, 0.05) ;
#810 = EDGE_CURVE ( 'NONE', #599, #716, #809, .T. ) ;
#811 = ORIENTED_EDGE ( 'NONE', *, *, #810, .F. ) ;
#812 = EDGE_LOOP ( 'NONE', ( #803, #804, #811 ) ) ;
#813 = FACE_OUTER_BOUND ( 'NONE', #812, .T. ) ;
#814 = CARTESIAN_POINT ( 'NONE',  ( 0.450000000000000, 0.500000000000000, -0.200000000000000 ) ) ;
#815 = DIRECTION ( 'NONE',  ( 0.000000000000000, -1.000000000000000, 0.000000000000000 ) ) ;
#816 = DIRECTION ( 'NONE',  ( -1.000000000000000, 0.000000000000000, 0.000000000000000 ) ) ;
#817 = AXIS2_PLACEMENT_3D ( 'NONE', #814, #815, #816 ) ;
#818 = SPHERICAL_SURFACE ( 'NONE', #817, 0.05) ;
#819 = ADVANCED_FACE ( 'NONE', ( #813 ), #818, .T. ) ;
#820 = CARTESIAN_POINT ( 'NONE',  ( 0.250000000000000, 0.500000000000000, -0.250000000000000 ) ) ;
#821 = VERTEX_POINT ( 'NONE', #820 ) ;
#822 = CARTESIAN_POINT ( 'NONE',  ( 0.250000000000000, 0.000000000000000, -0.250000000000000 ) ) ;
#823 = DIRECTION ( 'NONE',  ( 0.000000000000000, -1.000000000000000, 0.000000000000000 ) ) ;
#824 = VECTOR ( 'NONE', #823, 1000.000000000000000 ) ;
#825 = LINE ( 'NONE', #822, #824 ) ;
#826 = EDGE_CURVE ( 'NONE', #821, #558, #825, .T. ) ;
#827 = ORIENTED_EDGE ( 'NONE', *, *, #826, .F. ) ;
#828 = CARTESIAN_POINT ( 'NONE',  ( 0.500000000000000, 0.500000000000000, -0.250000000000000 ) ) ;
#829 = DIRECTION ( 'NONE',  ( -1.000000000000000, 0.000000000000000, 0.000000000000000 ) ) ;
#830 = VECTOR ( 'NONE', #829, 1000.000000000000000 ) ;
#831 = LINE ( 'NONE', #828, #830 ) ;
#832 = EDGE_CURVE ( 'NONE', #716, #821, #831, .T. ) ;
#833 = ORIENTED_EDGE ( 'NONE', *, *, #832, .F. ) ;
#834 = ORIENTED_EDGE ( 'NONE', *, *, #736, .F. ) ;
#835 = ORIENTED_EDGE ( 'NONE', *, *, #570, .F. ) ;
#836 = EDGE_LOOP ( 'NONE', ( #827, #833, #834, #835 ) ) ;
#837 = FACE_OUTER_BOUND ( 'NONE', #836, .T. ) ;
#838 = CARTESIAN_POINT ( 'NONE',  ( 0.500000000000000, 0.000000000000000, -0.250000000000000 ) ) ;
#839 = DIRECTION ( 'NONE',  ( 0.000000000000000, 0.000000000000000, 1.000000000000000 ) ) ;
#840 = DIRECTION ( 'NONE',  ( -1.000000000000000, 0.000000000000000, 0.000000000000000 ) ) ;
#841 = AXIS2_PLACEMENT_3D ( 'NONE', #838, #839, #840 ) ;
#842 = PLANE ( 'NONE', #841 ) ;
#843 = ADVANCED_FACE ( 'NONE', ( #837 ), #842, .F. ) ;
#844 = CARTESIAN_POINT ( 'NONE',  ( 0.450000000000000, 0.500000000000000, 0.250000000000000 ) ) ;
#845 = VERTEX_POINT ( 'NONE', #844 ) ;
#846 = CARTESIAN_POINT ( 'NONE',  ( 0.450000000000000, 0.000000000000000, 0.250000000000000 ) ) ;
#847 = DIRECTION ( 'NONE',  ( 0.000000000000000, -1.000000000000000, 0.000000000000000 ) ) ;
#848 = VECTOR ( 'NONE', #847, 1000.000000000000000 ) ;
#849 = LINE ( 'NONE', #846, #848 ) ;
#850 = EDGE_CURVE ( 'NONE', #845, #757, #849, .T. ) ;
#851 = ORIENTED_EDGE ( 'NONE', *, *, #850, .F. ) ;
#852 = CARTESIAN_POINT ( 'NONE',  ( 0.250000000000000, 0.500000000000000, 0.250000000000000 ) ) ;
#853 = VERTEX_POINT ( 'NONE', #852 ) ;
#854 = CARTESIAN_POINT ( 'NONE',  ( 0.500000000000000, 0.500000000000000, 0.250000000000000 ) ) ;
#855 = DIRECTION ( 'NONE',  ( 1.000000000000000, 0.000000000000000, 0.000000000000000 ) ) ;
#856 = VECTOR ( 'NONE', #855, 1000.000000000000000 ) ;
#857 = LINE ( 'NONE', #854, #856 ) ;
#858 = EDGE_CURVE ( 'NONE', #853, #845, #857, .T. ) ;
#859 = ORIENTED_EDGE ( 'NONE', *, *, #858, .F. ) ;
#860 = CARTESIAN_POINT ( 'NONE',  ( 0.250000000000000, 0.000000000000000, 0.250000000000000 ) ) ;
#861 = DIRECTION ( 'NONE',  ( 0.000000000000000, 1.000000000000000, 0.000000000000000 ) ) ;
#862 = VECTOR ( 'NONE', #861, 1000.000000000000000 ) ;
#863 = LINE ( 'NONE', #860, #862 ) ;
#864 = EDGE_CURVE ( 'NONE', #747, #853, #863, .T. ) ;
#865 = ORIENTED_EDGE ( 'NONE', *, *, #864, .F. ) ;
#866 = ORIENTED_EDGE ( 'NONE', *, *, #769, .F. ) ;
#867 = EDGE_LOOP ( 'NONE', ( #851, #859, #865, #866 ) ) ;
#868 = FACE_OUTER_BOUND ( 'NONE', #867, .T. ) ;
#869 = CARTESIAN_POINT ( 'NONE',  ( 0.500000000000000, 0.000000000000000, 0.250000000000000 ) ) ;
#870 = DIRECTION ( 'NONE',  ( 0.000000000000000, 0.000000000000000, -1.000000000000000 ) ) ;
#871 = DIRECTION ( 'NONE',  ( 1.000000000000000, 0.000000000000000, 0.000000000000000 ) ) ;
#872 = AXIS2_PLACEMENT_3D ( 'NONE', #869, #870, #871 ) ;
#873 = PLANE ( 'NONE', #872 ) ;
#874 = ADVANCED_FACE ( 'NONE', ( #868 ), #873, .F. ) ;
#875 = ORIENTED_EDGE ( 'NONE', *, *, #640, .T. ) ;
#876 = ORIENTED_EDGE ( 'NONE', *, *, #753, .F. ) ;
#877 = ORIENTED_EDGE ( 'NONE', *, *, #864, .T. ) ;
#878 = CARTESIAN_POINT ( 'NONE',  ( 0.250000000000000, 0.500000000000000, 0.200000000000000 ) ) ;
#879 = DIRECTION ( 'NONE',  ( 1.000000000000000, 0.000000000000000, 0.000000000000000 ) ) ;
#880 = DIRECTION ( 'NONE',  ( 0.000000000000000, 0.000000000000000, 1.000000000000000 ) ) ;
#881 = AXIS2_PLACEMENT_3D ( 'NONE', #878, #879, #880 ) ;
#882 = CIRCLE ( 'NONE', #881, 0.05) ;
#883 = EDGE_CURVE ( 'NONE', #581, #853, #882, .T. ) ;
#884 = ORIENTED_EDGE ( 'NONE', *, *, #883, .F. ) ;
#885 = ORIENTED_EDGE ( 'NONE', *, *, #588, .T. ) ;
#886 = CARTESIAN_POINT ( 'NONE',  ( 0.250000000000000, 0.500000000000000, -0.200000000000000 ) ) ;
#887 = DIRECTION ( 'NONE',  ( 1.000000000000000, 0.000000000000000, 0.000000000000000 ) ) ;
#888 = DIRECTION ( 'NONE',  ( 0.000000000000000, 0.000000000000000, 1.000000000000000 ) ) ;
#889 = AXIS2_PLACEMENT_3D ( 'NONE', #886, #887, #888 ) ;
#890 = CIRCLE ( 'NONE', #889, 0.05) ;
#891 = EDGE_CURVE ( 'NONE', #821, #583, #890, .T. ) ;
#892 = ORIENTED_EDGE ( 'NONE', *, *, #891, .F. ) ;
#893 = ORIENTED_EDGE ( 'NONE', *, *, #826, .T. ) ;
#894 = ORIENTED_EDGE ( 'NONE', *, *, #564, .F. ) ;
#895 = EDGE_LOOP ( 'NONE', ( #875, #876, #877, #884, #885, #892, #893, #894 ) ) ;
#896 = FACE_OUTER_BOUND ( 'NONE', #895, .T. ) ;
#897 = CARTESIAN_POINT ( 'NONE',  ( 0.250000000000000, 0.000000000000000, 0.000000000000000 ) ) ;
#898 = DIRECTION ( 'NONE',  ( 1.000000000000000, 0.000000000000000, 0.000000000000000 ) ) ;
#899 = DIRECTION ( 'NONE',  ( 0.000000000000000, 0.000000000000000, 1.000000000000000 ) ) ;
#900 = AXIS2_PLACEMENT_3D ( 'NONE', #897, #898, #899 ) ;
#901 = PLANE ( 'NONE', #900 ) ;
#902 = ADVANCED_FACE ( 'NONE', ( #896 ), #901, .F. ) ;
#903 = CARTESIAN_POINT ( 'NONE',  ( 0.450000000000000, 0.500000000000000, 0.200000000000000 ) ) ;
#904 = DIRECTION ( 'NONE',  ( -1.000000000000000, 0.000000000000000, 0.000000000000000 ) ) ;
#905 = DIRECTION ( 'NONE',  ( 0.000000000000000, 0.000000000000000, 1.000000000000000 ) ) ;
#906 = AXIS2_PLACEMENT_3D ( 'NONE', #903, #904, #905 ) ;
#907 = CIRCLE ( 'NONE', #906, 0.05) ;
#908 = EDGE_CURVE ( 'NONE', #845, #591, #907, .T. ) ;
#909 = ORIENTED_EDGE ( 'NONE', *, *, #908, .T. ) ;
#910 = ORIENTED_EDGE ( 'NONE', *, *, #596, .T. ) ;
#911 = ORIENTED_EDGE ( 'NONE', *, *, #883, .T. ) ;
#912 = ORIENTED_EDGE ( 'NONE', *, *, #858, .T. ) ;
#913 = EDGE_LOOP ( 'NONE', ( #909, #910, #911, #912 ) ) ;
#914 = FACE_OUTER_BOUND ( 'NONE', #913, .T. ) ;
#915 = CARTESIAN_POINT ( 'NONE',  ( 0.500000000000000, 0.500000000000000, 0.200000000000000 ) ) ;
#916 = DIRECTION ( 'NONE',  ( -1.000000000000000, 0.000000000000000, 0.000000000000000 ) ) ;
#917 = DIRECTION ( 'NONE',  ( 0.000000000000000, 0.000000000000000, -1.000000000000000 ) ) ;
#918 = AXIS2_PLACEMENT_3D ( 'NONE', #915, #916, #917 ) ;
#919 = CYLINDRICAL_SURFACE ( 'NONE', #918, 0.05) ;
#920 = ADVANCED_FACE ( 'NONE', ( #914 ), #919, .T. ) ;
#921 = CARTESIAN_POINT ( 'NONE',  ( 0.450000000000000, 0.500000000000000, 0.200000000000000 ) ) ;
#922 = DIRECTION ( 'NONE',  ( 0.000000000000000, 1.000000000000000, 0.000000000000000 ) ) ;
#923 = DIRECTION ( 'NONE',  ( 0.000000000000000, 0.000000000000000, 1.000000000000000 ) ) ;
#924 = AXIS2_PLACEMENT_3D ( 'NONE', #921, #922, #923 ) ;
#925 = CIRCLE ( 'NONE', #924, 0.05) ;
#926 = EDGE_CURVE ( 'NONE', #845, #685, #925, .T. ) ;
#927 = ORIENTED_EDGE ( 'NONE', *, *, #926, .T. ) ;
#928 = ORIENTED_EDGE ( 'NONE', *, *, #784, .T. ) ;
#929 = ORIENTED_EDGE ( 'NONE', *, *, #908, .F. ) ;
#930 = EDGE_LOOP ( 'NONE', ( #927, #928, #929 ) ) ;
#931 = FACE_OUTER_BOUND ( 'NONE', #930, .T. ) ;
#932 = CARTESIAN_POINT ( 'NONE',  ( 0.450000000000000, 0.500000000000000, 0.200000000000000 ) ) ;
#933 = DIRECTION ( 'NONE',  ( 0.000000000000000, -1.000000000000000, 0.000000000000000 ) ) ;
#934 = DIRECTION ( 'NONE',  ( -1.000000000000000, 0.000000000000000, 0.000000000000000 ) ) ;
#935 = AXIS2_PLACEMENT_3D ( 'NONE', #932, #933, #934 ) ;
#936 = SPHERICAL_SURFACE ( 'NONE', #935, 0.05) ;
#937 = ADVANCED_FACE ( 'NONE', ( #931 ), #936, .T. ) ;
#938 = ORIENTED_EDGE ( 'NONE', *, *, #891, .T. ) ;
#939 = ORIENTED_EDGE ( 'NONE', *, *, #610, .T. ) ;
#940 = ORIENTED_EDGE ( 'NONE', *, *, #810, .T. ) ;
#941 = ORIENTED_EDGE ( 'NONE', *, *, #832, .T. ) ;
#942 = EDGE_LOOP ( 'NONE', ( #938, #939, #940, #941 ) ) ;
#943 = FACE_OUTER_BOUND ( 'NONE', #942, .T. ) ;
#944 = CARTESIAN_POINT ( 'NONE',  ( 0.500000000000000, 0.500000000000000, -0.200000000000000 ) ) ;
#945 = DIRECTION ( 'NONE',  ( -1.000000000000000, 0.000000000000000, 0.000000000000000 ) ) ;
#946 = DIRECTION ( 'NONE',  ( 0.000000000000000, 0.000000000000000, -1.000000000000000 ) ) ;
#947 = AXIS2_PLACEMENT_3D ( 'NONE', #944, #945, #946 ) ;
#948 = CYLINDRICAL_SURFACE ( 'NONE', #947, 0.05) ;
#949 = ADVANCED_FACE ( 'NONE', ( #943 ), #948, .T. ) ;
#950 = ORIENTED_EDGE ( 'NONE', *, *, #926, .F. ) ;
#951 = ORIENTED_EDGE ( 'NONE', *, *, #850, .T. ) ;
#952 = CARTESIAN_POINT ( 'NONE',  ( 0.450000000000000, 0.050000000000000, 0.200000000000000 ) ) ;
#953 = DIRECTION ( 'NONE',  ( 0.000000000000000, 1.000000000000000, 0.000000000000000 ) ) ;
#954 = DIRECTION ( 'NONE',  ( 0.000000000000000, 0.000000000000000, -1.000000000000000 ) ) ;
#955 = AXIS2_PLACEMENT_3D ( 'NONE', #952, #953, #954 ) ;
#956 = CIRCLE ( 'NONE', #955, 0.05) ;
#957 = EDGE_CURVE ( 'NONE', #757, #652, #956, .T. ) ;
#958 = ORIENTED_EDGE ( 'NONE', *, *, #957, .T. ) ;
#959 = ORIENTED_EDGE ( 'NONE', *, *, #698, .T. ) ;
#960 = EDGE_LOOP ( 'NONE', ( #950, #951, #958, #959 ) ) ;
#961 = FACE_OUTER_BOUND ( 'NONE', #960, .T. ) ;
#962 = CARTESIAN_POINT ( 'NONE',  ( 0.450000000000000, 0.000000000000000, 0.200000000000000 ) ) ;
#963 = DIRECTION ( 'NONE',  ( 0.000000000000000, -1.000000000000000, 0.000000000000000 ) ) ;
#964 = DIRECTION ( 'NONE',  ( 0.000000000000000, 0.000000000000000, -1.000000000000000 ) ) ;
#965 = AXIS2_PLACEMENT_3D ( 'NONE', #962, #963, #964 ) ;
#966 = CYLINDRICAL_SURFACE ( 'NONE', #965, 0.05) ;
#967 = ADVANCED_FACE ( 'NONE', ( #961 ), #966, .T. ) ;
#968 = ORIENTED_EDGE ( 'NONE', *, *, #763, .F. ) ;
#969 = ORIENTED_EDGE ( 'NONE', *, *, #658, .T. ) ;
#970 = ORIENTED_EDGE ( 'NONE', *, *, #957, .F. ) ;
#971 = EDGE_LOOP ( 'NONE', ( #968, #969, #970 ) ) ;
#972 = FACE_OUTER_BOUND ( 'NONE', #971, .T. ) ;
#973 = CARTESIAN_POINT ( 'NONE',  ( 0.450000000000000, 0.050000000000000, 0.200000000000000 ) ) ;
#974 = DIRECTION ( 'NONE',  ( 0.000000000000000, -1.000000000000000, 0.000000000000000 ) ) ;
#975 = DIRECTION ( 'NONE',  ( -1.000000000000000, 0.000000000000000, 0.000000000000000 ) ) ;
#976 = AXIS2_PLACEMENT_3D ( 'NONE', #973, #974, #975 ) ;
#977 = SPHERICAL_SURFACE ( 'NONE', #976, 0.05) ;
#978 = ADVANCED_FACE ( 'NONE', ( #972 ), #977, .T. ) ;
#979 = ORIENTED_EDGE ( 'NONE', *, *, #668, .F. ) ;
#980 = ORIENTED_EDGE ( 'NONE', *, *, #547, .T. ) ;
#981 = ORIENTED_EDGE ( 'NONE', *, *, #730, .F. ) ;
#982 = EDGE_LOOP ( 'NONE', ( #979, #980, #981 ) ) ;
#983 = FACE_OUTER_BOUND ( 'NONE', #982, .T. ) ;
#984 = CARTESIAN_POINT ( 'NONE',  ( 0.450000000000000, 0.050000000000000, -0.200000000000000 ) ) ;
#985 = DIRECTION ( 'NONE',  ( 0.000000000000000, -1.000000000000000, 0.000000000000000 ) ) ;
#986 = DIRECTION ( 'NONE',  ( -1.000000000000000, 0.000000000000000, 0.000000000000000 ) ) ;
#987 = AXIS2_PLACEMENT_3D ( 'NONE', #984, #985, #986 ) ;
#988 = SPHERICAL_SURFACE ( 'NONE', #987, 0.05) ;
#989 = ADVANCED_FACE ( 'NONE', ( #983 ), #988, .T. ) ;
#990 = CLOSED_SHELL ( 'NONE', ( #579, #619, #650, #683, #714, #745, #778, #802, #819, #843, #874, #902, #920, #937, #949, #967, #978, #989 ) ) ;
#991 = MANIFOLD_SOLID_BREP ( 'Pin2', #990 ) ;
#992 = STYLED_ITEM ( 'NONE', ( #537 ), #991 ) ;
#993 = PRESENTATION_LAYER_ASSIGNMENT (  '',  '', ( #992 ) ) ;
#994 = MECHANICAL_DESIGN_GEOMETRIC_PRESENTATION_REPRESENTATION (  '', ( #992 ), #475 ) ;
#995 = STYLED_ITEM ( 'NONE', ( #537 ), #579 ) ;
#996 = PRESENTATION_LAYER_ASSIGNMENT (  '',  '', ( #995 ) ) ;
#997 = MECHANICAL_DESIGN_GEOMETRIC_PRESENTATION_REPRESENTATION (  '', ( #995 ), #475 ) ;
#998 = STYLED_ITEM ( 'NONE', ( #537 ), #619 ) ;
#999 = PRESENTATION_LAYER_ASSIGNMENT (  '',  '', ( #998 ) ) ;
#1000 = MECHANICAL_DESIGN_GEOMETRIC_PRESENTATION_REPRESENTATION (  '', ( #998 ), #475 ) ;
#1001 = STYLED_ITEM ( 'NONE', ( #537 ), #650 ) ;
#1002 = PRESENTATION_LAYER_ASSIGNMENT (  '',  '', ( #1001 ) ) ;
#1003 = MECHANICAL_DESIGN_GEOMETRIC_PRESENTATION_REPRESENTATION (  '', ( #1001 ), #475 ) ;
#1004 = STYLED_ITEM ( 'NONE', ( #537 ), #683 ) ;
#1005 = PRESENTATION_LAYER_ASSIGNMENT (  '',  '', ( #1004 ) ) ;
#1006 = MECHANICAL_DESIGN_GEOMETRIC_PRESENTATION_REPRESENTATION (  '', ( #1004 ), #475 ) ;
#1007 = STYLED_ITEM ( 'NONE', ( #537 ), #714 ) ;
#1008 = PRESENTATION_LAYER_ASSIGNMENT (  '',  '', ( #1007 ) ) ;
#1009 = MECHANICAL_DESIGN_GEOMETRIC_PRESENTATION_REPRESENTATION (  '', ( #1007 ), #475 ) ;
#1010 = STYLED_ITEM ( 'NONE', ( #537 ), #745 ) ;
#1011 = PRESENTATION_LAYER_ASSIGNMENT (  '',  '', ( #1010 ) ) ;
#1012 = MECHANICAL_DESIGN_GEOMETRIC_PRESENTATION_REPRESENTATION (  '', ( #1010 ), #475 ) ;
#1013 = STYLED_ITEM ( 'NONE', ( #537 ), #778 ) ;
#1014 = PRESENTATION_LAYER_ASSIGNMENT (  '',  '', ( #1013 ) ) ;
#1015 = MECHANICAL_DESIGN_GEOMETRIC_PRESENTATION_REPRESENTATION (  '', ( #1013 ), #475 ) ;
#1016 = STYLED_ITEM ( 'NONE', ( #537 ), #802 ) ;
#1017 = PRESENTATION_LAYER_ASSIGNMENT (  '',  '', ( #1016 ) ) ;
#1018 = MECHANICAL_DESIGN_GEOMETRIC_PRESENTATION_REPRESENTATION (  '', ( #1016 ), #475 ) ;
#1019 = STYLED_ITEM ( 'NONE', ( #537 ), #819 ) ;
#1020 = PRESENTATION_LAYER_ASSIGNMENT (  '',  '', ( #1019 ) ) ;
#1021 = MECHANICAL_DESIGN_GEOMETRIC_PRESENTATION_REPRESENTATION (  '', ( #1019 ), #475 ) ;
#1022 = STYLED_ITEM ( 'NONE', ( #537 ), #843 ) ;
#1023 = PRESENTATION_LAYER_ASSIGNMENT (  '',  '', ( #1022 ) ) ;
#1024 = MECHANICAL_DESIGN_GEOMETRIC_PRESENTATION_REPRESENTATION (  '', ( #1022 ), #475 ) ;
#1025 = STYLED_ITEM ( 'NONE', ( #537 ), #874 ) ;
#1026 = PRESENTATION_LAYER_ASSIGNMENT (  '',  '', ( #1025 ) ) ;
#1027 = MECHANICAL_DESIGN_GEOMETRIC_PRESENTATION_REPRESENTATION (  '', ( #1025 ), #475 ) ;
#1028 = STYLED_ITEM ( 'NONE', ( #537 ), #902 ) ;
#1029 = PRESENTATION_LAYER_ASSIGNMENT (  '',  '', ( #1028 ) ) ;
#1030 = MECHANICAL_DESIGN_GEOMETRIC_PRESENTATION_REPRESENTATION (  '', ( #1028 ), #475 ) ;
#1031 = STYLED_ITEM ( 'NONE', ( #537 ), #920 ) ;
#1032 = PRESENTATION_LAYER_ASSIGNMENT (  '',  '', ( #1031 ) ) ;
#1033 = MECHANICAL_DESIGN_GEOMETRIC_PRESENTATION_REPRESENTATION (  '', ( #1031 ), #475 ) ;
#1034 = STYLED_ITEM ( 'NONE', ( #537 ), #937 ) ;
#1035 = PRESENTATION_LAYER_ASSIGNMENT (  '',  '', ( #1034 ) ) ;
#1036 = MECHANICAL_DESIGN_GEOMETRIC_PRESENTATION_REPRESENTATION (  '', ( #1034 ), #475 ) ;
#1037 = STYLED_ITEM ( 'NONE', ( #537 ), #949 ) ;
#1038 = PRESENTATION_LAYER_ASSIGNMENT (  '',  '', ( #1037 ) ) ;
#1039 = MECHANICAL_DESIGN_GEOMETRIC_PRESENTATION_REPRESENTATION (  '', ( #1037 ), #475 ) ;
#1040 = STYLED_ITEM ( 'NONE', ( #537 ), #967 ) ;
#1041 = PRESENTATION_LAYER_ASSIGNMENT (  '',  '', ( #1040 ) ) ;
#1042 = MECHANICAL_DESIGN_GEOMETRIC_PRESENTATION_REPRESENTATION (  '', ( #1040 ), #475 ) ;
#1043 = STYLED_ITEM ( 'NONE', ( #537 ), #978 ) ;
#1044 = PRESENTATION_LAYER_ASSIGNMENT (  '',  '', ( #1043 ) ) ;
#1045 = MECHANICAL_DESIGN_GEOMETRIC_PRESENTATION_REPRESENTATION (  '', ( #1043 ), #475 ) ;
#1046 = STYLED_ITEM ( 'NONE', ( #537 ), #989 ) ;
#1047 = PRESENTATION_LAYER_ASSIGNMENT (  '',  '', ( #1046 ) ) ;
#1048 = MECHANICAL_DESIGN_GEOMETRIC_PRESENTATION_REPRESENTATION (  '', ( #1046 ), #475 ) ;
#1049 = COLOUR_RGB ( '',0.90980392156863, 0.44313725490196, 0.03137254901961 ) ;
#1050 = FILL_AREA_STYLE_COLOUR ( '', #1049 ) ;
#1051 = FILL_AREA_STYLE ('',( #1050 ) ) ;
#1052 = SURFACE_STYLE_FILL_AREA ( #1051 ) ;
#1053 = SURFACE_SIDE_STYLE ( '',( #1052 ) ) ;
#1054 = SURFACE_STYLE_USAGE ( .BOTH. , #1053 ) ;
#1055 = PRESENTATION_STYLE_ASSIGNMENT (( #1054 ) ) ;
#1056 = CARTESIAN_POINT ( 'NONE',  ( -0.250000000000000, 0.000000000000000, -0.200000000000000 ) ) ;
#1057 = VERTEX_POINT ( 'NONE', #1056 ) ;
#1058 = CARTESIAN_POINT ( 'NONE',  ( -0.250000000000000, 0.000000000000000, 0.200000000000000 ) ) ;
#1059 = VERTEX_POINT ( 'NONE', #1058 ) ;
#1060 = CARTESIAN_POINT ( 'NONE',  ( -0.250000000000000, 0.000000000000000, 0.250000000000000 ) ) ;
#1061 = DIRECTION ( 'NONE',  ( 0.000000000000000, 0.000000000000000, 1.000000000000000 ) ) ;
#1062 = VECTOR ( 'NONE', #1061, 1000.000000000000000 ) ;
#1063 = LINE ( 'NONE', #1060, #1062 ) ;
#1064 = EDGE_CURVE ( 'NONE', #1057, #1059, #1063, .T. ) ;
#1065 = ORIENTED_EDGE ( 'NONE', *, *, #1064, .F. ) ;
#1066 = CARTESIAN_POINT ( 'NONE',  ( 0.250000000000000, 0.000000000000000, -0.200000000000000 ) ) ;
#1067 = VERTEX_POINT ( 'NONE', #1066 ) ;
#1068 = CARTESIAN_POINT ( 'NONE',  ( 0.250000000000000, 0.000000000000000, -0.200000000000000 ) ) ;
#1069 = DIRECTION ( 'NONE',  ( 1.000000000000000, 0.000000000000000, 0.000000000000000 ) ) ;
#1070 = VECTOR ( 'NONE', #1069, 1000.000000000000000 ) ;
#1071 = LINE ( 'NONE', #1068, #1070 ) ;
#1072 = EDGE_CURVE ( 'NONE', #1057, #1067, #1071, .T. ) ;
#1073 = ORIENTED_EDGE ( 'NONE', *, *, #1072, .T. ) ;
#1074 = CARTESIAN_POINT ( 'NONE',  ( 0.250000000000000, 0.000000000000000, 0.200000000000000 ) ) ;
#1075 = VERTEX_POINT ( 'NONE', #1074 ) ;
#1076 = CARTESIAN_POINT ( 'NONE',  ( 0.250000000000000, 0.000000000000000, 0.250000000000000 ) ) ;
#1077 = DIRECTION ( 'NONE',  ( 0.000000000000000, 0.000000000000000, -1.000000000000000 ) ) ;
#1078 = VECTOR ( 'NONE', #1077, 1000.000000000000000 ) ;
#1079 = LINE ( 'NONE', #1076, #1078 ) ;
#1080 = EDGE_CURVE ( 'NONE', #1075, #1067, #1079, .T. ) ;
#1081 = ORIENTED_EDGE ( 'NONE', *, *, #1080, .F. ) ;
#1082 = CARTESIAN_POINT ( 'NONE',  ( -0.250000000000000, 0.000000000000000, 0.200000000000000 ) ) ;
#1083 = DIRECTION ( 'NONE',  ( -1.000000000000000, 0.000000000000000, 0.000000000000000 ) ) ;
#1084 = VECTOR ( 'NONE', #1083, 1000.000000000000000 ) ;
#1085 = LINE ( 'NONE', #1082, #1084 ) ;
#1086 = EDGE_CURVE ( 'NONE', #1075, #1059, #1085, .T. ) ;
#1087 = ORIENTED_EDGE ( 'NONE', *, *, #1086, .T. ) ;
#1088 = EDGE_LOOP ( 'NONE', ( #1065, #1073, #1081, #1087 ) ) ;
#1089 = FACE_OUTER_BOUND ( 'NONE', #1088, .T. ) ;
#1090 = CARTESIAN_POINT ( 'NONE',  ( 0.000000000000000, 0.000000000000000, 0.000000000000000 ) ) ;
#1091 = DIRECTION ( 'NONE',  ( 0.000000000000000, -1.000000000000000, 0.000000000000000 ) ) ;
#1092 = DIRECTION ( 'NONE',  ( 0.000000000000000, 0.000000000000000, -1.000000000000000 ) ) ;
#1093 = AXIS2_PLACEMENT_3D ( 'NONE', #1090, #1091, #1092 ) ;
#1094 = PLANE ( 'NONE', #1093 ) ;
#1095 = ADVANCED_FACE ( 'NONE', ( #1089 ), #1094, .T. ) ;
#1096 = ORIENTED_EDGE ( 'NONE', *, *, #1080, .T. ) ;
#1097 = CARTESIAN_POINT ( 'NONE',  ( 0.250000000000000, 0.050000000000000, -0.250000000000000 ) ) ;
#1098 = VERTEX_POINT ( 'NONE', #1097 ) ;
#1099 = CARTESIAN_POINT ( 'NONE',  ( 0.250000000000000, 0.050000000000000, -0.200000000000000 ) ) ;
#1100 = DIRECTION ( 'NONE',  ( 1.000000000000000, 0.000000000000000, 0.000000000000000 ) ) ;
#1101 = DIRECTION ( 'NONE',  ( 0.000000000000000, 0.000000000000000, 1.000000000000000 ) ) ;
#1102 = AXIS2_PLACEMENT_3D ( 'NONE', #1099, #1100, #1101 ) ;
#1103 = CIRCLE ( 'NONE', #1102, 0.05) ;
#1104 = EDGE_CURVE ( 'NONE', #1067, #1098, #1103, .T. ) ;
#1105 = ORIENTED_EDGE ( 'NONE', *, *, #1104, .T. ) ;
#1106 = CARTESIAN_POINT ( 'NONE',  ( 0.250000000000000, 0.500000000000000, -0.250000000000000 ) ) ;
#1107 = VERTEX_POINT ( 'NONE', #1106 ) ;
#1108 = CARTESIAN_POINT ( 'NONE',  ( 0.250000000000000, 0.550000000000000, -0.250000000000000 ) ) ;
#1109 = DIRECTION ( 'NONE',  ( 0.000000000000000, -1.000000000000000, 0.000000000000000 ) ) ;
#1110 = VECTOR ( 'NONE', #1109, 1000.000000000000000 ) ;
#1111 = LINE ( 'NONE', #1108, #1110 ) ;
#1112 = EDGE_CURVE ( 'NONE', #1107, #1098, #1111, .T. ) ;
#1113 = ORIENTED_EDGE ( 'NONE', *, *, #1112, .F. ) ;
#1114 = CARTESIAN_POINT ( 'NONE',  ( 0.250000000000000, 0.550000000000000, -0.200000000000000 ) ) ;
#1115 = VERTEX_POINT ( 'NONE', #1114 ) ;
#1116 = CARTESIAN_POINT ( 'NONE',  ( 0.250000000000000, 0.500000000000000, -0.200000000000000 ) ) ;
#1117 = DIRECTION ( 'NONE',  ( 1.000000000000000, 0.000000000000000, 0.000000000000000 ) ) ;
#1118 = DIRECTION ( 'NONE',  ( 0.000000000000000, 0.000000000000000, 1.000000000000000 ) ) ;
#1119 = AXIS2_PLACEMENT_3D ( 'NONE', #1116, #1117, #1118 ) ;
#1120 = CIRCLE ( 'NONE', #1119, 0.05) ;
#1121 = EDGE_CURVE ( 'NONE', #1107, #1115, #1120, .T. ) ;
#1122 = ORIENTED_EDGE ( 'NONE', *, *, #1121, .T. ) ;
#1123 = CARTESIAN_POINT ( 'NONE',  ( 0.250000000000000, 0.550000000000000, 0.200000000000000 ) ) ;
#1124 = VERTEX_POINT ( 'NONE', #1123 ) ;
#1125 = CARTESIAN_POINT ( 'NONE',  ( 0.250000000000000, 0.550000000000000, 0.250000000000000 ) ) ;
#1126 = DIRECTION ( 'NONE',  ( 0.000000000000000, 0.000000000000000, -1.000000000000000 ) ) ;
#1127 = VECTOR ( 'NONE', #1126, 1000.000000000000000 ) ;
#1128 = LINE ( 'NONE', #1125, #1127 ) ;
#1129 = EDGE_CURVE ( 'NONE', #1124, #1115, #1128, .T. ) ;
#1130 = ORIENTED_EDGE ( 'NONE', *, *, #1129, .F. ) ;
#1131 = CARTESIAN_POINT ( 'NONE',  ( 0.250000000000000, 0.500000000000000, 0.250000000000000 ) ) ;
#1132 = VERTEX_POINT ( 'NONE', #1131 ) ;
#1133 = CARTESIAN_POINT ( 'NONE',  ( 0.250000000000000, 0.500000000000000, 0.200000000000000 ) ) ;
#1134 = DIRECTION ( 'NONE',  ( 1.000000000000000, 0.000000000000000, 0.000000000000000 ) ) ;
#1135 = DIRECTION ( 'NONE',  ( 0.000000000000000, 0.000000000000000, 1.000000000000000 ) ) ;
#1136 = AXIS2_PLACEMENT_3D ( 'NONE', #1133, #1134, #1135 ) ;
#1137 = CIRCLE ( 'NONE', #1136, 0.05) ;
#1138 = EDGE_CURVE ( 'NONE', #1124, #1132, #1137, .T. ) ;
#1139 = ORIENTED_EDGE ( 'NONE', *, *, #1138, .T. ) ;
#1140 = CARTESIAN_POINT ( 'NONE',  ( 0.250000000000000, 0.050000000000000, 0.250000000000000 ) ) ;
#1141 = VERTEX_POINT ( 'NONE', #1140 ) ;
#1142 = CARTESIAN_POINT ( 'NONE',  ( 0.250000000000000, 0.550000000000000, 0.250000000000000 ) ) ;
#1143 = DIRECTION ( 'NONE',  ( 0.000000000000000, -1.000000000000000, 0.000000000000000 ) ) ;
#1144 = VECTOR ( 'NONE', #1143, 1000.000000000000000 ) ;
#1145 = LINE ( 'NONE', #1142, #1144 ) ;
#1146 = EDGE_CURVE ( 'NONE', #1132, #1141, #1145, .T. ) ;
#1147 = ORIENTED_EDGE ( 'NONE', *, *, #1146, .T. ) ;
#1148 = CARTESIAN_POINT ( 'NONE',  ( 0.250000000000000, 0.050000000000000, 0.200000000000000 ) ) ;
#1149 = DIRECTION ( 'NONE',  ( 1.000000000000000, 0.000000000000000, 0.000000000000000 ) ) ;
#1150 = DIRECTION ( 'NONE',  ( 0.000000000000000, 0.000000000000000, 1.000000000000000 ) ) ;
#1151 = AXIS2_PLACEMENT_3D ( 'NONE', #1148, #1149, #1150 ) ;
#1152 = CIRCLE ( 'NONE', #1151, 0.05) ;
#1153 = EDGE_CURVE ( 'NONE', #1141, #1075, #1152, .T. ) ;
#1154 = ORIENTED_EDGE ( 'NONE', *, *, #1153, .T. ) ;
#1155 = EDGE_LOOP ( 'NONE', ( #1096, #1105, #1113, #1122, #1130, #1139, #1147, #1154 ) ) ;
#1156 = FACE_OUTER_BOUND ( 'NONE', #1155, .T. ) ;
#1157 = CARTESIAN_POINT ( 'NONE',  ( 0.250000000000000, 0.550000000000000, 0.250000000000000 ) ) ;
#1158 = DIRECTION ( 'NONE',  ( -1.000000000000000, 0.000000000000000, 0.000000000000000 ) ) ;
#1159 = DIRECTION ( 'NONE',  ( 0.000000000000000, 0.000000000000000, 1.000000000000000 ) ) ;
#1160 = AXIS2_PLACEMENT_3D ( 'NONE', #1157, #1158, #1159 ) ;
#1161 = PLANE ( 'NONE', #1160 ) ;
#1162 = ADVANCED_FACE ( 'NONE', ( #1156 ), #1161, .F. ) ;
#1163 = ORIENTED_EDGE ( 'NONE', *, *, #1129, .T. ) ;
#1164 = CARTESIAN_POINT ( 'NONE',  ( -0.250000000000000, 0.550000000000000, -0.200000000000000 ) ) ;
#1165 = VERTEX_POINT ( 'NONE', #1164 ) ;
#1166 = CARTESIAN_POINT ( 'NONE',  ( 0.000000000000000, 0.550000000000000, -0.200000000000000 ) ) ;
#1167 = DIRECTION ( 'NONE',  ( -1.000000000000000, 0.000000000000000, 0.000000000000000 ) ) ;
#1168 = VECTOR ( 'NONE', #1167, 1000.000000000000000 ) ;
#1169 = LINE ( 'NONE', #1166, #1168 ) ;
#1170 = EDGE_CURVE ( 'NONE', #1115, #1165, #1169, .T. ) ;
#1171 = ORIENTED_EDGE ( 'NONE', *, *, #1170, .T. ) ;
#1172 = CARTESIAN_POINT ( 'NONE',  ( -0.250000000000000, 0.550000000000000, 0.200000000000000 ) ) ;
#1173 = VERTEX_POINT ( 'NONE', #1172 ) ;
#1174 = CARTESIAN_POINT ( 'NONE',  ( -0.250000000000000, 0.550000000000000, 0.250000000000000 ) ) ;
#1175 = DIRECTION ( 'NONE',  ( 0.000000000000000, 0.000000000000000, 1.000000000000000 ) ) ;
#1176 = VECTOR ( 'NONE', #1175, 1000.000000000000000 ) ;
#1177 = LINE ( 'NONE', #1174, #1176 ) ;
#1178 = EDGE_CURVE ( 'NONE', #1165, #1173, #1177, .T. ) ;
#1179 = ORIENTED_EDGE ( 'NONE', *, *, #1178, .T. ) ;
#1180 = CARTESIAN_POINT ( 'NONE',  ( 0.000000000000000, 0.550000000000000, 0.200000000000000 ) ) ;
#1181 = DIRECTION ( 'NONE',  ( 1.000000000000000, 0.000000000000000, 0.000000000000000 ) ) ;
#1182 = VECTOR ( 'NONE', #1181, 1000.000000000000000 ) ;
#1183 = LINE ( 'NONE', #1180, #1182 ) ;
#1184 = EDGE_CURVE ( 'NONE', #1173, #1124, #1183, .T. ) ;
#1185 = ORIENTED_EDGE ( 'NONE', *, *, #1184, .T. ) ;
#1186 = EDGE_LOOP ( 'NONE', ( #1163, #1171, #1179, #1185 ) ) ;
#1187 = FACE_OUTER_BOUND ( 'NONE', #1186, .T. ) ;
#1188 = CARTESIAN_POINT ( 'NONE',  ( 0.000000000000000, 0.550000000000000, 0.000000000000000 ) ) ;
#1189 = DIRECTION ( 'NONE',  ( 0.000000000000000, -1.000000000000000, 0.000000000000000 ) ) ;
#1190 = DIRECTION ( 'NONE',  ( 0.000000000000000, 0.000000000000000, -1.000000000000000 ) ) ;
#1191 = AXIS2_PLACEMENT_3D ( 'NONE', #1188, #1189, #1190 ) ;
#1192 = PLANE ( 'NONE', #1191 ) ;
#1193 = ADVANCED_FACE ( 'NONE', ( #1187 ), #1192, .F. ) ;
#1194 = ORIENTED_EDGE ( 'NONE', *, *, #1112, .T. ) ;
#1195 = CARTESIAN_POINT ( 'NONE',  ( -0.250000000000000, 0.050000000000000, -0.250000000000000 ) ) ;
#1196 = VERTEX_POINT ( 'NONE', #1195 ) ;
#1197 = CARTESIAN_POINT ( 'NONE',  ( -0.250000000000000, 0.050000000000000, -0.250000000000000 ) ) ;
#1198 = DIRECTION ( 'NONE',  ( -1.000000000000000, 0.000000000000000, 0.000000000000000 ) ) ;
#1199 = VECTOR ( 'NONE', #1198, 1000.000000000000000 ) ;
#1200 = LINE ( 'NONE', #1197, #1199 ) ;
#1201 = EDGE_CURVE ( 'NONE', #1098, #1196, #1200, .T. ) ;
#1202 = ORIENTED_EDGE ( 'NONE', *, *, #1201, .T. ) ;
#1203 = CARTESIAN_POINT ( 'NONE',  ( -0.250000000000000, 0.500000000000000, -0.250000000000000 ) ) ;
#1204 = VERTEX_POINT ( 'NONE', #1203 ) ;
#1205 = CARTESIAN_POINT ( 'NONE',  ( -0.250000000000000, 0.550000000000000, -0.250000000000000 ) ) ;
#1206 = DIRECTION ( 'NONE',  ( 0.000000000000000, -1.000000000000000, 0.000000000000000 ) ) ;
#1207 = VECTOR ( 'NONE', #1206, 1000.000000000000000 ) ;
#1208 = LINE ( 'NONE', #1205, #1207 ) ;
#1209 = EDGE_CURVE ( 'NONE', #1204, #1196, #1208, .T. ) ;
#1210 = ORIENTED_EDGE ( 'NONE', *, *, #1209, .F. ) ;
#1211 = CARTESIAN_POINT ( 'NONE',  ( -0.250000000000000, 0.500000000000000, -0.250000000000000 ) ) ;
#1212 = DIRECTION ( 'NONE',  ( 1.000000000000000, 0.000000000000000, 0.000000000000000 ) ) ;
#1213 = VECTOR ( 'NONE', #1212, 1000.000000000000000 ) ;
#1214 = LINE ( 'NONE', #1211, #1213 ) ;
#1215 = EDGE_CURVE ( 'NONE', #1204, #1107, #1214, .T. ) ;
#1216 = ORIENTED_EDGE ( 'NONE', *, *, #1215, .T. ) ;
#1217 = EDGE_LOOP ( 'NONE', ( #1194, #1202, #1210, #1216 ) ) ;
#1218 = FACE_OUTER_BOUND ( 'NONE', #1217, .T. ) ;
#1219 = CARTESIAN_POINT ( 'NONE',  ( -0.250000000000000, 0.550000000000000, -0.250000000000000 ) ) ;
#1220 = DIRECTION ( 'NONE',  ( 0.000000000000000, 0.000000000000000, 1.000000000000000 ) ) ;
#1221 = DIRECTION ( 'NONE',  ( 1.000000000000000, 0.000000000000000, 0.000000000000000 ) ) ;
#1222 = AXIS2_PLACEMENT_3D ( 'NONE', #1219, #1220, #1221 ) ;
#1223 = PLANE ( 'NONE', #1222 ) ;
#1224 = ADVANCED_FACE ( 'NONE', ( #1218 ), #1223, .F. ) ;
#1225 = ORIENTED_EDGE ( 'NONE', *, *, #1209, .T. ) ;
#1226 = CARTESIAN_POINT ( 'NONE',  ( -0.250000000000000, 0.050000000000000, -0.200000000000000 ) ) ;
#1227 = DIRECTION ( 'NONE',  ( -1.000000000000000, 0.000000000000000, 0.000000000000000 ) ) ;
#1228 = DIRECTION ( 'NONE',  ( 0.000000000000000, 0.000000000000000, -1.000000000000000 ) ) ;
#1229 = AXIS2_PLACEMENT_3D ( 'NONE', #1226, #1227, #1228 ) ;
#1230 = CIRCLE ( 'NONE', #1229, 0.05) ;
#1231 = EDGE_CURVE ( 'NONE', #1196, #1057, #1230, .T. ) ;
#1232 = ORIENTED_EDGE ( 'NONE', *, *, #1231, .T. ) ;
#1233 = ORIENTED_EDGE ( 'NONE', *, *, #1064, .T. ) ;
#1234 = CARTESIAN_POINT ( 'NONE',  ( -0.250000000000000, 0.050000000000000, 0.250000000000000 ) ) ;
#1235 = VERTEX_POINT ( 'NONE', #1234 ) ;
#1236 = CARTESIAN_POINT ( 'NONE',  ( -0.250000000000000, 0.050000000000000, 0.200000000000000 ) ) ;
#1237 = DIRECTION ( 'NONE',  ( -1.000000000000000, 0.000000000000000, 0.000000000000000 ) ) ;
#1238 = DIRECTION ( 'NONE',  ( 0.000000000000000, 0.000000000000000, -1.000000000000000 ) ) ;
#1239 = AXIS2_PLACEMENT_3D ( 'NONE', #1236, #1237, #1238 ) ;
#1240 = CIRCLE ( 'NONE', #1239, 0.05) ;
#1241 = EDGE_CURVE ( 'NONE', #1059, #1235, #1240, .T. ) ;
#1242 = ORIENTED_EDGE ( 'NONE', *, *, #1241, .T. ) ;
#1243 = CARTESIAN_POINT ( 'NONE',  ( -0.250000000000000, 0.500000000000000, 0.250000000000000 ) ) ;
#1244 = VERTEX_POINT ( 'NONE', #1243 ) ;
#1245 = CARTESIAN_POINT ( 'NONE',  ( -0.250000000000000, 0.550000000000000, 0.250000000000000 ) ) ;
#1246 = DIRECTION ( 'NONE',  ( 0.000000000000000, -1.000000000000000, 0.000000000000000 ) ) ;
#1247 = VECTOR ( 'NONE', #1246, 1000.000000000000000 ) ;
#1248 = LINE ( 'NONE', #1245, #1247 ) ;
#1249 = EDGE_CURVE ( 'NONE', #1244, #1235, #1248, .T. ) ;
#1250 = ORIENTED_EDGE ( 'NONE', *, *, #1249, .F. ) ;
#1251 = CARTESIAN_POINT ( 'NONE',  ( -0.250000000000000, 0.500000000000000, 0.200000000000000 ) ) ;
#1252 = DIRECTION ( 'NONE',  ( -1.000000000000000, 0.000000000000000, 0.000000000000000 ) ) ;
#1253 = DIRECTION ( 'NONE',  ( 0.000000000000000, 0.000000000000000, -1.000000000000000 ) ) ;
#1254 = AXIS2_PLACEMENT_3D ( 'NONE', #1251, #1252, #1253 ) ;
#1255 = CIRCLE ( 'NONE', #1254, 0.05) ;
#1256 = EDGE_CURVE ( 'NONE', #1244, #1173, #1255, .T. ) ;
#1257 = ORIENTED_EDGE ( 'NONE', *, *, #1256, .T. ) ;
#1258 = ORIENTED_EDGE ( 'NONE', *, *, #1178, .F. ) ;
#1259 = CARTESIAN_POINT ( 'NONE',  ( -0.250000000000000, 0.500000000000000, -0.200000000000000 ) ) ;
#1260 = DIRECTION ( 'NONE',  ( -1.000000000000000, 0.000000000000000, 0.000000000000000 ) ) ;
#1261 = DIRECTION ( 'NONE',  ( 0.000000000000000, 0.000000000000000, -1.000000000000000 ) ) ;
#1262 = AXIS2_PLACEMENT_3D ( 'NONE', #1259, #1260, #1261 ) ;
#1263 = CIRCLE ( 'NONE', #1262, 0.05) ;
#1264 = EDGE_CURVE ( 'NONE', #1165, #1204, #1263, .T. ) ;
#1265 = ORIENTED_EDGE ( 'NONE', *, *, #1264, .T. ) ;
#1266 = EDGE_LOOP ( 'NONE', ( #1225, #1232, #1233, #1242, #1250, #1257, #1258, #1265 ) ) ;
#1267 = FACE_OUTER_BOUND ( 'NONE', #1266, .T. ) ;
#1268 = CARTESIAN_POINT ( 'NONE',  ( -0.250000000000000, 0.550000000000000, 0.250000000000000 ) ) ;
#1269 = DIRECTION ( 'NONE',  ( 1.000000000000000, 0.000000000000000, 0.000000000000000 ) ) ;
#1270 = DIRECTION ( 'NONE',  ( 0.000000000000000, 0.000000000000000, -1.000000000000000 ) ) ;
#1271 = AXIS2_PLACEMENT_3D ( 'NONE', #1268, #1269, #1270 ) ;
#1272 = PLANE ( 'NONE', #1271 ) ;
#1273 = ADVANCED_FACE ( 'NONE', ( #1267 ), #1272, .F. ) ;
#1274 = ORIENTED_EDGE ( 'NONE', *, *, #1249, .T. ) ;
#1275 = CARTESIAN_POINT ( 'NONE',  ( 0.250000000000000, 0.050000000000000, 0.250000000000000 ) ) ;
#1276 = DIRECTION ( 'NONE',  ( 1.000000000000000, 0.000000000000000, 0.000000000000000 ) ) ;
#1277 = VECTOR ( 'NONE', #1276, 1000.000000000000000 ) ;
#1278 = LINE ( 'NONE', #1275, #1277 ) ;
#1279 = EDGE_CURVE ( 'NONE', #1235, #1141, #1278, .T. ) ;
#1280 = ORIENTED_EDGE ( 'NONE', *, *, #1279, .T. ) ;
#1281 = ORIENTED_EDGE ( 'NONE', *, *, #1146, .F. ) ;
#1282 = CARTESIAN_POINT ( 'NONE',  ( -0.250000000000000, 0.500000000000000, 0.250000000000000 ) ) ;
#1283 = DIRECTION ( 'NONE',  ( -1.000000000000000, 0.000000000000000, 0.000000000000000 ) ) ;
#1284 = VECTOR ( 'NONE', #1283, 1000.000000000000000 ) ;
#1285 = LINE ( 'NONE', #1282, #1284 ) ;
#1286 = EDGE_CURVE ( 'NONE', #1132, #1244, #1285, .T. ) ;
#1287 = ORIENTED_EDGE ( 'NONE', *, *, #1286, .T. ) ;
#1288 = EDGE_LOOP ( 'NONE', ( #1274, #1280, #1281, #1287 ) ) ;
#1289 = FACE_OUTER_BOUND ( 'NONE', #1288, .T. ) ;
#1290 = CARTESIAN_POINT ( 'NONE',  ( -0.250000000000000, 0.550000000000000, 0.250000000000000 ) ) ;
#1291 = DIRECTION ( 'NONE',  ( 0.000000000000000, 0.000000000000000, -1.000000000000000 ) ) ;
#1292 = DIRECTION ( 'NONE',  ( -1.000000000000000, 0.000000000000000, 0.000000000000000 ) ) ;
#1293 = AXIS2_PLACEMENT_3D ( 'NONE', #1290, #1291, #1292 ) ;
#1294 = PLANE ( 'NONE', #1293 ) ;
#1295 = ADVANCED_FACE ( 'NONE', ( #1289 ), #1294, .F. ) ;
#1296 = ORIENTED_EDGE ( 'NONE', *, *, #1104, .F. ) ;
#1297 = ORIENTED_EDGE ( 'NONE', *, *, #1072, .F. ) ;
#1298 = ORIENTED_EDGE ( 'NONE', *, *, #1231, .F. ) ;
#1299 = ORIENTED_EDGE ( 'NONE', *, *, #1201, .F. ) ;
#1300 = EDGE_LOOP ( 'NONE', ( #1296, #1297, #1298, #1299 ) ) ;
#1301 = FACE_OUTER_BOUND ( 'NONE', #1300, .T. ) ;
#1302 = CARTESIAN_POINT ( 'NONE',  ( -0.250000000000000, 0.050000000000000, -0.200000000000000 ) ) ;
#1303 = DIRECTION ( 'NONE',  ( 1.000000000000000, 0.000000000000000, 0.000000000000000 ) ) ;
#1304 = DIRECTION ( 'NONE',  ( 0.000000000000000, 0.000000000000000, -1.000000000000000 ) ) ;
#1305 = AXIS2_PLACEMENT_3D ( 'NONE', #1302, #1303, #1304 ) ;
#1306 = CYLINDRICAL_SURFACE ( 'NONE', #1305, 0.05) ;
#1307 = ADVANCED_FACE ( 'NONE', ( #1301 ), #1306, .T. ) ;
#1308 = ORIENTED_EDGE ( 'NONE', *, *, #1121, .F. ) ;
#1309 = ORIENTED_EDGE ( 'NONE', *, *, #1215, .F. ) ;
#1310 = ORIENTED_EDGE ( 'NONE', *, *, #1264, .F. ) ;
#1311 = ORIENTED_EDGE ( 'NONE', *, *, #1170, .F. ) ;
#1312 = EDGE_LOOP ( 'NONE', ( #1308, #1309, #1310, #1311 ) ) ;
#1313 = FACE_OUTER_BOUND ( 'NONE', #1312, .T. ) ;
#1314 = CARTESIAN_POINT ( 'NONE',  ( 0.000000000000000, 0.500000000000000, -0.200000000000000 ) ) ;
#1315 = DIRECTION ( 'NONE',  ( -1.000000000000000, 0.000000000000000, 0.000000000000000 ) ) ;
#1316 = DIRECTION ( 'NONE',  ( 0.000000000000000, 0.000000000000000, 1.000000000000000 ) ) ;
#1317 = AXIS2_PLACEMENT_3D ( 'NONE', #1314, #1315, #1316 ) ;
#1318 = CYLINDRICAL_SURFACE ( 'NONE', #1317, 0.05) ;
#1319 = ADVANCED_FACE ( 'NONE', ( #1313 ), #1318, .T. ) ;
#1320 = ORIENTED_EDGE ( 'NONE', *, *, #1241, .F. ) ;
#1321 = ORIENTED_EDGE ( 'NONE', *, *, #1086, .F. ) ;
#1322 = ORIENTED_EDGE ( 'NONE', *, *, #1153, .F. ) ;
#1323 = ORIENTED_EDGE ( 'NONE', *, *, #1279, .F. ) ;
#1324 = EDGE_LOOP ( 'NONE', ( #1320, #1321, #1322, #1323 ) ) ;
#1325 = FACE_OUTER_BOUND ( 'NONE', #1324, .T. ) ;
#1326 = CARTESIAN_POINT ( 'NONE',  ( -0.250000000000000, 0.050000000000000, 0.200000000000000 ) ) ;
#1327 = DIRECTION ( 'NONE',  ( -1.000000000000000, 0.000000000000000, 0.000000000000000 ) ) ;
#1328 = DIRECTION ( 'NONE',  ( 0.000000000000000, 0.000000000000000, 1.000000000000000 ) ) ;
#1329 = AXIS2_PLACEMENT_3D ( 'NONE', #1326, #1327, #1328 ) ;
#1330 = CYLINDRICAL_SURFACE ( 'NONE', #1329, 0.05) ;
#1331 = ADVANCED_FACE ( 'NONE', ( #1325 ), #1330, .T. ) ;
#1332 = ORIENTED_EDGE ( 'NONE', *, *, #1256, .F. ) ;
#1333 = ORIENTED_EDGE ( 'NONE', *, *, #1286, .F. ) ;
#1334 = ORIENTED_EDGE ( 'NONE', *, *, #1138, .F. ) ;
#1335 = ORIENTED_EDGE ( 'NONE', *, *, #1184, .F. ) ;
#1336 = EDGE_LOOP ( 'NONE', ( #1332, #1333, #1334, #1335 ) ) ;
#1337 = FACE_OUTER_BOUND ( 'NONE', #1336, .T. ) ;
#1338 = CARTESIAN_POINT ( 'NONE',  ( 0.000000000000000, 0.500000000000000, 0.200000000000000 ) ) ;
#1339 = DIRECTION ( 'NONE',  ( 1.000000000000000, 0.000000000000000, 0.000000000000000 ) ) ;
#1340 = DIRECTION ( 'NONE',  ( 0.000000000000000, 0.000000000000000, -1.000000000000000 ) ) ;
#1341 = AXIS2_PLACEMENT_3D ( 'NONE', #1338, #1339, #1340 ) ;
#1342 = CYLINDRICAL_SURFACE ( 'NONE', #1341, 0.05) ;
#1343 = ADVANCED_FACE ( 'NONE', ( #1337 ), #1342, .T. ) ;
#1344 = CLOSED_SHELL ( 'NONE', ( #1095, #1162, #1193, #1224, #1273, #1295, #1307, #1319, #1331, #1343 ) ) ;
#1345 = MANIFOLD_SOLID_BREP ( 'Chip', #1344 ) ;
#1346 = STYLED_ITEM ( 'NONE', ( #1055 ), #1345 ) ;
#1347 = PRESENTATION_LAYER_ASSIGNMENT (  '',  '', ( #1346 ) ) ;
#1348 = MECHANICAL_DESIGN_GEOMETRIC_PRESENTATION_REPRESENTATION (  '', ( #1346 ), #475 ) ;
#1349 = STYLED_ITEM ( 'NONE', ( #1055 ), #1095 ) ;
#1350 = PRESENTATION_LAYER_ASSIGNMENT (  '',  '', ( #1349 ) ) ;
#1351 = MECHANICAL_DESIGN_GEOMETRIC_PRESENTATION_REPRESENTATION (  '', ( #1349 ), #475 ) ;
#1352 = STYLED_ITEM ( 'NONE', ( #1055 ), #1162 ) ;
#1353 = PRESENTATION_LAYER_ASSIGNMENT (  '',  '', ( #1352 ) ) ;
#1354 = MECHANICAL_DESIGN_GEOMETRIC_PRESENTATION_REPRESENTATION (  '', ( #1352 ), #475 ) ;
#1355 = STYLED_ITEM ( 'NONE', ( #1055 ), #1193 ) ;
#1356 = PRESENTATION_LAYER_ASSIGNMENT (  '',  '', ( #1355 ) ) ;
#1357 = MECHANICAL_DESIGN_GEOMETRIC_PRESENTATION_REPRESENTATION (  '', ( #1355 ), #475 ) ;
#1358 = STYLED_ITEM ( 'NONE', ( #1055 ), #1224 ) ;
#1359 = PRESENTATION_LAYER_ASSIGNMENT (  '',  '', ( #1358 ) ) ;
#1360 = MECHANICAL_DESIGN_GEOMETRIC_PRESENTATION_REPRESENTATION (  '', ( #1358 ), #475 ) ;
#1361 = STYLED_ITEM ( 'NONE', ( #1055 ), #1273 ) ;
#1362 = PRESENTATION_LAYER_ASSIGNMENT (  '',  '', ( #1361 ) ) ;
#1363 = MECHANICAL_DESIGN_GEOMETRIC_PRESENTATION_REPRESENTATION (  '', ( #1361 ), #475 ) ;
#1364 = STYLED_ITEM ( 'NONE', ( #1055 ), #1295 ) ;
#1365 = PRESENTATION_LAYER_ASSIGNMENT (  '',  '', ( #1364 ) ) ;
#1366 = MECHANICAL_DESIGN_GEOMETRIC_PRESENTATION_REPRESENTATION (  '', ( #1364 ), #475 ) ;
#1367 = STYLED_ITEM ( 'NONE', ( #1055 ), #1307 ) ;
#1368 = PRESENTATION_LAYER_ASSIGNMENT (  '',  '', ( #1367 ) ) ;
#1369 = MECHANICAL_DESIGN_GEOMETRIC_PRESENTATION_REPRESENTATION (  '', ( #1367 ), #475 ) ;
#1370 = STYLED_ITEM ( 'NONE', ( #1055 ), #1319 ) ;
#1371 = PRESENTATION_LAYER_ASSIGNMENT (  '',  '', ( #1370 ) ) ;
#1372 = MECHANICAL_DESIGN_GEOMETRIC_PRESENTATION_REPRESENTATION (  '', ( #1370 ), #475 ) ;
#1373 = STYLED_ITEM ( 'NONE', ( #1055 ), #1331 ) ;
#1374 = PRESENTATION_LAYER_ASSIGNMENT (  '',  '', ( #1373 ) ) ;
#1375 = MECHANICAL_DESIGN_GEOMETRIC_PRESENTATION_REPRESENTATION (  '', ( #1373 ), #475 ) ;
#1376 = STYLED_ITEM ( 'NONE', ( #1055 ), #1343 ) ;
#1377 = PRESENTATION_LAYER_ASSIGNMENT (  '',  '', ( #1376 ) ) ;
#1378 = MECHANICAL_DESIGN_GEOMETRIC_PRESENTATION_REPRESENTATION (  '', ( #1376 ), #475 ) ;
#1379 = COLOUR_RGB ( '',0.90980392156863, 0.44313725490196, 0.03137254901961 ) ;
#1380 = FILL_AREA_STYLE_COLOUR ( '', #1379 ) ;
#1381 = FILL_AREA_STYLE ('',( #1380 ) ) ;
#1382 = SURFACE_STYLE_FILL_AREA ( #1381 ) ;
#1383 = SURFACE_SIDE_STYLE ( '',( #1382 ) ) ;
#1384 = SURFACE_STYLE_USAGE ( .BOTH. , #1383 ) ;
#1385 = PRESENTATION_STYLE_ASSIGNMENT (( #1384 ) ) ;
#1386 = CARTESIAN_POINT ( 'NONE',  ( 0.000000000000000, 0.000000000000000, 0.000000000000000 ) ) ;
#1387 = DIRECTION ( 'NONE',  ( 0.000000000000000, 0.000000000000000, 1.000000000000000 ) ) ;
#1388 = DIRECTION ( 'NONE',  ( 1.000000000000000, 0.000000000000000, 0.000000000000000 ) ) ;
#1389 = AXIS2_PLACEMENT_3D ( 'NONE', #1386, #1387, #1388 ) ;
#1390 = ADVANCED_BREP_SHAPE_REPRESENTATION ( 'CAPC100X50X55L25', ( #468, #991, #1345, #1389 ), #475 ) ;
#1391 = STYLED_ITEM ( 'NONE', ( #1385 ), #1390 ) ;
#1392 = PRESENTATION_LAYER_ASSIGNMENT (  '',  '', ( #1391 ) ) ;
#1393 = MECHANICAL_DESIGN_GEOMETRIC_PRESENTATION_REPRESENTATION (  '', ( #1391 ), #475 ) ;
#1394 = PRODUCT_DEFINITION_FORMATION_WITH_SPECIFIED_SOURCE ( 'ANY', '', #5, .NOT_KNOWN. ) ;
#1395 = PRODUCT_DEFINITION_CONTEXT ( 'detailed design', #3, 'design' ) ;
#1396 = PRODUCT_DEFINITION ( 'UNKNOWN', '', #1394, #1395 ) ;
#1397 = PRODUCT_DEFINITION_SHAPE ( 'NONE', 'NONE', #1396 ) ;
#1398 = SHAPE_DEFINITION_REPRESENTATION ( #1397, #1390 ) ;
ENDSEC;
END-ISO-10303-21;
