ISO-10303-21;
HEADER;
FILE_DESCRIPTION(('STEP AP214'),'1');
FILE_NAME('K103K10X7RF5UH5_VIS','2024-01-28T05:09:33',(''),(''),'','','');
FILE_SCHEMA(('AUTOMOTIVE_DESIGN'));
ENDSEC;
DATA;
#1=SHAPE_DEFINITION_REPRESENTATION(#2,#3);
#2=PRODUCT_DEFINITION_SHAPE('',$,#4);
#3=SHAPE_REPRESENTATION('',(#188,#485,#1079,#19),#11);
#4=PRODUCT_DEFINITION('design','example product_definition',#6,#5);
#5=PRODUCT_DEFINITION_CONTEXT('3D Mechanical Parts',#10,'design');
#6=PRODUCT_DEFINITION_FORMATION('1.0','first version',#8);
#7=APPLICATION_PROTOCOL_DEFINITION('international standard','automotive_design',2003,#10);
#8=PRODUCT('product','part','',(#9));
#9=PRODUCT_CONTEXT('3D Mechanical Parts',#10,'mechanical');
#10=APPLICATION_CONTEXT('Core Data for Automotive Mechanical Design Process');
#11=(GEOMETRIC_REPRESENTATION_CONTEXT(3) GLOBAL_UNCERTAINTY_ASSIGNED_CONTEXT((#12)) GLOBAL_UNIT_ASSIGNED_CONTEXT((#13,#14,#18)) REPRESENTATION_CONTEXT('ID1','3D'));
#12=UNCERTAINTY_MEASURE_WITH_UNIT(LENGTH_MEASURE(1.E-005),#13,'DISTANCE_ACCURACY_VALUE','Maximum model space distance between geometric entities at asserted connectivities');
#13=(LENGTH_UNIT() NAMED_UNIT(*) SI_UNIT(.MILLI.,.METRE.));
#14=(CONVERSION_BASED_UNIT('degree',#16) NAMED_UNIT(#15) PLANE_ANGLE_UNIT());
#15=DIMENSIONAL_EXPONENTS(0.,0.,0.,0.,0.,0.,0.);
#16=MEASURE_WITH_UNIT(PLANE_ANGLE_MEASURE(0.01745329252),#17);
#17=(NAMED_UNIT(*) PLANE_ANGLE_UNIT() SI_UNIT($,.RADIAN.));
#18=(NAMED_UNIT(*) SI_UNIT($,.STERADIAN.) SOLID_ANGLE_UNIT());
#19=AXIS2_PLACEMENT_3D('',#20,#21,#22);
#20=CARTESIAN_POINT('',(0.0,0.0,0.0));
#21=DIRECTION('',(0.0,0.0,1.0));
#22=DIRECTION('',(1.0,0.0,0.0));
#25=MECHANICAL_DESIGN_GEOMETRIC_PRESENTATION_REPRESENTATION($,(#190,#239,#288,#337,#386,#435,#487,#518,#549,#602,#655,#708,#761,#814,#867,#920,#973,#1026,#1081,#1112,#1143,#1196,#1249,#1302,#1355,#1408,#1461,#1514,#1567,#1620),#11);
#26=PRODUCT_CATEGORY_RELATIONSHIP('','',#27,#28);
#27=PRODUCT_CATEGORY('part','');
#28=PRODUCT_RELATED_PRODUCT_CATEGORY('','',(#8));
#34=PRESENTATION_STYLE_ASSIGNMENT((#35,#40));
#35=SURFACE_STYLE_USAGE(.BOTH.,#36);
#36=SURFACE_SIDE_STYLE('',(#37));
#37=SURFACE_STYLE_FILL_AREA(#38);
#38=FILL_AREA_STYLE('',(#39));
#39=FILL_AREA_STYLE_COLOUR('',#41);
#40=CURVE_STYLE('',#42,POSITIVE_LENGTH_MEASURE(0.1),#41);
#41=COLOUR_RGB('Aluminum',0.725,0.725,0.725);
#42=DRAUGHTING_PRE_DEFINED_CURVE_FONT('continuous');
#43=PRESENTATION_STYLE_ASSIGNMENT((#44,#49));
#44=SURFACE_STYLE_USAGE(.BOTH.,#45);
#45=SURFACE_SIDE_STYLE('',(#46));
#46=SURFACE_STYLE_FILL_AREA(#47);
#47=FILL_AREA_STYLE('',(#48));
#48=FILL_AREA_STYLE_COLOUR('',#50);
#49=CURVE_STYLE('',#51,POSITIVE_LENGTH_MEASURE(0.1),#50);
#50=COLOUR_RGB('Tan',0.784,0.686,0.51);
#51=DRAUGHTING_PRE_DEFINED_CURVE_FONT('continuous');
#52=PRESENTATION_STYLE_ASSIGNMENT((#53,#58));
#53=SURFACE_STYLE_USAGE(.BOTH.,#54);
#54=SURFACE_SIDE_STYLE('',(#55));
#55=SURFACE_STYLE_FILL_AREA(#56);
#56=FILL_AREA_STYLE('',(#57));
#57=FILL_AREA_STYLE_COLOUR('',#59);
#58=CURVE_STYLE('',#60,POSITIVE_LENGTH_MEASURE(0.1),#59);
#59=COLOUR_RGB('Pin1',0.588,0.588,0.588);
#60=DRAUGHTING_PRE_DEFINED_CURVE_FONT('continuous');
#61=PRESENTATION_STYLE_ASSIGNMENT((#62,#67));
#62=SURFACE_STYLE_USAGE(.BOTH.,#63);
#63=SURFACE_SIDE_STYLE('',(#64));
#64=SURFACE_STYLE_FILL_AREA(#65);
#65=FILL_AREA_STYLE('',(#66));
#66=FILL_AREA_STYLE_COLOUR('',#68);
#67=CURVE_STYLE('',#69,POSITIVE_LENGTH_MEASURE(0.1),#68);
#68=COLOUR_RGB('HeatTab',0.588,0.588,0.588);
#69=DRAUGHTING_PRE_DEFINED_CURVE_FONT('continuous');
#70=PRESENTATION_STYLE_ASSIGNMENT((#71,#76));
#71=SURFACE_STYLE_USAGE(.BOTH.,#72);
#72=SURFACE_SIDE_STYLE('',(#73));
#73=SURFACE_STYLE_FILL_AREA(#74);
#74=FILL_AREA_STYLE('',(#75));
#75=FILL_AREA_STYLE_COLOUR('',#77);
#76=CURVE_STYLE('',#78,POSITIVE_LENGTH_MEASURE(0.1),#77);
#77=COLOUR_RGB('Black',0.196,0.196,0.196);
#78=DRAUGHTING_PRE_DEFINED_CURVE_FONT('continuous');
#79=PRESENTATION_STYLE_ASSIGNMENT((#80,#85));
#80=SURFACE_STYLE_USAGE(.BOTH.,#81);
#81=SURFACE_SIDE_STYLE('',(#82));
#82=SURFACE_STYLE_FILL_AREA(#83);
#83=FILL_AREA_STYLE('',(#84));
#84=FILL_AREA_STYLE_COLOUR('',#86);
#85=CURVE_STYLE('',#87,POSITIVE_LENGTH_MEASURE(0.1),#86);
#86=COLOUR_RGB('Gold',0.843,0.686,0.0);
#87=DRAUGHTING_PRE_DEFINED_CURVE_FONT('continuous');
#88=PRESENTATION_STYLE_ASSIGNMENT((#89,#94));
#89=SURFACE_STYLE_USAGE(.BOTH.,#90);
#90=SURFACE_SIDE_STYLE('',(#91));
#91=SURFACE_STYLE_FILL_AREA(#92);
#92=FILL_AREA_STYLE('',(#93));
#93=FILL_AREA_STYLE_COLOUR('',#95);
#94=CURVE_STYLE('',#96,POSITIVE_LENGTH_MEASURE(0.1),#95);
#95=COLOUR_RGB('Brown',0.459,0.345,0.176);
#96=DRAUGHTING_PRE_DEFINED_CURVE_FONT('continuous');
#97=PRESENTATION_STYLE_ASSIGNMENT((#98,#103));
#98=SURFACE_STYLE_USAGE(.BOTH.,#99);
#99=SURFACE_SIDE_STYLE('',(#100));
#100=SURFACE_STYLE_FILL_AREA(#101);
#101=FILL_AREA_STYLE('',(#102));
#102=FILL_AREA_STYLE_COLOUR('',#104);
#103=CURVE_STYLE('',#105,POSITIVE_LENGTH_MEASURE(0.1),#104);
#104=COLOUR_RGB('Gray',0.431,0.431,0.431);
#105=DRAUGHTING_PRE_DEFINED_CURVE_FONT('continuous');
#106=PRESENTATION_STYLE_ASSIGNMENT((#107,#112));
#107=SURFACE_STYLE_USAGE(.BOTH.,#108);
#108=SURFACE_SIDE_STYLE('',(#109));
#109=SURFACE_STYLE_FILL_AREA(#110);
#110=FILL_AREA_STYLE('',(#111));
#111=FILL_AREA_STYLE_COLOUR('',#113);
#112=CURVE_STYLE('',#114,POSITIVE_LENGTH_MEASURE(0.1),#113);
#113=COLOUR_RGB('Red',0.6,0.0,0.0);
#114=DRAUGHTING_PRE_DEFINED_CURVE_FONT('continuous');
#115=PRESENTATION_STYLE_ASSIGNMENT((#116,#121));
#116=SURFACE_STYLE_USAGE(.BOTH.,#117);
#117=SURFACE_SIDE_STYLE('',(#118));
#118=SURFACE_STYLE_FILL_AREA(#119);
#119=FILL_AREA_STYLE('',(#120));
#120=FILL_AREA_STYLE_COLOUR('',#122);
#121=CURVE_STYLE('',#123,POSITIVE_LENGTH_MEASURE(0.1),#122);
#122=COLOUR_RGB('Blue',0.157,0.157,0.588);
#123=DRAUGHTING_PRE_DEFINED_CURVE_FONT('continuous');
#124=PRESENTATION_STYLE_ASSIGNMENT((#125,#130));
#125=SURFACE_STYLE_USAGE(.BOTH.,#126);
#126=SURFACE_SIDE_STYLE('',(#127));
#127=SURFACE_STYLE_FILL_AREA(#128);
#128=FILL_AREA_STYLE('',(#129));
#129=FILL_AREA_STYLE_COLOUR('',#131);
#130=CURVE_STYLE('',#132,POSITIVE_LENGTH_MEASURE(0.1),#131);
#131=COLOUR_RGB('Maroon',0.294,0.0,0.0);
#132=DRAUGHTING_PRE_DEFINED_CURVE_FONT('continuous');
#133=PRESENTATION_STYLE_ASSIGNMENT((#134,#139));
#134=SURFACE_STYLE_USAGE(.BOTH.,#135);
#135=SURFACE_SIDE_STYLE('',(#136));
#136=SURFACE_STYLE_FILL_AREA(#137);
#137=FILL_AREA_STYLE('',(#138));
#138=FILL_AREA_STYLE_COLOUR('',#140);
#139=CURVE_STYLE('',#141,POSITIVE_LENGTH_MEASURE(0.1),#140);
#140=COLOUR_RGB('Green',0.0,0.294,0.0);
#141=DRAUGHTING_PRE_DEFINED_CURVE_FONT('continuous');
#142=PRESENTATION_STYLE_ASSIGNMENT((#143,#148));
#143=SURFACE_STYLE_USAGE(.BOTH.,#144);
#144=SURFACE_SIDE_STYLE('',(#145));
#145=SURFACE_STYLE_FILL_AREA(#146);
#146=FILL_AREA_STYLE('',(#147));
#147=FILL_AREA_STYLE_COLOUR('',#149);
#148=CURVE_STYLE('',#150,POSITIVE_LENGTH_MEASURE(0.1),#149);
#149=COLOUR_RGB('Pin1Wrap',0.98,0.706,0.176);
#150=DRAUGHTING_PRE_DEFINED_CURVE_FONT('continuous');
#151=PRESENTATION_STYLE_ASSIGNMENT((#152,#157));
#152=SURFACE_STYLE_USAGE(.BOTH.,#153);
#153=SURFACE_SIDE_STYLE('',(#154));
#154=SURFACE_STYLE_FILL_AREA(#155);
#155=FILL_AREA_STYLE('',(#156));
#156=FILL_AREA_STYLE_COLOUR('',#158);
#157=CURVE_STYLE('',#159,POSITIVE_LENGTH_MEASURE(0.1),#158);
#158=COLOUR_RGB('Pin1Rad',0.588,0.588,0.588);
#159=DRAUGHTING_PRE_DEFINED_CURVE_FONT('continuous');
#160=PRESENTATION_STYLE_ASSIGNMENT((#161,#166));
#161=SURFACE_STYLE_USAGE(.BOTH.,#162);
#162=SURFACE_SIDE_STYLE('',(#163));
#163=SURFACE_STYLE_FILL_AREA(#164);
#164=FILL_AREA_STYLE('',(#165));
#165=FILL_AREA_STYLE_COLOUR('',#167);
#166=CURVE_STYLE('',#168,POSITIVE_LENGTH_MEASURE(0.1),#167);
#167=COLOUR_RGB('Pin1Axial',0.98,0.706,0.176);
#168=DRAUGHTING_PRE_DEFINED_CURVE_FONT('continuous');
#169=PRESENTATION_STYLE_ASSIGNMENT((#170,#175));
#170=SURFACE_STYLE_USAGE(.BOTH.,#171);
#171=SURFACE_SIDE_STYLE('',(#172));
#172=SURFACE_STYLE_FILL_AREA(#173);
#173=FILL_AREA_STYLE('',(#174));
#174=FILL_AREA_STYLE_COLOUR('',#176);
#175=CURVE_STYLE('',#177,POSITIVE_LENGTH_MEASURE(0.1),#176);
#176=COLOUR_RGB('Pin1Tant',0.459,0.345,0.176);
#177=DRAUGHTING_PRE_DEFINED_CURVE_FONT('continuous');
#178=PRESENTATION_STYLE_ASSIGNMENT((#179,#184));
#179=SURFACE_STYLE_USAGE(.BOTH.,#180);
#180=SURFACE_SIDE_STYLE('',(#181));
#181=SURFACE_STYLE_FILL_AREA(#182);
#182=FILL_AREA_STYLE('',(#183));
#183=FILL_AREA_STYLE_COLOUR('',#185);
#184=CURVE_STYLE('',#186,POSITIVE_LENGTH_MEASURE(0.1),#185);
#185=COLOUR_RGB('Shroud',0.235,0.235,0.235);
#186=DRAUGHTING_PRE_DEFINED_CURVE_FONT('continuous');
#188=MANIFOLD_SOLID_BREP($,#189);
#189=CLOSED_SHELL('',(#191,#240,#289,#338,#387,#436));
#190=STYLED_ITEM('',(#43),#191);
#191=ADVANCED_FACE('',(#197),#192,.T.);
#192=PLANE('',#193);
#193=AXIS2_PLACEMENT_3D('',#194,#195,#196);
#194=CARTESIAN_POINT('',(0.417,-1.156,0.0));
#195=DIRECTION('',(0.0,-1.0,0.0));
#196=DIRECTION('',(0.,0.,1.));
#197=FACE_OUTER_BOUND('',#198,.T.);
#198=EDGE_LOOP('',(#199,#209,#219,#229));
#202=CARTESIAN_POINT('',(4.024,-1.156,0.0));
#201=VERTEX_POINT('',#202);
#204=CARTESIAN_POINT('',(0.417,-1.156,0.0));
#203=VERTEX_POINT('',#204);
#200=EDGE_CURVE('',#201,#203,#205,.T.);
#205=LINE('',#202,#207);
#207=VECTOR('',#208,3.6068);
#208=DIRECTION('',(-1.0,0.0,0.0));
#199=ORIENTED_EDGE('',*,*,#200,.F.);
#212=CARTESIAN_POINT('',(4.024,-1.156,3.607));
#211=VERTEX_POINT('',#212);
#210=EDGE_CURVE('',#211,#201,#215,.T.);
#215=LINE('',#212,#217);
#217=VECTOR('',#218,3.6068);
#218=DIRECTION('',(0.0,0.0,-1.0));
#209=ORIENTED_EDGE('',*,*,#210,.F.);
#222=CARTESIAN_POINT('',(0.417,-1.156,3.607));
#221=VERTEX_POINT('',#222);
#220=EDGE_CURVE('',#221,#211,#225,.T.);
#225=LINE('',#222,#227);
#227=VECTOR('',#228,3.6068);
#228=DIRECTION('',(1.0,0.0,0.0));
#219=ORIENTED_EDGE('',*,*,#220,.F.);
#230=EDGE_CURVE('',#203,#221,#235,.T.);
#235=LINE('',#204,#237);
#237=VECTOR('',#238,3.6068);
#238=DIRECTION('',(0.0,0.0,1.0));
#229=ORIENTED_EDGE('',*,*,#230,.F.);
#239=STYLED_ITEM('',(#43),#240);
#240=ADVANCED_FACE('',(#246),#241,.T.);
#241=PLANE('',#242);
#242=AXIS2_PLACEMENT_3D('',#243,#244,#245);
#243=CARTESIAN_POINT('',(4.024,-1.156,0.0));
#244=DIRECTION('',(1.0,0.0,0.0));
#245=DIRECTION('',(0.,0.,1.));
#246=FACE_OUTER_BOUND('',#247,.T.);
#247=EDGE_LOOP('',(#248,#258,#268,#278));
#251=CARTESIAN_POINT('',(4.024,1.156,0.0));
#250=VERTEX_POINT('',#251);
#249=EDGE_CURVE('',#250,#201,#254,.T.);
#254=LINE('',#251,#256);
#256=VECTOR('',#257,2.3114);
#257=DIRECTION('',(0.0,-1.0,0.0));
#248=ORIENTED_EDGE('',*,*,#249,.F.);
#261=CARTESIAN_POINT('',(4.024,1.156,3.607));
#260=VERTEX_POINT('',#261);
#259=EDGE_CURVE('',#260,#250,#264,.T.);
#264=LINE('',#261,#266);
#266=VECTOR('',#267,3.6068);
#267=DIRECTION('',(0.0,0.0,-1.0));
#258=ORIENTED_EDGE('',*,*,#259,.F.);
#269=EDGE_CURVE('',#211,#260,#274,.T.);
#274=LINE('',#212,#276);
#276=VECTOR('',#277,2.3114);
#277=DIRECTION('',(0.0,1.0,0.0));
#268=ORIENTED_EDGE('',*,*,#269,.F.);
#278=ORIENTED_EDGE('',*,*,#210,.T.);
#288=STYLED_ITEM('',(#43),#289);
#289=ADVANCED_FACE('',(#295),#290,.T.);
#290=PLANE('',#291);
#291=AXIS2_PLACEMENT_3D('',#292,#293,#294);
#292=CARTESIAN_POINT('',(4.024,1.156,0.0));
#293=DIRECTION('',(0.0,1.0,0.0));
#294=DIRECTION('',(0.,0.,1.));
#295=FACE_OUTER_BOUND('',#296,.T.);
#296=EDGE_LOOP('',(#297,#307,#317,#327));
#300=CARTESIAN_POINT('',(0.417,1.156,0.0));
#299=VERTEX_POINT('',#300);
#298=EDGE_CURVE('',#299,#250,#303,.T.);
#303=LINE('',#300,#305);
#305=VECTOR('',#306,3.6068);
#306=DIRECTION('',(1.0,0.0,0.0));
#297=ORIENTED_EDGE('',*,*,#298,.F.);
#310=CARTESIAN_POINT('',(0.417,1.156,3.607));
#309=VERTEX_POINT('',#310);
#308=EDGE_CURVE('',#309,#299,#313,.T.);
#313=LINE('',#310,#315);
#315=VECTOR('',#316,3.6068);
#316=DIRECTION('',(0.0,0.0,-1.0));
#307=ORIENTED_EDGE('',*,*,#308,.F.);
#318=EDGE_CURVE('',#260,#309,#323,.T.);
#323=LINE('',#261,#325);
#325=VECTOR('',#326,3.6068);
#326=DIRECTION('',(-1.0,0.0,0.0));
#317=ORIENTED_EDGE('',*,*,#318,.F.);
#327=ORIENTED_EDGE('',*,*,#259,.T.);
#337=STYLED_ITEM('',(#43),#338);
#338=ADVANCED_FACE('',(#344),#339,.T.);
#339=PLANE('',#340);
#340=AXIS2_PLACEMENT_3D('',#341,#342,#343);
#341=CARTESIAN_POINT('',(0.417,1.156,0.0));
#342=DIRECTION('',(-1.0,0.0,0.0));
#343=DIRECTION('',(0.,0.,1.));
#344=FACE_OUTER_BOUND('',#345,.T.);
#345=EDGE_LOOP('',(#346,#356,#366,#376));
#347=EDGE_CURVE('',#203,#299,#352,.T.);
#352=LINE('',#204,#354);
#354=VECTOR('',#355,2.3114);
#355=DIRECTION('',(0.0,1.0,0.0));
#346=ORIENTED_EDGE('',*,*,#347,.F.);
#356=ORIENTED_EDGE('',*,*,#230,.T.);
#367=EDGE_CURVE('',#309,#221,#372,.T.);
#372=LINE('',#310,#374);
#374=VECTOR('',#375,2.3114);
#375=DIRECTION('',(0.0,-1.0,0.0));
#366=ORIENTED_EDGE('',*,*,#367,.F.);
#376=ORIENTED_EDGE('',*,*,#308,.T.);
#386=STYLED_ITEM('',(#43),#387);
#387=ADVANCED_FACE('',(#393),#388,.T.);
#388=PLANE('',#389);
#389=AXIS2_PLACEMENT_3D('',#390,#391,#392);
#390=CARTESIAN_POINT('',(0.417,1.156,0.0));
#391=DIRECTION('',(0.0,0.0,-1.0));
#392=DIRECTION('',(0.,1.,0.));
#393=FACE_OUTER_BOUND('',#394,.T.);
#394=EDGE_LOOP('',(#395,#405,#415,#425));
#395=ORIENTED_EDGE('',*,*,#298,.T.);
#405=ORIENTED_EDGE('',*,*,#249,.T.);
#415=ORIENTED_EDGE('',*,*,#200,.T.);
#425=ORIENTED_EDGE('',*,*,#347,.T.);
#435=STYLED_ITEM('',(#43),#436);
#436=ADVANCED_FACE('',(#442),#437,.T.);
#437=PLANE('',#438);
#438=AXIS2_PLACEMENT_3D('',#439,#440,#441);
#439=CARTESIAN_POINT('',(0.417,-1.156,3.607));
#440=DIRECTION('',(0.0,0.0,1.0));
#441=DIRECTION('',(0.,1.,0.));
#442=FACE_OUTER_BOUND('',#443,.T.);
#443=EDGE_LOOP('',(#444,#454,#464,#474));
#444=ORIENTED_EDGE('',*,*,#220,.T.);
#454=ORIENTED_EDGE('',*,*,#269,.T.);
#464=ORIENTED_EDGE('',*,*,#318,.T.);
#474=ORIENTED_EDGE('',*,*,#367,.T.);
#485=MANIFOLD_SOLID_BREP($,#486);
#486=CLOSED_SHELL('',(#488,#519,#550,#603,#656,#709,#762,#815,#868,#921,#974,#1027));
#487=STYLED_ITEM('color',(#34),#488);
#488=ADVANCED_FACE($,(#494),#489,.T.);
#489=PLANE($,#490);
#490=AXIS2_PLACEMENT_3D($,#491,#492,#493);
#491=CARTESIAN_POINT('',(3.186,0.0,0.0));
#492=DIRECTION('',(0.,0.,1.));
#493=DIRECTION('',(0.,1.,0.));
#494=FACE_OUTER_BOUND($,#495,.T.);
#495=EDGE_LOOP($,(#496, #507));
#499=CARTESIAN_POINT('',(2.906,0.0,0.0));
#498=VERTEX_POINT('',#499);
#501=CARTESIAN_POINT('',(3.465,0.0,0.0));
#500=VERTEX_POINT('',#501);
#497=EDGE_CURVE($,#498,#500,#502,.T.);
#502=CIRCLE($,#503,0.2794);
#504=CARTESIAN_POINT('',(3.186,0.0,0.0));
#503=AXIS2_PLACEMENT_3D($,#504,#505,#506);
#505=DIRECTION('',(0.0,0.0,-1.0));
#506=DIRECTION('',(1.0,0.0,0.0));
#496=ORIENTED_EDGE('',*,*,#497,.F.);
#508=EDGE_CURVE($,#500,#498,#513,.T.);
#513=CIRCLE($,#514,0.2794);
#514=AXIS2_PLACEMENT_3D($,#504,#516,#517);
#516=DIRECTION('',(0.0,0.0,-1.0));
#517=DIRECTION('',(-1.0,0.0,0.0));
#507=ORIENTED_EDGE('',*,*,#508,.F.);
#518=STYLED_ITEM('color',(#34),#519);
#519=ADVANCED_FACE($,(#525),#520,.T.);
#520=PLANE($,#521);
#521=AXIS2_PLACEMENT_3D($,#522,#523,#524);
#522=CARTESIAN_POINT('',(5.0,0.0,-5.131));
#523=DIRECTION('',(0.,0.,-1.));
#524=DIRECTION('',(0.,1.,0.));
#525=FACE_OUTER_BOUND($,#526,.T.);
#526=EDGE_LOOP($,(#527, #538));
#530=CARTESIAN_POINT('',(4.721,0.0,-5.131));
#529=VERTEX_POINT('',#530);
#532=CARTESIAN_POINT('',(5.279,0.0,-5.131));
#531=VERTEX_POINT('',#532);
#528=EDGE_CURVE($,#529,#531,#533,.T.);
#533=CIRCLE($,#534,0.2794);
#535=CARTESIAN_POINT('',(5.0,0.0,-5.131));
#534=AXIS2_PLACEMENT_3D($,#535,#536,#537);
#536=DIRECTION('',(0.0,0.0,1.0));
#537=DIRECTION('',(1.0,0.0,0.0));
#527=ORIENTED_EDGE('',*,*,#528,.F.);
#539=EDGE_CURVE($,#531,#529,#544,.T.);
#544=CIRCLE($,#545,0.2794);
#545=AXIS2_PLACEMENT_3D($,#535,#547,#548);
#547=DIRECTION('',(0.0,0.0,1.0));
#548=DIRECTION('',(-1.0,0.0,0.0));
#538=ORIENTED_EDGE('',*,*,#539,.F.);
#549=STYLED_ITEM('color',(#34),#550);
#550=ADVANCED_FACE($,(#556),#551,.T.);
#551=CYLINDRICAL_SURFACE($,#552,0.2794);
#552=AXIS2_PLACEMENT_3D($,#553,#554,#555);
#553=CARTESIAN_POINT('',(3.186,0.0,-0.259));
#554=DIRECTION('',(0.,0.,1.));
#555=DIRECTION('',(0.0,1.0,0.0));
#556=FACE_OUTER_BOUND($,#557,.T.);
#557=EDGE_LOOP($,(#580, #558, #590, #569));
#583=CARTESIAN_POINT('',(2.906,0.0,-0.259));
#582=VERTEX_POINT('',#583);
#581=EDGE_CURVE('',#582,#498,#586,.T.);
#586=LINE('',#583,#588);
#588=VECTOR('',#589,0.25908);
#589=DIRECTION('',(0.0,0.0,1.0));
#580=ORIENTED_EDGE('',*,*,#581,.F.);
#561=CARTESIAN_POINT('',(3.465,0.0,-0.259));
#560=VERTEX_POINT('',#561);
#559=EDGE_CURVE($,#560,#582,#564,.T.);
#564=CIRCLE($,#565,0.2794);
#566=CARTESIAN_POINT('',(3.186,0.0,-0.259));
#565=AXIS2_PLACEMENT_3D($,#566,#567,#568);
#567=DIRECTION('',(0.0,0.0,-1.0));
#568=DIRECTION('',(-1.0,0.0,0.0));
#558=ORIENTED_EDGE('',*,*,#559,.F.);
#591=EDGE_CURVE('',#500,#560,#596,.T.);
#596=LINE('',#501,#598);
#598=VECTOR('',#599,0.25908);
#599=DIRECTION('',(0.0,0.0,-1.0));
#590=ORIENTED_EDGE('',*,*,#591,.F.);
#569=ORIENTED_EDGE('',*,*,#508,.T.);
#602=STYLED_ITEM('color',(#34),#603);
#603=ADVANCED_FACE($,(#609),#604,.T.);
#604=CYLINDRICAL_SURFACE($,#605,0.2794);
#605=AXIS2_PLACEMENT_3D($,#606,#607,#608);
#606=CARTESIAN_POINT('',(3.186,0.0,-0.259));
#607=DIRECTION('',(0.,0.,1.));
#608=DIRECTION('',(0.0,1.0,0.0));
#609=FACE_OUTER_BOUND($,#610,.T.);
#610=EDGE_LOOP($,(#633, #611, #643, #622));
#633=ORIENTED_EDGE('',*,*,#591,.T.);
#612=EDGE_CURVE($,#582,#560,#617,.T.);
#617=CIRCLE($,#618,0.2794);
#618=AXIS2_PLACEMENT_3D($,#566,#620,#621);
#620=DIRECTION('',(0.0,0.0,-1.0));
#621=DIRECTION('',(1.0,0.0,0.0));
#611=ORIENTED_EDGE('',*,*,#612,.F.);
#643=ORIENTED_EDGE('',*,*,#581,.T.);
#622=ORIENTED_EDGE('',*,*,#497,.T.);
#655=STYLED_ITEM('color',(#34),#656);
#656=ADVANCED_FACE($,(#662),#657,.T.);
#657=CYLINDRICAL_SURFACE($,#658,0.2794);
#658=AXIS2_PLACEMENT_3D($,#659,#660,#661);
#659=CARTESIAN_POINT('',(5.0,0.0,-5.131));
#660=DIRECTION('',(0.,0.,1.));
#661=DIRECTION('',(0.0,1.0,0.0));
#662=FACE_OUTER_BOUND($,#663,.T.);
#663=EDGE_LOOP($,(#686, #664, #696, #675));
#691=CARTESIAN_POINT('',(4.721,0.0,-2.591));
#690=VERTEX_POINT('',#691);
#687=EDGE_CURVE('',#529,#690,#692,.T.);
#692=LINE('',#530,#694);
#694=VECTOR('',#695,2.54);
#695=DIRECTION('',(0.0,0.0,1.0));
#686=ORIENTED_EDGE('',*,*,#687,.F.);
#664=ORIENTED_EDGE('',*,*,#528,.T.);
#699=CARTESIAN_POINT('',(5.279,0.0,-2.591));
#698=VERTEX_POINT('',#699);
#697=EDGE_CURVE('',#698,#531,#702,.T.);
#702=LINE('',#699,#704);
#704=VECTOR('',#705,2.54);
#705=DIRECTION('',(0.0,0.0,-1.0));
#696=ORIENTED_EDGE('',*,*,#697,.F.);
#676=EDGE_CURVE($,#690,#698,#681,.T.);
#681=CIRCLE($,#682,0.2794);
#683=CARTESIAN_POINT('',(5.0,0.0,-2.591));
#682=AXIS2_PLACEMENT_3D($,#683,#684,#685);
#684=DIRECTION('',(0.0,0.0,1.0));
#685=DIRECTION('',(1.0,0.0,0.0));
#675=ORIENTED_EDGE('',*,*,#676,.F.);
#708=STYLED_ITEM('color',(#34),#709);
#709=ADVANCED_FACE($,(#715),#710,.T.);
#710=CYLINDRICAL_SURFACE($,#711,0.2794);
#711=AXIS2_PLACEMENT_3D($,#712,#713,#714);
#712=CARTESIAN_POINT('',(5.0,0.0,-5.131));
#713=DIRECTION('',(0.,0.,1.));
#714=DIRECTION('',(0.0,1.0,0.0));
#715=FACE_OUTER_BOUND($,#716,.T.);
#716=EDGE_LOOP($,(#739, #717, #749, #728));
#739=ORIENTED_EDGE('',*,*,#697,.T.);
#717=ORIENTED_EDGE('',*,*,#539,.T.);
#749=ORIENTED_EDGE('',*,*,#687,.T.);
#729=EDGE_CURVE($,#698,#690,#734,.T.);
#734=CIRCLE($,#735,0.2794);
#735=AXIS2_PLACEMENT_3D($,#683,#737,#738);
#737=DIRECTION('',(0.0,0.0,1.0));
#738=DIRECTION('',(-1.0,0.0,0.0));
#728=ORIENTED_EDGE('',*,*,#729,.F.);
#761=STYLED_ITEM('color',(#34),#762);
#762=ADVANCED_FACE($,(#768),#763,.T.);
#763=CYLINDRICAL_SURFACE($,#764,0.2794);
#764=AXIS2_PLACEMENT_3D($,#765,#766,#767);
#765=CARTESIAN_POINT('',(4.839,0.0,-2.199));
#766=DIRECTION('',(-0.694,0.0,0.72));
#767=DIRECTION('',(0.0,1.0,0.0));
#768=FACE_OUTER_BOUND($,#769,.T.);
#769=EDGE_LOOP($,(#792, #770, #802, #781));
#795=CARTESIAN_POINT('',(4.64,0.0,-2.395));
#794=VERTEX_POINT('',#795);
#797=CARTESIAN_POINT('',(3.147,0.0,-0.847));
#796=VERTEX_POINT('',#797);
#793=EDGE_CURVE('',#794,#796,#798,.T.);
#798=LINE('',#795,#800);
#800=VECTOR('',#801,2.15038477724067);
#801=DIRECTION('',(-0.694,0.0,0.72));
#792=ORIENTED_EDGE('',*,*,#793,.F.);
#773=CARTESIAN_POINT('',(5.038,0.0,-2.003));
#772=VERTEX_POINT('',#773);
#771=EDGE_CURVE($,#772,#794,#776,.T.);
#776=CIRCLE($,#777,0.2794);
#778=CARTESIAN_POINT('',(4.839,0.0,-2.199));
#777=AXIS2_PLACEMENT_3D($,#778,#779,#780);
#779=DIRECTION('',(0.694,0.0,-0.72));
#780=DIRECTION('',(-0.713,0.0,-0.702));
#770=ORIENTED_EDGE('',*,*,#771,.F.);
#805=CARTESIAN_POINT('',(3.546,0.0,-0.455));
#804=VERTEX_POINT('',#805);
#803=EDGE_CURVE('',#804,#772,#808,.T.);
#808=LINE('',#805,#810);
#810=VECTOR('',#811,2.15038477724067);
#811=DIRECTION('',(0.694,0.0,-0.72));
#802=ORIENTED_EDGE('',*,*,#803,.F.);
#782=EDGE_CURVE($,#796,#804,#787,.T.);
#787=CIRCLE($,#788,0.2794);
#789=CARTESIAN_POINT('',(3.346,0.0,-0.651));
#788=AXIS2_PLACEMENT_3D($,#789,#790,#791);
#790=DIRECTION('',(-0.694,0.0,0.72));
#791=DIRECTION('',(0.713,0.0,0.702));
#781=ORIENTED_EDGE('',*,*,#782,.F.);
#814=STYLED_ITEM('color',(#34),#815);
#815=ADVANCED_FACE($,(#821),#816,.T.);
#816=CYLINDRICAL_SURFACE($,#817,0.2794);
#817=AXIS2_PLACEMENT_3D($,#818,#819,#820);
#818=CARTESIAN_POINT('',(4.839,0.0,-2.199));
#819=DIRECTION('',(-0.694,0.0,0.72));
#820=DIRECTION('',(0.0,1.0,0.0));
#821=FACE_OUTER_BOUND($,#822,.T.);
#822=EDGE_LOOP($,(#845, #823, #855, #834));
#845=ORIENTED_EDGE('',*,*,#803,.T.);
#824=EDGE_CURVE($,#794,#772,#829,.T.);
#829=CIRCLE($,#830,0.2794);
#830=AXIS2_PLACEMENT_3D($,#778,#832,#833);
#832=DIRECTION('',(0.694,0.0,-0.72));
#833=DIRECTION('',(0.713,0.0,0.702));
#823=ORIENTED_EDGE('',*,*,#824,.F.);
#855=ORIENTED_EDGE('',*,*,#793,.T.);
#835=EDGE_CURVE($,#804,#796,#840,.T.);
#840=CIRCLE($,#841,0.2794);
#841=AXIS2_PLACEMENT_3D($,#789,#843,#844);
#843=DIRECTION('',(-0.694,0.0,0.72));
#844=DIRECTION('',(0.713,0.0,0.702));
#834=ORIENTED_EDGE('',*,*,#835,.F.);
#867=STYLED_ITEM('color',(#34),#868);
#868 = ADVANCED_FACE ( '', ( #874 ), #869, .T. ) ;
#869 = TOROIDAL_SURFACE ( '', #870, 0.5588, 0.2794 ) ;
#870 = AXIS2_PLACEMENT_3D ( '', #871, #872, #873 ) ;
#871 = CARTESIAN_POINT ( '',  ( 3.745,0.0,-0.259 ) ) ;
#872 = DIRECTION ( '',  ( 0.0,-1.0,0.0 ) ) ;
#873 = DIRECTION ( '',  ( 0.0000000000000000000, 0.0000000000000000000, -1.000000000000000000 ) ) ;
#874 = FACE_OUTER_BOUND ( '', #875, .T. ) ;
#875 = EDGE_LOOP ( '', ( #876, #887, #898, #909 ) ) ;
#876=ORIENTED_EDGE('',*,*,#559,.T.);
#888=EDGE_CURVE($,#796,#582,#893,.T.);
#893=CIRCLE($,#894,0.8382);
#895=CARTESIAN_POINT('',(3.745,0.0,-0.259));
#894=AXIS2_PLACEMENT_3D($,#895,#896,#897);
#896=DIRECTION('',(0.0,1.0,0.0));
#897=DIRECTION('',(0.0,0.0,1.0));
#887=ORIENTED_EDGE('',*,*,#888,.F.);
#898=ORIENTED_EDGE('',*,*,#782,.T.);
#910=EDGE_CURVE($,#560,#804,#915,.T.);
#915=CIRCLE($,#916,0.2794);
#916=AXIS2_PLACEMENT_3D($,#895,#918,#919);
#918=DIRECTION('',(0.0,-1.0,0.0));
#919=DIRECTION('',(0.0,0.0,1.0));
#909=ORIENTED_EDGE('',*,*,#910,.F.);
#920=STYLED_ITEM('color',(#34),#921);
#921 = ADVANCED_FACE ( '', ( #927 ), #922, .T. ) ;
#922 = TOROIDAL_SURFACE ( '', #923, 0.5588, 0.2794 ) ;
#923 = AXIS2_PLACEMENT_3D ( '', #924, #925, #926 ) ;
#924 = CARTESIAN_POINT ( '',  ( 3.745,0.0,-0.259 ) ) ;
#925 = DIRECTION ( '',  ( 0.0,1.0,0.0 ) ) ;
#926 = DIRECTION ( '',  ( 0.0000000000000000000, 0.0000000000000000000, 1.000000000000000000 ) ) ;
#927 = FACE_OUTER_BOUND ( '', #928, .T. ) ;
#928 = EDGE_LOOP ( '', ( #929, #940, #951, #962 ) ) ;
#929=ORIENTED_EDGE('',*,*,#612,.T.);
#940=ORIENTED_EDGE('',*,*,#910,.T.);
#951=ORIENTED_EDGE('',*,*,#835,.T.);
#962=ORIENTED_EDGE('',*,*,#888,.T.);
#973=STYLED_ITEM('color',(#34),#974);
#974 = ADVANCED_FACE ( '', ( #980 ), #975, .T. ) ;
#975 = TOROIDAL_SURFACE ( '', #976, 0.5588, 0.2794 ) ;
#976 = AXIS2_PLACEMENT_3D ( '', #977, #978, #979 ) ;
#977 = CARTESIAN_POINT ( '',  ( 4.441,0.0,-2.591 ) ) ;
#978 = DIRECTION ( '',  ( 0.0,1.0,0.0 ) ) ;
#979 = DIRECTION ( '',  ( 0.0000000000000000000, 0.0000000000000000000, 1.000000000000000000 ) ) ;
#980 = FACE_OUTER_BOUND ( '', #981, .T. ) ;
#981 = EDGE_LOOP ( '', ( #982, #993, #1004, #1015 ) ) ;
#982=ORIENTED_EDGE('',*,*,#824,.T.);
#994=EDGE_CURVE($,#698,#772,#999,.T.);
#999=CIRCLE($,#1000,0.8382);
#1001=CARTESIAN_POINT('',(4.441,0.0,-2.591));
#1000=AXIS2_PLACEMENT_3D($,#1001,#1002,#1003);
#1002=DIRECTION('',(0.0,-1.0,0.0));
#1003=DIRECTION('',(0.0,0.0,1.0));
#993=ORIENTED_EDGE('',*,*,#994,.F.);
#1004=ORIENTED_EDGE('',*,*,#729,.T.);
#1016=EDGE_CURVE($,#794,#690,#1021,.T.);
#1021=CIRCLE($,#1022,0.2794);
#1022=AXIS2_PLACEMENT_3D($,#1001,#1024,#1025);
#1024=DIRECTION('',(0.0,1.0,0.0));
#1025=DIRECTION('',(0.0,0.0,1.0));
#1015=ORIENTED_EDGE('',*,*,#1016,.F.);
#1026=STYLED_ITEM('color',(#34),#1027);
#1027 = ADVANCED_FACE ( '', ( #1033 ), #1028, .T. ) ;
#1028 = TOROIDAL_SURFACE ( '', #1029, 0.5588, 0.2794 ) ;
#1029 = AXIS2_PLACEMENT_3D ( '', #1030, #1031, #1032 ) ;
#1030 = CARTESIAN_POINT ( '',  ( 4.441,0.0,-2.591 ) ) ;
#1031 = DIRECTION ( '',  ( 0.0,-1.0,0.0 ) ) ;
#1032 = DIRECTION ( '',  ( 0.0000000000000000000, 0.0000000000000000000, 1.000000000000000000 ) ) ;
#1033 = FACE_OUTER_BOUND ( '', #1034, .T. ) ;
#1034 = EDGE_LOOP ( '', ( #1035, #1046, #1057, #1068 ) ) ;
#1035=ORIENTED_EDGE('',*,*,#771,.T.);
#1046=ORIENTED_EDGE('',*,*,#1016,.T.);
#1057=ORIENTED_EDGE('',*,*,#676,.T.);
#1068=ORIENTED_EDGE('',*,*,#994,.T.);
#1079=MANIFOLD_SOLID_BREP($,#1080);
#1080=CLOSED_SHELL('',(#1082,#1113,#1144,#1197,#1250,#1303,#1356,#1409,#1462,#1515,#1568,#1621));
#1081=STYLED_ITEM('color',(#34),#1082);
#1082=ADVANCED_FACE($,(#1088),#1083,.T.);
#1083=PLANE($,#1084);
#1084=AXIS2_PLACEMENT_3D($,#1085,#1086,#1087);
#1085=CARTESIAN_POINT('',(1.255,0.0,0.0));
#1086=DIRECTION('',(0.,0.,1.));
#1087=DIRECTION('',(0.,1.,0.));
#1088=FACE_OUTER_BOUND($,#1089,.T.);
#1089=EDGE_LOOP($,(#1090, #1101));
#1093=CARTESIAN_POINT('',(1.535,0.0,0.0));
#1092=VERTEX_POINT('',#1093);
#1095=CARTESIAN_POINT('',(0.976,0.0,0.0));
#1094=VERTEX_POINT('',#1095);
#1091=EDGE_CURVE($,#1092,#1094,#1096,.T.);
#1096=CIRCLE($,#1097,0.2794);
#1098=CARTESIAN_POINT('',(1.255,0.0,0.0));
#1097=AXIS2_PLACEMENT_3D($,#1098,#1099,#1100);
#1099=DIRECTION('',(0.0,0.0,-1.0));
#1100=DIRECTION('',(-1.0,0.0,0.0));
#1090=ORIENTED_EDGE('',*,*,#1091,.F.);
#1102=EDGE_CURVE($,#1094,#1092,#1107,.T.);
#1107=CIRCLE($,#1108,0.2794);
#1108=AXIS2_PLACEMENT_3D($,#1098,#1110,#1111);
#1110=DIRECTION('',(0.0,0.0,-1.0));
#1111=DIRECTION('',(1.0,0.0,0.0));
#1101=ORIENTED_EDGE('',*,*,#1102,.F.);
#1112=STYLED_ITEM('color',(#34),#1113);
#1113=ADVANCED_FACE($,(#1119),#1114,.T.);
#1114=PLANE($,#1115);
#1115=AXIS2_PLACEMENT_3D($,#1116,#1117,#1118);
#1116=CARTESIAN_POINT('',(-0.559,0.0,-5.131));
#1117=DIRECTION('',(0.,0.,-1.));
#1118=DIRECTION('',(0.,1.,0.));
#1119=FACE_OUTER_BOUND($,#1120,.T.);
#1120=EDGE_LOOP($,(#1121, #1132));
#1124=CARTESIAN_POINT('',(-0.279,0.0,-5.131));
#1123=VERTEX_POINT('',#1124);
#1126=CARTESIAN_POINT('',(-0.838,0.0,-5.131));
#1125=VERTEX_POINT('',#1126);
#1122=EDGE_CURVE($,#1123,#1125,#1127,.T.);
#1127=CIRCLE($,#1128,0.2794);
#1129=CARTESIAN_POINT('',(-0.559,0.0,-5.131));
#1128=AXIS2_PLACEMENT_3D($,#1129,#1130,#1131);
#1130=DIRECTION('',(0.0,0.0,1.0));
#1131=DIRECTION('',(-1.0,0.0,0.0));
#1121=ORIENTED_EDGE('',*,*,#1122,.F.);
#1133=EDGE_CURVE($,#1125,#1123,#1138,.T.);
#1138=CIRCLE($,#1139,0.2794);
#1139=AXIS2_PLACEMENT_3D($,#1129,#1141,#1142);
#1141=DIRECTION('',(0.0,0.0,1.0));
#1142=DIRECTION('',(1.0,0.0,0.0));
#1132=ORIENTED_EDGE('',*,*,#1133,.F.);
#1143=STYLED_ITEM('color',(#34),#1144);
#1144=ADVANCED_FACE($,(#1150),#1145,.T.);
#1145=CYLINDRICAL_SURFACE($,#1146,0.2794);
#1146=AXIS2_PLACEMENT_3D($,#1147,#1148,#1149);
#1147=CARTESIAN_POINT('',(1.255,0.0,-0.259));
#1148=DIRECTION('',(0.,0.,1.));
#1149=DIRECTION('',(0.0,-1.0,0.0));
#1150=FACE_OUTER_BOUND($,#1151,.T.);
#1151=EDGE_LOOP($,(#1174, #1152, #1184, #1163));
#1177=CARTESIAN_POINT('',(1.535,0.0,-0.259));
#1176=VERTEX_POINT('',#1177);
#1175=EDGE_CURVE('',#1176,#1092,#1180,.T.);
#1180=LINE('',#1177,#1182);
#1182=VECTOR('',#1183,0.25908);
#1183=DIRECTION('',(0.0,0.0,1.0));
#1174=ORIENTED_EDGE('',*,*,#1175,.F.);
#1155=CARTESIAN_POINT('',(0.976,0.0,-0.259));
#1154=VERTEX_POINT('',#1155);
#1153=EDGE_CURVE($,#1154,#1176,#1158,.T.);
#1158=CIRCLE($,#1159,0.2794);
#1160=CARTESIAN_POINT('',(1.255,0.0,-0.259));
#1159=AXIS2_PLACEMENT_3D($,#1160,#1161,#1162);
#1161=DIRECTION('',(0.0,0.0,-1.0));
#1162=DIRECTION('',(1.0,0.0,0.0));
#1152=ORIENTED_EDGE('',*,*,#1153,.F.);
#1185=EDGE_CURVE('',#1094,#1154,#1190,.T.);
#1190=LINE('',#1095,#1192);
#1192=VECTOR('',#1193,0.25908);
#1193=DIRECTION('',(0.0,0.0,-1.0));
#1184=ORIENTED_EDGE('',*,*,#1185,.F.);
#1163=ORIENTED_EDGE('',*,*,#1102,.T.);
#1196=STYLED_ITEM('color',(#34),#1197);
#1197=ADVANCED_FACE($,(#1203),#1198,.T.);
#1198=CYLINDRICAL_SURFACE($,#1199,0.2794);
#1199=AXIS2_PLACEMENT_3D($,#1200,#1201,#1202);
#1200=CARTESIAN_POINT('',(1.255,0.0,-0.259));
#1201=DIRECTION('',(0.,0.,1.));
#1202=DIRECTION('',(0.0,-1.0,0.0));
#1203=FACE_OUTER_BOUND($,#1204,.T.);
#1204=EDGE_LOOP($,(#1227, #1205, #1237, #1216));
#1227=ORIENTED_EDGE('',*,*,#1185,.T.);
#1206=EDGE_CURVE($,#1176,#1154,#1211,.T.);
#1211=CIRCLE($,#1212,0.2794);
#1212=AXIS2_PLACEMENT_3D($,#1160,#1214,#1215);
#1214=DIRECTION('',(0.0,0.0,-1.0));
#1215=DIRECTION('',(-1.0,0.0,0.0));
#1205=ORIENTED_EDGE('',*,*,#1206,.F.);
#1237=ORIENTED_EDGE('',*,*,#1175,.T.);
#1216=ORIENTED_EDGE('',*,*,#1091,.T.);
#1249=STYLED_ITEM('color',(#34),#1250);
#1250=ADVANCED_FACE($,(#1256),#1251,.T.);
#1251=CYLINDRICAL_SURFACE($,#1252,0.2794);
#1252=AXIS2_PLACEMENT_3D($,#1253,#1254,#1255);
#1253=CARTESIAN_POINT('',(-0.559,0.0,-5.131));
#1254=DIRECTION('',(0.,0.,1.));
#1255=DIRECTION('',(0.0,-1.0,0.0));
#1256=FACE_OUTER_BOUND($,#1257,.T.);
#1257=EDGE_LOOP($,(#1280, #1258, #1290, #1269));
#1285=CARTESIAN_POINT('',(-0.279,0.0,-2.591));
#1284=VERTEX_POINT('',#1285);
#1281=EDGE_CURVE('',#1123,#1284,#1286,.T.);
#1286=LINE('',#1124,#1288);
#1288=VECTOR('',#1289,2.54);
#1289=DIRECTION('',(0.0,0.0,1.0));
#1280=ORIENTED_EDGE('',*,*,#1281,.F.);
#1258=ORIENTED_EDGE('',*,*,#1122,.T.);
#1293=CARTESIAN_POINT('',(-0.838,0.0,-2.591));
#1292=VERTEX_POINT('',#1293);
#1291=EDGE_CURVE('',#1292,#1125,#1296,.T.);
#1296=LINE('',#1293,#1298);
#1298=VECTOR('',#1299,2.54);
#1299=DIRECTION('',(0.0,0.0,-1.0));
#1290=ORIENTED_EDGE('',*,*,#1291,.F.);
#1270=EDGE_CURVE($,#1284,#1292,#1275,.T.);
#1275=CIRCLE($,#1276,0.2794);
#1277=CARTESIAN_POINT('',(-0.559,0.0,-2.591));
#1276=AXIS2_PLACEMENT_3D($,#1277,#1278,#1279);
#1278=DIRECTION('',(0.0,0.0,1.0));
#1279=DIRECTION('',(-1.0,0.0,0.0));
#1269=ORIENTED_EDGE('',*,*,#1270,.F.);
#1302=STYLED_ITEM('color',(#34),#1303);
#1303=ADVANCED_FACE($,(#1309),#1304,.T.);
#1304=CYLINDRICAL_SURFACE($,#1305,0.2794);
#1305=AXIS2_PLACEMENT_3D($,#1306,#1307,#1308);
#1306=CARTESIAN_POINT('',(-0.559,0.0,-5.131));
#1307=DIRECTION('',(0.,0.,1.));
#1308=DIRECTION('',(0.0,-1.0,0.0));
#1309=FACE_OUTER_BOUND($,#1310,.T.);
#1310=EDGE_LOOP($,(#1333, #1311, #1343, #1322));
#1333=ORIENTED_EDGE('',*,*,#1291,.T.);
#1311=ORIENTED_EDGE('',*,*,#1133,.T.);
#1343=ORIENTED_EDGE('',*,*,#1281,.T.);
#1323=EDGE_CURVE($,#1292,#1284,#1328,.T.);
#1328=CIRCLE($,#1329,0.2794);
#1329=AXIS2_PLACEMENT_3D($,#1277,#1331,#1332);
#1331=DIRECTION('',(0.0,0.0,1.0));
#1332=DIRECTION('',(1.0,0.0,0.0));
#1322=ORIENTED_EDGE('',*,*,#1323,.F.);
#1355=STYLED_ITEM('color',(#34),#1356);
#1356=ADVANCED_FACE($,(#1362),#1357,.T.);
#1357=CYLINDRICAL_SURFACE($,#1358,0.2794);
#1358=AXIS2_PLACEMENT_3D($,#1359,#1360,#1361);
#1359=CARTESIAN_POINT('',(-0.398,0.0,-2.199));
#1360=DIRECTION('',(0.694,0.0,0.72));
#1361=DIRECTION('',(0.0,-1.0,0.0));
#1362=FACE_OUTER_BOUND($,#1363,.T.);
#1363=EDGE_LOOP($,(#1386, #1364, #1396, #1375));
#1389=CARTESIAN_POINT('',(-0.199,0.0,-2.395));
#1388=VERTEX_POINT('',#1389);
#1391=CARTESIAN_POINT('',(1.294,0.0,-0.847));
#1390=VERTEX_POINT('',#1391);
#1387=EDGE_CURVE('',#1388,#1390,#1392,.T.);
#1392=LINE('',#1389,#1394);
#1394=VECTOR('',#1395,2.15038477724067);
#1395=DIRECTION('',(0.694,0.0,0.72));
#1386=ORIENTED_EDGE('',*,*,#1387,.F.);
#1367=CARTESIAN_POINT('',(-0.597,0.0,-2.003));
#1366=VERTEX_POINT('',#1367);
#1365=EDGE_CURVE($,#1366,#1388,#1370,.T.);
#1370=CIRCLE($,#1371,0.2794);
#1372=CARTESIAN_POINT('',(-0.398,0.0,-2.199));
#1371=AXIS2_PLACEMENT_3D($,#1372,#1373,#1374);
#1373=DIRECTION('',(-0.694,0.0,-0.72));
#1374=DIRECTION('',(0.713,0.0,-0.702));
#1364=ORIENTED_EDGE('',*,*,#1365,.F.);
#1399=CARTESIAN_POINT('',(0.896,0.0,-0.455));
#1398=VERTEX_POINT('',#1399);
#1397=EDGE_CURVE('',#1398,#1366,#1402,.T.);
#1402=LINE('',#1399,#1404);
#1404=VECTOR('',#1405,2.15038477724067);
#1405=DIRECTION('',(-0.694,0.0,-0.72));
#1396=ORIENTED_EDGE('',*,*,#1397,.F.);
#1376=EDGE_CURVE($,#1390,#1398,#1381,.T.);
#1381=CIRCLE($,#1382,0.2794);
#1383=CARTESIAN_POINT('',(1.095,0.0,-0.651));
#1382=AXIS2_PLACEMENT_3D($,#1383,#1384,#1385);
#1384=DIRECTION('',(0.694,0.0,0.72));
#1385=DIRECTION('',(-0.713,0.0,0.702));
#1375=ORIENTED_EDGE('',*,*,#1376,.F.);
#1408=STYLED_ITEM('color',(#34),#1409);
#1409=ADVANCED_FACE($,(#1415),#1410,.T.);
#1410=CYLINDRICAL_SURFACE($,#1411,0.2794);
#1411=AXIS2_PLACEMENT_3D($,#1412,#1413,#1414);
#1412=CARTESIAN_POINT('',(-0.398,0.0,-2.199));
#1413=DIRECTION('',(0.694,0.0,0.72));
#1414=DIRECTION('',(0.0,-1.0,0.0));
#1415=FACE_OUTER_BOUND($,#1416,.T.);
#1416=EDGE_LOOP($,(#1439, #1417, #1449, #1428));
#1439=ORIENTED_EDGE('',*,*,#1397,.T.);
#1418=EDGE_CURVE($,#1388,#1366,#1423,.T.);
#1423=CIRCLE($,#1424,0.2794);
#1424=AXIS2_PLACEMENT_3D($,#1372,#1426,#1427);
#1426=DIRECTION('',(-0.694,0.0,-0.72));
#1427=DIRECTION('',(-0.713,0.0,0.702));
#1417=ORIENTED_EDGE('',*,*,#1418,.F.);
#1449=ORIENTED_EDGE('',*,*,#1387,.T.);
#1429=EDGE_CURVE($,#1398,#1390,#1434,.T.);
#1434=CIRCLE($,#1435,0.2794);
#1435=AXIS2_PLACEMENT_3D($,#1383,#1437,#1438);
#1437=DIRECTION('',(0.694,0.0,0.72));
#1438=DIRECTION('',(-0.713,0.0,0.702));
#1428=ORIENTED_EDGE('',*,*,#1429,.F.);
#1461=STYLED_ITEM('color',(#34),#1462);
#1462 = ADVANCED_FACE ( '', ( #1468 ), #1463, .T. ) ;
#1463 = TOROIDAL_SURFACE ( '', #1464, 0.5588, 0.2794 ) ;
#1464 = AXIS2_PLACEMENT_3D ( '', #1465, #1466, #1467 ) ;
#1465 = CARTESIAN_POINT ( '',  ( 0.697,0.0,-0.259 ) ) ;
#1466 = DIRECTION ( '',  ( 0.0,1.0,0.0 ) ) ;
#1467 = DIRECTION ( '',  ( 0.0000000000000000000, 0.0000000000000000000, -1.000000000000000000 ) ) ;
#1468 = FACE_OUTER_BOUND ( '', #1469, .T. ) ;
#1469 = EDGE_LOOP ( '', ( #1470, #1481, #1492, #1503 ) ) ;
#1470=ORIENTED_EDGE('',*,*,#1153,.T.);
#1482=EDGE_CURVE($,#1390,#1176,#1487,.T.);
#1487=CIRCLE($,#1488,0.8382);
#1489=CARTESIAN_POINT('',(0.697,0.0,-0.259));
#1488=AXIS2_PLACEMENT_3D($,#1489,#1490,#1491);
#1490=DIRECTION('',(0.0,-1.0,0.0));
#1491=DIRECTION('',(0.0,0.0,1.0));
#1481=ORIENTED_EDGE('',*,*,#1482,.F.);
#1492=ORIENTED_EDGE('',*,*,#1376,.T.);
#1504=EDGE_CURVE($,#1154,#1398,#1509,.T.);
#1509=CIRCLE($,#1510,0.2794);
#1510=AXIS2_PLACEMENT_3D($,#1489,#1512,#1513);
#1512=DIRECTION('',(0.0,1.0,0.0));
#1513=DIRECTION('',(0.0,0.0,1.0));
#1503=ORIENTED_EDGE('',*,*,#1504,.F.);
#1514=STYLED_ITEM('color',(#34),#1515);
#1515 = ADVANCED_FACE ( '', ( #1521 ), #1516, .T. ) ;
#1516 = TOROIDAL_SURFACE ( '', #1517, 0.5588, 0.2794 ) ;
#1517 = AXIS2_PLACEMENT_3D ( '', #1518, #1519, #1520 ) ;
#1518 = CARTESIAN_POINT ( '',  ( 0.697,0.0,-0.259 ) ) ;
#1519 = DIRECTION ( '',  ( 0.0,-1.0,0.0 ) ) ;
#1520 = DIRECTION ( '',  ( 0.0000000000000000000, 0.0000000000000000000, 1.000000000000000000 ) ) ;
#1521 = FACE_OUTER_BOUND ( '', #1522, .T. ) ;
#1522 = EDGE_LOOP ( '', ( #1523, #1534, #1545, #1556 ) ) ;
#1523=ORIENTED_EDGE('',*,*,#1206,.T.);
#1534=ORIENTED_EDGE('',*,*,#1504,.T.);
#1545=ORIENTED_EDGE('',*,*,#1429,.T.);
#1556=ORIENTED_EDGE('',*,*,#1482,.T.);
#1567=STYLED_ITEM('color',(#34),#1568);
#1568 = ADVANCED_FACE ( '', ( #1574 ), #1569, .T. ) ;
#1569 = TOROIDAL_SURFACE ( '', #1570, 0.5588, 0.2794 ) ;
#1570 = AXIS2_PLACEMENT_3D ( '', #1571, #1572, #1573 ) ;
#1571 = CARTESIAN_POINT ( '',  ( 0.0,0.0,-2.591 ) ) ;
#1572 = DIRECTION ( '',  ( 0.0,-1.0,0.0 ) ) ;
#1573 = DIRECTION ( '',  ( 0.0000000000000000000, 0.0000000000000000000, 1.000000000000000000 ) ) ;
#1574 = FACE_OUTER_BOUND ( '', #1575, .T. ) ;
#1575 = EDGE_LOOP ( '', ( #1576, #1587, #1598, #1609 ) ) ;
#1576=ORIENTED_EDGE('',*,*,#1418,.T.);
#1588=EDGE_CURVE($,#1292,#1366,#1593,.T.);
#1593=CIRCLE($,#1594,0.8382);
#1595=CARTESIAN_POINT('',(0.0,0.0,-2.591));
#1594=AXIS2_PLACEMENT_3D($,#1595,#1596,#1597);
#1596=DIRECTION('',(0.0,1.0,0.0));
#1597=DIRECTION('',(0.0,0.0,1.0));
#1587=ORIENTED_EDGE('',*,*,#1588,.F.);
#1598=ORIENTED_EDGE('',*,*,#1323,.T.);
#1610=EDGE_CURVE($,#1388,#1284,#1615,.T.);
#1615=CIRCLE($,#1616,0.2794);
#1616=AXIS2_PLACEMENT_3D($,#1595,#1618,#1619);
#1618=DIRECTION('',(0.0,-1.0,0.0));
#1619=DIRECTION('',(0.0,0.0,1.0));
#1609=ORIENTED_EDGE('',*,*,#1610,.F.);
#1620=STYLED_ITEM('color',(#34),#1621);
#1621 = ADVANCED_FACE ( '', ( #1627 ), #1622, .T. ) ;
#1622 = TOROIDAL_SURFACE ( '', #1623, 0.5588, 0.2794 ) ;
#1623 = AXIS2_PLACEMENT_3D ( '', #1624, #1625, #1626 ) ;
#1624 = CARTESIAN_POINT ( '',  ( 0.0,0.0,-2.591 ) ) ;
#1625 = DIRECTION ( '',  ( 0.0,1.0,0.0 ) ) ;
#1626 = DIRECTION ( '',  ( 0.0000000000000000000, 0.0000000000000000000, 1.000000000000000000 ) ) ;
#1627 = FACE_OUTER_BOUND ( '', #1628, .T. ) ;
#1628 = EDGE_LOOP ( '', ( #1629, #1640, #1651, #1662 ) ) ;
#1629=ORIENTED_EDGE('',*,*,#1365,.T.);
#1640=ORIENTED_EDGE('',*,*,#1610,.T.);
#1651=ORIENTED_EDGE('',*,*,#1270,.T.);
#1662=ORIENTED_EDGE('',*,*,#1588,.T.);
ENDSEC;
END-ISO-10303-21;
