ISO-10303-21;
HEADER;
FILE_DESCRIPTION(('STEP AP214'),'1');
FILE_NAME('PCAP_10x10-ELECT_NCA','2024-08-25T01:09:15',(''),(''),'','','');
FILE_SCHEMA(('AUTOMOTIVE_DESIGN'));
ENDSEC;
DATA;
#1=SHAPE_DEFINITION_REPRESENTATION(#2,#3);
#2=PRODUCT_DEFINITION_SHAPE('',$,#4);
#3=SHAPE_REPRESENTATION('',(#188,#244,#1931,#2365,#19),#11);
#4=PRODUCT_DEFINITION('design','example product_definition',#6,#5);
#5=PRODUCT_DEFINITION_CONTEXT('3D Mechanical Parts',#10,'design');
#6=PRODUCT_DEFINITION_FORMATION('1.0','first version',#8);
#7=APPLICATION_PROTOCOL_DEFINITION('international standard','automotive_design',2003,#10);
#8=PRODUCT('product','part','',(#9));
#9=PRODUCT_CONTEXT('3D Mechanical Parts',#10,'mechanical');
#10=APPLICATION_CONTEXT('Core Data for Automotive Mechanical Design Process');
#11=(GEOMETRIC_REPRESENTATION_CONTEXT(3) GLOBAL_UNCERTAINTY_ASSIGNED_CONTEXT((#12)) GLOBAL_UNIT_ASSIGNED_CONTEXT((#13,#14,#18)) REPRESENTATION_CONTEXT('ID1','3D'));
#12=UNCERTAINTY_MEASURE_WITH_UNIT(LENGTH_MEASURE(1.E-005),#13,'DISTANCE_ACCURACY_VALUE','Maximum model space distance between geometric entities at asserted connectivities');
#13=(LENGTH_UNIT() NAMED_UNIT(*) SI_UNIT(.MILLI.,.METRE.));
#14=(CONVERSION_BASED_UNIT('degree',#16) NAMED_UNIT(#15) PLANE_ANGLE_UNIT());
#15=DIMENSIONAL_EXPONENTS(0.,0.,0.,0.,0.,0.,0.);
#16=MEASURE_WITH_UNIT(PLANE_ANGLE_MEASURE(0.01745329252),#17);
#17=(NAMED_UNIT(*) PLANE_ANGLE_UNIT() SI_UNIT($,.RADIAN.));
#18=(NAMED_UNIT(*) SI_UNIT($,.STERADIAN.) SOLID_ANGLE_UNIT());
#19=AXIS2_PLACEMENT_3D('',#20,#21,#22);
#20=CARTESIAN_POINT('',(0.0,0.0,0.0));
#21=DIRECTION('',(0.0,0.0,1.0));
#22=DIRECTION('',(1.0,0.0,0.0));
#25=MECHANICAL_DESIGN_GEOMETRIC_PRESENTATION_REPRESENTATION($,(#240,#241,#242,#246,#295,#344,#393,#442,#491,#540,#589,#638,#687,#736,#805,#894,#983,#1072,#1161,#1330,#1392,#1464,#1536,#1598,#1651,#1704,#1757,#1810,#1840,#1870,#1900,#1933,#2002,#2071,#2120,#2169,#2218,#2267,#2316,#2367,#2436,#2505,#2554,#2603,#2652,#2701,#2750),#11);
#26=PRODUCT_CATEGORY_RELATIONSHIP('','',#27,#28);
#27=PRODUCT_CATEGORY('part','');
#28=PRODUCT_RELATED_PRODUCT_CATEGORY('','',(#8));
#34=PRESENTATION_STYLE_ASSIGNMENT((#35,#40));
#35=SURFACE_STYLE_USAGE(.BOTH.,#36);
#36=SURFACE_SIDE_STYLE('',(#37));
#37=SURFACE_STYLE_FILL_AREA(#38);
#38=FILL_AREA_STYLE('',(#39));
#39=FILL_AREA_STYLE_COLOUR('',#41);
#40=CURVE_STYLE('',#42,POSITIVE_LENGTH_MEASURE(0.1),#41);
#41=COLOUR_RGB('Aluminum',0.725,0.725,0.725);
#42=DRAUGHTING_PRE_DEFINED_CURVE_FONT('continuous');
#43=PRESENTATION_STYLE_ASSIGNMENT((#44,#49));
#44=SURFACE_STYLE_USAGE(.BOTH.,#45);
#45=SURFACE_SIDE_STYLE('',(#46));
#46=SURFACE_STYLE_FILL_AREA(#47);
#47=FILL_AREA_STYLE('',(#48));
#48=FILL_AREA_STYLE_COLOUR('',#50);
#49=CURVE_STYLE('',#51,POSITIVE_LENGTH_MEASURE(0.1),#50);
#50=COLOUR_RGB('Black',0.196,0.196,0.196);
#51=DRAUGHTING_PRE_DEFINED_CURVE_FONT('continuous');
#52=PRESENTATION_STYLE_ASSIGNMENT((#53,#58));
#53=SURFACE_STYLE_USAGE(.BOTH.,#54);
#54=SURFACE_SIDE_STYLE('',(#55));
#55=SURFACE_STYLE_FILL_AREA(#56);
#56=FILL_AREA_STYLE('',(#57));
#57=FILL_AREA_STYLE_COLOUR('',#59);
#58=CURVE_STYLE('',#60,POSITIVE_LENGTH_MEASURE(0.1),#59);
#59=COLOUR_RGB('HeatTab',0.588,0.588,0.588);
#60=DRAUGHTING_PRE_DEFINED_CURVE_FONT('continuous');
#61=PRESENTATION_STYLE_ASSIGNMENT((#62,#67));
#62=SURFACE_STYLE_USAGE(.BOTH.,#63);
#63=SURFACE_SIDE_STYLE('',(#64));
#64=SURFACE_STYLE_FILL_AREA(#65);
#65=FILL_AREA_STYLE('',(#66));
#66=FILL_AREA_STYLE_COLOUR('',#68);
#67=CURVE_STYLE('',#69,POSITIVE_LENGTH_MEASURE(0.1),#68);
#68=COLOUR_RGB('Gold',0.843,0.686,0.0);
#69=DRAUGHTING_PRE_DEFINED_CURVE_FONT('continuous');
#70=PRESENTATION_STYLE_ASSIGNMENT((#71,#76));
#71=SURFACE_STYLE_USAGE(.BOTH.,#72);
#72=SURFACE_SIDE_STYLE('',(#73));
#73=SURFACE_STYLE_FILL_AREA(#74);
#74=FILL_AREA_STYLE('',(#75));
#75=FILL_AREA_STYLE_COLOUR('',#77);
#76=CURVE_STYLE('',#78,POSITIVE_LENGTH_MEASURE(0.1),#77);
#77=COLOUR_RGB('Brown',0.459,0.345,0.176);
#78=DRAUGHTING_PRE_DEFINED_CURVE_FONT('continuous');
#79=PRESENTATION_STYLE_ASSIGNMENT((#80,#85));
#80=SURFACE_STYLE_USAGE(.BOTH.,#81);
#81=SURFACE_SIDE_STYLE('',(#82));
#82=SURFACE_STYLE_FILL_AREA(#83);
#83=FILL_AREA_STYLE('',(#84));
#84=FILL_AREA_STYLE_COLOUR('',#86);
#85=CURVE_STYLE('',#87,POSITIVE_LENGTH_MEASURE(0.1),#86);
#86=COLOUR_RGB('Tan',0.784,0.686,0.51);
#87=DRAUGHTING_PRE_DEFINED_CURVE_FONT('continuous');
#88=PRESENTATION_STYLE_ASSIGNMENT((#89,#94));
#89=SURFACE_STYLE_USAGE(.BOTH.,#90);
#90=SURFACE_SIDE_STYLE('',(#91));
#91=SURFACE_STYLE_FILL_AREA(#92);
#92=FILL_AREA_STYLE('',(#93));
#93=FILL_AREA_STYLE_COLOUR('',#95);
#94=CURVE_STYLE('',#96,POSITIVE_LENGTH_MEASURE(0.1),#95);
#95=COLOUR_RGB('Gray',0.431,0.431,0.431);
#96=DRAUGHTING_PRE_DEFINED_CURVE_FONT('continuous');
#97=PRESENTATION_STYLE_ASSIGNMENT((#98,#103));
#98=SURFACE_STYLE_USAGE(.BOTH.,#99);
#99=SURFACE_SIDE_STYLE('',(#100));
#100=SURFACE_STYLE_FILL_AREA(#101);
#101=FILL_AREA_STYLE('',(#102));
#102=FILL_AREA_STYLE_COLOUR('',#104);
#103=CURVE_STYLE('',#105,POSITIVE_LENGTH_MEASURE(0.1),#104);
#104=COLOUR_RGB('Red',0.6,0.0,0.0);
#105=DRAUGHTING_PRE_DEFINED_CURVE_FONT('continuous');
#106=PRESENTATION_STYLE_ASSIGNMENT((#107,#112));
#107=SURFACE_STYLE_USAGE(.BOTH.,#108);
#108=SURFACE_SIDE_STYLE('',(#109));
#109=SURFACE_STYLE_FILL_AREA(#110);
#110=FILL_AREA_STYLE('',(#111));
#111=FILL_AREA_STYLE_COLOUR('',#113);
#112=CURVE_STYLE('',#114,POSITIVE_LENGTH_MEASURE(0.1),#113);
#113=COLOUR_RGB('Blue',0.157,0.157,0.588);
#114=DRAUGHTING_PRE_DEFINED_CURVE_FONT('continuous');
#115=PRESENTATION_STYLE_ASSIGNMENT((#116,#121));
#116=SURFACE_STYLE_USAGE(.BOTH.,#117);
#117=SURFACE_SIDE_STYLE('',(#118));
#118=SURFACE_STYLE_FILL_AREA(#119);
#119=FILL_AREA_STYLE('',(#120));
#120=FILL_AREA_STYLE_COLOUR('',#122);
#121=CURVE_STYLE('',#123,POSITIVE_LENGTH_MEASURE(0.1),#122);
#122=COLOUR_RGB('Maroon',0.294,0.0,0.0);
#123=DRAUGHTING_PRE_DEFINED_CURVE_FONT('continuous');
#124=PRESENTATION_STYLE_ASSIGNMENT((#125,#130));
#125=SURFACE_STYLE_USAGE(.BOTH.,#126);
#126=SURFACE_SIDE_STYLE('',(#127));
#127=SURFACE_STYLE_FILL_AREA(#128);
#128=FILL_AREA_STYLE('',(#129));
#129=FILL_AREA_STYLE_COLOUR('',#131);
#130=CURVE_STYLE('',#132,POSITIVE_LENGTH_MEASURE(0.1),#131);
#131=COLOUR_RGB('Green',0.0,0.294,0.0);
#132=DRAUGHTING_PRE_DEFINED_CURVE_FONT('continuous');
#133=PRESENTATION_STYLE_ASSIGNMENT((#134,#139));
#134=SURFACE_STYLE_USAGE(.BOTH.,#135);
#135=SURFACE_SIDE_STYLE('',(#136));
#136=SURFACE_STYLE_FILL_AREA(#137);
#137=FILL_AREA_STYLE('',(#138));
#138=FILL_AREA_STYLE_COLOUR('',#140);
#139=CURVE_STYLE('',#141,POSITIVE_LENGTH_MEASURE(0.1),#140);
#140=COLOUR_RGB('Pin1',0.588,0.588,0.059);
#141=DRAUGHTING_PRE_DEFINED_CURVE_FONT('continuous');
#142=PRESENTATION_STYLE_ASSIGNMENT((#143,#148));
#143=SURFACE_STYLE_USAGE(.BOTH.,#144);
#144=SURFACE_SIDE_STYLE('',(#145));
#145=SURFACE_STYLE_FILL_AREA(#146);
#146=FILL_AREA_STYLE('',(#147));
#147=FILL_AREA_STYLE_COLOUR('',#149);
#148=CURVE_STYLE('',#150,POSITIVE_LENGTH_MEASURE(0.1),#149);
#149=COLOUR_RGB('Pin1Wrap',0.98,0.706,0.176);
#150=DRAUGHTING_PRE_DEFINED_CURVE_FONT('continuous');
#151=PRESENTATION_STYLE_ASSIGNMENT((#152,#157));
#152=SURFACE_STYLE_USAGE(.BOTH.,#153);
#153=SURFACE_SIDE_STYLE('',(#154));
#154=SURFACE_STYLE_FILL_AREA(#155);
#155=FILL_AREA_STYLE('',(#156));
#156=FILL_AREA_STYLE_COLOUR('',#158);
#157=CURVE_STYLE('',#159,POSITIVE_LENGTH_MEASURE(0.1),#158);
#158=COLOUR_RGB('Pin1Rad',0.588,0.588,0.588);
#159=DRAUGHTING_PRE_DEFINED_CURVE_FONT('continuous');
#160=PRESENTATION_STYLE_ASSIGNMENT((#161,#166));
#161=SURFACE_STYLE_USAGE(.BOTH.,#162);
#162=SURFACE_SIDE_STYLE('',(#163));
#163=SURFACE_STYLE_FILL_AREA(#164);
#164=FILL_AREA_STYLE('',(#165));
#165=FILL_AREA_STYLE_COLOUR('',#167);
#166=CURVE_STYLE('',#168,POSITIVE_LENGTH_MEASURE(0.1),#167);
#167=COLOUR_RGB('Pin1Axial',0.98,0.706,0.176);
#168=DRAUGHTING_PRE_DEFINED_CURVE_FONT('continuous');
#169=PRESENTATION_STYLE_ASSIGNMENT((#170,#175));
#170=SURFACE_STYLE_USAGE(.BOTH.,#171);
#171=SURFACE_SIDE_STYLE('',(#172));
#172=SURFACE_STYLE_FILL_AREA(#173);
#173=FILL_AREA_STYLE('',(#174));
#174=FILL_AREA_STYLE_COLOUR('',#176);
#175=CURVE_STYLE('',#177,POSITIVE_LENGTH_MEASURE(0.1),#176);
#176=COLOUR_RGB('Pin1Tant',0.459,0.345,0.176);
#177=DRAUGHTING_PRE_DEFINED_CURVE_FONT('continuous');
#178=PRESENTATION_STYLE_ASSIGNMENT((#179,#184));
#179=SURFACE_STYLE_USAGE(.BOTH.,#180);
#180=SURFACE_SIDE_STYLE('',(#181));
#181=SURFACE_STYLE_FILL_AREA(#182);
#182=FILL_AREA_STYLE('',(#183));
#183=FILL_AREA_STYLE_COLOUR('',#185);
#184=CURVE_STYLE('',#186,POSITIVE_LENGTH_MEASURE(0.1),#185);
#185=COLOUR_RGB('Shroud',0.235,0.235,0.235);
#186=DRAUGHTING_PRE_DEFINED_CURVE_FONT('continuous');
#188=MANIFOLD_SOLID_BREP($,#189);
#189=CLOSED_SHELL('',(#190,#191,#192));
#190=ADVANCED_FACE($,(#196,#195),#213,.T.);
#191=ADVANCED_FACE($,(#197),#193,.F.);
#192=ADVANCED_FACE($,(#198),#194,.T.);
#193=PLANE($,#218);
#194=PLANE($,#219);
#195=FACE_BOUND($,#200,.T.);
#196=FACE_OUTER_BOUND($,#199,.T.);
#197=FACE_OUTER_BOUND($,#201,.T.);
#198=FACE_OUTER_BOUND($,#202,.T.);
#199=EDGE_LOOP($,(#209));
#200=EDGE_LOOP($,(#210));
#201=EDGE_LOOP($,(#211));
#202=EDGE_LOOP($,(#212));
#203=CIRCLE($,#216,4.980305);
#204=CIRCLE($,#217,4.980305);
#205=VERTEX_POINT('',#234);
#206=VERTEX_POINT('',#236);
#207=EDGE_CURVE($,#205,#205,#203,.T.);
#208=EDGE_CURVE($,#206,#206,#204,.T.);
#209=ORIENTED_EDGE($,*,*,#207,.F.);
#210=ORIENTED_EDGE($,*,*,#208,.F.);
#211=ORIENTED_EDGE($,*,*,#208,.T.);
#212=ORIENTED_EDGE($,*,*,#207,.T.);
#213=CYLINDRICAL_SURFACE($,#215,4.980305);
#214=AXIS2_PLACEMENT_3D('placement',#232,#220,#221);
#215=AXIS2_PLACEMENT_3D($,#233,#222,#223);
#216=AXIS2_PLACEMENT_3D($,#235,#224,#225);
#217=AXIS2_PLACEMENT_3D($,#237,#226,#227);
#218=AXIS2_PLACEMENT_3D($,#238,#228,#229);
#219=AXIS2_PLACEMENT_3D($,#239,#230,#231);
#220=DIRECTION('axis',(0.,1.,0.));
#221=DIRECTION('refdir',(1.,0.,0.));
#222=DIRECTION('',(0.,0.,1.));
#223=DIRECTION('',(1.,0.,0.));
#224=DIRECTION('',(0.,0.,1.));
#225=DIRECTION('',(1.,0.,0.));
#226=DIRECTION('',(0.,0.,-1.));
#227=DIRECTION('',(1.,0.,0.));
#228=DIRECTION('',(0.,0.,1.));
#229=DIRECTION('',(0.,1.,0.));
#230=DIRECTION('',(0.,0.,1.));
#231=DIRECTION('',(0.,1.,0.));
#232=CARTESIAN_POINT('',(0.,0.,0.));
#233=CARTESIAN_POINT('',(0.0,0.0,1.102));
#234=CARTESIAN_POINT('',(-4.98,0.0,10.544));
#235=CARTESIAN_POINT('',(0.0,0.0,10.544));
#236=CARTESIAN_POINT('',(-4.98,0.0,1.102));
#237=CARTESIAN_POINT('',(0.0,0.0,1.102));
#238=CARTESIAN_POINT('',(0.0,0.0,1.102));
#239=CARTESIAN_POINT('',(0.0,0.0,10.544));
#240=STYLED_ITEM('color',(#34),#190);
#241=STYLED_ITEM('color',(#34),#191);
#242=STYLED_ITEM('color',(#34),#192);
#244=MANIFOLD_SOLID_BREP($,#245);
#245=CLOSED_SHELL('',(#247,#296,#345,#394,#443,#492,#541,#590,#639,#688,#737,#806,#895,#984,#1073,#1162,#1331,#1393,#1465,#1537,#1599,#1652,#1705,#1758,#1811,#1841,#1871,#1901));
#246=STYLED_ITEM('',(#43),#247);
#247=ADVANCED_FACE('',(#253),#248,.T.);
#248=PLANE('',#249);
#249=AXIS2_PLACEMENT_3D('',#250,#251,#252);
#250=CARTESIAN_POINT('',(1.907,5.245,1.1));
#251=DIRECTION('',(-1.0,0.0,0.0));
#252=DIRECTION('',(0.,0.,1.));
#253=FACE_OUTER_BOUND('',#254,.T.);
#254=EDGE_LOOP('',(#255,#265,#275,#285));
#258=CARTESIAN_POINT('',(1.907,4.604,1.1));
#257=VERTEX_POINT('',#258);
#260=CARTESIAN_POINT('',(1.907,5.245,1.1));
#259=VERTEX_POINT('',#260);
#256=EDGE_CURVE('',#257,#259,#261,.T.);
#261=LINE('',#258,#263);
#263=VECTOR('',#264,0.641551490811928);
#264=DIRECTION('',(0.0,1.0,0.0));
#255=ORIENTED_EDGE('',*,*,#256,.F.);
#268=CARTESIAN_POINT('',(1.907,4.604,2.149));
#267=VERTEX_POINT('',#268);
#266=EDGE_CURVE('',#267,#257,#271,.T.);
#271=LINE('',#268,#273);
#273=VECTOR('',#274,1.04902);
#274=DIRECTION('',(0.0,0.0,-1.0));
#265=ORIENTED_EDGE('',*,*,#266,.F.);
#278=CARTESIAN_POINT('',(1.907,5.245,2.149));
#277=VERTEX_POINT('',#278);
#276=EDGE_CURVE('',#277,#267,#281,.T.);
#281=LINE('',#278,#283);
#283=VECTOR('',#284,0.641551490811928);
#284=DIRECTION('',(0.0,-1.0,0.0));
#275=ORIENTED_EDGE('',*,*,#276,.F.);
#286=EDGE_CURVE('',#259,#277,#291,.T.);
#291=LINE('',#260,#293);
#293=VECTOR('',#294,1.04902);
#294=DIRECTION('',(0.0,0.0,1.0));
#285=ORIENTED_EDGE('',*,*,#286,.F.);
#295=STYLED_ITEM('',(#43),#296);
#296=ADVANCED_FACE('',(#302),#297,.T.);
#297=PLANE('',#298);
#298=AXIS2_PLACEMENT_3D('',#299,#300,#301);
#299=CARTESIAN_POINT('',(-1.907,4.604,1.1));
#300=DIRECTION('',(1.0,0.0,0.0));
#301=DIRECTION('',(0.,0.,1.));
#302=FACE_OUTER_BOUND('',#303,.T.);
#303=EDGE_LOOP('',(#304,#314,#324,#334));
#307=CARTESIAN_POINT('',(-1.907,5.245,1.1));
#306=VERTEX_POINT('',#307);
#309=CARTESIAN_POINT('',(-1.907,4.604,1.1));
#308=VERTEX_POINT('',#309);
#305=EDGE_CURVE('',#306,#308,#310,.T.);
#310=LINE('',#307,#312);
#312=VECTOR('',#313,0.641551490811928);
#313=DIRECTION('',(0.0,-1.0,0.0));
#304=ORIENTED_EDGE('',*,*,#305,.F.);
#317=CARTESIAN_POINT('',(-1.907,5.245,2.149));
#316=VERTEX_POINT('',#317);
#315=EDGE_CURVE('',#316,#306,#320,.T.);
#320=LINE('',#317,#322);
#322=VECTOR('',#323,1.04902);
#323=DIRECTION('',(0.0,0.0,-1.0));
#314=ORIENTED_EDGE('',*,*,#315,.F.);
#327=CARTESIAN_POINT('',(-1.907,4.604,2.149));
#326=VERTEX_POINT('',#327);
#325=EDGE_CURVE('',#326,#316,#330,.T.);
#330=LINE('',#327,#332);
#332=VECTOR('',#333,0.641551490811928);
#333=DIRECTION('',(0.0,1.0,0.0));
#324=ORIENTED_EDGE('',*,*,#325,.F.);
#335=EDGE_CURVE('',#308,#326,#340,.T.);
#340=LINE('',#309,#342);
#342=VECTOR('',#343,1.04902);
#343=DIRECTION('',(0.0,0.0,1.0));
#334=ORIENTED_EDGE('',*,*,#335,.F.);
#344=STYLED_ITEM('',(#43),#345);
#345=ADVANCED_FACE('',(#351),#346,.T.);
#346=PLANE('',#347);
#347=AXIS2_PLACEMENT_3D('',#348,#349,#350);
#348=CARTESIAN_POINT('',(-5.245,1.907,1.1));
#349=DIRECTION('',(0.0,-1.0,0.0));
#350=DIRECTION('',(0.,0.,1.));
#351=FACE_OUTER_BOUND('',#352,.T.);
#352=EDGE_LOOP('',(#353,#363,#373,#383));
#356=CARTESIAN_POINT('',(-4.604,1.907,1.1));
#355=VERTEX_POINT('',#356);
#358=CARTESIAN_POINT('',(-5.245,1.907,1.1));
#357=VERTEX_POINT('',#358);
#354=EDGE_CURVE('',#355,#357,#359,.T.);
#359=LINE('',#356,#361);
#361=VECTOR('',#362,0.641551490811928);
#362=DIRECTION('',(-1.0,0.0,0.0));
#353=ORIENTED_EDGE('',*,*,#354,.F.);
#366=CARTESIAN_POINT('',(-4.604,1.907,2.149));
#365=VERTEX_POINT('',#366);
#364=EDGE_CURVE('',#365,#355,#369,.T.);
#369=LINE('',#366,#371);
#371=VECTOR('',#372,1.04902);
#372=DIRECTION('',(0.0,0.0,-1.0));
#363=ORIENTED_EDGE('',*,*,#364,.F.);
#376=CARTESIAN_POINT('',(-5.245,1.907,2.149));
#375=VERTEX_POINT('',#376);
#374=EDGE_CURVE('',#375,#365,#379,.T.);
#379=LINE('',#376,#381);
#381=VECTOR('',#382,0.641551490811928);
#382=DIRECTION('',(1.0,0.0,0.0));
#373=ORIENTED_EDGE('',*,*,#374,.F.);
#384=EDGE_CURVE('',#357,#375,#389,.T.);
#389=LINE('',#358,#391);
#391=VECTOR('',#392,1.04902);
#392=DIRECTION('',(0.0,0.0,1.0));
#383=ORIENTED_EDGE('',*,*,#384,.F.);
#393=STYLED_ITEM('',(#43),#394);
#394=ADVANCED_FACE('',(#400),#395,.T.);
#395=PLANE('',#396);
#396=AXIS2_PLACEMENT_3D('',#397,#398,#399);
#397=CARTESIAN_POINT('',(-4.604,-1.907,1.1));
#398=DIRECTION('',(0.0,1.0,0.0));
#399=DIRECTION('',(0.,0.,1.));
#400=FACE_OUTER_BOUND('',#401,.T.);
#401=EDGE_LOOP('',(#402,#412,#422,#432));
#405=CARTESIAN_POINT('',(-5.245,-1.907,1.1));
#404=VERTEX_POINT('',#405);
#407=CARTESIAN_POINT('',(-4.604,-1.907,1.1));
#406=VERTEX_POINT('',#407);
#403=EDGE_CURVE('',#404,#406,#408,.T.);
#408=LINE('',#405,#410);
#410=VECTOR('',#411,0.641551490811928);
#411=DIRECTION('',(1.0,0.0,0.0));
#402=ORIENTED_EDGE('',*,*,#403,.F.);
#415=CARTESIAN_POINT('',(-5.245,-1.907,2.149));
#414=VERTEX_POINT('',#415);
#413=EDGE_CURVE('',#414,#404,#418,.T.);
#418=LINE('',#415,#420);
#420=VECTOR('',#421,1.04902);
#421=DIRECTION('',(0.0,0.0,-1.0));
#412=ORIENTED_EDGE('',*,*,#413,.F.);
#425=CARTESIAN_POINT('',(-4.604,-1.907,2.149));
#424=VERTEX_POINT('',#425);
#423=EDGE_CURVE('',#424,#414,#428,.T.);
#428=LINE('',#425,#430);
#430=VECTOR('',#431,0.641551490811928);
#431=DIRECTION('',(-1.0,0.0,0.0));
#422=ORIENTED_EDGE('',*,*,#423,.F.);
#433=EDGE_CURVE('',#406,#424,#438,.T.);
#438=LINE('',#407,#440);
#440=VECTOR('',#441,1.04902);
#441=DIRECTION('',(0.0,0.0,1.0));
#432=ORIENTED_EDGE('',*,*,#433,.F.);
#442=STYLED_ITEM('',(#43),#443);
#443=ADVANCED_FACE('',(#449),#444,.T.);
#444=PLANE('',#445);
#445=AXIS2_PLACEMENT_3D('',#446,#447,#448);
#446=CARTESIAN_POINT('',(-1.907,-5.245,1.1));
#447=DIRECTION('',(1.0,0.0,0.0));
#448=DIRECTION('',(0.,0.,1.));
#449=FACE_OUTER_BOUND('',#450,.T.);
#450=EDGE_LOOP('',(#451,#461,#471,#481));
#454=CARTESIAN_POINT('',(-1.907,-4.604,1.1));
#453=VERTEX_POINT('',#454);
#456=CARTESIAN_POINT('',(-1.907,-5.245,1.1));
#455=VERTEX_POINT('',#456);
#452=EDGE_CURVE('',#453,#455,#457,.T.);
#457=LINE('',#454,#459);
#459=VECTOR('',#460,0.641551490811928);
#460=DIRECTION('',(0.0,-1.0,0.0));
#451=ORIENTED_EDGE('',*,*,#452,.F.);
#464=CARTESIAN_POINT('',(-1.907,-4.604,2.149));
#463=VERTEX_POINT('',#464);
#462=EDGE_CURVE('',#463,#453,#467,.T.);
#467=LINE('',#464,#469);
#469=VECTOR('',#470,1.04902);
#470=DIRECTION('',(0.0,0.0,-1.0));
#461=ORIENTED_EDGE('',*,*,#462,.F.);
#474=CARTESIAN_POINT('',(-1.907,-5.245,2.149));
#473=VERTEX_POINT('',#474);
#472=EDGE_CURVE('',#473,#463,#477,.T.);
#477=LINE('',#474,#479);
#479=VECTOR('',#480,0.641551490811928);
#480=DIRECTION('',(0.0,1.0,0.0));
#471=ORIENTED_EDGE('',*,*,#472,.F.);
#482=EDGE_CURVE('',#455,#473,#487,.T.);
#487=LINE('',#456,#489);
#489=VECTOR('',#490,1.04902);
#490=DIRECTION('',(0.0,0.0,1.0));
#481=ORIENTED_EDGE('',*,*,#482,.F.);
#491=STYLED_ITEM('',(#43),#492);
#492=ADVANCED_FACE('',(#498),#493,.T.);
#493=PLANE('',#494);
#494=AXIS2_PLACEMENT_3D('',#495,#496,#497);
#495=CARTESIAN_POINT('',(1.907,-4.604,1.1));
#496=DIRECTION('',(-1.0,0.0,0.0));
#497=DIRECTION('',(0.,0.,1.));
#498=FACE_OUTER_BOUND('',#499,.T.);
#499=EDGE_LOOP('',(#500,#510,#520,#530));
#503=CARTESIAN_POINT('',(1.907,-5.245,1.1));
#502=VERTEX_POINT('',#503);
#505=CARTESIAN_POINT('',(1.907,-4.604,1.1));
#504=VERTEX_POINT('',#505);
#501=EDGE_CURVE('',#502,#504,#506,.T.);
#506=LINE('',#503,#508);
#508=VECTOR('',#509,0.641551490811928);
#509=DIRECTION('',(0.0,1.0,0.0));
#500=ORIENTED_EDGE('',*,*,#501,.F.);
#513=CARTESIAN_POINT('',(1.907,-5.245,2.149));
#512=VERTEX_POINT('',#513);
#511=EDGE_CURVE('',#512,#502,#516,.T.);
#516=LINE('',#513,#518);
#518=VECTOR('',#519,1.04902);
#519=DIRECTION('',(0.0,0.0,-1.0));
#510=ORIENTED_EDGE('',*,*,#511,.F.);
#523=CARTESIAN_POINT('',(1.907,-4.604,2.149));
#522=VERTEX_POINT('',#523);
#521=EDGE_CURVE('',#522,#512,#526,.T.);
#526=LINE('',#523,#528);
#528=VECTOR('',#529,0.641551490811928);
#529=DIRECTION('',(0.0,-1.0,0.0));
#520=ORIENTED_EDGE('',*,*,#521,.F.);
#531=EDGE_CURVE('',#504,#522,#536,.T.);
#536=LINE('',#505,#538);
#538=VECTOR('',#539,1.04902);
#539=DIRECTION('',(0.0,0.0,1.0));
#530=ORIENTED_EDGE('',*,*,#531,.F.);
#540=STYLED_ITEM('',(#43),#541);
#541=ADVANCED_FACE('',(#547),#542,.T.);
#542=PLANE('',#543);
#543=AXIS2_PLACEMENT_3D('',#544,#545,#546);
#544=CARTESIAN_POINT('',(5.245,-1.907,1.1));
#545=DIRECTION('',(0.0,1.0,0.0));
#546=DIRECTION('',(0.,0.,1.));
#547=FACE_OUTER_BOUND('',#548,.T.);
#548=EDGE_LOOP('',(#549,#559,#569,#579));
#552=CARTESIAN_POINT('',(4.604,-1.907,1.1));
#551=VERTEX_POINT('',#552);
#554=CARTESIAN_POINT('',(5.245,-1.907,1.1));
#553=VERTEX_POINT('',#554);
#550=EDGE_CURVE('',#551,#553,#555,.T.);
#555=LINE('',#552,#557);
#557=VECTOR('',#558,0.641551490811928);
#558=DIRECTION('',(1.0,0.0,0.0));
#549=ORIENTED_EDGE('',*,*,#550,.F.);
#562=CARTESIAN_POINT('',(4.604,-1.907,2.149));
#561=VERTEX_POINT('',#562);
#560=EDGE_CURVE('',#561,#551,#565,.T.);
#565=LINE('',#562,#567);
#567=VECTOR('',#568,1.04902);
#568=DIRECTION('',(0.0,0.0,-1.0));
#559=ORIENTED_EDGE('',*,*,#560,.F.);
#572=CARTESIAN_POINT('',(5.245,-1.907,2.149));
#571=VERTEX_POINT('',#572);
#570=EDGE_CURVE('',#571,#561,#575,.T.);
#575=LINE('',#572,#577);
#577=VECTOR('',#578,0.641551490811928);
#578=DIRECTION('',(-1.0,0.0,0.0));
#569=ORIENTED_EDGE('',*,*,#570,.F.);
#580=EDGE_CURVE('',#553,#571,#585,.T.);
#585=LINE('',#554,#587);
#587=VECTOR('',#588,1.04902);
#588=DIRECTION('',(0.0,0.0,1.0));
#579=ORIENTED_EDGE('',*,*,#580,.F.);
#589=STYLED_ITEM('',(#43),#590);
#590=ADVANCED_FACE('',(#596),#591,.T.);
#591=PLANE('',#592);
#592=AXIS2_PLACEMENT_3D('',#593,#594,#595);
#593=CARTESIAN_POINT('',(4.604,1.907,1.1));
#594=DIRECTION('',(0.0,-1.0,0.0));
#595=DIRECTION('',(0.,0.,1.));
#596=FACE_OUTER_BOUND('',#597,.T.);
#597=EDGE_LOOP('',(#598,#608,#618,#628));
#601=CARTESIAN_POINT('',(5.245,1.907,1.1));
#600=VERTEX_POINT('',#601);
#603=CARTESIAN_POINT('',(4.604,1.907,1.1));
#602=VERTEX_POINT('',#603);
#599=EDGE_CURVE('',#600,#602,#604,.T.);
#604=LINE('',#601,#606);
#606=VECTOR('',#607,0.641551490811928);
#607=DIRECTION('',(-1.0,0.0,0.0));
#598=ORIENTED_EDGE('',*,*,#599,.F.);
#611=CARTESIAN_POINT('',(5.245,1.907,2.149));
#610=VERTEX_POINT('',#611);
#609=EDGE_CURVE('',#610,#600,#614,.T.);
#614=LINE('',#611,#616);
#616=VECTOR('',#617,1.04902);
#617=DIRECTION('',(0.0,0.0,-1.0));
#608=ORIENTED_EDGE('',*,*,#609,.F.);
#621=CARTESIAN_POINT('',(4.604,1.907,2.149));
#620=VERTEX_POINT('',#621);
#619=EDGE_CURVE('',#620,#610,#624,.T.);
#624=LINE('',#621,#626);
#626=VECTOR('',#627,0.641551490811928);
#627=DIRECTION('',(1.0,0.0,0.0));
#618=ORIENTED_EDGE('',*,*,#619,.F.);
#629=EDGE_CURVE('',#602,#620,#634,.T.);
#634=LINE('',#603,#636);
#636=VECTOR('',#637,1.04902);
#637=DIRECTION('',(0.0,0.0,1.0));
#628=ORIENTED_EDGE('',*,*,#629,.F.);
#638=STYLED_ITEM('',(#43),#639);
#639=ADVANCED_FACE('',(#645),#640,.T.);
#640=PLANE('',#641);
#641=AXIS2_PLACEMENT_3D('',#642,#643,#644);
#642=CARTESIAN_POINT('',(-3.576,5.245,0.051));
#643=DIRECTION('',(-0.707,0.707,0.0));
#644=DIRECTION('',(0.,0.,1.));
#645=FACE_OUTER_BOUND('',#646,.T.);
#646=EDGE_LOOP('',(#647,#657,#667,#677));
#650=CARTESIAN_POINT('',(-5.245,3.576,0.051));
#649=VERTEX_POINT('',#650);
#652=CARTESIAN_POINT('',(-3.576,5.245,0.051));
#651=VERTEX_POINT('',#652);
#648=EDGE_CURVE('',#649,#651,#653,.T.);
#653=LINE('',#650,#655);
#655=VECTOR('',#656,2.36049763720533);
#656=DIRECTION('',(0.707,0.707,0.0));
#647=ORIENTED_EDGE('',*,*,#648,.F.);
#660=CARTESIAN_POINT('',(-5.245,3.576,2.149));
#659=VERTEX_POINT('',#660);
#658=EDGE_CURVE('',#659,#649,#663,.T.);
#663=LINE('',#660,#665);
#665=VECTOR('',#666,2.09804);
#666=DIRECTION('',(0.0,0.0,-1.0));
#657=ORIENTED_EDGE('',*,*,#658,.F.);
#670=CARTESIAN_POINT('',(-3.576,5.245,2.149));
#669=VERTEX_POINT('',#670);
#668=EDGE_CURVE('',#669,#659,#673,.T.);
#673=LINE('',#670,#675);
#675=VECTOR('',#676,2.36049763720533);
#676=DIRECTION('',(-0.707,-0.707,0.0));
#667=ORIENTED_EDGE('',*,*,#668,.F.);
#678=EDGE_CURVE('',#651,#669,#683,.T.);
#683=LINE('',#652,#685);
#685=VECTOR('',#686,2.09804);
#686=DIRECTION('',(0.0,0.0,1.0));
#677=ORIENTED_EDGE('',*,*,#678,.F.);
#687=STYLED_ITEM('',(#43),#688);
#688=ADVANCED_FACE('',(#694),#689,.T.);
#689=PLANE('',#690);
#690=AXIS2_PLACEMENT_3D('',#691,#692,#693);
#691=CARTESIAN_POINT('',(-5.245,-3.576,0.051));
#692=DIRECTION('',(-0.707,-0.707,0.0));
#693=DIRECTION('',(0.,0.,1.));
#694=FACE_OUTER_BOUND('',#695,.T.);
#695=EDGE_LOOP('',(#696,#706,#716,#726));
#699=CARTESIAN_POINT('',(-3.576,-5.245,0.051));
#698=VERTEX_POINT('',#699);
#701=CARTESIAN_POINT('',(-5.245,-3.576,0.051));
#700=VERTEX_POINT('',#701);
#697=EDGE_CURVE('',#698,#700,#702,.T.);
#702=LINE('',#699,#704);
#704=VECTOR('',#705,2.36049763720533);
#705=DIRECTION('',(-0.707,0.707,0.0));
#696=ORIENTED_EDGE('',*,*,#697,.F.);
#709=CARTESIAN_POINT('',(-3.576,-5.245,2.149));
#708=VERTEX_POINT('',#709);
#707=EDGE_CURVE('',#708,#698,#712,.T.);
#712=LINE('',#709,#714);
#714=VECTOR('',#715,2.09804);
#715=DIRECTION('',(0.0,0.0,-1.0));
#706=ORIENTED_EDGE('',*,*,#707,.F.);
#719=CARTESIAN_POINT('',(-5.245,-3.576,2.149));
#718=VERTEX_POINT('',#719);
#717=EDGE_CURVE('',#718,#708,#722,.T.);
#722=LINE('',#719,#724);
#724=VECTOR('',#725,2.36049763720533);
#725=DIRECTION('',(0.707,-0.707,0.0));
#716=ORIENTED_EDGE('',*,*,#717,.F.);
#727=EDGE_CURVE('',#700,#718,#732,.T.);
#732=LINE('',#701,#734);
#734=VECTOR('',#735,2.09804);
#735=DIRECTION('',(0.0,0.0,1.0));
#726=ORIENTED_EDGE('',*,*,#727,.F.);
#736=STYLED_ITEM('',(#43),#737);
#737=ADVANCED_FACE('',(#743),#738,.T.);
#738=PLANE('',#739);
#739=AXIS2_PLACEMENT_3D('',#740,#741,#742);
#740=CARTESIAN_POINT('',(-3.576,5.245,0.051));
#741=DIRECTION('',(0.0,0.0,-1.0));
#742=DIRECTION('',(0.,1.,0.));
#743=FACE_OUTER_BOUND('',#744,.T.);
#744=EDGE_LOOP('',(#745,#755,#765,#775,#785,#795));
#748=CARTESIAN_POINT('',(5.245,5.245,0.051));
#747=VERTEX_POINT('',#748);
#746=EDGE_CURVE('',#747,#651,#751,.T.);
#751=LINE('',#748,#753);
#753=VECTOR('',#754,8.82107611375729);
#754=DIRECTION('',(-1.0,0.0,0.0));
#745=ORIENTED_EDGE('',*,*,#746,.F.);
#758=CARTESIAN_POINT('',(5.245,-5.245,0.051));
#757=VERTEX_POINT('',#758);
#756=EDGE_CURVE('',#757,#747,#761,.T.);
#761=LINE('',#758,#763);
#763=VECTOR('',#764,10.4902);
#764=DIRECTION('',(0.0,1.0,0.0));
#755=ORIENTED_EDGE('',*,*,#756,.F.);
#766=EDGE_CURVE('',#698,#757,#771,.T.);
#771=LINE('',#699,#773);
#773=VECTOR('',#774,8.82107611375729);
#774=DIRECTION('',(1.0,0.0,0.0));
#765=ORIENTED_EDGE('',*,*,#766,.F.);
#775=ORIENTED_EDGE('',*,*,#697,.T.);
#786=EDGE_CURVE('',#649,#700,#791,.T.);
#791=LINE('',#650,#793);
#793=VECTOR('',#794,7.15195222751457);
#794=DIRECTION('',(0.0,-1.0,0.0));
#785=ORIENTED_EDGE('',*,*,#786,.F.);
#795=ORIENTED_EDGE('',*,*,#648,.T.);
#805=STYLED_ITEM('',(#43),#806);
#806=ADVANCED_FACE('',(#812),#807,.T.);
#807=PLANE('',#808);
#808=AXIS2_PLACEMENT_3D('',#809,#810,#811);
#809=CARTESIAN_POINT('',(5.245,-5.245,0.051));
#810=DIRECTION('',(1.0,0.0,0.0));
#811=DIRECTION('',(0.,0.,1.));
#812=FACE_OUTER_BOUND('',#813,.T.);
#813=EDGE_LOOP('',(#814,#824,#834,#844,#854,#864,#874,#884));
#814=ORIENTED_EDGE('',*,*,#756,.T.);
#827=CARTESIAN_POINT('',(5.245,5.245,2.149));
#826=VERTEX_POINT('',#827);
#825=EDGE_CURVE('',#826,#747,#830,.T.);
#830=LINE('',#827,#832);
#832=VECTOR('',#833,2.09804);
#833=DIRECTION('',(0.0,0.0,-1.0));
#824=ORIENTED_EDGE('',*,*,#825,.F.);
#835=EDGE_CURVE('',#610,#826,#840,.T.);
#840=LINE('',#611,#842);
#842=VECTOR('',#843,3.33824777248543);
#843=DIRECTION('',(0.0,1.0,0.0));
#834=ORIENTED_EDGE('',*,*,#835,.F.);
#844=ORIENTED_EDGE('',*,*,#609,.T.);
#855=EDGE_CURVE('',#553,#600,#860,.T.);
#860=LINE('',#554,#862);
#862=VECTOR('',#863,3.81370445502915);
#863=DIRECTION('',(0.0,1.0,0.0));
#854=ORIENTED_EDGE('',*,*,#855,.F.);
#864=ORIENTED_EDGE('',*,*,#580,.T.);
#877=CARTESIAN_POINT('',(5.245,-5.245,2.149));
#876=VERTEX_POINT('',#877);
#875=EDGE_CURVE('',#876,#571,#880,.T.);
#880=LINE('',#877,#882);
#882=VECTOR('',#883,3.33824777248543);
#883=DIRECTION('',(0.0,1.0,0.0));
#874=ORIENTED_EDGE('',*,*,#875,.F.);
#885=EDGE_CURVE('',#757,#876,#890,.T.);
#890=LINE('',#758,#892);
#892=VECTOR('',#893,2.09804);
#893=DIRECTION('',(0.0,0.0,1.0));
#884=ORIENTED_EDGE('',*,*,#885,.F.);
#894=STYLED_ITEM('',(#43),#895);
#895=ADVANCED_FACE('',(#901),#896,.T.);
#896=PLANE('',#897);
#897=AXIS2_PLACEMENT_3D('',#898,#899,#900);
#898=CARTESIAN_POINT('',(5.245,5.245,0.051));
#899=DIRECTION('',(0.0,1.0,0.0));
#900=DIRECTION('',(0.,0.,1.));
#901=FACE_OUTER_BOUND('',#902,.T.);
#902=EDGE_LOOP('',(#903,#913,#923,#933,#943,#953,#963,#973));
#903=ORIENTED_EDGE('',*,*,#746,.T.);
#913=ORIENTED_EDGE('',*,*,#678,.T.);
#924=EDGE_CURVE('',#316,#669,#929,.T.);
#929=LINE('',#317,#931);
#931=VECTOR('',#932,1.66912388624271);
#932=DIRECTION('',(-1.0,0.0,0.0));
#923=ORIENTED_EDGE('',*,*,#924,.F.);
#933=ORIENTED_EDGE('',*,*,#315,.T.);
#944=EDGE_CURVE('',#259,#306,#949,.T.);
#949=LINE('',#260,#951);
#951=VECTOR('',#952,3.81370445502915);
#952=DIRECTION('',(-1.0,0.0,0.0));
#943=ORIENTED_EDGE('',*,*,#944,.F.);
#953=ORIENTED_EDGE('',*,*,#286,.T.);
#964=EDGE_CURVE('',#826,#277,#969,.T.);
#969=LINE('',#827,#971);
#971=VECTOR('',#972,3.33824777248543);
#972=DIRECTION('',(-1.0,0.0,0.0));
#963=ORIENTED_EDGE('',*,*,#964,.F.);
#973=ORIENTED_EDGE('',*,*,#825,.T.);
#983=STYLED_ITEM('',(#43),#984);
#984=ADVANCED_FACE('',(#990),#985,.T.);
#985=PLANE('',#986);
#986=AXIS2_PLACEMENT_3D('',#987,#988,#989);
#987=CARTESIAN_POINT('',(-5.245,3.576,0.051));
#988=DIRECTION('',(-1.0,0.0,0.0));
#989=DIRECTION('',(0.,0.,1.));
#990=FACE_OUTER_BOUND('',#991,.T.);
#991=EDGE_LOOP('',(#992,#1002,#1012,#1022,#1032,#1042,#1052,#1062));
#992=ORIENTED_EDGE('',*,*,#786,.T.);
#1002=ORIENTED_EDGE('',*,*,#727,.T.);
#1013=EDGE_CURVE('',#414,#718,#1018,.T.);
#1018=LINE('',#415,#1020);
#1020=VECTOR('',#1021,1.66912388624271);
#1021=DIRECTION('',(0.0,-1.0,0.0));
#1012=ORIENTED_EDGE('',*,*,#1013,.F.);
#1022=ORIENTED_EDGE('',*,*,#413,.T.);
#1033=EDGE_CURVE('',#357,#404,#1038,.T.);
#1038=LINE('',#358,#1040);
#1040=VECTOR('',#1041,3.81370445502915);
#1041=DIRECTION('',(0.0,-1.0,0.0));
#1032=ORIENTED_EDGE('',*,*,#1033,.F.);
#1042=ORIENTED_EDGE('',*,*,#384,.T.);
#1053=EDGE_CURVE('',#659,#375,#1058,.T.);
#1058=LINE('',#660,#1060);
#1060=VECTOR('',#1061,1.66912388624271);
#1061=DIRECTION('',(0.0,-1.0,0.0));
#1052=ORIENTED_EDGE('',*,*,#1053,.F.);
#1062=ORIENTED_EDGE('',*,*,#658,.T.);
#1072=STYLED_ITEM('',(#43),#1073);
#1073=ADVANCED_FACE('',(#1079),#1074,.T.);
#1074=PLANE('',#1075);
#1075=AXIS2_PLACEMENT_3D('',#1076,#1077,#1078);
#1076=CARTESIAN_POINT('',(-3.576,-5.245,0.051));
#1077=DIRECTION('',(0.0,-1.0,0.0));
#1078=DIRECTION('',(0.,0.,1.));
#1079=FACE_OUTER_BOUND('',#1080,.T.);
#1080=EDGE_LOOP('',(#1081,#1091,#1101,#1111,#1121,#1131,#1141,#1151));
#1081=ORIENTED_EDGE('',*,*,#766,.T.);
#1091=ORIENTED_EDGE('',*,*,#885,.T.);
#1102=EDGE_CURVE('',#512,#876,#1107,.T.);
#1107=LINE('',#513,#1109);
#1109=VECTOR('',#1110,3.33824777248543);
#1110=DIRECTION('',(1.0,0.0,0.0));
#1101=ORIENTED_EDGE('',*,*,#1102,.F.);
#1111=ORIENTED_EDGE('',*,*,#511,.T.);
#1122=EDGE_CURVE('',#455,#502,#1127,.T.);
#1127=LINE('',#456,#1129);
#1129=VECTOR('',#1130,3.81370445502915);
#1130=DIRECTION('',(1.0,0.0,0.0));
#1121=ORIENTED_EDGE('',*,*,#1122,.F.);
#1131=ORIENTED_EDGE('',*,*,#482,.T.);
#1142=EDGE_CURVE('',#708,#473,#1147,.T.);
#1147=LINE('',#709,#1149);
#1149=VECTOR('',#1150,1.66912388624271);
#1150=DIRECTION('',(1.0,0.0,0.0));
#1141=ORIENTED_EDGE('',*,*,#1142,.F.);
#1151=ORIENTED_EDGE('',*,*,#707,.T.);
#1161=STYLED_ITEM('',(#43),#1162);
#1162=ADVANCED_FACE('',(#1168),#1163,.T.);
#1163=PLANE('',#1164);
#1164=AXIS2_PLACEMENT_3D('',#1165,#1166,#1167);
#1165=CARTESIAN_POINT('',(-1.907,-5.245,1.1));
#1166=DIRECTION('',(0.0,0.0,1.0));
#1167=DIRECTION('',(0.,1.,0.));
#1168=FACE_OUTER_BOUND('',#1169,.T.);
#1169=EDGE_LOOP('',(#1170,#1180,#1190,#1200,#1210,#1220,#1230,#1240,#1250,#1260,#1270,#1280,#1290,#1300,#1310,#1320));
#1170=ORIENTED_EDGE('',*,*,#1122,.T.);
#1180=ORIENTED_EDGE('',*,*,#501,.T.);
#1191=EDGE_CURVE('',#551,#504,#1196,.T.);
#1196=LINE('',#552,#1198);
#1198=VECTOR('',#1199,3.81370445514376);
#1199=DIRECTION('',(-0.707,-0.707,0.0));
#1190=ORIENTED_EDGE('',*,*,#1191,.F.);
#1200=ORIENTED_EDGE('',*,*,#550,.T.);
#1210=ORIENTED_EDGE('',*,*,#855,.T.);
#1220=ORIENTED_EDGE('',*,*,#599,.T.);
#1231=EDGE_CURVE('',#257,#602,#1236,.T.);
#1236=LINE('',#258,#1238);
#1238=VECTOR('',#1239,3.81370445514376);
#1239=DIRECTION('',(0.707,-0.707,0.0));
#1230=ORIENTED_EDGE('',*,*,#1231,.F.);
#1240=ORIENTED_EDGE('',*,*,#256,.T.);
#1250=ORIENTED_EDGE('',*,*,#944,.T.);
#1260=ORIENTED_EDGE('',*,*,#305,.T.);
#1271=EDGE_CURVE('',#355,#308,#1276,.T.);
#1276=LINE('',#356,#1278);
#1278=VECTOR('',#1279,3.81370445514376);
#1279=DIRECTION('',(0.707,0.707,0.0));
#1270=ORIENTED_EDGE('',*,*,#1271,.F.);
#1280=ORIENTED_EDGE('',*,*,#354,.T.);
#1290=ORIENTED_EDGE('',*,*,#1033,.T.);
#1300=ORIENTED_EDGE('',*,*,#403,.T.);
#1311=EDGE_CURVE('',#453,#406,#1316,.T.);
#1316=LINE('',#454,#1318);
#1318=VECTOR('',#1319,3.81370445514376);
#1319=DIRECTION('',(-0.707,0.707,0.0));
#1310=ORIENTED_EDGE('',*,*,#1311,.F.);
#1320=ORIENTED_EDGE('',*,*,#452,.T.);
#1330=STYLED_ITEM('color',(#43),#1331);
#1331=ADVANCED_FACE($,(#1337),#1332,.T.);
#1332=PLANE($,#1333);
#1333=AXIS2_PLACEMENT_3D($,#1334,#1335,#1336);
#1334=CARTESIAN_POINT('',(4.604,1.907,2.149));
#1335=DIRECTION('',(0.,0.,1.));
#1336=DIRECTION('',(1.,0.,0.));
#1337=FACE_OUTER_BOUND($,#1338,.T.);
#1338=EDGE_LOOP($,(#1341, #1351, #1361, #1371, #1381));
#1341=ORIENTED_EDGE('',*,*,#619,.T.);
#1351=ORIENTED_EDGE('',*,*,#835,.T.);
#1361=ORIENTED_EDGE('',*,*,#964,.T.);
#1371=ORIENTED_EDGE('',*,*,#276,.T.);
#1382=EDGE_CURVE($,#620,#267,#1387,.T.);
#1387=CIRCLE($,#1388,4.982845);
#1389=CARTESIAN_POINT('',(0.0,0.0,2.149));
#1388=AXIS2_PLACEMENT_3D($,#1389,#1390,#1391);
#1390=DIRECTION('',(0.0,0.0,1.0));
#1391=DIRECTION('',(-0.707,0.707,0.0));
#1381=ORIENTED_EDGE('',*,*,#1382,.F.);
#1392=STYLED_ITEM('color',(#43),#1393);
#1393=ADVANCED_FACE($,(#1399),#1394,.T.);
#1394=PLANE($,#1395);
#1395=AXIS2_PLACEMENT_3D($,#1396,#1397,#1398);
#1396=CARTESIAN_POINT('',(-4.604,1.907,2.149));
#1397=DIRECTION('',(0.,0.,1.));
#1398=DIRECTION('',(1.,0.,0.));
#1399=FACE_OUTER_BOUND($,#1400,.T.);
#1400=EDGE_LOOP($,(#1403, #1413, #1423, #1433, #1443, #1453));
#1403=ORIENTED_EDGE('',*,*,#325,.T.);
#1413=ORIENTED_EDGE('',*,*,#924,.T.);
#1423=ORIENTED_EDGE('',*,*,#668,.T.);
#1433=ORIENTED_EDGE('',*,*,#1053,.T.);
#1443=ORIENTED_EDGE('',*,*,#374,.T.);
#1454=EDGE_CURVE($,#326,#365,#1459,.T.);
#1459=CIRCLE($,#1460,4.982845);
#1460=AXIS2_PLACEMENT_3D($,#1389,#1462,#1463);
#1462=DIRECTION('',(0.0,0.0,1.0));
#1463=DIRECTION('',(-0.707,-0.707,0.0));
#1453=ORIENTED_EDGE('',*,*,#1454,.F.);
#1464=STYLED_ITEM('color',(#43),#1465);
#1465=ADVANCED_FACE($,(#1471),#1466,.T.);
#1466=PLANE($,#1467);
#1467=AXIS2_PLACEMENT_3D($,#1468,#1469,#1470);
#1468=CARTESIAN_POINT('',(-1.907,-4.604,2.149));
#1469=DIRECTION('',(0.,0.,1.));
#1470=DIRECTION('',(1.,0.,0.));
#1471=FACE_OUTER_BOUND($,#1472,.T.);
#1472=EDGE_LOOP($,(#1475, #1485, #1495, #1505, #1515, #1525));
#1475=ORIENTED_EDGE('',*,*,#423,.T.);
#1485=ORIENTED_EDGE('',*,*,#1013,.T.);
#1495=ORIENTED_EDGE('',*,*,#717,.T.);
#1505=ORIENTED_EDGE('',*,*,#1142,.T.);
#1515=ORIENTED_EDGE('',*,*,#472,.T.);
#1526=EDGE_CURVE($,#424,#463,#1531,.T.);
#1531=CIRCLE($,#1532,4.982845);
#1532=AXIS2_PLACEMENT_3D($,#1389,#1534,#1535);
#1534=DIRECTION('',(0.0,0.0,1.0));
#1535=DIRECTION('',(0.707,-0.707,0.0));
#1525=ORIENTED_EDGE('',*,*,#1526,.F.);
#1536=STYLED_ITEM('color',(#43),#1537);
#1537=ADVANCED_FACE($,(#1543),#1538,.T.);
#1538=PLANE($,#1539);
#1539=AXIS2_PLACEMENT_3D($,#1540,#1541,#1542);
#1540=CARTESIAN_POINT('',(1.907,-4.604,2.149));
#1541=DIRECTION('',(0.,0.,1.));
#1542=DIRECTION('',(1.,0.,0.));
#1543=FACE_OUTER_BOUND($,#1544,.T.);
#1544=EDGE_LOOP($,(#1547, #1557, #1567, #1577, #1587));
#1547=ORIENTED_EDGE('',*,*,#521,.T.);
#1557=ORIENTED_EDGE('',*,*,#1102,.T.);
#1567=ORIENTED_EDGE('',*,*,#875,.T.);
#1577=ORIENTED_EDGE('',*,*,#570,.T.);
#1588=EDGE_CURVE($,#522,#561,#1593,.T.);
#1593=CIRCLE($,#1594,4.982845);
#1594=AXIS2_PLACEMENT_3D($,#1389,#1596,#1597);
#1596=DIRECTION('',(0.0,0.0,1.0));
#1597=DIRECTION('',(0.707,0.707,0.0));
#1587=ORIENTED_EDGE('',*,*,#1588,.F.);
#1598=STYLED_ITEM('color',(#43),#1599);
#1599=ADVANCED_FACE($,(#1605),#1600,.F.);
#1600=CYLINDRICAL_SURFACE($,#1601,4.982845);
#1601=AXIS2_PLACEMENT_3D($,#1602,#1603,#1604);
#1602=CARTESIAN_POINT('',(0.0,0.0,1.1));
#1603=DIRECTION('',(0.,0.,1.));
#1604=DIRECTION('',(1.,0.,0.));
#1605=FACE_OUTER_BOUND($,#1606,.T.);
#1606=EDGE_LOOP($,(#1629, #1607, #1639, #1618));
#1629=ORIENTED_EDGE('',*,*,#266,.T.);
#1608=EDGE_CURVE($,#602,#257,#1613,.T.);
#1613=CIRCLE($,#1614,4.982845);
#1615=CARTESIAN_POINT('',(0.0,0.0,1.1));
#1614=AXIS2_PLACEMENT_3D($,#1615,#1616,#1617);
#1616=DIRECTION('',(0.0,0.0,1.0));
#1617=DIRECTION('',(-0.707,0.707,0.0));
#1607=ORIENTED_EDGE('',*,*,#1608,.F.);
#1639=ORIENTED_EDGE('',*,*,#629,.T.);
#1618=ORIENTED_EDGE('',*,*,#1382,.T.);
#1651=STYLED_ITEM('color',(#43),#1652);
#1652=ADVANCED_FACE($,(#1658),#1653,.F.);
#1653=CYLINDRICAL_SURFACE($,#1654,4.982845);
#1654=AXIS2_PLACEMENT_3D($,#1655,#1656,#1657);
#1655=CARTESIAN_POINT('',(0.0,0.0,1.1));
#1656=DIRECTION('',(0.,0.,1.));
#1657=DIRECTION('',(1.,0.,0.));
#1658=FACE_OUTER_BOUND($,#1659,.T.);
#1659=EDGE_LOOP($,(#1682, #1660, #1692, #1671));
#1682=ORIENTED_EDGE('',*,*,#364,.T.);
#1661=EDGE_CURVE($,#308,#355,#1666,.T.);
#1666=CIRCLE($,#1667,4.982845);
#1667=AXIS2_PLACEMENT_3D($,#1615,#1669,#1670);
#1669=DIRECTION('',(0.0,0.0,1.0));
#1670=DIRECTION('',(-0.707,-0.707,0.0));
#1660=ORIENTED_EDGE('',*,*,#1661,.F.);
#1692=ORIENTED_EDGE('',*,*,#335,.T.);
#1671=ORIENTED_EDGE('',*,*,#1454,.T.);
#1704=STYLED_ITEM('color',(#43),#1705);
#1705=ADVANCED_FACE($,(#1711),#1706,.F.);
#1706=CYLINDRICAL_SURFACE($,#1707,4.982845);
#1707=AXIS2_PLACEMENT_3D($,#1708,#1709,#1710);
#1708=CARTESIAN_POINT('',(0.0,0.0,1.1));
#1709=DIRECTION('',(0.,0.,1.));
#1710=DIRECTION('',(1.,0.,0.));
#1711=FACE_OUTER_BOUND($,#1712,.T.);
#1712=EDGE_LOOP($,(#1735, #1713, #1745, #1724));
#1735=ORIENTED_EDGE('',*,*,#462,.T.);
#1714=EDGE_CURVE($,#406,#453,#1719,.T.);
#1719=CIRCLE($,#1720,4.982845);
#1720=AXIS2_PLACEMENT_3D($,#1615,#1722,#1723);
#1722=DIRECTION('',(0.0,0.0,1.0));
#1723=DIRECTION('',(0.707,-0.707,0.0));
#1713=ORIENTED_EDGE('',*,*,#1714,.F.);
#1745=ORIENTED_EDGE('',*,*,#433,.T.);
#1724=ORIENTED_EDGE('',*,*,#1526,.T.);
#1757=STYLED_ITEM('color',(#43),#1758);
#1758=ADVANCED_FACE($,(#1764),#1759,.F.);
#1759=CYLINDRICAL_SURFACE($,#1760,4.982845);
#1760=AXIS2_PLACEMENT_3D($,#1761,#1762,#1763);
#1761=CARTESIAN_POINT('',(0.0,0.0,1.1));
#1762=DIRECTION('',(0.,0.,1.));
#1763=DIRECTION('',(1.,0.,0.));
#1764=FACE_OUTER_BOUND($,#1765,.T.);
#1765=EDGE_LOOP($,(#1788, #1766, #1798, #1777));
#1788=ORIENTED_EDGE('',*,*,#560,.T.);
#1767=EDGE_CURVE($,#504,#551,#1772,.T.);
#1772=CIRCLE($,#1773,4.982845);
#1773=AXIS2_PLACEMENT_3D($,#1615,#1775,#1776);
#1775=DIRECTION('',(0.0,0.0,1.0));
#1776=DIRECTION('',(0.707,0.707,0.0));
#1766=ORIENTED_EDGE('',*,*,#1767,.F.);
#1798=ORIENTED_EDGE('',*,*,#531,.T.);
#1777=ORIENTED_EDGE('',*,*,#1588,.T.);
#1810=STYLED_ITEM('color',(#43),#1811);
#1811=ADVANCED_FACE($,(#1817),#1812,.T.);
#1812=PLANE($,#1813);
#1813=AXIS2_PLACEMENT_3D($,#1814,#1815,#1816);
#1814=CARTESIAN_POINT('',(0.0,0.0,1.1));
#1815=DIRECTION('',(0.,0.,1.));
#1816=DIRECTION('',(1.,0.,0.));
#1817=FACE_OUTER_BOUND($,#1818,.T.);
#1818=EDGE_LOOP($,(#1819, #1829));
#1819=ORIENTED_EDGE('',*,*,#1231,.T.);
#1829=ORIENTED_EDGE('',*,*,#1608,.T.);
#1840=STYLED_ITEM('color',(#43),#1841);
#1841=ADVANCED_FACE($,(#1847),#1842,.T.);
#1842=PLANE($,#1843);
#1843=AXIS2_PLACEMENT_3D($,#1844,#1845,#1846);
#1844=CARTESIAN_POINT('',(0.0,0.0,1.1));
#1845=DIRECTION('',(0.,0.,1.));
#1846=DIRECTION('',(1.,0.,0.));
#1847=FACE_OUTER_BOUND($,#1848,.T.);
#1848=EDGE_LOOP($,(#1849, #1859));
#1849=ORIENTED_EDGE('',*,*,#1271,.T.);
#1859=ORIENTED_EDGE('',*,*,#1661,.T.);
#1870=STYLED_ITEM('color',(#43),#1871);
#1871=ADVANCED_FACE($,(#1877),#1872,.T.);
#1872=PLANE($,#1873);
#1873=AXIS2_PLACEMENT_3D($,#1874,#1875,#1876);
#1874=CARTESIAN_POINT('',(0.0,0.0,1.1));
#1875=DIRECTION('',(0.,0.,1.));
#1876=DIRECTION('',(1.,0.,0.));
#1877=FACE_OUTER_BOUND($,#1878,.T.);
#1878=EDGE_LOOP($,(#1879, #1889));
#1879=ORIENTED_EDGE('',*,*,#1311,.T.);
#1889=ORIENTED_EDGE('',*,*,#1714,.T.);
#1900=STYLED_ITEM('color',(#43),#1901);
#1901=ADVANCED_FACE($,(#1907),#1902,.T.);
#1902=PLANE($,#1903);
#1903=AXIS2_PLACEMENT_3D($,#1904,#1905,#1906);
#1904=CARTESIAN_POINT('',(1.907,-4.604,1.1));
#1905=DIRECTION('',(0.,0.,1.));
#1906=DIRECTION('',(1.,0.,0.));
#1907=FACE_OUTER_BOUND($,#1908,.T.);
#1908=EDGE_LOOP($,(#1909, #1919));
#1909=ORIENTED_EDGE('',*,*,#1191,.T.);
#1919=ORIENTED_EDGE('',*,*,#1767,.T.);
#1931=MANIFOLD_SOLID_BREP($,#1932);
#1932=CLOSED_SHELL('',(#1934,#2003,#2072,#2121,#2170,#2219,#2268,#2317));
#1933=STYLED_ITEM('',(#34),#1934);
#1934=ADVANCED_FACE('',(#1940),#1935,.T.);
#1935=PLANE('',#1936);
#1936=AXIS2_PLACEMENT_3D('',#1937,#1938,#1939);
#1937=CARTESIAN_POINT('',(5.601,0.546,0.0));
#1938=DIRECTION('',(0.0,1.0,0.0));
#1939=DIRECTION('',(0.,0.,1.));
#1940=FACE_OUTER_BOUND('',#1941,.T.);
#1941=EDGE_LOOP('',(#1942,#1952,#1962,#1972,#1982,#1992));
#1945=CARTESIAN_POINT('',(2.299,0.546,0.0));
#1944=VERTEX_POINT('',#1945);
#1947=CARTESIAN_POINT('',(5.601,0.546,0.0));
#1946=VERTEX_POINT('',#1947);
#1943=EDGE_CURVE('',#1944,#1946,#1948,.T.);
#1948=LINE('',#1945,#1950);
#1950=VECTOR('',#1951,3.302);
#1951=DIRECTION('',(1.0,0.0,0.0));
#1942=ORIENTED_EDGE('',*,*,#1943,.F.);
#1955=CARTESIAN_POINT('',(2.299,0.546,0.051));
#1954=VERTEX_POINT('',#1955);
#1953=EDGE_CURVE('',#1954,#1944,#1958,.T.);
#1958=LINE('',#1955,#1960);
#1960=VECTOR('',#1961,0.0508);
#1961=DIRECTION('',(0.0,0.0,-1.0));
#1952=ORIENTED_EDGE('',*,*,#1953,.F.);
#1965=CARTESIAN_POINT('',(5.245,0.546,0.051));
#1964=VERTEX_POINT('',#1965);
#1963=EDGE_CURVE('',#1964,#1954,#1968,.T.);
#1968=LINE('',#1965,#1970);
#1970=VECTOR('',#1971,2.9464);
#1971=DIRECTION('',(-1.0,0.0,0.0));
#1962=ORIENTED_EDGE('',*,*,#1963,.F.);
#1975=CARTESIAN_POINT('',(5.245,0.546,0.254));
#1974=VERTEX_POINT('',#1975);
#1973=EDGE_CURVE('',#1974,#1964,#1978,.T.);
#1978=LINE('',#1975,#1980);
#1980=VECTOR('',#1981,0.2032);
#1981=DIRECTION('',(0.0,0.0,-1.0));
#1972=ORIENTED_EDGE('',*,*,#1973,.F.);
#1985=CARTESIAN_POINT('',(5.601,0.546,0.254));
#1984=VERTEX_POINT('',#1985);
#1983=EDGE_CURVE('',#1984,#1974,#1988,.T.);
#1988=LINE('',#1985,#1990);
#1990=VECTOR('',#1991,0.3556);
#1991=DIRECTION('',(-1.0,0.0,0.0));
#1982=ORIENTED_EDGE('',*,*,#1983,.F.);
#1993=EDGE_CURVE('',#1946,#1984,#1998,.T.);
#1998=LINE('',#1947,#2000);
#2000=VECTOR('',#2001,0.254);
#2001=DIRECTION('',(0.0,0.0,1.0));
#1992=ORIENTED_EDGE('',*,*,#1993,.F.);
#2002=STYLED_ITEM('',(#34),#2003);
#2003=ADVANCED_FACE('',(#2009),#2004,.T.);
#2004=PLANE('',#2005);
#2005=AXIS2_PLACEMENT_3D('',#2006,#2007,#2008);
#2006=CARTESIAN_POINT('',(2.299,-0.546,0.0));
#2007=DIRECTION('',(0.0,-1.0,0.0));
#2008=DIRECTION('',(0.,0.,1.));
#2009=FACE_OUTER_BOUND('',#2010,.T.);
#2010=EDGE_LOOP('',(#2011,#2021,#2031,#2041,#2051,#2061));
#2014=CARTESIAN_POINT('',(5.601,-0.546,0.0));
#2013=VERTEX_POINT('',#2014);
#2016=CARTESIAN_POINT('',(2.299,-0.546,0.0));
#2015=VERTEX_POINT('',#2016);
#2012=EDGE_CURVE('',#2013,#2015,#2017,.T.);
#2017=LINE('',#2014,#2019);
#2019=VECTOR('',#2020,3.302);
#2020=DIRECTION('',(-1.0,0.0,0.0));
#2011=ORIENTED_EDGE('',*,*,#2012,.F.);
#2024=CARTESIAN_POINT('',(5.601,-0.546,0.254));
#2023=VERTEX_POINT('',#2024);
#2022=EDGE_CURVE('',#2023,#2013,#2027,.T.);
#2027=LINE('',#2024,#2029);
#2029=VECTOR('',#2030,0.254);
#2030=DIRECTION('',(0.0,0.0,-1.0));
#2021=ORIENTED_EDGE('',*,*,#2022,.F.);
#2034=CARTESIAN_POINT('',(5.245,-0.546,0.254));
#2033=VERTEX_POINT('',#2034);
#2032=EDGE_CURVE('',#2033,#2023,#2037,.T.);
#2037=LINE('',#2034,#2039);
#2039=VECTOR('',#2040,0.3556);
#2040=DIRECTION('',(1.0,0.0,0.0));
#2031=ORIENTED_EDGE('',*,*,#2032,.F.);
#2044=CARTESIAN_POINT('',(5.245,-0.546,0.051));
#2043=VERTEX_POINT('',#2044);
#2042=EDGE_CURVE('',#2043,#2033,#2047,.T.);
#2047=LINE('',#2044,#2049);
#2049=VECTOR('',#2050,0.2032);
#2050=DIRECTION('',(0.0,0.0,1.0));
#2041=ORIENTED_EDGE('',*,*,#2042,.F.);
#2054=CARTESIAN_POINT('',(2.299,-0.546,0.051));
#2053=VERTEX_POINT('',#2054);
#2052=EDGE_CURVE('',#2053,#2043,#2057,.T.);
#2057=LINE('',#2054,#2059);
#2059=VECTOR('',#2060,2.9464);
#2060=DIRECTION('',(1.0,0.0,0.0));
#2051=ORIENTED_EDGE('',*,*,#2052,.F.);
#2062=EDGE_CURVE('',#2015,#2053,#2067,.T.);
#2067=LINE('',#2016,#2069);
#2069=VECTOR('',#2070,0.0508);
#2070=DIRECTION('',(0.0,0.0,1.0));
#2061=ORIENTED_EDGE('',*,*,#2062,.F.);
#2071=STYLED_ITEM('',(#34),#2072);
#2072=ADVANCED_FACE('',(#2078),#2073,.T.);
#2073=PLANE('',#2074);
#2074=AXIS2_PLACEMENT_3D('',#2075,#2076,#2077);
#2075=CARTESIAN_POINT('',(5.601,0.546,0.254));
#2076=DIRECTION('',(0.0,0.0,1.0));
#2077=DIRECTION('',(0.,1.,0.));
#2078=FACE_OUTER_BOUND('',#2079,.T.);
#2079=EDGE_LOOP('',(#2080,#2090,#2100,#2110));
#2080=ORIENTED_EDGE('',*,*,#1983,.T.);
#2091=EDGE_CURVE('',#2033,#1974,#2096,.T.);
#2096=LINE('',#2034,#2098);
#2098=VECTOR('',#2099,1.0922);
#2099=DIRECTION('',(0.0,1.0,0.0));
#2090=ORIENTED_EDGE('',*,*,#2091,.F.);
#2100=ORIENTED_EDGE('',*,*,#2032,.T.);
#2111=EDGE_CURVE('',#1984,#2023,#2116,.T.);
#2116=LINE('',#1985,#2118);
#2118=VECTOR('',#2119,1.0922);
#2119=DIRECTION('',(0.0,-1.0,0.0));
#2110=ORIENTED_EDGE('',*,*,#2111,.F.);
#2120=STYLED_ITEM('',(#34),#2121);
#2121=ADVANCED_FACE('',(#2127),#2122,.T.);
#2122=PLANE('',#2123);
#2123=AXIS2_PLACEMENT_3D('',#2124,#2125,#2126);
#2124=CARTESIAN_POINT('',(5.245,0.546,0.051));
#2125=DIRECTION('',(0.0,0.0,1.0));
#2126=DIRECTION('',(0.,1.,0.));
#2127=FACE_OUTER_BOUND('',#2128,.T.);
#2128=EDGE_LOOP('',(#2129,#2139,#2149,#2159));
#2129=ORIENTED_EDGE('',*,*,#1963,.T.);
#2140=EDGE_CURVE('',#2053,#1954,#2145,.T.);
#2145=LINE('',#2054,#2147);
#2147=VECTOR('',#2148,1.0922);
#2148=DIRECTION('',(0.0,1.0,0.0));
#2139=ORIENTED_EDGE('',*,*,#2140,.F.);
#2149=ORIENTED_EDGE('',*,*,#2052,.T.);
#2160=EDGE_CURVE('',#1964,#2043,#2165,.T.);
#2165=LINE('',#1965,#2167);
#2167=VECTOR('',#2168,1.0922);
#2168=DIRECTION('',(0.0,-1.0,0.0));
#2159=ORIENTED_EDGE('',*,*,#2160,.F.);
#2169=STYLED_ITEM('',(#34),#2170);
#2170=ADVANCED_FACE('',(#2176),#2171,.T.);
#2171=PLANE('',#2172);
#2172=AXIS2_PLACEMENT_3D('',#2173,#2174,#2175);
#2173=CARTESIAN_POINT('',(5.601,-0.546,0.0));
#2174=DIRECTION('',(1.0,0.0,0.0));
#2175=DIRECTION('',(0.,0.,1.));
#2176=FACE_OUTER_BOUND('',#2177,.T.);
#2177=EDGE_LOOP('',(#2178,#2188,#2198,#2208));
#2179=EDGE_CURVE('',#1946,#2013,#2184,.T.);
#2184=LINE('',#1947,#2186);
#2186=VECTOR('',#2187,1.0922);
#2187=DIRECTION('',(0.0,-1.0,0.0));
#2178=ORIENTED_EDGE('',*,*,#2179,.F.);
#2188=ORIENTED_EDGE('',*,*,#1993,.T.);
#2198=ORIENTED_EDGE('',*,*,#2111,.T.);
#2208=ORIENTED_EDGE('',*,*,#2022,.T.);
#2218=STYLED_ITEM('',(#34),#2219);
#2219=ADVANCED_FACE('',(#2225),#2220,.T.);
#2220=PLANE('',#2221);
#2221=AXIS2_PLACEMENT_3D('',#2222,#2223,#2224);
#2222=CARTESIAN_POINT('',(2.299,0.546,0.0));
#2223=DIRECTION('',(-1.0,0.0,0.0));
#2224=DIRECTION('',(0.,0.,1.));
#2225=FACE_OUTER_BOUND('',#2226,.T.);
#2226=EDGE_LOOP('',(#2227,#2237,#2247,#2257));
#2228=EDGE_CURVE('',#2015,#1944,#2233,.T.);
#2233=LINE('',#2016,#2235);
#2235=VECTOR('',#2236,1.0922);
#2236=DIRECTION('',(0.0,1.0,0.0));
#2227=ORIENTED_EDGE('',*,*,#2228,.F.);
#2237=ORIENTED_EDGE('',*,*,#2062,.T.);
#2247=ORIENTED_EDGE('',*,*,#2140,.T.);
#2257=ORIENTED_EDGE('',*,*,#1953,.T.);
#2267=STYLED_ITEM('',(#34),#2268);
#2268=ADVANCED_FACE('',(#2274),#2269,.T.);
#2269=PLANE('',#2270);
#2270=AXIS2_PLACEMENT_3D('',#2271,#2272,#2273);
#2271=CARTESIAN_POINT('',(5.245,0.546,0.051));
#2272=DIRECTION('',(-1.0,0.0,0.0));
#2273=DIRECTION('',(0.,0.,1.));
#2274=FACE_OUTER_BOUND('',#2275,.T.);
#2275=EDGE_LOOP('',(#2276,#2286,#2296,#2306));
#2276=ORIENTED_EDGE('',*,*,#2160,.T.);
#2286=ORIENTED_EDGE('',*,*,#2042,.T.);
#2296=ORIENTED_EDGE('',*,*,#2091,.T.);
#2306=ORIENTED_EDGE('',*,*,#1973,.T.);
#2316=STYLED_ITEM('',(#34),#2317);
#2317=ADVANCED_FACE('',(#2323),#2318,.T.);
#2318=PLANE('',#2319);
#2319=AXIS2_PLACEMENT_3D('',#2320,#2321,#2322);
#2320=CARTESIAN_POINT('',(5.601,-0.546,0.0));
#2321=DIRECTION('',(0.0,0.0,-1.0));
#2322=DIRECTION('',(0.,1.,0.));
#2323=FACE_OUTER_BOUND('',#2324,.T.);
#2324=EDGE_LOOP('',(#2325,#2335,#2345,#2355));
#2325=ORIENTED_EDGE('',*,*,#2012,.T.);
#2335=ORIENTED_EDGE('',*,*,#2228,.T.);
#2345=ORIENTED_EDGE('',*,*,#1943,.T.);
#2355=ORIENTED_EDGE('',*,*,#2179,.T.);
#2365=MANIFOLD_SOLID_BREP($,#2366);
#2366=CLOSED_SHELL('',(#2368,#2437,#2506,#2555,#2604,#2653,#2702,#2751));
#2367=STYLED_ITEM('',(#34),#2368);
#2368=ADVANCED_FACE('',(#2374),#2369,.T.);
#2369=PLANE('',#2370);
#2370=AXIS2_PLACEMENT_3D('',#2371,#2372,#2373);
#2371=CARTESIAN_POINT('',(-5.601,-0.546,0.0));
#2372=DIRECTION('',(0.0,-1.0,0.0));
#2373=DIRECTION('',(0.,0.,1.));
#2374=FACE_OUTER_BOUND('',#2375,.T.);
#2375=EDGE_LOOP('',(#2376,#2386,#2396,#2406,#2416,#2426));
#2379=CARTESIAN_POINT('',(-2.299,-0.546,0.0));
#2378=VERTEX_POINT('',#2379);
#2381=CARTESIAN_POINT('',(-5.601,-0.546,0.0));
#2380=VERTEX_POINT('',#2381);
#2377=EDGE_CURVE('',#2378,#2380,#2382,.T.);
#2382=LINE('',#2379,#2384);
#2384=VECTOR('',#2385,3.302);
#2385=DIRECTION('',(-1.0,0.0,0.0));
#2376=ORIENTED_EDGE('',*,*,#2377,.F.);
#2389=CARTESIAN_POINT('',(-2.299,-0.546,0.051));
#2388=VERTEX_POINT('',#2389);
#2387=EDGE_CURVE('',#2388,#2378,#2392,.T.);
#2392=LINE('',#2389,#2394);
#2394=VECTOR('',#2395,0.0508);
#2395=DIRECTION('',(0.0,0.0,-1.0));
#2386=ORIENTED_EDGE('',*,*,#2387,.F.);
#2399=CARTESIAN_POINT('',(-5.245,-0.546,0.051));
#2398=VERTEX_POINT('',#2399);
#2397=EDGE_CURVE('',#2398,#2388,#2402,.T.);
#2402=LINE('',#2399,#2404);
#2404=VECTOR('',#2405,2.9464);
#2405=DIRECTION('',(1.0,0.0,0.0));
#2396=ORIENTED_EDGE('',*,*,#2397,.F.);
#2409=CARTESIAN_POINT('',(-5.245,-0.546,0.254));
#2408=VERTEX_POINT('',#2409);
#2407=EDGE_CURVE('',#2408,#2398,#2412,.T.);
#2412=LINE('',#2409,#2414);
#2414=VECTOR('',#2415,0.2032);
#2415=DIRECTION('',(0.0,0.0,-1.0));
#2406=ORIENTED_EDGE('',*,*,#2407,.F.);
#2419=CARTESIAN_POINT('',(-5.601,-0.546,0.254));
#2418=VERTEX_POINT('',#2419);
#2417=EDGE_CURVE('',#2418,#2408,#2422,.T.);
#2422=LINE('',#2419,#2424);
#2424=VECTOR('',#2425,0.3556);
#2425=DIRECTION('',(1.0,0.0,0.0));
#2416=ORIENTED_EDGE('',*,*,#2417,.F.);
#2427=EDGE_CURVE('',#2380,#2418,#2432,.T.);
#2432=LINE('',#2381,#2434);
#2434=VECTOR('',#2435,0.254);
#2435=DIRECTION('',(0.0,0.0,1.0));
#2426=ORIENTED_EDGE('',*,*,#2427,.F.);
#2436=STYLED_ITEM('',(#34),#2437);
#2437=ADVANCED_FACE('',(#2443),#2438,.T.);
#2438=PLANE('',#2439);
#2439=AXIS2_PLACEMENT_3D('',#2440,#2441,#2442);
#2440=CARTESIAN_POINT('',(-2.299,0.546,0.0));
#2441=DIRECTION('',(0.0,1.0,0.0));
#2442=DIRECTION('',(0.,0.,1.));
#2443=FACE_OUTER_BOUND('',#2444,.T.);
#2444=EDGE_LOOP('',(#2445,#2455,#2465,#2475,#2485,#2495));
#2448=CARTESIAN_POINT('',(-5.601,0.546,0.0));
#2447=VERTEX_POINT('',#2448);
#2450=CARTESIAN_POINT('',(-2.299,0.546,0.0));
#2449=VERTEX_POINT('',#2450);
#2446=EDGE_CURVE('',#2447,#2449,#2451,.T.);
#2451=LINE('',#2448,#2453);
#2453=VECTOR('',#2454,3.302);
#2454=DIRECTION('',(1.0,0.0,0.0));
#2445=ORIENTED_EDGE('',*,*,#2446,.F.);
#2458=CARTESIAN_POINT('',(-5.601,0.546,0.254));
#2457=VERTEX_POINT('',#2458);
#2456=EDGE_CURVE('',#2457,#2447,#2461,.T.);
#2461=LINE('',#2458,#2463);
#2463=VECTOR('',#2464,0.254);
#2464=DIRECTION('',(0.0,0.0,-1.0));
#2455=ORIENTED_EDGE('',*,*,#2456,.F.);
#2468=CARTESIAN_POINT('',(-5.245,0.546,0.254));
#2467=VERTEX_POINT('',#2468);
#2466=EDGE_CURVE('',#2467,#2457,#2471,.T.);
#2471=LINE('',#2468,#2473);
#2473=VECTOR('',#2474,0.3556);
#2474=DIRECTION('',(-1.0,0.0,0.0));
#2465=ORIENTED_EDGE('',*,*,#2466,.F.);
#2478=CARTESIAN_POINT('',(-5.245,0.546,0.051));
#2477=VERTEX_POINT('',#2478);
#2476=EDGE_CURVE('',#2477,#2467,#2481,.T.);
#2481=LINE('',#2478,#2483);
#2483=VECTOR('',#2484,0.2032);
#2484=DIRECTION('',(0.0,0.0,1.0));
#2475=ORIENTED_EDGE('',*,*,#2476,.F.);
#2488=CARTESIAN_POINT('',(-2.299,0.546,0.051));
#2487=VERTEX_POINT('',#2488);
#2486=EDGE_CURVE('',#2487,#2477,#2491,.T.);
#2491=LINE('',#2488,#2493);
#2493=VECTOR('',#2494,2.9464);
#2494=DIRECTION('',(-1.0,0.0,0.0));
#2485=ORIENTED_EDGE('',*,*,#2486,.F.);
#2496=EDGE_CURVE('',#2449,#2487,#2501,.T.);
#2501=LINE('',#2450,#2503);
#2503=VECTOR('',#2504,0.0508);
#2504=DIRECTION('',(0.0,0.0,1.0));
#2495=ORIENTED_EDGE('',*,*,#2496,.F.);
#2505=STYLED_ITEM('',(#34),#2506);
#2506=ADVANCED_FACE('',(#2512),#2507,.T.);
#2507=PLANE('',#2508);
#2508=AXIS2_PLACEMENT_3D('',#2509,#2510,#2511);
#2509=CARTESIAN_POINT('',(-5.601,-0.546,0.254));
#2510=DIRECTION('',(0.0,0.0,1.0));
#2511=DIRECTION('',(0.,1.,0.));
#2512=FACE_OUTER_BOUND('',#2513,.T.);
#2513=EDGE_LOOP('',(#2514,#2524,#2534,#2544));
#2514=ORIENTED_EDGE('',*,*,#2417,.T.);
#2525=EDGE_CURVE('',#2467,#2408,#2530,.T.);
#2530=LINE('',#2468,#2532);
#2532=VECTOR('',#2533,1.0922);
#2533=DIRECTION('',(0.0,-1.0,0.0));
#2524=ORIENTED_EDGE('',*,*,#2525,.F.);
#2534=ORIENTED_EDGE('',*,*,#2466,.T.);
#2545=EDGE_CURVE('',#2418,#2457,#2550,.T.);
#2550=LINE('',#2419,#2552);
#2552=VECTOR('',#2553,1.0922);
#2553=DIRECTION('',(0.0,1.0,0.0));
#2544=ORIENTED_EDGE('',*,*,#2545,.F.);
#2554=STYLED_ITEM('',(#34),#2555);
#2555=ADVANCED_FACE('',(#2561),#2556,.T.);
#2556=PLANE('',#2557);
#2557=AXIS2_PLACEMENT_3D('',#2558,#2559,#2560);
#2558=CARTESIAN_POINT('',(-5.245,-0.546,0.051));
#2559=DIRECTION('',(0.0,0.0,1.0));
#2560=DIRECTION('',(0.,1.,0.));
#2561=FACE_OUTER_BOUND('',#2562,.T.);
#2562=EDGE_LOOP('',(#2563,#2573,#2583,#2593));
#2563=ORIENTED_EDGE('',*,*,#2397,.T.);
#2574=EDGE_CURVE('',#2487,#2388,#2579,.T.);
#2579=LINE('',#2488,#2581);
#2581=VECTOR('',#2582,1.0922);
#2582=DIRECTION('',(0.0,-1.0,0.0));
#2573=ORIENTED_EDGE('',*,*,#2574,.F.);
#2583=ORIENTED_EDGE('',*,*,#2486,.T.);
#2594=EDGE_CURVE('',#2398,#2477,#2599,.T.);
#2599=LINE('',#2399,#2601);
#2601=VECTOR('',#2602,1.0922);
#2602=DIRECTION('',(0.0,1.0,0.0));
#2593=ORIENTED_EDGE('',*,*,#2594,.F.);
#2603=STYLED_ITEM('',(#34),#2604);
#2604=ADVANCED_FACE('',(#2610),#2605,.T.);
#2605=PLANE('',#2606);
#2606=AXIS2_PLACEMENT_3D('',#2607,#2608,#2609);
#2607=CARTESIAN_POINT('',(-5.601,0.546,0.0));
#2608=DIRECTION('',(-1.0,0.0,0.0));
#2609=DIRECTION('',(0.,0.,1.));
#2610=FACE_OUTER_BOUND('',#2611,.T.);
#2611=EDGE_LOOP('',(#2612,#2622,#2632,#2642));
#2613=EDGE_CURVE('',#2380,#2447,#2618,.T.);
#2618=LINE('',#2381,#2620);
#2620=VECTOR('',#2621,1.0922);
#2621=DIRECTION('',(0.0,1.0,0.0));
#2612=ORIENTED_EDGE('',*,*,#2613,.F.);
#2622=ORIENTED_EDGE('',*,*,#2427,.T.);
#2632=ORIENTED_EDGE('',*,*,#2545,.T.);
#2642=ORIENTED_EDGE('',*,*,#2456,.T.);
#2652=STYLED_ITEM('',(#34),#2653);
#2653=ADVANCED_FACE('',(#2659),#2654,.T.);
#2654=PLANE('',#2655);
#2655=AXIS2_PLACEMENT_3D('',#2656,#2657,#2658);
#2656=CARTESIAN_POINT('',(-2.299,-0.546,0.0));
#2657=DIRECTION('',(1.0,0.0,0.0));
#2658=DIRECTION('',(0.,0.,1.));
#2659=FACE_OUTER_BOUND('',#2660,.T.);
#2660=EDGE_LOOP('',(#2661,#2671,#2681,#2691));
#2662=EDGE_CURVE('',#2449,#2378,#2667,.T.);
#2667=LINE('',#2450,#2669);
#2669=VECTOR('',#2670,1.0922);
#2670=DIRECTION('',(0.0,-1.0,0.0));
#2661=ORIENTED_EDGE('',*,*,#2662,.F.);
#2671=ORIENTED_EDGE('',*,*,#2496,.T.);
#2681=ORIENTED_EDGE('',*,*,#2574,.T.);
#2691=ORIENTED_EDGE('',*,*,#2387,.T.);
#2701=STYLED_ITEM('',(#34),#2702);
#2702=ADVANCED_FACE('',(#2708),#2703,.T.);
#2703=PLANE('',#2704);
#2704=AXIS2_PLACEMENT_3D('',#2705,#2706,#2707);
#2705=CARTESIAN_POINT('',(-5.245,-0.546,0.051));
#2706=DIRECTION('',(1.0,0.0,0.0));
#2707=DIRECTION('',(0.,0.,1.));
#2708=FACE_OUTER_BOUND('',#2709,.T.);
#2709=EDGE_LOOP('',(#2710,#2720,#2730,#2740));
#2710=ORIENTED_EDGE('',*,*,#2594,.T.);
#2720=ORIENTED_EDGE('',*,*,#2476,.T.);
#2730=ORIENTED_EDGE('',*,*,#2525,.T.);
#2740=ORIENTED_EDGE('',*,*,#2407,.T.);
#2750=STYLED_ITEM('',(#34),#2751);
#2751=ADVANCED_FACE('',(#2757),#2752,.T.);
#2752=PLANE('',#2753);
#2753=AXIS2_PLACEMENT_3D('',#2754,#2755,#2756);
#2754=CARTESIAN_POINT('',(-5.601,0.546,0.0));
#2755=DIRECTION('',(0.0,0.0,-1.0));
#2756=DIRECTION('',(0.,1.,0.));
#2757=FACE_OUTER_BOUND('',#2758,.T.);
#2758=EDGE_LOOP('',(#2759,#2769,#2779,#2789));
#2759=ORIENTED_EDGE('',*,*,#2446,.T.);
#2769=ORIENTED_EDGE('',*,*,#2662,.T.);
#2779=ORIENTED_EDGE('',*,*,#2377,.T.);
#2789=ORIENTED_EDGE('',*,*,#2613,.T.);
ENDSEC;
END-ISO-10303-21;
