(module DIP762W48P254L1016H508Q8 (layer F.Cu) (tedit 0)
  (descr "DIP, 7.62 mm lead span, 2.54 mm pitch; 8 pin, 10.16 mm L X 7.11 mm W X 5.08 mm H body")
  (fp_text user %R (at 0 0) (layer F.Fab)
    (effects (font (size 2 2) (thickness 0.2)))
  )
  (fp_text reference REF** (at 0 0) (layer F.SilkS)
    (effects (font (size 1.2 1.2) (thickness 0.12)))
  )
  (fp_line (start -4.1 3.63) (end -3.52 3.63) (layer Dwgs.User) (width 0.025))
  (fp_line (start -3.52 3.63) (end -3.52 3.99) (layer Dwgs.User) (width 0.025))
  (fp_line (start -3.52 3.99) (end -4.1 3.99) (layer Dwgs.User) (width 0.025))
  (fp_line (start -4.1 3.99) (end -4.1 3.63) (layer Dwgs.User) (width 0.025))
  (fp_line (start -1.56 3.63) (end -0.98 3.63) (layer Dwgs.User) (width 0.025))
  (fp_line (start -0.98 3.63) (end -0.98 3.99) (layer Dwgs.User) (width 0.025))
  (fp_line (start -0.98 3.99) (end -1.56 3.99) (layer Dwgs.User) (width 0.025))
  (fp_line (start -1.56 3.99) (end -1.56 3.63) (layer Dwgs.User) (width 0.025))
  (fp_line (start 0.98 3.63) (end 1.56 3.63) (layer Dwgs.User) (width 0.025))
  (fp_line (start 1.56 3.63) (end 1.56 3.99) (layer Dwgs.User) (width 0.025))
  (fp_line (start 1.56 3.99) (end 0.98 3.99) (layer Dwgs.User) (width 0.025))
  (fp_line (start 0.98 3.99) (end 0.98 3.63) (layer Dwgs.User) (width 0.025))
  (fp_line (start 3.52 3.63) (end 4.1 3.63) (layer Dwgs.User) (width 0.025))
  (fp_line (start 4.1 3.63) (end 4.1 3.99) (layer Dwgs.User) (width 0.025))
  (fp_line (start 4.1 3.99) (end 3.52 3.99) (layer Dwgs.User) (width 0.025))
  (fp_line (start 3.52 3.99) (end 3.52 3.63) (layer Dwgs.User) (width 0.025))
  (fp_line (start 4.1 -3.63) (end 3.52 -3.63) (layer Dwgs.User) (width 0.025))
  (fp_line (start 3.52 -3.63) (end 3.52 -3.99) (layer Dwgs.User) (width 0.025))
  (fp_line (start 3.52 -3.99) (end 4.1 -3.99) (layer Dwgs.User) (width 0.025))
  (fp_line (start 4.1 -3.99) (end 4.1 -3.63) (layer Dwgs.User) (width 0.025))
  (fp_line (start 1.56 -3.63) (end 0.98 -3.63) (layer Dwgs.User) (width 0.025))
  (fp_line (start 0.98 -3.63) (end 0.98 -3.99) (layer Dwgs.User) (width 0.025))
  (fp_line (start 0.98 -3.99) (end 1.56 -3.99) (layer Dwgs.User) (width 0.025))
  (fp_line (start 1.56 -3.99) (end 1.56 -3.63) (layer Dwgs.User) (width 0.025))
  (fp_line (start -0.98 -3.63) (end -1.56 -3.63) (layer Dwgs.User) (width 0.025))
  (fp_line (start -1.56 -3.63) (end -1.56 -3.99) (layer Dwgs.User) (width 0.025))
  (fp_line (start -1.56 -3.99) (end -0.98 -3.99) (layer Dwgs.User) (width 0.025))
  (fp_line (start -0.98 -3.99) (end -0.98 -3.63) (layer Dwgs.User) (width 0.025))
  (fp_line (start -3.52 -3.63) (end -4.1 -3.63) (layer Dwgs.User) (width 0.025))
  (fp_line (start -4.1 -3.63) (end -4.1 -3.99) (layer Dwgs.User) (width 0.025))
  (fp_line (start -4.1 -3.99) (end -3.52 -3.99) (layer Dwgs.User) (width 0.025))
  (fp_line (start -3.52 -3.99) (end -3.52 -3.63) (layer Dwgs.User) (width 0.025))
  (fp_line (start -5.08 3.555) (end -5.08 -3.555) (layer Dwgs.User) (width 0.025))
  (fp_line (start -5.08 -3.555) (end 5.08 -3.555) (layer Dwgs.User) (width 0.025))
  (fp_line (start 5.08 -3.555) (end 5.08 3.555) (layer Dwgs.User) (width 0.025))
  (fp_line (start 5.08 3.555) (end -5.08 3.555) (layer Dwgs.User) (width 0.025))
  (fp_circle (center -4.82 4.2) (end -4.82 4.325) (layer F.SilkS) (width 0.25))
  (fp_circle (center 0 0) (end 0 0.25) (layer F.CrtYd) (width 0.05))
  (fp_line (start 0 -0.35) (end 0 0.35) (layer F.CrtYd) (width 0.05))
  (fp_line (start -0.35 0) (end 0.35 0) (layer F.CrtYd) (width 0.05))
  (fp_line (start 5.08 3.555) (end -4.08 3.555) (layer F.Fab) (width 0.12))
  (fp_line (start -4.08 3.555) (end -5.08 2.555) (layer F.Fab) (width 0.12))
  (fp_line (start -5.08 2.555) (end -5.08 -3.555) (layer F.Fab) (width 0.12))
  (fp_line (start -5.08 -3.555) (end 5.08 -3.555) (layer F.Fab) (width 0.12))
  (fp_line (start 5.08 -3.555) (end 5.08 3.555) (layer F.Fab) (width 0.12))
  (fp_line (start 4.63 3.555) (end 5.08 3.555) (layer F.SilkS) (width 0.12))
  (fp_line (start 5.08 3.555) (end 5.08 -3.555) (layer F.SilkS) (width 0.12))
  (fp_line (start 5.08 -3.555) (end 4.63 -3.555) (layer F.SilkS) (width 0.12))
  (fp_line (start -4.63 3.555) (end -5.08 3.555) (layer F.SilkS) (width 0.12))
  (fp_line (start -5.08 3.555) (end -5.08 -3.555) (layer F.SilkS) (width 0.12))
  (fp_line (start -5.08 -3.555) (end -4.63 -3.555) (layer F.SilkS) (width 0.12))
  (fp_line (start 5.33 3.805) (end 5.33 -3.805) (layer F.CrtYd) (width 0.05))
  (fp_line (start 5.33 -3.805) (end 4.7 -3.805) (layer F.CrtYd) (width 0.05))
  (fp_line (start 4.7 -3.805) (end 4.7 -4.7) (layer F.CrtYd) (width 0.05))
  (fp_line (start 4.7 -4.7) (end -4.7 -4.7) (layer F.CrtYd) (width 0.05))
  (fp_line (start -4.7 -4.7) (end -4.7 -3.805) (layer F.CrtYd) (width 0.05))
  (fp_line (start -4.7 -3.805) (end -5.33 -3.805) (layer F.CrtYd) (width 0.05))
  (fp_line (start -5.33 -3.805) (end -5.33 3.805) (layer F.CrtYd) (width 0.05))
  (fp_line (start -5.33 3.805) (end -4.7 3.805) (layer F.CrtYd) (width 0.05))
  (fp_line (start -4.7 3.805) (end -4.7 4.7) (layer F.CrtYd) (width 0.05))
  (fp_line (start -4.7 4.7) (end 4.7 4.7) (layer F.CrtYd) (width 0.05))
  (fp_line (start 4.7 4.7) (end 4.7 3.805) (layer F.CrtYd) (width 0.05))
  (fp_line (start 4.7 3.805) (end 5.33 3.805) (layer F.CrtYd) (width 0.05))
  (pad 1 thru_hole rect (at -3.81 3.81) (size 1.28 1.28) (drill 0.85) (layers *.Cu *.Mask))
  (pad 2 thru_hole circle (at -1.27 3.81) (size 1.28 1.28) (drill 0.85) (layers *.Cu *.Mask))
  (pad 3 thru_hole circle (at 1.27 3.81) (size 1.28 1.28) (drill 0.85) (layers *.Cu *.Mask))
  (pad 4 thru_hole circle (at 3.81 3.81) (size 1.28 1.28) (drill 0.85) (layers *.Cu *.Mask))
  (pad 5 thru_hole circle (at 3.81 -3.81) (size 1.28 1.28) (drill 0.85) (layers *.Cu *.Mask))
  (pad 6 thru_hole circle (at 1.27 -3.81) (size 1.28 1.28) (drill 0.85) (layers *.Cu *.Mask))
  (pad 7 thru_hole circle (at -1.27 -3.81) (size 1.28 1.28) (drill 0.85) (layers *.Cu *.Mask))
  (pad 8 thru_hole circle (at -3.81 -3.81) (size 1.28 1.28) (drill 0.85) (layers *.Cu *.Mask))
)
