(footprint "DIPS762W60P254L1778H510Q14" (version 20221018) (generator pcbnew)
  (layer "F.Cu")
  (descr "DIPS, 7.62 mm lead span, 2.54 mm pitch; 14 pin, 17.78 mm L X 10.00 mm W X 5.10 mm H body")
  (attr through_hole)
  (fp_text reference "REF**" (at 0 0) (layer "F.SilkS")
      (effects (font (size 1.2 1.2) (thickness 0.12)))
    (tstamp 0729aafe-29dd-44dc-aafc-057acd66c85a)
  )
  (fp_text value "Val**" (at 0 0) (layer "F.SilkS")
      (effects (font (size 1.27 1.27) (thickness 0.15)))
    (tstamp 32bfca77-1f52-4494-92d9-bf06ac26e240)
  )
  (fp_text user "${REFERENCE}" (at 0 0) (layer "F.Fab")
      (effects (font (size 2 2) (thickness 0.2)))
    (tstamp 12fd8606-285e-47f8-91bd-b18bfe7c8273)
  )
  (fp_line (start -8.89 -5) (end -8.4 -5)
    (stroke (width 0.12) (type solid)) (layer "F.SilkS") (tstamp e65a5b77-d6ee-4d99-88d3-f48b9bf57eed))
  (fp_line (start -8.89 5) (end -8.89 -5)
    (stroke (width 0.12) (type solid)) (layer "F.SilkS") (tstamp 1e30087a-36ec-473e-9c66-76db868c8b31))
  (fp_line (start -8.4 5) (end -8.89 5)
    (stroke (width 0.12) (type solid)) (layer "F.SilkS") (tstamp 2ac9517a-6542-43d2-9e1c-ff6285ed3d04))
  (fp_line (start 8.4 5) (end 8.89 5)
    (stroke (width 0.12) (type solid)) (layer "F.SilkS") (tstamp b42fe2da-9f06-43f2-9a67-938f477ac18f))
  (fp_line (start 8.89 -5) (end 8.4 -5)
    (stroke (width 0.12) (type solid)) (layer "F.SilkS") (tstamp 62d6d6b8-f055-4f62-8d8d-45fb1ad53496))
  (fp_line (start 8.89 5) (end 8.89 -5)
    (stroke (width 0.12) (type solid)) (layer "F.SilkS") (tstamp 74fa357d-63c2-46c7-b02a-87c33a982ce5))
  (fp_circle (center -8.59 4.75) (end -8.59 4.875)
    (stroke (width 0.25) (type solid)) (fill none) (layer "F.SilkS") (tstamp db402abc-a642-41d0-82d1-9af3ee9af638))
  (fp_line (start -8.89 -5) (end 8.89 -5)
    (stroke (width 0.025) (type solid)) (layer "Dwgs.User") (tstamp bc063f0e-d3b5-4cd3-84cb-e4e9100b102b))
  (fp_line (start -8.89 5) (end -8.89 -5)
    (stroke (width 0.025) (type solid)) (layer "Dwgs.User") (tstamp 23c034e3-b426-489d-b3a6-b3ca86a2fa10))
  (fp_line (start -7.93 -3.895) (end -7.31 -3.895)
    (stroke (width 0.025) (type solid)) (layer "Dwgs.User") (tstamp 6999ee6e-8fc4-4fa6-9510-7e49aa190c8b))
  (fp_line (start -7.93 -3.725) (end -7.93 -3.895)
    (stroke (width 0.025) (type solid)) (layer "Dwgs.User") (tstamp e6f47479-92ac-4e41-bbf6-385ffb1bd2a5))
  (fp_line (start -7.93 3.725) (end -7.31 3.725)
    (stroke (width 0.025) (type solid)) (layer "Dwgs.User") (tstamp e0eb8fed-2d90-4dcd-b45b-371898ef1d4d))
  (fp_line (start -7.93 3.895) (end -7.93 3.725)
    (stroke (width 0.025) (type solid)) (layer "Dwgs.User") (tstamp da37c6ef-205b-492f-a700-de6eb49e8a37))
  (fp_line (start -7.31 -3.895) (end -7.31 -3.725)
    (stroke (width 0.025) (type solid)) (layer "Dwgs.User") (tstamp b06521ef-9f48-4a7b-9cd9-d23e4ca18841))
  (fp_line (start -7.31 -3.725) (end -7.93 -3.725)
    (stroke (width 0.025) (type solid)) (layer "Dwgs.User") (tstamp a8c533ae-db69-4c23-8cb1-00834ba9a84f))
  (fp_line (start -7.31 3.725) (end -7.31 3.895)
    (stroke (width 0.025) (type solid)) (layer "Dwgs.User") (tstamp 07647ebb-892c-46e2-b6d5-73c756629995))
  (fp_line (start -7.31 3.895) (end -7.93 3.895)
    (stroke (width 0.025) (type solid)) (layer "Dwgs.User") (tstamp 6a674cb4-11e7-44f5-824b-e0e935f7b5fb))
  (fp_line (start -5.39 -3.895) (end -4.77 -3.895)
    (stroke (width 0.025) (type solid)) (layer "Dwgs.User") (tstamp 9a138507-8eef-4287-8fd7-1345537e4883))
  (fp_line (start -5.39 -3.725) (end -5.39 -3.895)
    (stroke (width 0.025) (type solid)) (layer "Dwgs.User") (tstamp 8f4fa45f-909d-429f-a0df-ee89174ad108))
  (fp_line (start -5.39 3.725) (end -4.77 3.725)
    (stroke (width 0.025) (type solid)) (layer "Dwgs.User") (tstamp fb53c14a-9298-4435-9b15-b6e98618b24e))
  (fp_line (start -5.39 3.895) (end -5.39 3.725)
    (stroke (width 0.025) (type solid)) (layer "Dwgs.User") (tstamp 85152f10-fc54-470e-a267-5b0c9777fe04))
  (fp_line (start -4.77 -3.895) (end -4.77 -3.725)
    (stroke (width 0.025) (type solid)) (layer "Dwgs.User") (tstamp afa5a340-7452-42d7-8b43-547fdcb372ed))
  (fp_line (start -4.77 -3.725) (end -5.39 -3.725)
    (stroke (width 0.025) (type solid)) (layer "Dwgs.User") (tstamp be36b8bc-8608-4720-bb8d-92eb4b43cef3))
  (fp_line (start -4.77 3.725) (end -4.77 3.895)
    (stroke (width 0.025) (type solid)) (layer "Dwgs.User") (tstamp 4a7a0b6c-99bd-4bbd-ac42-514f8549cc8c))
  (fp_line (start -4.77 3.895) (end -5.39 3.895)
    (stroke (width 0.025) (type solid)) (layer "Dwgs.User") (tstamp ec664ae8-cbd2-4bf9-a59c-10bb93699557))
  (fp_line (start -2.85 -3.895) (end -2.23 -3.895)
    (stroke (width 0.025) (type solid)) (layer "Dwgs.User") (tstamp ece77c46-ca20-4647-86dd-a9f35ef78b10))
  (fp_line (start -2.85 -3.725) (end -2.85 -3.895)
    (stroke (width 0.025) (type solid)) (layer "Dwgs.User") (tstamp 61bd08c7-a779-4f1e-987b-af833591e793))
  (fp_line (start -2.85 3.725) (end -2.23 3.725)
    (stroke (width 0.025) (type solid)) (layer "Dwgs.User") (tstamp e1791e9f-7111-4057-8179-0ba7f9067d33))
  (fp_line (start -2.85 3.895) (end -2.85 3.725)
    (stroke (width 0.025) (type solid)) (layer "Dwgs.User") (tstamp 7dcfb334-8ed0-4de8-a077-999a0a5299b1))
  (fp_line (start -2.23 -3.895) (end -2.23 -3.725)
    (stroke (width 0.025) (type solid)) (layer "Dwgs.User") (tstamp 9b08da35-6005-42d7-8163-59ec388e4082))
  (fp_line (start -2.23 -3.725) (end -2.85 -3.725)
    (stroke (width 0.025) (type solid)) (layer "Dwgs.User") (tstamp 19a4a4dd-447c-4ca9-a3ff-f800567001a2))
  (fp_line (start -2.23 3.725) (end -2.23 3.895)
    (stroke (width 0.025) (type solid)) (layer "Dwgs.User") (tstamp 6cac79db-f363-4be2-8969-ff842083fc06))
  (fp_line (start -2.23 3.895) (end -2.85 3.895)
    (stroke (width 0.025) (type solid)) (layer "Dwgs.User") (tstamp 3a328fff-b522-4f69-b322-0e91560dea7f))
  (fp_line (start -0.508 0) (end 0.508 0)
    (stroke (width 0.1) (type default)) (layer "Dwgs.User") (tstamp ef713413-e935-4d34-adbc-77fe74d4fe99))
  (fp_line (start -0.31 -3.895) (end 0.31 -3.895)
    (stroke (width 0.025) (type solid)) (layer "Dwgs.User") (tstamp e6784c6e-6c0e-40ba-a4f1-8cf17ecb7afc))
  (fp_line (start -0.31 -3.725) (end -0.31 -3.895)
    (stroke (width 0.025) (type solid)) (layer "Dwgs.User") (tstamp edfb9d8e-29e1-4d09-a800-64462c0468b5))
  (fp_line (start -0.31 3.725) (end 0.31 3.725)
    (stroke (width 0.025) (type solid)) (layer "Dwgs.User") (tstamp 3edadfdd-65db-4f83-bab0-0e9bb1227dd2))
  (fp_line (start -0.31 3.895) (end -0.31 3.725)
    (stroke (width 0.025) (type solid)) (layer "Dwgs.User") (tstamp 4a8cff0d-8cc2-4796-b0be-86930a37d55f))
  (fp_line (start 0 -0.508) (end 0 0.508)
    (stroke (width 0.1) (type default)) (layer "Dwgs.User") (tstamp 9847acf5-cc2a-4f63-bd54-5c939ccf11d1))
  (fp_line (start 0.31 -3.895) (end 0.31 -3.725)
    (stroke (width 0.025) (type solid)) (layer "Dwgs.User") (tstamp bfc2dd8b-afad-4f36-bcfb-88d2af1a48bf))
  (fp_line (start 0.31 -3.725) (end -0.31 -3.725)
    (stroke (width 0.025) (type solid)) (layer "Dwgs.User") (tstamp f0161752-45e1-4e8c-9331-d198c6552e95))
  (fp_line (start 0.31 3.725) (end 0.31 3.895)
    (stroke (width 0.025) (type solid)) (layer "Dwgs.User") (tstamp fb80f588-1d38-4d97-ac33-a78d60a89334))
  (fp_line (start 0.31 3.895) (end -0.31 3.895)
    (stroke (width 0.025) (type solid)) (layer "Dwgs.User") (tstamp 7b45bf42-cae7-418f-a30c-ceb7166b4432))
  (fp_line (start 2.23 -3.895) (end 2.85 -3.895)
    (stroke (width 0.025) (type solid)) (layer "Dwgs.User") (tstamp dcf21268-0f30-44c6-ad8f-43011f533940))
  (fp_line (start 2.23 -3.725) (end 2.23 -3.895)
    (stroke (width 0.025) (type solid)) (layer "Dwgs.User") (tstamp 3b367115-f8ce-4082-9d1d-9fc96ccacc67))
  (fp_line (start 2.23 3.725) (end 2.85 3.725)
    (stroke (width 0.025) (type solid)) (layer "Dwgs.User") (tstamp 2508c31c-fae1-4956-8794-27341782fd15))
  (fp_line (start 2.23 3.895) (end 2.23 3.725)
    (stroke (width 0.025) (type solid)) (layer "Dwgs.User") (tstamp 13696b8b-f683-472d-918d-1e91acb39de3))
  (fp_line (start 2.85 -3.895) (end 2.85 -3.725)
    (stroke (width 0.025) (type solid)) (layer "Dwgs.User") (tstamp 80295905-f988-4b1e-8c73-a5804c197ab4))
  (fp_line (start 2.85 -3.725) (end 2.23 -3.725)
    (stroke (width 0.025) (type solid)) (layer "Dwgs.User") (tstamp e8f2b473-8720-401b-95df-93113580e3c7))
  (fp_line (start 2.85 3.725) (end 2.85 3.895)
    (stroke (width 0.025) (type solid)) (layer "Dwgs.User") (tstamp 65d18bb1-c4c3-4051-80c7-973b830a881e))
  (fp_line (start 2.85 3.895) (end 2.23 3.895)
    (stroke (width 0.025) (type solid)) (layer "Dwgs.User") (tstamp d9e7bb05-690e-43b1-9f80-9a29356f5218))
  (fp_line (start 4.77 -3.895) (end 5.39 -3.895)
    (stroke (width 0.025) (type solid)) (layer "Dwgs.User") (tstamp 53033175-f7a3-4259-988c-88e0665d90d0))
  (fp_line (start 4.77 -3.725) (end 4.77 -3.895)
    (stroke (width 0.025) (type solid)) (layer "Dwgs.User") (tstamp 1f235794-4144-415c-9d58-b27fb8e27f1e))
  (fp_line (start 4.77 3.725) (end 5.39 3.725)
    (stroke (width 0.025) (type solid)) (layer "Dwgs.User") (tstamp e5e45c37-3e29-498b-a144-305b7cb29649))
  (fp_line (start 4.77 3.895) (end 4.77 3.725)
    (stroke (width 0.025) (type solid)) (layer "Dwgs.User") (tstamp 9740bc3a-8e9f-4104-bdef-cf1ef12cedc4))
  (fp_line (start 5.39 -3.895) (end 5.39 -3.725)
    (stroke (width 0.025) (type solid)) (layer "Dwgs.User") (tstamp 74815870-4c55-4d70-a41e-3d98c3efed39))
  (fp_line (start 5.39 -3.725) (end 4.77 -3.725)
    (stroke (width 0.025) (type solid)) (layer "Dwgs.User") (tstamp fa038fb8-213c-438f-a224-a3061b1179ee))
  (fp_line (start 5.39 3.725) (end 5.39 3.895)
    (stroke (width 0.025) (type solid)) (layer "Dwgs.User") (tstamp b744d9ce-32ed-4fc4-b4f5-43e74e0a874e))
  (fp_line (start 5.39 3.895) (end 4.77 3.895)
    (stroke (width 0.025) (type solid)) (layer "Dwgs.User") (tstamp c5031ff9-e849-4415-bd34-e13095caaff2))
  (fp_line (start 7.31 -3.895) (end 7.93 -3.895)
    (stroke (width 0.025) (type solid)) (layer "Dwgs.User") (tstamp fb250b58-25c5-46ff-a61b-2862842b559b))
  (fp_line (start 7.31 -3.725) (end 7.31 -3.895)
    (stroke (width 0.025) (type solid)) (layer "Dwgs.User") (tstamp 1c6e3a06-3f97-4c12-892e-8c6dcc687c3a))
  (fp_line (start 7.31 3.725) (end 7.93 3.725)
    (stroke (width 0.025) (type solid)) (layer "Dwgs.User") (tstamp 418db23d-6219-4952-acb3-af029bf6d039))
  (fp_line (start 7.31 3.895) (end 7.31 3.725)
    (stroke (width 0.025) (type solid)) (layer "Dwgs.User") (tstamp 7bfbc2fe-9363-43d7-8dbe-92535e7f09a4))
  (fp_line (start 7.93 -3.895) (end 7.93 -3.725)
    (stroke (width 0.025) (type solid)) (layer "Dwgs.User") (tstamp 6ba2b672-b906-46f4-9343-a520af61c373))
  (fp_line (start 7.93 -3.725) (end 7.31 -3.725)
    (stroke (width 0.025) (type solid)) (layer "Dwgs.User") (tstamp e54a2f0b-97d2-457c-868d-d4b1d85d7513))
  (fp_line (start 7.93 3.725) (end 7.93 3.895)
    (stroke (width 0.025) (type solid)) (layer "Dwgs.User") (tstamp 9e4a8667-73f7-4a35-8422-c33f05c8a168))
  (fp_line (start 7.93 3.895) (end 7.31 3.895)
    (stroke (width 0.025) (type solid)) (layer "Dwgs.User") (tstamp 97d74abc-e67c-4142-8c62-992ee7188b66))
  (fp_line (start 8.89 -5) (end 8.89 5)
    (stroke (width 0.025) (type solid)) (layer "Dwgs.User") (tstamp aeb633ec-4698-445b-8571-75733c5fb422))
  (fp_line (start 8.89 5) (end -8.89 5)
    (stroke (width 0.025) (type solid)) (layer "Dwgs.User") (tstamp f51b330f-8213-4c61-bd68-078a70e90e5d))
  (fp_circle (center 0 0) (end 0.254 0)
    (stroke (width 0.1) (type default)) (fill none) (layer "Dwgs.User") (tstamp 6f383198-16db-4fef-8b22-e1d2ff2a0e0d))
  (fp_line (start -9.14 -5.25) (end -9.14 5.25)
    (stroke (width 0.05) (type solid)) (layer "F.CrtYd") (tstamp 31f84bff-119f-404c-8029-343c9640b928))
  (fp_line (start -9.14 5.25) (end 9.14 5.25)
    (stroke (width 0.05) (type solid)) (layer "F.CrtYd") (tstamp ea7e300d-307c-443a-80bf-ed3905286136))
  (fp_line (start -0.35 0) (end 0.35 0)
    (stroke (width 0.05) (type solid)) (layer "F.CrtYd") (tstamp 2cca6e45-3f89-4a8b-8828-62371f6963d6))
  (fp_line (start 0 -0.35) (end 0 0.35)
    (stroke (width 0.05) (type solid)) (layer "F.CrtYd") (tstamp 42c6070c-7223-492d-96f2-099456c56b89))
  (fp_line (start 9.14 -5.25) (end -9.14 -5.25)
    (stroke (width 0.05) (type solid)) (layer "F.CrtYd") (tstamp 14b8e04b-7d2b-4e97-9f70-b74d898f796b))
  (fp_line (start 9.14 5.25) (end 9.14 -5.25)
    (stroke (width 0.05) (type solid)) (layer "F.CrtYd") (tstamp 4f25160e-2c52-42e7-8dc7-ed56d3d215ba))
  (fp_circle (center 0 0) (end 0 0.25)
    (stroke (width 0.05) (type solid)) (fill none) (layer "F.CrtYd") (tstamp b1c2c038-84d6-4ce3-9738-b40e0276c690))
  (fp_line (start -8.89 -5) (end 8.89 -5)
    (stroke (width 0.12) (type solid)) (layer "F.Fab") (tstamp bf2f3aa6-c7f0-46bd-82c4-30d9f50e2ae3))
  (fp_line (start -8.89 4) (end -8.89 -5)
    (stroke (width 0.12) (type solid)) (layer "F.Fab") (tstamp 9b217440-c58e-4eb2-a8b0-6c093f77fbc4))
  (fp_line (start -7.89 5) (end -8.89 4)
    (stroke (width 0.12) (type solid)) (layer "F.Fab") (tstamp 25a4775d-d126-41a1-b6e5-8739e8b11047))
  (fp_line (start 8.89 -5) (end 8.89 5)
    (stroke (width 0.12) (type solid)) (layer "F.Fab") (tstamp d40b4721-c22c-438a-8313-da9fb0b86bc2))
  (fp_line (start 8.89 5) (end -7.89 5)
    (stroke (width 0.12) (type solid)) (layer "F.Fab") (tstamp fc1253bd-68f4-44b1-8836-4c410d624be3))
  (pad "1" thru_hole rect (at -7.62 3.81) (size 1.2 1.2) (drill 0.8) (layers "*.Cu" "*.Mask") (tstamp 4444b771-e799-467e-aebb-04d2a0b56476))
  (pad "2" thru_hole circle (at -5.08 3.81) (size 1.2 1.2) (drill 0.8) (layers "*.Cu" "*.Mask") (tstamp 6fe629e5-59ae-4b66-8314-5aca6a10d4a9))
  (pad "3" thru_hole circle (at -2.54 3.81) (size 1.2 1.2) (drill 0.8) (layers "*.Cu" "*.Mask") (tstamp a3870edf-9be5-45a3-8e5c-d273a635a21f))
  (pad "4" thru_hole circle (at 0 3.81) (size 1.2 1.2) (drill 0.8) (layers "*.Cu" "*.Mask") (tstamp a6e874e2-9aa2-4f7c-a8e4-73e06963a933))
  (pad "5" thru_hole circle (at 2.54 3.81) (size 1.2 1.2) (drill 0.8) (layers "*.Cu" "*.Mask") (tstamp 71379ec8-4bfa-49f4-8594-462299d13768))
  (pad "6" thru_hole circle (at 5.08 3.81) (size 1.2 1.2) (drill 0.8) (layers "*.Cu" "*.Mask") (tstamp 6ead5316-de95-452a-992b-52f7e304598e))
  (pad "7" thru_hole circle (at 7.62 3.81) (size 1.2 1.2) (drill 0.8) (layers "*.Cu" "*.Mask") (tstamp 9915235c-70ac-40ec-8bb6-9ddf6f67543b))
  (pad "8" thru_hole circle (at 7.62 -3.81) (size 1.2 1.2) (drill 0.8) (layers "*.Cu" "*.Mask") (tstamp 3009ba7e-d71e-49bb-8eda-7d5343dadffa))
  (pad "9" thru_hole circle (at 5.08 -3.81) (size 1.2 1.2) (drill 0.8) (layers "*.Cu" "*.Mask") (tstamp 5244a1b1-99cf-4fb7-9100-0f141b18be7b))
  (pad "10" thru_hole circle (at 2.54 -3.81) (size 1.2 1.2) (drill 0.8) (layers "*.Cu" "*.Mask") (tstamp 3e76ff86-038d-4868-9917-ea7455e14fcf))
  (pad "11" thru_hole circle (at 0 -3.81) (size 1.2 1.2) (drill 0.8) (layers "*.Cu" "*.Mask") (tstamp dffbeeb7-edaf-4d73-a55a-c13be2349f4c))
  (pad "12" thru_hole circle (at -2.54 -3.81) (size 1.2 1.2) (drill 0.8) (layers "*.Cu" "*.Mask") (tstamp 557c3437-e472-4c15-b27e-475d4b03860c))
  (pad "13" thru_hole circle (at -5.08 -3.81) (size 1.2 1.2) (drill 0.8) (layers "*.Cu" "*.Mask") (tstamp 601dcd97-8db5-4f59-9b44-b43bf895ef4b))
  (pad "14" thru_hole circle (at -7.62 -3.81) (size 1.2 1.2) (drill 0.8) (layers "*.Cu" "*.Mask") (tstamp 2606ae85-0900-465f-b7d4-a345a10b5f5b))
  (model "${KICAD7_3DMODEL_DIR}/Package_DIP.3dshapes/DIP-14_W7.62mm_Socket.step"
    (offset (xyz -7.62 -3.81 0))
    (scale (xyz 1 1 1))
    (rotate (xyz 0 0 -90))
  )
  (model "${KICAD7_3DMODEL_DIR}/Package_DIP.3dshapes/DIP-14_W7.62mm.step"
    (offset (xyz -7.62 -3.81 4.064))
    (scale (xyz 1 1 1))
    (rotate (xyz 0 0 -90))
  )
)
