(footprint "HDRV13W64P254_13X1_3300X254H851" (version 20221018) (generator pcbnew)
  (layer "F.Cu")
  (descr "Header, Vertical Non-Shrouded, 2.54 mm pitch; 0.64 mm lead width, 13 pin, 1 row, 33.00 mm L X 2.54 mm W X 8.51 mm H body")
  (attr through_hole)
  (fp_text reference "REF**" (at 15.24 0) (layer "F.SilkS")
      (effects (font (size 1.2 1.2) (thickness 0.12)))
    (tstamp 0e59653d-dcf0-4836-bd4b-abff73179d08)
  )
  (fp_text value "Val**" (at 0 0) (layer "F.SilkS")
      (effects (font (size 1.27 1.27) (thickness 0.15)))
    (tstamp 88170e44-89ac-401f-a5a1-76f1c0f18629)
  )
  (fp_text user "${REFERENCE}" (at 15.24 0) (layer "F.Fab")
      (effects (font (size 2 2) (thickness 0.2)))
    (tstamp 7619fdb0-4622-4472-9c74-0a61cd756990)
  )
  (fp_line (start -1.26 -1.27) (end 31.74 -1.27)
    (stroke (width 0.12) (type solid)) (layer "F.SilkS") (tstamp 298446cb-9d90-4a31-827e-cbee57b1a219))
  (fp_line (start -1.26 1.27) (end -1.26 -1.27)
    (stroke (width 0.12) (type solid)) (layer "F.SilkS") (tstamp ce88ce7d-721d-4fc9-b037-497d81e82dba))
  (fp_line (start 31.74 -1.27) (end 31.74 1.27)
    (stroke (width 0.12) (type solid)) (layer "F.SilkS") (tstamp e7690f70-11c7-4279-9f49-1c81fe9ea2a6))
  (fp_line (start 31.74 1.27) (end -1.26 1.27)
    (stroke (width 0.12) (type solid)) (layer "F.SilkS") (tstamp bd2a580d-8c99-4cc7-b04c-aab44f65f73d))
  (fp_circle (center -1.69 0) (end -1.69 0.125)
    (stroke (width 0.25) (type solid)) (fill none) (layer "F.SilkS") (tstamp be877436-a558-4185-a277-b9c36835a3f8))
  (fp_line (start -1.26 -1.27) (end 31.74 -1.27)
    (stroke (width 0.025) (type solid)) (layer "Dwgs.User") (tstamp 0a5b912e-cbea-47c0-b819-d7952ce02fd2))
  (fp_line (start -1.26 -1.27) (end 31.74 -1.27)
    (stroke (width 0.025) (type solid)) (layer "Dwgs.User") (tstamp 45e59774-1094-40d4-9be1-95d6f162a2bb))
  (fp_line (start -1.26 1.27) (end -1.26 -1.27)
    (stroke (width 0.025) (type solid)) (layer "Dwgs.User") (tstamp 5998b919-5976-4aeb-b519-e911f2ad3951))
  (fp_line (start -1.26 1.27) (end -1.26 -1.27)
    (stroke (width 0.025) (type solid)) (layer "Dwgs.User") (tstamp 897f443a-f735-41d3-89aa-79ebc23d1aeb))
  (fp_line (start -0.32 -0.32) (end 0.32 -0.32)
    (stroke (width 0.025) (type solid)) (layer "Dwgs.User") (tstamp 55bf8335-7b52-44f5-aa8a-3214276d82dc))
  (fp_line (start -0.32 0.32) (end -0.32 -0.32)
    (stroke (width 0.025) (type solid)) (layer "Dwgs.User") (tstamp 52e7e80f-8757-4061-abda-b58eb7e7df2e))
  (fp_line (start 0.32 -0.32) (end 0.32 0.32)
    (stroke (width 0.025) (type solid)) (layer "Dwgs.User") (tstamp 351ddeaa-bdde-41e8-a29a-1978cab950ed))
  (fp_line (start 0.32 0.32) (end -0.32 0.32)
    (stroke (width 0.025) (type solid)) (layer "Dwgs.User") (tstamp 906bdeeb-b94e-443b-9e4e-71c43523dafa))
  (fp_line (start 2.22 -0.32) (end 2.86 -0.32)
    (stroke (width 0.025) (type solid)) (layer "Dwgs.User") (tstamp 9a3ed787-cc94-4d05-85b4-0d73b3db197b))
  (fp_line (start 2.22 0.32) (end 2.22 -0.32)
    (stroke (width 0.025) (type solid)) (layer "Dwgs.User") (tstamp d89f5979-3acf-440a-9e47-d7cac3ecef35))
  (fp_line (start 2.86 -0.32) (end 2.86 0.32)
    (stroke (width 0.025) (type solid)) (layer "Dwgs.User") (tstamp d3bb6288-d239-4b05-aa9b-0e1188cc5bd9))
  (fp_line (start 2.86 0.32) (end 2.22 0.32)
    (stroke (width 0.025) (type solid)) (layer "Dwgs.User") (tstamp 972472b6-9c1c-4eb5-ba50-85386f710971))
  (fp_line (start 4.76 -0.32) (end 5.4 -0.32)
    (stroke (width 0.025) (type solid)) (layer "Dwgs.User") (tstamp bcdceaf4-f924-4231-94bd-2ddf865ab91a))
  (fp_line (start 4.76 0.32) (end 4.76 -0.32)
    (stroke (width 0.025) (type solid)) (layer "Dwgs.User") (tstamp 9ec36dc2-2404-4de6-be2b-d269ccc0a98d))
  (fp_line (start 5.4 -0.32) (end 5.4 0.32)
    (stroke (width 0.025) (type solid)) (layer "Dwgs.User") (tstamp 0468c51c-91f6-4e8e-b664-0c9b6d120c05))
  (fp_line (start 5.4 0.32) (end 4.76 0.32)
    (stroke (width 0.025) (type solid)) (layer "Dwgs.User") (tstamp 53aaa54c-67a9-4e73-93e8-8226288471d0))
  (fp_line (start 7.3 -0.32) (end 7.94 -0.32)
    (stroke (width 0.025) (type solid)) (layer "Dwgs.User") (tstamp d876fc3b-ef10-47dd-b472-8d48549a1384))
  (fp_line (start 7.3 0.32) (end 7.3 -0.32)
    (stroke (width 0.025) (type solid)) (layer "Dwgs.User") (tstamp 0ee1c6ad-3ee2-49b0-b568-39033bda8067))
  (fp_line (start 7.94 -0.32) (end 7.94 0.32)
    (stroke (width 0.025) (type solid)) (layer "Dwgs.User") (tstamp 1507715e-bdd3-41da-a2e7-fa1b9c57c6bb))
  (fp_line (start 7.94 0.32) (end 7.3 0.32)
    (stroke (width 0.025) (type solid)) (layer "Dwgs.User") (tstamp 1d51ba0c-1bc6-40c3-9101-bd06754666af))
  (fp_line (start 9.84 -0.32) (end 10.48 -0.32)
    (stroke (width 0.025) (type solid)) (layer "Dwgs.User") (tstamp d8300484-02d3-469f-825d-1684f004cfa9))
  (fp_line (start 9.84 0.32) (end 9.84 -0.32)
    (stroke (width 0.025) (type solid)) (layer "Dwgs.User") (tstamp 416dc514-9629-45b8-b6a0-7688ff635eda))
  (fp_line (start 10.48 -0.32) (end 10.48 0.32)
    (stroke (width 0.025) (type solid)) (layer "Dwgs.User") (tstamp 1f0620d2-b378-475c-b04d-0a23f7bc8dbe))
  (fp_line (start 10.48 0.32) (end 9.84 0.32)
    (stroke (width 0.025) (type solid)) (layer "Dwgs.User") (tstamp 6b721048-8f05-4a6f-9d4e-25a9de72a272))
  (fp_line (start 12.38 -0.32) (end 13.02 -0.32)
    (stroke (width 0.025) (type solid)) (layer "Dwgs.User") (tstamp 091c5e5b-2a64-4382-b16e-1fd0ca5a78fe))
  (fp_line (start 12.38 0.32) (end 12.38 -0.32)
    (stroke (width 0.025) (type solid)) (layer "Dwgs.User") (tstamp 78a3ce62-bb57-4652-9a16-c0bc43f9f9cd))
  (fp_line (start 13.02 -0.32) (end 13.02 0.32)
    (stroke (width 0.025) (type solid)) (layer "Dwgs.User") (tstamp 209e0944-9c84-4442-9590-fd4c8235f89f))
  (fp_line (start 13.02 0.32) (end 12.38 0.32)
    (stroke (width 0.025) (type solid)) (layer "Dwgs.User") (tstamp 6f589673-9206-4d2c-9f8f-cc6902fc1881))
  (fp_line (start 14.92 -0.32) (end 15.56 -0.32)
    (stroke (width 0.025) (type solid)) (layer "Dwgs.User") (tstamp fc9c682c-d20f-4a23-9881-46668f2d2378))
  (fp_line (start 14.92 0.32) (end 14.92 -0.32)
    (stroke (width 0.025) (type solid)) (layer "Dwgs.User") (tstamp 20dfa29c-834e-4e81-a899-a79ae09f9fa5))
  (fp_line (start 15.56 -0.32) (end 15.56 0.32)
    (stroke (width 0.025) (type solid)) (layer "Dwgs.User") (tstamp 069d47a4-4cbe-4b78-8348-9fd6c2250cdf))
  (fp_line (start 15.56 0.32) (end 14.92 0.32)
    (stroke (width 0.025) (type solid)) (layer "Dwgs.User") (tstamp 6db21f4f-7f37-486d-be5b-b595d62cee98))
  (fp_line (start 17.46 -0.32) (end 18.1 -0.32)
    (stroke (width 0.025) (type solid)) (layer "Dwgs.User") (tstamp ff61c883-1721-482c-ba71-2fac9f49845b))
  (fp_line (start 17.46 0.32) (end 17.46 -0.32)
    (stroke (width 0.025) (type solid)) (layer "Dwgs.User") (tstamp db15c427-e6e8-4052-950c-23d21e5b25d0))
  (fp_line (start 18.1 -0.32) (end 18.1 0.32)
    (stroke (width 0.025) (type solid)) (layer "Dwgs.User") (tstamp 6c78925a-204c-4a26-b428-489f20da8643))
  (fp_line (start 18.1 0.32) (end 17.46 0.32)
    (stroke (width 0.025) (type solid)) (layer "Dwgs.User") (tstamp 9b8ef5b5-30da-4c9a-855f-6406ff3dce0c))
  (fp_line (start 20 -0.32) (end 20.64 -0.32)
    (stroke (width 0.025) (type solid)) (layer "Dwgs.User") (tstamp da37397a-8a34-4332-9bce-3af1ea2d936b))
  (fp_line (start 20 0.32) (end 20 -0.32)
    (stroke (width 0.025) (type solid)) (layer "Dwgs.User") (tstamp 8f08e1df-c06e-4c77-91cc-06a68e7e9ffc))
  (fp_line (start 20.64 -0.32) (end 20.64 0.32)
    (stroke (width 0.025) (type solid)) (layer "Dwgs.User") (tstamp 1127cb60-e369-45f9-b6b0-32175c3ea074))
  (fp_line (start 20.64 0.32) (end 20 0.32)
    (stroke (width 0.025) (type solid)) (layer "Dwgs.User") (tstamp 168169ef-f384-46fb-8b50-681e8b509b17))
  (fp_line (start 22.54 -0.32) (end 23.18 -0.32)
    (stroke (width 0.025) (type solid)) (layer "Dwgs.User") (tstamp dc8e34fe-aa78-4e7c-9fea-dba919365817))
  (fp_line (start 22.54 0.32) (end 22.54 -0.32)
    (stroke (width 0.025) (type solid)) (layer "Dwgs.User") (tstamp 4e4b63c2-9ddc-4a6d-9fbd-9674cdd9c6d6))
  (fp_line (start 23.18 -0.32) (end 23.18 0.32)
    (stroke (width 0.025) (type solid)) (layer "Dwgs.User") (tstamp 1878440e-7b66-48d6-8181-3ee7e43a495e))
  (fp_line (start 23.18 0.32) (end 22.54 0.32)
    (stroke (width 0.025) (type solid)) (layer "Dwgs.User") (tstamp 5008b844-9021-437d-aeed-51139870fb6f))
  (fp_line (start 25.08 -0.32) (end 25.72 -0.32)
    (stroke (width 0.025) (type solid)) (layer "Dwgs.User") (tstamp 63d9b574-0a2e-4462-aae8-b6ee761e2384))
  (fp_line (start 25.08 0.32) (end 25.08 -0.32)
    (stroke (width 0.025) (type solid)) (layer "Dwgs.User") (tstamp 3ac54f0c-de06-4a07-9344-6ce4cadebef6))
  (fp_line (start 25.72 -0.32) (end 25.72 0.32)
    (stroke (width 0.025) (type solid)) (layer "Dwgs.User") (tstamp 732bd9a4-c631-4929-bc24-a7692dfc8ca6))
  (fp_line (start 25.72 0.32) (end 25.08 0.32)
    (stroke (width 0.025) (type solid)) (layer "Dwgs.User") (tstamp 0900bd85-6c8f-42d2-9efc-989a86ba05a7))
  (fp_line (start 27.62 -0.32) (end 28.26 -0.32)
    (stroke (width 0.025) (type solid)) (layer "Dwgs.User") (tstamp 38a0428d-5bd3-42a4-86b5-cb136cd113f8))
  (fp_line (start 27.62 0.32) (end 27.62 -0.32)
    (stroke (width 0.025) (type solid)) (layer "Dwgs.User") (tstamp 8acec653-ba59-48f5-b0d8-c93653f48fc5))
  (fp_line (start 28.26 -0.32) (end 28.26 0.32)
    (stroke (width 0.025) (type solid)) (layer "Dwgs.User") (tstamp 1a799fa7-03fa-427f-a575-21b47addd765))
  (fp_line (start 28.26 0.32) (end 27.62 0.32)
    (stroke (width 0.025) (type solid)) (layer "Dwgs.User") (tstamp 47e3bbaa-9c8e-4def-8dfe-05b6c4569632))
  (fp_line (start 30.16 -0.32) (end 30.8 -0.32)
    (stroke (width 0.025) (type solid)) (layer "Dwgs.User") (tstamp 5d9d2171-d32c-429f-b5bd-71c41ec3a376))
  (fp_line (start 30.16 0.32) (end 30.16 -0.32)
    (stroke (width 0.025) (type solid)) (layer "Dwgs.User") (tstamp 3e592948-6450-4ded-aa19-6b15803cd985))
  (fp_line (start 30.8 -0.32) (end 30.8 0.32)
    (stroke (width 0.025) (type solid)) (layer "Dwgs.User") (tstamp 406a81a0-50b6-4749-a1f5-37c2bdd19e55))
  (fp_line (start 30.8 0.32) (end 30.16 0.32)
    (stroke (width 0.025) (type solid)) (layer "Dwgs.User") (tstamp e46de796-0569-495b-bff1-e0ce0da270ea))
  (fp_line (start 31.74 -1.27) (end 31.74 1.27)
    (stroke (width 0.025) (type solid)) (layer "Dwgs.User") (tstamp 7f11c6e8-ca18-461a-a92a-63fe02a78f9a))
  (fp_line (start 31.74 -1.27) (end 31.74 1.27)
    (stroke (width 0.025) (type solid)) (layer "Dwgs.User") (tstamp d428b082-00d7-4055-b761-8e5dcd73cfcc))
  (fp_line (start 31.74 1.27) (end -1.26 1.27)
    (stroke (width 0.025) (type solid)) (layer "Dwgs.User") (tstamp d3695a50-3198-4fe1-8d44-6f78020988ae))
  (fp_line (start 31.74 1.27) (end -1.26 1.27)
    (stroke (width 0.025) (type solid)) (layer "Dwgs.User") (tstamp dbc0e424-df5e-44d8-965a-8054b471f09c))
  (fp_line (start -1.51 -1.52) (end 31.99 -1.52)
    (stroke (width 0.05) (type solid)) (layer "F.CrtYd") (tstamp 786c5033-41ee-4bb3-8edb-ba6a50f93dda))
  (fp_line (start -1.51 1.52) (end -1.51 -1.52)
    (stroke (width 0.05) (type solid)) (layer "F.CrtYd") (tstamp 327cae34-acb3-4111-8783-9c0174ca7403))
  (fp_line (start 0 -0.35) (end 0 0.35)
    (stroke (width 0.05) (type solid)) (layer "F.CrtYd") (tstamp ddc23468-72f5-4a1b-b768-7463712e2503))
  (fp_line (start 0.35 0) (end -0.35 0)
    (stroke (width 0.05) (type solid)) (layer "F.CrtYd") (tstamp 1501b189-7b89-41b8-a4a5-485d3e87e799))
  (fp_line (start 31.99 -1.52) (end 31.99 1.52)
    (stroke (width 0.05) (type solid)) (layer "F.CrtYd") (tstamp f00cb6c7-18ec-48e5-829b-a4af4a44160e))
  (fp_line (start 31.99 1.52) (end -1.51 1.52)
    (stroke (width 0.05) (type solid)) (layer "F.CrtYd") (tstamp 30a39637-136b-4d32-83ad-2a5e861f1716))
  (fp_circle (center 0 0) (end 0 0.25)
    (stroke (width 0.05) (type solid)) (fill none) (layer "F.CrtYd") (tstamp 6e15b8ce-1ba9-437e-a3eb-33482f310143))
  (fp_line (start -1.26 -0.423) (end -0.413 -1.27)
    (stroke (width 0.12) (type solid)) (layer "F.Fab") (tstamp 5101c2ab-a7e9-48e9-887a-99e811cb13cd))
  (fp_line (start -1.26 1.27) (end -1.26 -0.423)
    (stroke (width 0.12) (type solid)) (layer "F.Fab") (tstamp 9e0ad26b-ae23-4681-bca1-551480926dcc))
  (fp_line (start -0.413 -1.27) (end 31.74 -1.27)
    (stroke (width 0.12) (type solid)) (layer "F.Fab") (tstamp 2ab2c227-6efd-46a5-8e7d-eb4f145952c9))
  (fp_line (start 31.74 -1.27) (end 31.74 1.27)
    (stroke (width 0.12) (type solid)) (layer "F.Fab") (tstamp c136cc08-0aae-437b-b144-20804822d542))
  (fp_line (start 31.74 1.27) (end -1.26 1.27)
    (stroke (width 0.12) (type solid)) (layer "F.Fab") (tstamp d44423bb-17c8-4c4b-85ce-0e5bc93e04cf))
  (pad "1" thru_hole rect (at 0 0) (size 1.58 1.58) (drill 1.05) (layers "*.Cu" "*.Mask") (tstamp 6f5199a4-5d80-48c9-8733-9961c40b3a78))
  (pad "2" thru_hole circle (at 2.54 0) (size 1.58 1.58) (drill 1.05) (layers "*.Cu" "*.Mask") (tstamp ce08dff3-6a31-41fa-b727-bb669c508c8b))
  (pad "3" thru_hole circle (at 5.08 0) (size 1.58 1.58) (drill 1.05) (layers "*.Cu" "*.Mask") (tstamp 35ee995c-d12c-4e36-a4fd-acf919f727a3))
  (pad "4" thru_hole circle (at 7.62 0) (size 1.58 1.58) (drill 1.05) (layers "*.Cu" "*.Mask") (tstamp 0310ccf5-ba32-4e21-8a39-4746f8b2a5e6))
  (pad "5" thru_hole circle (at 10.16 0) (size 1.58 1.58) (drill 1.05) (layers "*.Cu" "*.Mask") (tstamp 7e3c92fd-a158-4a24-9933-c2ad55b7caf7))
  (pad "6" thru_hole circle (at 12.7 0) (size 1.58 1.58) (drill 1.05) (layers "*.Cu" "*.Mask") (tstamp 1c005c37-f93c-42f5-8a55-0e63d9c9485f))
  (pad "7" thru_hole circle (at 15.24 0) (size 1.58 1.58) (drill 1.05) (layers "*.Cu" "*.Mask") (tstamp 32d9fd11-49a5-4981-acd6-b66613fba916))
  (pad "8" thru_hole circle (at 17.78 0) (size 1.58 1.58) (drill 1.05) (layers "*.Cu" "*.Mask") (tstamp af73328a-0427-41ca-bd74-44fe44966950))
  (pad "9" thru_hole circle (at 20.32 0) (size 1.58 1.58) (drill 1.05) (layers "*.Cu" "*.Mask") (tstamp d873e063-6cfa-43b0-a7ba-2909c5d14bae))
  (pad "10" thru_hole circle (at 22.86 0) (size 1.58 1.58) (drill 1.05) (layers "*.Cu" "*.Mask") (tstamp 6baf665e-ea20-4d53-92ef-ec60125268f1))
  (pad "11" thru_hole circle (at 25.4 0) (size 1.58 1.58) (drill 1.05) (layers "*.Cu" "*.Mask") (tstamp 35eb20ae-e89b-4893-bdc4-a4f341cbf797))
  (pad "12" thru_hole circle (at 27.94 0) (size 1.58 1.58) (drill 1.05) (layers "*.Cu" "*.Mask") (tstamp 497c57c8-bc17-4cea-8702-3f5094e46e95))
  (pad "13" thru_hole circle (at 30.48 0) (size 1.58 1.58) (drill 1.05) (layers "*.Cu" "*.Mask") (tstamp 30b3a4dc-68c3-4cc8-a527-21e2d39a544f))
  (model "D:/Users/Enforcer83/Documents/Repos/Library/KiCAD/3D Models/IPC_HDR.3dshapes/929834-01-13-RK.STEP"
    (offset (xyz 15.24 0 0))
    (scale (xyz 1 1 1))
    (rotate (xyz 180 0 0))
  )
)
