(module HDRV2W64P254_2X1_508X254H834 (layer F.Cu) (tedit 0)
  (descr "Header, Vertical Non-Shrouded, 2.54 mm pitch; 0.64 mm lead width, 2 pin, 1 row, 5.08 mm L X 2.54 mm W X 8.34 mm H body")
  (fp_text user %R (at 1.27 0) (layer F.Fab)
    (effects (font (size 2 2) (thickness 0.2)))
  )
  (fp_text reference REF** (at 1.27 0) (layer F.SilkS)
    (effects (font (size 1.2 1.2) (thickness 0.12)))
  )
  (fp_line (start -0.32 0.32) (end -0.32 -0.32) (layer Dwgs.User) (width 0.025))
  (fp_line (start -0.32 -0.32) (end 0.32 -0.32) (layer Dwgs.User) (width 0.025))
  (fp_line (start 0.32 -0.32) (end 0.32 0.32) (layer Dwgs.User) (width 0.025))
  (fp_line (start 0.32 0.32) (end -0.32 0.32) (layer Dwgs.User) (width 0.025))
  (fp_line (start 2.22 0.32) (end 2.22 -0.32) (layer Dwgs.User) (width 0.025))
  (fp_line (start 2.22 -0.32) (end 2.86 -0.32) (layer Dwgs.User) (width 0.025))
  (fp_line (start 2.86 -0.32) (end 2.86 0.32) (layer Dwgs.User) (width 0.025))
  (fp_line (start 2.86 0.32) (end 2.22 0.32) (layer Dwgs.User) (width 0.025))
  (fp_line (start -1.27 1.27) (end -1.27 -1.27) (layer Dwgs.User) (width 0.025))
  (fp_line (start -1.27 -1.27) (end 3.81 -1.27) (layer Dwgs.User) (width 0.025))
  (fp_line (start 3.81 -1.27) (end 3.81 1.27) (layer Dwgs.User) (width 0.025))
  (fp_line (start 3.81 1.27) (end -1.27 1.27) (layer Dwgs.User) (width 0.025))
  (fp_line (start -1.27 1.27) (end -1.27 -1.27) (layer Dwgs.User) (width 0.025))
  (fp_line (start -1.27 -1.27) (end 3.81 -1.27) (layer Dwgs.User) (width 0.025))
  (fp_line (start 3.81 -1.27) (end 3.81 1.27) (layer Dwgs.User) (width 0.025))
  (fp_line (start 3.81 1.27) (end -1.27 1.27) (layer Dwgs.User) (width 0.025))
  (fp_line (start -1.27 1.27) (end -1.27 -1.27) (layer F.SilkS) (width 0.12))
  (fp_line (start -1.27 -1.27) (end 3.81 -1.27) (layer F.SilkS) (width 0.12))
  (fp_line (start 3.81 -1.27) (end 3.81 1.27) (layer F.SilkS) (width 0.12))
  (fp_line (start 3.81 1.27) (end -1.27 1.27) (layer F.SilkS) (width 0.12))
  (fp_circle (center -1.7 0) (end -1.7 0.125) (layer F.SilkS) (width 0.25))
  (fp_line (start -1.52 1.52) (end -1.52 -1.52) (layer F.CrtYd) (width 0.05))
  (fp_line (start -1.52 -1.52) (end 4.06 -1.52) (layer F.CrtYd) (width 0.05))
  (fp_line (start 4.06 -1.52) (end 4.06 1.52) (layer F.CrtYd) (width 0.05))
  (fp_line (start 4.06 1.52) (end -1.52 1.52) (layer F.CrtYd) (width 0.05))
  (fp_circle (center 0 0) (end 0 0.25) (layer F.CrtYd) (width 0.05))
  (fp_line (start 0.35 0) (end -0.35 0) (layer F.CrtYd) (width 0.05))
  (fp_line (start 0 -0.35) (end 0 0.35) (layer F.CrtYd) (width 0.05))
  (fp_line (start -1.27 1.27) (end -1.27 -0.423) (layer F.Fab) (width 0.12))
  (fp_line (start -1.27 -0.423) (end -0.423 -1.27) (layer F.Fab) (width 0.12))
  (fp_line (start -0.423 -1.27) (end 3.81 -1.27) (layer F.Fab) (width 0.12))
  (fp_line (start 3.81 -1.27) (end 3.81 1.27) (layer F.Fab) (width 0.12))
  (fp_line (start 3.81 1.27) (end -1.27 1.27) (layer F.Fab) (width 0.12))
  (pad 1 thru_hole rect (at 0 0) (size 1.58 1.58) (drill 1.05) (layers *.Cu *.Mask))
  (pad 2 thru_hole circle (at 2.54 0) (size 1.58 1.58) (drill 1.05) (layers *.Cu *.Mask))
)
