(module RHDRV12W75P254_12X1_3098X254H850 locked (layer F.Cu) (tedit 5C9E9758)
  (descr "Header, Vertical Receptacle, 2.54 mm pitch; 0.75 mm lead width, 12 pins, 1 row, 12 pins per row, 30.98 mm L X 2.54 mm W X 8.50 mm H body")
  (fp_text reference J1 (at 0 0) (layer F.SilkS)
    (effects (font (size 1.2 1.2) (thickness 0.12)))
  )
  (fp_text value PPTC121LFBN-RC (at 0 0) (layer F.Fab) hide
    (effects (font (size 1.2 1.2) (thickness 0.12)))
  )
  (fp_text user %R (at 0 0) (layer F.Fab)
    (effects (font (size 2 2) (thickness 0.2)))
  )
  (fp_line (start -14.345 0.375) (end -14.345 -0.375) (layer Dwgs.User) (width 0.025))
  (fp_line (start -14.345 -0.375) (end -13.595 -0.375) (layer Dwgs.User) (width 0.025))
  (fp_line (start -13.595 -0.375) (end -13.595 0.375) (layer Dwgs.User) (width 0.025))
  (fp_line (start -13.595 0.375) (end -14.345 0.375) (layer Dwgs.User) (width 0.025))
  (fp_line (start -11.805 0.375) (end -11.805 -0.375) (layer Dwgs.User) (width 0.025))
  (fp_line (start -11.805 -0.375) (end -11.055 -0.375) (layer Dwgs.User) (width 0.025))
  (fp_line (start -11.055 -0.375) (end -11.055 0.375) (layer Dwgs.User) (width 0.025))
  (fp_line (start -11.055 0.375) (end -11.805 0.375) (layer Dwgs.User) (width 0.025))
  (fp_line (start -9.265 0.375) (end -9.265 -0.375) (layer Dwgs.User) (width 0.025))
  (fp_line (start -9.265 -0.375) (end -8.515 -0.375) (layer Dwgs.User) (width 0.025))
  (fp_line (start -8.515 -0.375) (end -8.515 0.375) (layer Dwgs.User) (width 0.025))
  (fp_line (start -8.515 0.375) (end -9.265 0.375) (layer Dwgs.User) (width 0.025))
  (fp_line (start -6.725 0.375) (end -6.725 -0.375) (layer Dwgs.User) (width 0.025))
  (fp_line (start -6.725 -0.375) (end -5.975 -0.375) (layer Dwgs.User) (width 0.025))
  (fp_line (start -5.975 -0.375) (end -5.975 0.375) (layer Dwgs.User) (width 0.025))
  (fp_line (start -5.975 0.375) (end -6.725 0.375) (layer Dwgs.User) (width 0.025))
  (fp_line (start -4.185 0.375) (end -4.185 -0.375) (layer Dwgs.User) (width 0.025))
  (fp_line (start -4.185 -0.375) (end -3.435 -0.375) (layer Dwgs.User) (width 0.025))
  (fp_line (start -3.435 -0.375) (end -3.435 0.375) (layer Dwgs.User) (width 0.025))
  (fp_line (start -3.435 0.375) (end -4.185 0.375) (layer Dwgs.User) (width 0.025))
  (fp_line (start -1.645 0.375) (end -1.645 -0.375) (layer Dwgs.User) (width 0.025))
  (fp_line (start -1.645 -0.375) (end -0.895 -0.375) (layer Dwgs.User) (width 0.025))
  (fp_line (start -0.895 -0.375) (end -0.895 0.375) (layer Dwgs.User) (width 0.025))
  (fp_line (start -0.895 0.375) (end -1.645 0.375) (layer Dwgs.User) (width 0.025))
  (fp_line (start 0.895 0.375) (end 0.895 -0.375) (layer Dwgs.User) (width 0.025))
  (fp_line (start 0.895 -0.375) (end 1.645 -0.375) (layer Dwgs.User) (width 0.025))
  (fp_line (start 1.645 -0.375) (end 1.645 0.375) (layer Dwgs.User) (width 0.025))
  (fp_line (start 1.645 0.375) (end 0.895 0.375) (layer Dwgs.User) (width 0.025))
  (fp_line (start 3.435 0.375) (end 3.435 -0.375) (layer Dwgs.User) (width 0.025))
  (fp_line (start 3.435 -0.375) (end 4.185 -0.375) (layer Dwgs.User) (width 0.025))
  (fp_line (start 4.185 -0.375) (end 4.185 0.375) (layer Dwgs.User) (width 0.025))
  (fp_line (start 4.185 0.375) (end 3.435 0.375) (layer Dwgs.User) (width 0.025))
  (fp_line (start 5.975 0.375) (end 5.975 -0.375) (layer Dwgs.User) (width 0.025))
  (fp_line (start 5.975 -0.375) (end 6.725 -0.375) (layer Dwgs.User) (width 0.025))
  (fp_line (start 6.725 -0.375) (end 6.725 0.375) (layer Dwgs.User) (width 0.025))
  (fp_line (start 6.725 0.375) (end 5.975 0.375) (layer Dwgs.User) (width 0.025))
  (fp_line (start 8.515 0.375) (end 8.515 -0.375) (layer Dwgs.User) (width 0.025))
  (fp_line (start 8.515 -0.375) (end 9.265 -0.375) (layer Dwgs.User) (width 0.025))
  (fp_line (start 9.265 -0.375) (end 9.265 0.375) (layer Dwgs.User) (width 0.025))
  (fp_line (start 9.265 0.375) (end 8.515 0.375) (layer Dwgs.User) (width 0.025))
  (fp_line (start 11.055 0.375) (end 11.055 -0.375) (layer Dwgs.User) (width 0.025))
  (fp_line (start 11.055 -0.375) (end 11.805 -0.375) (layer Dwgs.User) (width 0.025))
  (fp_line (start 11.805 -0.375) (end 11.805 0.375) (layer Dwgs.User) (width 0.025))
  (fp_line (start 11.805 0.375) (end 11.055 0.375) (layer Dwgs.User) (width 0.025))
  (fp_line (start 13.595 0.375) (end 13.595 -0.375) (layer Dwgs.User) (width 0.025))
  (fp_line (start 13.595 -0.375) (end 14.345 -0.375) (layer Dwgs.User) (width 0.025))
  (fp_line (start 14.345 -0.375) (end 14.345 0.375) (layer Dwgs.User) (width 0.025))
  (fp_line (start 14.345 0.375) (end 13.595 0.375) (layer Dwgs.User) (width 0.025))
  (fp_line (start -15.49 1.27) (end -15.49 -1.27) (layer Dwgs.User) (width 0.025))
  (fp_line (start -15.49 -1.27) (end 15.49 -1.27) (layer Dwgs.User) (width 0.025))
  (fp_line (start 15.49 -1.27) (end 15.49 1.27) (layer Dwgs.User) (width 0.025))
  (fp_line (start 15.49 1.27) (end -15.49 1.27) (layer Dwgs.User) (width 0.025))
  (fp_line (start -15.49 1.27) (end -15.49 -1.27) (layer F.SilkS) (width 0.12))
  (fp_line (start -15.49 -1.27) (end 15.49 -1.27) (layer F.SilkS) (width 0.12))
  (fp_line (start 15.49 -1.27) (end 15.49 1.27) (layer F.SilkS) (width 0.12))
  (fp_line (start 15.49 1.27) (end -15.49 1.27) (layer F.SilkS) (width 0.12))
  (fp_line (start -15.74 1.52) (end -15.74 -1.52) (layer F.CrtYd) (width 0.05))
  (fp_line (start -15.74 -1.52) (end 15.74 -1.52) (layer F.CrtYd) (width 0.05))
  (fp_line (start 15.74 -1.52) (end 15.74 1.52) (layer F.CrtYd) (width 0.05))
  (fp_line (start 15.74 1.52) (end -15.74 1.52) (layer F.CrtYd) (width 0.05))
  (fp_circle (center 0 0) (end 0.25 0) (layer Dwgs.User) (width 0.05))
  (fp_line (start 0.35 0) (end -0.35 0) (layer Dwgs.User) (width 0.05))
  (fp_line (start 0 -0.35) (end 0 0.35) (layer Dwgs.User) (width 0.05))
  (fp_line (start -15.49 1.27) (end -15.49 -1.27) (layer F.Fab) (width 0.12))
  (fp_line (start -15.49 -1.27) (end 15.49 -1.27) (layer F.Fab) (width 0.12))
  (fp_line (start 15.49 -1.27) (end 15.49 1.27) (layer F.Fab) (width 0.12))
  (fp_line (start 15.49 1.27) (end -15.49 1.27) (layer F.Fab) (width 0.12))
  (pad 1 thru_hole rect (at -13.97 0) (size 1.82 1.82) (drill 1.21) (layers *.Cu *.Mask))
  (pad 2 thru_hole circle (at -11.43 0) (size 1.82 1.82) (drill 1.21) (layers *.Cu *.Mask))
  (pad 3 thru_hole circle (at -8.89 0) (size 1.82 1.82) (drill 1.21) (layers *.Cu *.Mask))
  (pad 4 thru_hole circle (at -6.35 0) (size 1.82 1.82) (drill 1.21) (layers *.Cu *.Mask))
  (pad 5 thru_hole circle (at -3.81 0) (size 1.82 1.82) (drill 1.21) (layers *.Cu *.Mask))
  (pad 6 thru_hole circle (at -1.27 0) (size 1.82 1.82) (drill 1.21) (layers *.Cu *.Mask))
  (pad 7 thru_hole circle (at 1.27 0) (size 1.82 1.82) (drill 1.21) (layers *.Cu *.Mask))
  (pad 8 thru_hole circle (at 3.81 0) (size 1.82 1.82) (drill 1.21) (layers *.Cu *.Mask))
  (pad 9 thru_hole circle (at 6.35 0) (size 1.82 1.82) (drill 1.21) (layers *.Cu *.Mask))
  (pad 10 thru_hole circle (at 8.89 0) (size 1.82 1.82) (drill 1.21) (layers *.Cu *.Mask))
  (pad 11 thru_hole circle (at 11.43 0) (size 1.82 1.82) (drill 1.21) (layers *.Cu *.Mask))
  (pad 12 thru_hole circle (at 13.97 0) (size 1.82 1.82) (drill 1.21) (layers *.Cu *.Mask))
)
