(module PheonixContact_MSTBA_1x02_P5.08_Horizontal (layer F.Cu) (tedit 5D32800B)
  (fp_text reference REF** (at 0 -3.5) (layer F.SilkS)
    (effects (font (size 1 1) (thickness 0.15)))
  )
  (fp_text value PheonixContact_MSTBA_1x02_P5.08_Horizontal (at 0 11.5) (layer F.Fab)
    (effects (font (size 1 1) (thickness 0.15)))
  )
  (fp_line (start -6.08 -2) (end -4.11 -2) (layer F.SilkS) (width 0.12))
  (fp_line (start -0.97 -2) (end 0.97 -2) (layer F.SilkS) (width 0.12))
  (fp_line (start 4.1 -2) (end 6.08 -2) (layer F.SilkS) (width 0.12))
  (fp_line (start 6.08 -2) (end 6.08 10) (layer F.SilkS) (width 0.12))
  (fp_line (start 6.08 10) (end -6.08 10) (layer F.SilkS) (width 0.12))
  (fp_line (start -6.08 10) (end -6.08 -2) (layer F.SilkS) (width 0.12))
  (pad 1 thru_hole circle (at -2.54 0) (size 4.508 4.508) (drill 2.8) (layers *.Cu *.Mask))
  (pad 2 thru_hole circle (at 2.54 0) (size 4.508 4.508) (drill 2.8) (layers *.Cu *.Mask))
)
