(module SODFL350X160X120L45X62N (layer F.Cu) (tedit 0)
  (descr "Diode, Small Outline Diode Flat Lead (SODFL); 2.60 mm L X 1.60 mm W X 1.20 mm H body")
  (attr smd)
  (fp_text user %R (at 0 0) (layer F.Fab)
    (effects (font (size 1.22 1.22) (thickness 0.12)))
  )
  (fp_text value VAL** (at 0 0) (layer F.Fab)
    (effects (font (size 1.2 1.2) (thickness 0.12)))
  )
  (fp_text reference REF** (at 0 0) (layer F.SilkS)
    (effects (font (size 1.2 1.2) (thickness 0.12)))
  )
  (fp_line (start -1.3 -0.3125) (end -1.3 0.3125) (layer Dwgs.User) (width 0.025))
  (fp_line (start -1.3 0.3125) (end -1.75 0.3125) (layer Dwgs.User) (width 0.025))
  (fp_line (start -1.75 0.3125) (end -1.75 -0.3125) (layer Dwgs.User) (width 0.025))
  (fp_line (start -1.75 -0.3125) (end -1.3 -0.3125) (layer Dwgs.User) (width 0.025))
  (fp_line (start 1.3 0.3125) (end 1.3 -0.3125) (layer Dwgs.User) (width 0.025))
  (fp_line (start 1.3 -0.3125) (end 1.75 -0.3125) (layer Dwgs.User) (width 0.025))
  (fp_line (start 1.75 -0.3125) (end 1.75 0.3125) (layer Dwgs.User) (width 0.025))
  (fp_line (start 1.75 0.3125) (end 1.3 0.3125) (layer Dwgs.User) (width 0.025))
  (fp_line (start -1.3 0.8) (end -1.3 -0.8) (layer Dwgs.User) (width 0.025))
  (fp_line (start -1.3 -0.8) (end 1.3 -0.8) (layer Dwgs.User) (width 0.025))
  (fp_line (start 1.3 -0.8) (end 1.3 0.8) (layer Dwgs.User) (width 0.025))
  (fp_line (start 1.3 0.8) (end -1.3 0.8) (layer Dwgs.User) (width 0.025))
  (fp_line (start -1.35 0.85) (end -1.35 -0.85) (layer F.Fab) (width 0.12))
  (fp_line (start -1.35 -0.85) (end 1.35 -0.85) (layer F.Fab) (width 0.12))
  (fp_line (start 1.35 -0.85) (end 1.35 0.85) (layer F.Fab) (width 0.12))
  (fp_line (start 1.35 0.85) (end -1.35 0.85) (layer F.Fab) (width 0.12))
  (fp_line (start -1.35 -0.55) (end -1.35 -0.85) (layer F.SilkS) (width 0.12))
  (fp_line (start 1.35 0.55) (end 1.35 0.85) (layer F.SilkS) (width 0.12))
  (fp_circle (center 0 0) (end 0 0.25) (layer F.CrtYd) (width 0.05))
  (fp_line (start 0.35 0) (end -0.35 0) (layer F.CrtYd) (width 0.05))
  (fp_line (start 0 -0.35) (end 0 0.35) (layer F.CrtYd) (width 0.05))
  (fp_line (start 1.35 0.85) (end -1.35 0.85) (layer F.SilkS) (width 0.12))
  (fp_line (start -1.35 0.85) (end -1.35 0.55) (layer F.SilkS) (width 0.12))
  (fp_line (start -1.35 -0.85) (end 1.35 -0.85) (layer F.SilkS) (width 0.12))
  (fp_line (start 1.35 -0.85) (end 1.35 -0.55) (layer F.SilkS) (width 0.12))
  (fp_line (start -1.5 1) (end 1.5 1) (layer F.CrtYd) (width 0.05))
  (fp_line (start 1.5 1) (end 1.5 0.52) (layer F.CrtYd) (width 0.05))
  (fp_line (start 1.5 0.52) (end 2.165 0.52) (layer F.CrtYd) (width 0.05))
  (fp_line (start 2.165 0.52) (end 2.165 -0.52) (layer F.CrtYd) (width 0.05))
  (fp_line (start 2.165 -0.52) (end 1.5 -0.52) (layer F.CrtYd) (width 0.05))
  (fp_line (start 1.5 -0.52) (end 1.5 -1) (layer F.CrtYd) (width 0.05))
  (fp_line (start 1.5 -1) (end -1.5 -1) (layer F.CrtYd) (width 0.05))
  (fp_line (start -1.5 -1) (end -1.5 -0.52) (layer F.CrtYd) (width 0.05))
  (fp_line (start -1.5 -0.52) (end -2.165 -0.52) (layer F.CrtYd) (width 0.05))
  (fp_line (start -2.165 -0.52) (end -2.165 0.52) (layer F.CrtYd) (width 0.05))
  (fp_line (start -2.165 0.52) (end -1.5 0.52) (layer F.CrtYd) (width 0.05))
  (fp_line (start -1.5 0.52) (end -1.5 1) (layer F.CrtYd) (width 0.05))
  (pad 1 smd roundrect (at -1.61 0) (size 0.81 0.74) (layers F.Cu F.Paste F.Mask) (roundrect_rratio 0.2568))
  (pad 2 smd roundrect (at 1.61 0) (size 0.81 0.74) (layers F.Cu F.Paste F.Mask) (roundrect_rratio 0.2568))
)
