(footprint "SODFL370X160X115L50X55N"
	(version 20240108)
	(generator "pcbnew")
	(generator_version "8.0")
	(layer "F.Cu")
	(property "Reference" "REF**"
		(at 0 -0.5 0)
		(unlocked yes)
		(layer "F.SilkS")
		(uuid "a3b70bc6-dcb2-4458-9da1-93ea7329aed7")
		(effects
			(font
				(size 1 1)
				(thickness 0.1)
			)
		)
	)
	(property "Value" "SODFL370X160X115L50X55N"
		(at 0 1 0)
		(unlocked yes)
		(layer "F.Fab")
		(uuid "a435dfc9-c73c-4fb5-a1f9-5febc251f010")
		(effects
			(font
				(size 1 1)
				(thickness 0.15)
			)
		)
	)
	(property "Footprint" ""
		(at 0 0 0)
		(unlocked yes)
		(layer "F.Fab")
		(hide yes)
		(uuid "12ef33c1-dc1c-4bda-92be-c3584de92e39")
		(effects
			(font
				(size 1 1)
				(thickness 0.15)
			)
		)
	)
	(property "Datasheet" ""
		(at 0 0 0)
		(unlocked yes)
		(layer "F.Fab")
		(hide yes)
		(uuid "54df63f1-e9a2-4ea7-b692-9103a5cfebf7")
		(effects
			(font
				(size 1 1)
				(thickness 0.15)
			)
		)
	)
	(property "Description" ""
		(at 0 0 0)
		(unlocked yes)
		(layer "F.Fab")
		(hide yes)
		(uuid "53c03eb4-ee45-4c0f-a94b-2f9369e70f60")
		(effects
			(font
				(size 1 1)
				(thickness 0.15)
			)
		)
	)
	(attr smd)
	(fp_line
		(start -1.35 -0.8)
		(end 1.35 -0.8)
		(stroke
			(width 0.1)
			(type default)
		)
		(layer "F.SilkS")
		(uuid "2dcb3a7b-2c53-4f49-a3a3-6aa1f3ee622c")
	)
	(fp_line
		(start -1.35 -0.55)
		(end -1.35 -0.8)
		(stroke
			(width 0.1)
			(type default)
		)
		(layer "F.SilkS")
		(uuid "453b2c78-e55f-4df1-af0f-3a84f2d3332d")
	)
	(fp_line
		(start -1.35 0.8)
		(end -1.35 0.55)
		(stroke
			(width 0.1)
			(type default)
		)
		(layer "F.SilkS")
		(uuid "ab2eb71a-7d2b-430d-af5b-04d7706b7f4a")
	)
	(fp_line
		(start -0.9 0.7)
		(end -0.9 -0.7)
		(stroke
			(width 0.1)
			(type default)
		)
		(layer "F.SilkS")
		(uuid "42bbe8fd-7a3d-4da0-a851-6852fb5b637e")
	)
	(fp_line
		(start -0.25 -0.25)
		(end -0.25 0.25)
		(stroke
			(width 0.1)
			(type default)
		)
		(layer "F.SilkS")
		(uuid "7d6a05ee-0130-4564-85f4-7b9973d1e2b7")
	)
	(fp_line
		(start -0.25 0)
		(end -0.5 0)
		(stroke
			(width 0.1)
			(type default)
		)
		(layer "F.SilkS")
		(uuid "79e76d48-3d5b-4760-9798-6490509908d7")
	)
	(fp_line
		(start -0.25 0)
		(end 0.25 -0.25)
		(stroke
			(width 0.1)
			(type default)
		)
		(layer "F.SilkS")
		(uuid "a72cb7a6-873b-47e7-a2ad-ff7e23553a6d")
	)
	(fp_line
		(start 0.25 -0.25)
		(end 0.25 0.25)
		(stroke
			(width 0.1)
			(type default)
		)
		(layer "F.SilkS")
		(uuid "e0db6e49-43c6-41cb-aff8-30fbaeff2600")
	)
	(fp_line
		(start 0.25 0)
		(end 0.5 0)
		(stroke
			(width 0.1)
			(type default)
		)
		(layer "F.SilkS")
		(uuid "6a318b77-5efd-4958-a507-2b99d9c92430")
	)
	(fp_line
		(start 0.25 0.25)
		(end -0.25 0)
		(stroke
			(width 0.1)
			(type default)
		)
		(layer "F.SilkS")
		(uuid "5d1bcea0-9205-44c8-ba16-e5ebfc515606")
	)
	(fp_line
		(start 1.35 -0.8)
		(end 1.35 -0.55)
		(stroke
			(width 0.1)
			(type default)
		)
		(layer "F.SilkS")
		(uuid "b0d34bde-4281-4ad8-96dd-80996073c9de")
	)
	(fp_line
		(start 1.35 0.55)
		(end 1.35 0.8)
		(stroke
			(width 0.1)
			(type default)
		)
		(layer "F.SilkS")
		(uuid "c129ab57-46d1-426a-9a85-88f2d1435730")
	)
	(fp_line
		(start 1.35 0.8)
		(end -1.35 0.8)
		(stroke
			(width 0.1)
			(type default)
		)
		(layer "F.SilkS")
		(uuid "1c39801a-baae-47ea-998a-fce9403e7c1f")
	)
	(fp_rect
		(start -1 -0.8)
		(end -0.8 0.8)
		(stroke
			(width 0.1)
			(type default)
		)
		(fill none)
		(layer "F.SilkS")
		(uuid "01a70a80-1841-4a45-b77f-e1a7861fc3f6")
	)
	(fp_rect
		(start -0.95 -0.75)
		(end -0.85 0.75)
		(stroke
			(width 0.1)
			(type default)
		)
		(fill none)
		(layer "F.SilkS")
		(uuid "da8a9474-c04d-4ddc-9daa-5ec65420216f")
	)
	(fp_line
		(start -2.325 -0.75)
		(end -2.325 0.75)
		(stroke
			(width 0.05)
			(type default)
		)
		(layer "F.CrtYd")
		(uuid "e57e0012-e4e4-448a-b036-61cc3f033188")
	)
	(fp_line
		(start -1.6 -1.05)
		(end -1.6 -0.75)
		(stroke
			(width 0.05)
			(type default)
		)
		(layer "F.CrtYd")
		(uuid "c6e2a3b3-9fac-4176-866a-02f75e407280")
	)
	(fp_line
		(start -1.6 -0.75)
		(end -2.325 -0.75)
		(stroke
			(width 0.05)
			(type default)
		)
		(layer "F.CrtYd")
		(uuid "334a4377-8322-4561-b439-8b018b9e1b5d")
	)
	(fp_line
		(start -1.6 0.75)
		(end -2.325 0.75)
		(stroke
			(width 0.05)
			(type default)
		)
		(layer "F.CrtYd")
		(uuid "1a641fec-1932-465b-9761-4afa05c17e78")
	)
	(fp_line
		(start -1.6 0.75)
		(end -1.6 1.05)
		(stroke
			(width 0.05)
			(type default)
		)
		(layer "F.CrtYd")
		(uuid "9d3ab154-62ef-4883-8a65-75bd12fb5c70")
	)
	(fp_line
		(start 1.6 -1.05)
		(end -1.6 -1.05)
		(stroke
			(width 0.05)
			(type default)
		)
		(layer "F.CrtYd")
		(uuid "41d7549e-16ab-4deb-8acb-c93343309380")
	)
	(fp_line
		(start 1.6 -1.05)
		(end 1.6 -0.75)
		(stroke
			(width 0.05)
			(type default)
		)
		(layer "F.CrtYd")
		(uuid "874be3b1-1b94-4482-b027-d0ed74e8ee82")
	)
	(fp_line
		(start 1.6 0.75)
		(end 1.6 1.05)
		(stroke
			(width 0.05)
			(type default)
		)
		(layer "F.CrtYd")
		(uuid "1a339c8d-3842-4231-9214-1b8ed9a9e2e0")
	)
	(fp_line
		(start 1.6 1.05)
		(end -1.6 1.05)
		(stroke
			(width 0.05)
			(type default)
		)
		(layer "F.CrtYd")
		(uuid "83edc755-e776-4c7b-8ff8-aaeda750f977")
	)
	(fp_line
		(start 2.325 -0.75)
		(end 1.6 -0.75)
		(stroke
			(width 0.05)
			(type default)
		)
		(layer "F.CrtYd")
		(uuid "03b5cbe9-f9d0-4524-b61c-c0e1c6390646")
	)
	(fp_line
		(start 2.325 -0.75)
		(end 2.325 0.75)
		(stroke
			(width 0.05)
			(type default)
		)
		(layer "F.CrtYd")
		(uuid "b08d9a89-9b28-4ec8-994c-488a986190c2")
	)
	(fp_line
		(start 2.325 0.75)
		(end 1.6 0.75)
		(stroke
			(width 0.05)
			(type default)
		)
		(layer "F.CrtYd")
		(uuid "200c1e9d-011e-4551-8a76-4e223b41bc51")
	)
	(fp_line
		(start -0.5 0)
		(end -0.25 0)
		(stroke
			(width 0.1)
			(type default)
		)
		(layer "F.Fab")
		(uuid "66217864-e7ca-4cbe-8d89-34818fbab65a")
	)
	(fp_line
		(start -0.25 -0.25)
		(end -0.25 0.25)
		(stroke
			(width 0.1)
			(type default)
		)
		(layer "F.Fab")
		(uuid "a38f5e66-d96e-4175-9db9-60d73bd5e1b3")
	)
	(fp_line
		(start -0.25 0)
		(end 0.25 -0.25)
		(stroke
			(width 0.1)
			(type default)
		)
		(layer "F.Fab")
		(uuid "a4427960-60d8-41f8-ab70-082faf16e356")
	)
	(fp_line
		(start 0.25 -0.25)
		(end 0.25 0.25)
		(stroke
			(width 0.1)
			(type default)
		)
		(layer "F.Fab")
		(uuid "8d41cca1-81f7-4c0f-a0a9-1fb71af3bb8c")
	)
	(fp_line
		(start 0.25 0.25)
		(end -0.25 0)
		(stroke
			(width 0.1)
			(type default)
		)
		(layer "F.Fab")
		(uuid "c209f2ce-3211-4251-8347-588fb52cb155")
	)
	(fp_line
		(start 0.5 0)
		(end 0.25 0)
		(stroke
			(width 0.1)
			(type default)
		)
		(layer "F.Fab")
		(uuid "bbd73eda-be98-4891-a0df-f9d5eec49786")
	)
	(fp_rect
		(start -1.4 -0.85)
		(end 1.4 0.85)
		(stroke
			(width 0.1)
			(type default)
		)
		(fill none)
		(layer "F.Fab")
		(uuid "cc74047e-fc49-45c9-be8d-b5009ce8d0db")
	)
	(fp_text user "${REFERENCE}"
		(at 0 2.5 0)
		(unlocked yes)
		(layer "F.Fab")
		(uuid "0e89cc2b-9249-4063-8f0b-44093a6aebed")
		(effects
			(font
				(size 1 1)
				(thickness 0.15)
			)
		)
	)
	(pad "1" smd roundrect
		(at -1.675 0)
		(size 0.8 1)
		(layers "F.Cu" "F.Paste" "F.Mask")
		(roundrect_rratio 0.25)
		(thermal_bridge_angle 45)
		(uuid "0dc09805-7cb9-4916-9fa6-7da6cf3b6cb9")
	)
	(pad "2" smd roundrect
		(at 1.675 0)
		(size 0.8 1)
		(layers "F.Cu" "F.Paste" "F.Mask")
		(roundrect_rratio 0.25)
		(thermal_bridge_angle 45)
		(uuid "138f6531-a673-4439-a7a4-93a0c639ed89")
	)
)
