(module SODFL250X125X80L40X32N (layer F.Cu) (tedit 0)
  (descr "Diode, Small Outline Diode Flat Lead (SODFL); 1.70 mm L X 1.25 mm W X 0.80 mm H body")
  (attr smd)
  (fp_text user %R (at 0 0) (layer F.Fab)
    (effects (font (size 0.87 0.87) (thickness 0.09)))
  )
  (fp_text value VAL** (at 0 0) (layer F.Fab)
    (effects (font (size 1.2 1.2) (thickness 0.12)))
  )
  (fp_text reference REF** (at 0 0) (layer F.SilkS)
    (effects (font (size 1.2 1.2) (thickness 0.12)))
  )
  (fp_line (start -0.85 -0.1625) (end -0.85 0.1625) (layer Dwgs.User) (width 0.025))
  (fp_line (start -0.85 0.1625) (end -1.25 0.1625) (layer Dwgs.User) (width 0.025))
  (fp_line (start -1.25 0.1625) (end -1.25 -0.1625) (layer Dwgs.User) (width 0.025))
  (fp_line (start -1.25 -0.1625) (end -0.85 -0.1625) (layer Dwgs.User) (width 0.025))
  (fp_line (start 0.85 0.1625) (end 0.85 -0.1625) (layer Dwgs.User) (width 0.025))
  (fp_line (start 0.85 -0.1625) (end 1.25 -0.1625) (layer Dwgs.User) (width 0.025))
  (fp_line (start 1.25 -0.1625) (end 1.25 0.1625) (layer Dwgs.User) (width 0.025))
  (fp_line (start 1.25 0.1625) (end 0.85 0.1625) (layer Dwgs.User) (width 0.025))
  (fp_line (start -0.85 0.625) (end -0.85 -0.625) (layer Dwgs.User) (width 0.025))
  (fp_line (start -0.85 -0.625) (end 0.85 -0.625) (layer Dwgs.User) (width 0.025))
  (fp_line (start 0.85 -0.625) (end 0.85 0.625) (layer Dwgs.User) (width 0.025))
  (fp_line (start 0.85 0.625) (end -0.85 0.625) (layer Dwgs.User) (width 0.025))
  (fp_line (start -0.9 0.68) (end -0.9 -0.68) (layer F.Fab) (width 0.12))
  (fp_line (start -0.9 -0.68) (end 0.9 -0.68) (layer F.Fab) (width 0.12))
  (fp_line (start 0.9 -0.68) (end 0.9 0.68) (layer F.Fab) (width 0.12))
  (fp_line (start 0.9 0.68) (end -0.9 0.68) (layer F.Fab) (width 0.12))
  (fp_line (start -0.9 -0.4) (end -0.9 -0.68) (layer F.SilkS) (width 0.12))
  (fp_line (start 0.9 0.4) (end 0.9 0.68) (layer F.SilkS) (width 0.12))
  (fp_circle (center 0 0) (end 0 0.25) (layer F.CrtYd) (width 0.05))
  (fp_line (start 0.35 0) (end -0.35 0) (layer F.CrtYd) (width 0.05))
  (fp_line (start 0 -0.35) (end 0 0.35) (layer F.CrtYd) (width 0.05))
  (fp_line (start 0.9 0.68) (end -0.9 0.68) (layer F.SilkS) (width 0.12))
  (fp_line (start -0.9 0.68) (end -0.9 0.4) (layer F.SilkS) (width 0.12))
  (fp_line (start -0.9 -0.68) (end 0.9 -0.68) (layer F.SilkS) (width 0.12))
  (fp_line (start 0.9 -0.68) (end 0.9 -0.4) (layer F.SilkS) (width 0.12))
  (fp_line (start -1.05 0.83) (end 1.05 0.83) (layer F.CrtYd) (width 0.05))
  (fp_line (start 1.05 0.83) (end 1.05 0.37) (layer F.CrtYd) (width 0.05))
  (fp_line (start 1.05 0.37) (end 1.71 0.37) (layer F.CrtYd) (width 0.05))
  (fp_line (start 1.71 0.37) (end 1.71 -0.37) (layer F.CrtYd) (width 0.05))
  (fp_line (start 1.71 -0.37) (end 1.05 -0.37) (layer F.CrtYd) (width 0.05))
  (fp_line (start 1.05 -0.37) (end 1.05 -0.83) (layer F.CrtYd) (width 0.05))
  (fp_line (start 1.05 -0.83) (end -1.05 -0.83) (layer F.CrtYd) (width 0.05))
  (fp_line (start -1.05 -0.83) (end -1.05 -0.37) (layer F.CrtYd) (width 0.05))
  (fp_line (start -1.05 -0.37) (end -1.71 -0.37) (layer F.CrtYd) (width 0.05))
  (fp_line (start -1.71 -0.37) (end -1.71 0.37) (layer F.CrtYd) (width 0.05))
  (fp_line (start -1.71 0.37) (end -1.05 0.37) (layer F.CrtYd) (width 0.05))
  (fp_line (start -1.05 0.37) (end -1.05 0.83) (layer F.CrtYd) (width 0.05))
  (pad 1 smd roundrect (at -1.14 0) (size 0.84 0.44) (layers F.Cu F.Paste F.Mask) (roundrect_rratio 0.25))
  (pad 2 smd roundrect (at 1.14 0) (size 0.84 0.44) (layers F.Cu F.Paste F.Mask) (roundrect_rratio 0.25))
)
