(module RESAD1000W55L680D260 (layer F.Cu) (tedit 0)
  (descr "Resistor, Axial; 10.00 mm pitch X 0.55 mm W 6.80 mm L X 2.60 mm dia. body")
  (fp_text user %R (at 0 0) (layer F.Fab)
    (effects (font (size 2 2) (thickness 0.2)))
  )
  (fp_text reference REF** (at 0 0) (layer F.SilkS)
    (effects (font (size 1.2 1.2) (thickness 0.12)))
  )
  (fp_circle (center -5 0) (end -5 0.3) (layer Dwgs.User) (width 0.025))
  (fp_circle (center 5 0) (end 5 0.3) (layer Dwgs.User) (width 0.025))
  (fp_line (start -3.4 1.3) (end -3.4 -1.3) (layer Dwgs.User) (width 0.025))
  (fp_line (start -3.4 -1.3) (end 3.4 -1.3) (layer Dwgs.User) (width 0.025))
  (fp_line (start 3.4 -1.3) (end 3.4 1.3) (layer Dwgs.User) (width 0.025))
  (fp_line (start 3.4 1.3) (end -3.4 1.3) (layer Dwgs.User) (width 0.025))
  (fp_line (start -3.4 1.3) (end -3.4 -1.3) (layer F.Fab) (width 0.12))
  (fp_line (start -3.4 -1.3) (end 3.4 -1.3) (layer F.Fab) (width 0.12))
  (fp_line (start 3.4 -1.3) (end 3.4 1.3) (layer F.Fab) (width 0.12))
  (fp_line (start 3.4 1.3) (end -3.4 1.3) (layer F.Fab) (width 0.12))
  (fp_line (start -5 0) (end -3.4 0) (layer F.Fab) (width 0.12))
  (fp_line (start 5 0) (end 3.4 0) (layer F.Fab) (width 0.12))
  (fp_line (start -3.4 1.3) (end -3.4 -1.3) (layer F.SilkS) (width 0.12))
  (fp_line (start -3.4 -1.3) (end 3.4 -1.3) (layer F.SilkS) (width 0.12))
  (fp_line (start 3.4 -1.3) (end 3.4 1.3) (layer F.SilkS) (width 0.12))
  (fp_line (start 3.4 1.3) (end -3.4 1.3) (layer F.SilkS) (width 0.12))
  (fp_line (start 4.22 0) (end 3.4 0) (layer F.SilkS) (width 0.12))
  (fp_line (start -4.22 0) (end -3.4 0) (layer F.SilkS) (width 0.12))
  (fp_circle (center 0 0) (end 0 0.25) (layer F.CrtYd) (width 0.05))
  (fp_line (start 0.35 0) (end -0.35 0) (layer F.CrtYd) (width 0.05))
  (fp_line (start 0 -0.35) (end 0 0.35) (layer F.CrtYd) (width 0.05))
  (fp_line (start -3.65 1.55) (end 3.65 1.55) (layer F.CrtYd) (width 0.05))
  (fp_line (start 3.65 1.55) (end 3.65 0.85) (layer F.CrtYd) (width 0.05))
  (fp_line (start 3.65 0.85) (end 5.85 0.85) (layer F.CrtYd) (width 0.05))
  (fp_line (start 5.85 0.85) (end 5.85 -0.85) (layer F.CrtYd) (width 0.05))
  (fp_line (start 5.85 -0.85) (end 3.65 -0.85) (layer F.CrtYd) (width 0.05))
  (fp_line (start 3.65 -0.85) (end 3.65 -1.55) (layer F.CrtYd) (width 0.05))
  (fp_line (start 3.65 -1.55) (end -3.65 -1.55) (layer F.CrtYd) (width 0.05))
  (fp_line (start -3.65 -1.55) (end -3.65 -0.85) (layer F.CrtYd) (width 0.05))
  (fp_line (start -3.65 -0.85) (end -5.85 -0.85) (layer F.CrtYd) (width 0.05))
  (fp_line (start -5.85 -0.85) (end -5.85 0.85) (layer F.CrtYd) (width 0.05))
  (fp_line (start -5.85 0.85) (end -3.65 0.85) (layer F.CrtYd) (width 0.05))
  (fp_line (start -3.65 0.85) (end -3.65 1.55) (layer F.CrtYd) (width 0.05))
  (pad 1 thru_hole circle (at -5 0) (size 1.2 1.2) (drill 0.8) (layers *.Cu *.Mask))
  (pad 2 thru_hole circle (at 5 0) (size 1.2 1.2) (drill 0.8) (layers *.Cu *.Mask))
)
