(footprint "RESAD1016W55L680D260" (version 20221018) (generator pcbnew)
  (layer "F.Cu")
  (descr "Resistor, Axial; 10.16 mm pitch X 0.55 mm W 6.80 mm L X 2.60 mm dia. body")
  (attr through_hole)
  (fp_text reference "REF**" (at 0 0) (layer "F.SilkS")
      (effects (font (size 1.2 1.2) (thickness 0.12)))
    (tstamp 7a0a81ac-9216-41ba-adf6-23dcfdf84133)
  )
  (fp_text value "Val**" (at 0 0) (layer "F.SilkS")
      (effects (font (size 1.27 1.27) (thickness 0.15)))
    (tstamp 7f09a3ce-6bad-456c-a5b4-81ef880e0e23)
  )
  (fp_text user "${REFERENCE}" (at 0 0) (layer "F.Fab")
      (effects (font (size 2 2) (thickness 0.2)))
    (tstamp 38e29494-ef24-4dc8-bc43-eba5b65cf528)
  )
  (fp_line (start -4.3 0) (end -3.4 0)
    (stroke (width 0.12) (type solid)) (layer "F.SilkS") (tstamp 3b62639b-e942-4c29-91c9-6deb583064df))
  (fp_line (start -3.4 -1.3) (end 3.4 -1.3)
    (stroke (width 0.12) (type solid)) (layer "F.SilkS") (tstamp 51ba3030-2afb-4ce1-908b-40eab17a9cf0))
  (fp_line (start -3.4 1.3) (end -3.4 -1.3)
    (stroke (width 0.12) (type solid)) (layer "F.SilkS") (tstamp 32282755-e4a3-49dc-9332-26a2e5695424))
  (fp_line (start 3.4 -1.3) (end 3.4 1.3)
    (stroke (width 0.12) (type solid)) (layer "F.SilkS") (tstamp 10cfe1cb-3108-4af3-b195-1fdd75d152c4))
  (fp_line (start 3.4 1.3) (end -3.4 1.3)
    (stroke (width 0.12) (type solid)) (layer "F.SilkS") (tstamp 1425e56d-cb65-4159-81c1-04ad35bd2592))
  (fp_line (start 4.3 0) (end 3.4 0)
    (stroke (width 0.12) (type solid)) (layer "F.SilkS") (tstamp e525ff02-2812-4b30-bfcb-0887a543b14d))
  (fp_line (start -3.4 -1.3) (end 3.4 -1.3)
    (stroke (width 0.025) (type solid)) (layer "Dwgs.User") (tstamp baef6b5a-4c75-41b8-82f3-b3a7f535e707))
  (fp_line (start -3.4 1.3) (end -3.4 -1.3)
    (stroke (width 0.025) (type solid)) (layer "Dwgs.User") (tstamp 7690b2eb-db38-46a6-b217-f551397818c7))
  (fp_line (start 3.4 -1.3) (end 3.4 1.3)
    (stroke (width 0.025) (type solid)) (layer "Dwgs.User") (tstamp 85d753dc-1c0e-4056-830a-99501ee251fd))
  (fp_line (start 3.4 1.3) (end -3.4 1.3)
    (stroke (width 0.025) (type solid)) (layer "Dwgs.User") (tstamp 17123e36-515a-42b7-854f-286daccc13dd))
  (fp_circle (center -5.08 0) (end -5.08 0.3)
    (stroke (width 0.025) (type solid)) (fill none) (layer "Dwgs.User") (tstamp eb794819-128e-4bfa-9df9-749766b6fc23))
  (fp_circle (center 5.08 0) (end 5.08 0.3)
    (stroke (width 0.025) (type solid)) (fill none) (layer "Dwgs.User") (tstamp eb31aeb0-73ee-40fc-bedf-beb82150d993))
  (fp_line (start -5.93 -0.85) (end -5.93 0.85)
    (stroke (width 0.05) (type solid)) (layer "F.CrtYd") (tstamp c96c84cd-49a2-4a0f-85f6-d452a0a93308))
  (fp_line (start -5.93 0.85) (end -3.65 0.85)
    (stroke (width 0.05) (type solid)) (layer "F.CrtYd") (tstamp 0f68de58-9c1a-4186-82ad-dda4c567179a))
  (fp_line (start -3.65 -1.55) (end -3.65 -0.85)
    (stroke (width 0.05) (type solid)) (layer "F.CrtYd") (tstamp d114f033-898d-4a55-a2af-b99836931f51))
  (fp_line (start -3.65 -0.85) (end -5.93 -0.85)
    (stroke (width 0.05) (type solid)) (layer "F.CrtYd") (tstamp e8b24245-ac01-417b-831c-a7a2f4d9bdf8))
  (fp_line (start -3.65 0.85) (end -3.65 1.55)
    (stroke (width 0.05) (type solid)) (layer "F.CrtYd") (tstamp 38dacdbb-4c5d-4dd5-abe1-897adbcc9f55))
  (fp_line (start -3.65 1.55) (end 3.65 1.55)
    (stroke (width 0.05) (type solid)) (layer "F.CrtYd") (tstamp 0a913a56-5709-40c0-bd21-c86038abe350))
  (fp_line (start 0 -0.35) (end 0 0.35)
    (stroke (width 0.05) (type solid)) (layer "F.CrtYd") (tstamp 50745f96-94ab-4739-8491-28a5e547c6e2))
  (fp_line (start 0.35 0) (end -0.35 0)
    (stroke (width 0.05) (type solid)) (layer "F.CrtYd") (tstamp 37def2fa-0bc5-4f08-9d5c-750562d7ef23))
  (fp_line (start 3.65 -1.55) (end -3.65 -1.55)
    (stroke (width 0.05) (type solid)) (layer "F.CrtYd") (tstamp 52a1805a-773b-48bd-9fbf-5fefc8b378aa))
  (fp_line (start 3.65 -0.85) (end 3.65 -1.55)
    (stroke (width 0.05) (type solid)) (layer "F.CrtYd") (tstamp 0064cec0-d8b4-49f0-9a90-c4e332d96341))
  (fp_line (start 3.65 0.85) (end 5.93 0.85)
    (stroke (width 0.05) (type solid)) (layer "F.CrtYd") (tstamp 19d01534-7d6c-495d-b734-4461d0225f13))
  (fp_line (start 3.65 1.55) (end 3.65 0.85)
    (stroke (width 0.05) (type solid)) (layer "F.CrtYd") (tstamp b2d772ce-d31a-44bf-a832-65df3e6d7bc5))
  (fp_line (start 5.93 -0.85) (end 3.65 -0.85)
    (stroke (width 0.05) (type solid)) (layer "F.CrtYd") (tstamp 37dae7cd-6a60-46be-8f3a-dfc714915ea0))
  (fp_line (start 5.93 0.85) (end 5.93 -0.85)
    (stroke (width 0.05) (type solid)) (layer "F.CrtYd") (tstamp 39fb3dc8-b644-4041-bd0a-0d2615671872))
  (fp_circle (center 0 0) (end 0 0.25)
    (stroke (width 0.05) (type solid)) (fill none) (layer "F.CrtYd") (tstamp 929c6835-2bd6-40b0-80a4-762c3a9b7e7b))
  (fp_line (start -5.08 0) (end -3.4 0)
    (stroke (width 0.12) (type solid)) (layer "F.Fab") (tstamp 11e1f99e-a4aa-42c3-b37a-31d43013e797))
  (fp_line (start -3.4 -1.3) (end 3.4 -1.3)
    (stroke (width 0.12) (type solid)) (layer "F.Fab") (tstamp 7de8b1a3-ba95-46da-9acf-fd5f4268318a))
  (fp_line (start -3.4 1.3) (end -3.4 -1.3)
    (stroke (width 0.12) (type solid)) (layer "F.Fab") (tstamp f48c77cd-cff0-45a5-8b37-9a15b755df69))
  (fp_line (start 3.4 -1.3) (end 3.4 1.3)
    (stroke (width 0.12) (type solid)) (layer "F.Fab") (tstamp 12f8bb2b-ad7b-437e-bf04-7737ef6a8cfe))
  (fp_line (start 3.4 1.3) (end -3.4 1.3)
    (stroke (width 0.12) (type solid)) (layer "F.Fab") (tstamp 3ea73240-446f-45fd-9f15-9f825c26df24))
  (fp_line (start 5.08 0) (end 3.4 0)
    (stroke (width 0.12) (type solid)) (layer "F.Fab") (tstamp 60729fa9-6fb8-4cb2-9afd-382c53d5f49e))
  (pad "1" thru_hole circle (at -5.08 0) (size 1.2 1.2) (drill 0.8) (layers "*.Cu" "*.Mask") (tstamp a0599a33-c717-4d7c-8cab-bc52853726a6))
  (pad "2" thru_hole circle (at 5.08 0) (size 1.2 1.2) (drill 0.8) (layers "*.Cu" "*.Mask") (tstamp b45540ab-a03e-419c-a7f0-5effe91ecc92))
  (model "${KICAD7_3DMODEL_DIR}/Resistor_THT.3dshapes/R_Axial_DIN0207_L6.3mm_D2.5mm_P10.16mm_Horizontal.step"
    (offset (xyz -5.08 0 0))
    (scale (xyz 1 1 1))
    (rotate (xyz 0 0 0))
  )
)
