(module RESC200X125X55L40N (layer F.Cu) (tedit 0)
  (descr "Resistor, Chip; 2.00 mm L X 1.25 mm W X 0.55 mm H body")
  (attr smd)
  (fp_text user %R (at 0 0) (layer F.Fab)
    (effects (font (size 0.92 0.92) (thickness 0.09)))
  )
  (fp_text value VAL** (at 0 0) (layer F.Fab)
    (effects (font (size 1.2 1.2) (thickness 0.12)))
  )
  (fp_text reference REF** (at 0 0) (layer F.SilkS)
    (effects (font (size 1.2 1.2) (thickness 0.12)))
  )
  (fp_line (start -0.6 -0.625) (end -0.6 0.625) (layer Dwgs.User) (width 0.025))
  (fp_line (start -0.6 0.625) (end -1 0.625) (layer Dwgs.User) (width 0.025))
  (fp_line (start -1 0.625) (end -1 -0.625) (layer Dwgs.User) (width 0.025))
  (fp_line (start -1 -0.625) (end -0.6 -0.625) (layer Dwgs.User) (width 0.025))
  (fp_line (start 0.6 0.625) (end 0.6 -0.625) (layer Dwgs.User) (width 0.025))
  (fp_line (start 0.6 -0.625) (end 1 -0.625) (layer Dwgs.User) (width 0.025))
  (fp_line (start 1 -0.625) (end 1 0.625) (layer Dwgs.User) (width 0.025))
  (fp_line (start 1 0.625) (end 0.6 0.625) (layer Dwgs.User) (width 0.025))
  (fp_line (start -1 0.625) (end -1 -0.625) (layer Dwgs.User) (width 0.025))
  (fp_line (start -1 -0.625) (end 1 -0.625) (layer Dwgs.User) (width 0.025))
  (fp_line (start 1 -0.625) (end 1 0.625) (layer Dwgs.User) (width 0.025))
  (fp_line (start 1 0.625) (end -1 0.625) (layer Dwgs.User) (width 0.025))
  (fp_line (start -1.05 0.7) (end -1.05 -0.7) (layer F.Fab) (width 0.12))
  (fp_line (start -1.05 -0.7) (end 1.05 -0.7) (layer F.Fab) (width 0.12))
  (fp_line (start 1.05 -0.7) (end 1.05 0.7) (layer F.Fab) (width 0.12))
  (fp_line (start 1.05 0.7) (end -1.05 0.7) (layer F.Fab) (width 0.12))
  (fp_line (start -0.265 -0.7) (end 0.265 -0.7) (layer F.SilkS) (width 0.12))
  (fp_line (start -0.265 0.7) (end 0.265 0.7) (layer F.SilkS) (width 0.12))
  (fp_line (start -1.57 0.91) (end -1.57 -0.91) (layer F.CrtYd) (width 0.05))
  (fp_line (start -1.57 -0.91) (end 1.57 -0.91) (layer F.CrtYd) (width 0.05))
  (fp_line (start 1.57 -0.91) (end 1.57 0.91) (layer F.CrtYd) (width 0.05))
  (fp_line (start 1.57 0.91) (end -1.57 0.91) (layer F.CrtYd) (width 0.05))
  (fp_circle (center 0 0) (end 0 0.25) (layer F.CrtYd) (width 0.05))
  (fp_line (start 0.35 0) (end -0.35 0) (layer F.CrtYd) (width 0.05))
  (fp_line (start 0 -0.35) (end 0 0.35) (layer F.CrtYd) (width 0.05))
  (pad 1 smd roundrect (at -0.905 0) (size 0.92 1.42) (layers F.Cu F.Paste F.Mask) (roundrect_rratio 0.25))
  (pad 2 smd roundrect (at 0.905 0) (size 0.92 1.42) (layers F.Cu F.Paste F.Mask) (roundrect_rratio 0.25))
)
