(module RESC100X50X35L25N (layer F.Cu) (tedit 0)
  (descr "Resistor, Chip; 1.00 mm L X 0.50 mm W X 0.35 mm H body")
  (attr smd)
  (fp_text user %R (at 0 0) (layer F.Fab)
    (effects (font (size 0.5 0.5) (thickness 0.05)))
  )
  (fp_text value VAL** (at 0 0) (layer F.Fab)
    (effects (font (size 1.2 1.2) (thickness 0.12)))
  )
  (fp_text reference REF** (at 0 0) (layer F.SilkS)
    (effects (font (size 1.2 1.2) (thickness 0.12)))
  )
  (fp_line (start -0.25 -0.25) (end -0.25 0.25) (layer Dwgs.User) (width 0.025))
  (fp_line (start -0.25 0.25) (end -0.5 0.25) (layer Dwgs.User) (width 0.025))
  (fp_line (start -0.5 0.25) (end -0.5 -0.25) (layer Dwgs.User) (width 0.025))
  (fp_line (start -0.5 -0.25) (end -0.25 -0.25) (layer Dwgs.User) (width 0.025))
  (fp_line (start 0.25 0.25) (end 0.25 -0.25) (layer Dwgs.User) (width 0.025))
  (fp_line (start 0.25 -0.25) (end 0.5 -0.25) (layer Dwgs.User) (width 0.025))
  (fp_line (start 0.5 -0.25) (end 0.5 0.25) (layer Dwgs.User) (width 0.025))
  (fp_line (start 0.5 0.25) (end 0.25 0.25) (layer Dwgs.User) (width 0.025))
  (fp_line (start -0.5 0.25) (end -0.5 -0.25) (layer Dwgs.User) (width 0.025))
  (fp_line (start -0.5 -0.25) (end 0.5 -0.25) (layer Dwgs.User) (width 0.025))
  (fp_line (start 0.5 -0.25) (end 0.5 0.25) (layer Dwgs.User) (width 0.025))
  (fp_line (start 0.5 0.25) (end -0.5 0.25) (layer Dwgs.User) (width 0.025))
  (fp_line (start -0.55 0.28) (end -0.55 -0.28) (layer F.Fab) (width 0.12))
  (fp_line (start -0.55 -0.28) (end 0.55 -0.28) (layer F.Fab) (width 0.12))
  (fp_line (start 0.55 -0.28) (end 0.55 0.28) (layer F.Fab) (width 0.12))
  (fp_line (start 0.55 0.28) (end -0.55 0.28) (layer F.Fab) (width 0.12))
  (fp_line (start -0.92 0.44) (end -0.92 -0.44) (layer F.CrtYd) (width 0.05))
  (fp_line (start -0.92 -0.44) (end 0.92 -0.44) (layer F.CrtYd) (width 0.05))
  (fp_line (start 0.92 -0.44) (end 0.92 0.44) (layer F.CrtYd) (width 0.05))
  (fp_line (start 0.92 0.44) (end -0.92 0.44) (layer F.CrtYd) (width 0.05))
  (fp_circle (center 0 0) (end 0 0.165) (layer F.CrtYd) (width 0.05))
  (fp_line (start 0.22 0) (end -0.22 0) (layer F.CrtYd) (width 0.05))
  (fp_line (start 0 -0.22) (end 0 0.22) (layer F.CrtYd) (width 0.05))
  (pad 1 smd roundrect (at -0.45 0) (size 0.63 0.58) (layers F.Cu F.Paste F.Mask) (roundrect_rratio 0.2586))
  (pad 2 smd roundrect (at 0.45 0) (size 0.63 0.58) (layers F.Cu F.Paste F.Mask) (roundrect_rratio 0.2586))
)
