(footprint "SOP16P65_640X500X120L63X25T209X300N"
	(version 20240108)
	(generator "pcbnew")
	(generator_version "8.0")
	(layer "F.Cu")
	(property "Reference" "REF**"
		(at 0 -0.5 0)
		(unlocked yes)
		(layer "F.SilkS")
		(uuid "aa47fd03-2238-4de4-8218-59b55e2ef8f9")
		(effects
			(font
				(size 1 1)
				(thickness 0.1)
			)
		)
	)
	(property "Value" "SOP16P65_640X500X120L63X25T209X300N"
		(at 0 1 0)
		(unlocked yes)
		(layer "F.Fab")
		(uuid "5caba6da-9e27-467c-87a8-cc273a6397f8")
		(effects
			(font
				(size 1 1)
				(thickness 0.15)
			)
		)
	)
	(property "Footprint" ""
		(at 0 0 0)
		(unlocked yes)
		(layer "F.Fab")
		(hide yes)
		(uuid "e6826f09-f9f9-4fc1-82cd-99d7d81234f8")
		(effects
			(font
				(size 1 1)
				(thickness 0.15)
			)
		)
	)
	(property "Datasheet" ""
		(at 0 0 0)
		(unlocked yes)
		(layer "F.Fab")
		(hide yes)
		(uuid "e7896c9d-8026-4a9e-84e1-5e1420937c15")
		(effects
			(font
				(size 1 1)
				(thickness 0.15)
			)
		)
	)
	(property "Description" ""
		(at 0 0 0)
		(unlocked yes)
		(layer "F.Fab")
		(hide yes)
		(uuid "c2de2610-948f-4b10-8e69-7fdb3e41b842")
		(effects
			(font
				(size 1 1)
				(thickness 0.15)
			)
		)
	)
	(attr smd)
	(fp_rect
		(start -1.6 -2.4)
		(end 1.6 2.4)
		(stroke
			(width 0.2)
			(type solid)
		)
		(fill solid)
		(layer "F.Cu")
		(uuid "d1e7eb05-f510-4bed-9b5e-485298852463")
	)
	(fp_line
		(start -2.075 -2.5)
		(end 2.075 -2.5)
		(stroke
			(width 0.1)
			(type default)
		)
		(layer "F.SilkS")
		(uuid "478205e1-4b69-4126-98e5-34b09d17354a")
	)
	(fp_line
		(start -2.075 2.5)
		(end 2.075 2.5)
		(stroke
			(width 0.1)
			(type default)
		)
		(layer "F.SilkS")
		(uuid "98a792d1-d967-4e92-8728-5cb8b08c19cd")
	)
	(fp_circle
		(center -4.25 -2.275)
		(end -4.2 -2.275)
		(stroke
			(width 0.1)
			(type default)
		)
		(fill none)
		(layer "F.SilkS")
		(uuid "d87e1132-b6bc-4a07-967e-95bdaaef191f")
	)
	(fp_circle
		(center -4.25 -2.275)
		(end -4.15 -2.275)
		(stroke
			(width 0.1)
			(type default)
		)
		(fill none)
		(layer "F.SilkS")
		(uuid "52712607-b410-4a03-b9dc-2e942072c70d")
	)
	(fp_rect
		(start -3.9 -2.75)
		(end 3.9 2.75)
		(stroke
			(width 0.05)
			(type default)
		)
		(fill none)
		(layer "F.CrtYd")
		(uuid "6427d9c5-ae72-441e-a2b4-ab0872196f23")
	)
	(fp_rect
		(start -2.25 -2.55)
		(end 2.25 2.55)
		(stroke
			(width 0.1)
			(type default)
		)
		(fill none)
		(layer "F.Fab")
		(uuid "1d26f49a-fd3c-41da-8bf5-e0d82046459a")
	)
	(fp_text user "${REFERENCE}"
		(at 0 2.5 0)
		(unlocked yes)
		(layer "F.Fab")
		(uuid "e0bb3d17-83a8-46be-9226-1e4a1cdb772d")
		(effects
			(font
				(size 1 1)
				(thickness 0.15)
			)
		)
	)
	(pad "1" smd roundrect
		(at -2.9 -2.275)
		(size 1.5 0.45)
		(layers "F.Cu" "F.Paste" "F.Mask")
		(roundrect_rratio 0.25)
		(thermal_bridge_angle 45)
		(uuid "4a5a3072-e88f-49bb-a8f9-f961b8a5a218")
	)
	(pad "2" smd roundrect
		(at -2.9 -1.625)
		(size 1.5 0.45)
		(layers "F.Cu" "F.Paste" "F.Mask")
		(roundrect_rratio 0.25)
		(thermal_bridge_angle 45)
		(uuid "d9a907db-aaca-4a10-829b-fca6069d2dd3")
	)
	(pad "3" smd roundrect
		(at -2.9 -0.975)
		(size 1.5 0.45)
		(layers "F.Cu" "F.Paste" "F.Mask")
		(roundrect_rratio 0.25)
		(thermal_bridge_angle 45)
		(uuid "9932c1e5-c5ae-466b-a7f9-e124f710be4b")
	)
	(pad "4" smd roundrect
		(at -2.9 -0.325)
		(size 1.5 0.45)
		(layers "F.Cu" "F.Paste" "F.Mask")
		(roundrect_rratio 0.25)
		(thermal_bridge_angle 45)
		(uuid "32f7b224-6825-4585-87d3-bbd3f95ca982")
	)
	(pad "5" smd roundrect
		(at -2.9 0.325)
		(size 1.5 0.45)
		(layers "F.Cu" "F.Paste" "F.Mask")
		(roundrect_rratio 0.25)
		(thermal_bridge_angle 45)
		(uuid "9284010d-9001-4c1b-9d67-2be0c35654d1")
	)
	(pad "6" smd roundrect
		(at -2.9 0.975)
		(size 1.5 0.45)
		(layers "F.Cu" "F.Paste" "F.Mask")
		(roundrect_rratio 0.25)
		(thermal_bridge_angle 45)
		(uuid "b171d842-131c-43bf-a530-5c28db240dfc")
	)
	(pad "7" smd roundrect
		(at -2.9 1.625)
		(size 1.5 0.45)
		(layers "F.Cu" "F.Paste" "F.Mask")
		(roundrect_rratio 0.25)
		(thermal_bridge_angle 45)
		(uuid "0d7c52db-c54a-492f-afe4-443e93ccddcd")
	)
	(pad "8" smd roundrect
		(at -2.9 2.275)
		(size 1.5 0.45)
		(layers "F.Cu" "F.Paste" "F.Mask")
		(roundrect_rratio 0.25)
		(thermal_bridge_angle 45)
		(uuid "11e85d8f-87c4-488d-bb62-39126220245c")
	)
	(pad "9" smd roundrect
		(at 2.9 2.275)
		(size 1.5 0.45)
		(layers "F.Cu" "F.Paste" "F.Mask")
		(roundrect_rratio 0.25)
		(thermal_bridge_angle 45)
		(uuid "74f41196-f6d5-4436-af0b-99dacbafa0d3")
	)
	(pad "10" smd roundrect
		(at 2.9 1.625)
		(size 1.5 0.45)
		(layers "F.Cu" "F.Paste" "F.Mask")
		(roundrect_rratio 0.25)
		(thermal_bridge_angle 45)
		(uuid "7aeba60f-0fed-4b14-8020-eb7b03871dbb")
	)
	(pad "11" smd roundrect
		(at 2.9 0.975)
		(size 1.5 0.45)
		(layers "F.Cu" "F.Paste" "F.Mask")
		(roundrect_rratio 0.25)
		(thermal_bridge_angle 45)
		(uuid "4cd1e76d-b282-40de-b391-a2b8c1a74796")
	)
	(pad "12" smd roundrect
		(at 2.9 0.325)
		(size 1.5 0.45)
		(layers "F.Cu" "F.Paste" "F.Mask")
		(roundrect_rratio 0.25)
		(thermal_bridge_angle 45)
		(uuid "5816ec8a-0713-4384-92c4-abef4d36a78d")
	)
	(pad "13" smd roundrect
		(at 2.9 -0.325)
		(size 1.5 0.45)
		(layers "F.Cu" "F.Paste" "F.Mask")
		(roundrect_rratio 0.25)
		(thermal_bridge_angle 45)
		(uuid "092fa404-fbd2-492e-962c-7a392bf117fd")
	)
	(pad "14" smd roundrect
		(at 2.9 -0.975)
		(size 1.5 0.45)
		(layers "F.Cu" "F.Paste" "F.Mask")
		(roundrect_rratio 0.25)
		(thermal_bridge_angle 45)
		(uuid "4bff9211-5037-4cb4-8a34-3080fdbfee96")
	)
	(pad "15" smd roundrect
		(at 2.9 -1.625)
		(size 1.5 0.45)
		(layers "F.Cu" "F.Paste" "F.Mask")
		(roundrect_rratio 0.25)
		(thermal_bridge_angle 45)
		(uuid "9e46cb83-84d3-47d1-8349-47ee2e460808")
	)
	(pad "16" smd roundrect
		(at 2.9 -2.275)
		(size 1.5 0.45)
		(layers "F.Cu" "F.Paste" "F.Mask")
		(roundrect_rratio 0.25)
		(thermal_bridge_angle 45)
		(uuid "2927a4b2-28d6-49dd-bc0b-e30e9653dea0")
	)
	(pad "17" thru_hole circle
		(at -1.425 -1.9)
		(size 0.4 0.4)
		(drill 0.2)
		(property pad_prop_heatsink)
		(layers "*.Cu")
		(remove_unused_layers no)
		(uuid "cc7786f2-ffaf-4fd9-ac13-591d504df3e4")
	)
	(pad "17" thru_hole circle
		(at -1.425 -0.95)
		(size 0.4 0.4)
		(drill 0.2)
		(layers "*.Cu")
		(remove_unused_layers no)
		(uuid "8dc39a7d-1ef7-4973-809e-af7acdddb0d7")
	)
	(pad "17" thru_hole circle
		(at -1.425 0)
		(size 0.4 0.4)
		(drill 0.2)
		(layers "*.Cu")
		(remove_unused_layers no)
		(uuid "64d0f3a6-ec9b-4a7b-b9d3-a229ef9ddaae")
	)
	(pad "17" thru_hole circle
		(at -1.425 0.95)
		(size 0.4 0.4)
		(drill 0.2)
		(layers "*.Cu")
		(remove_unused_layers no)
		(uuid "17992fba-a5b4-4f81-8101-65660d866870")
	)
	(pad "17" thru_hole circle
		(at -1.425 1.9)
		(size 0.4 0.4)
		(drill 0.2)
		(layers "*.Cu")
		(remove_unused_layers no)
		(uuid "85ed64e0-faa1-4c49-80eb-46a6aa339809")
	)
	(pad "17" thru_hole circle
		(at -0.475 -1.9)
		(size 0.4 0.4)
		(drill 0.2)
		(layers "*.Cu")
		(remove_unused_layers no)
		(uuid "561b21b4-d4d3-4ab4-b735-71feacd986e3")
	)
	(pad "17" thru_hole circle
		(at -0.475 -0.95)
		(size 0.4 0.4)
		(drill 0.2)
		(layers "*.Cu" "*.Mask")
		(remove_unused_layers no)
		(uuid "a87a7231-9ecc-4afc-904a-adbeef2df6ac")
	)
	(pad "17" thru_hole circle
		(at -0.475 0)
		(size 0.4 0.4)
		(drill 0.2)
		(layers "*.Cu" "*.Mask")
		(remove_unused_layers no)
		(uuid "fea99bf6-ef6d-42da-b86e-37286ca7cb52")
	)
	(pad "17" thru_hole circle
		(at -0.475 0.95)
		(size 0.4 0.4)
		(drill 0.2)
		(layers "*.Cu" "*.Mask")
		(remove_unused_layers no)
		(uuid "a8cbc5a1-5525-4b0f-9bd9-e7aa63f62309")
	)
	(pad "17" thru_hole circle
		(at -0.475 1.9)
		(size 0.4 0.4)
		(drill 0.2)
		(layers "*.Cu")
		(remove_unused_layers no)
		(uuid "f1e06587-e26d-4f6a-8b4c-f742204e5e97")
	)
	(pad "17" smd rect
		(at 0 0)
		(size 2.41 3.29)
		(layers "F.Cu" "F.Paste" "F.Mask")
		(thermal_bridge_angle 45)
		(uuid "b7f9413e-daaa-4829-9f7f-a4ba561ceb4c")
	)
	(pad "17" thru_hole circle
		(at 0.475 -1.9)
		(size 0.4 0.4)
		(drill 0.2)
		(layers "*.Cu")
		(remove_unused_layers no)
		(uuid "2d73f1c5-eb3b-4189-b196-f6628272830d")
	)
	(pad "17" thru_hole circle
		(at 0.475 -0.95)
		(size 0.4 0.4)
		(drill 0.2)
		(layers "*.Cu" "*.Mask")
		(remove_unused_layers no)
		(uuid "d2b5b6f1-1e0d-4806-838c-4faa5cba7a6c")
	)
	(pad "17" thru_hole circle
		(at 0.475 0)
		(size 0.4 0.4)
		(drill 0.2)
		(layers "*.Cu" "*.Mask")
		(remove_unused_layers no)
		(uuid "b1a1d4b8-9906-4817-be02-eb2fcbfe3e36")
	)
	(pad "17" thru_hole circle
		(at 0.475 0.95)
		(size 0.4 0.4)
		(drill 0.2)
		(layers "*.Cu" "*.Mask")
		(remove_unused_layers no)
		(uuid "670a522b-2aef-4a9b-a852-5b1883da57b9")
	)
	(pad "17" thru_hole circle
		(at 0.475 1.9)
		(size 0.4 0.4)
		(drill 0.2)
		(layers "*.Cu")
		(remove_unused_layers no)
		(uuid "41409f25-19e5-450f-9b68-970c26834a42")
	)
	(pad "17" thru_hole circle
		(at 1.425 -1.9)
		(size 0.4 0.4)
		(drill 0.2)
		(layers "*.Cu")
		(remove_unused_layers no)
		(uuid "a69dda68-6db3-4523-921f-b145889f4649")
	)
	(pad "17" thru_hole circle
		(at 1.425 -0.95)
		(size 0.4 0.4)
		(drill 0.2)
		(layers "*.Cu")
		(remove_unused_layers no)
		(uuid "dacf03dd-943a-48e3-9b6a-e8fa19c0b6d7")
	)
	(pad "17" thru_hole circle
		(at 1.425 0)
		(size 0.4 0.4)
		(drill 0.2)
		(layers "*.Cu")
		(remove_unused_layers no)
		(uuid "ee3eccbd-1849-495d-a323-22f2bb0f0842")
	)
	(pad "17" thru_hole circle
		(at 1.425 0.95)
		(size 0.4 0.4)
		(drill 0.2)
		(layers "*.Cu")
		(remove_unused_layers no)
		(uuid "f00fecdd-4b5d-47bd-837f-1d4e2f6c228a")
	)
	(pad "17" thru_hole circle
		(at 1.425 1.9)
		(size 0.4 0.4)
		(drill 0.2)
		(layers "*.Cu")
		(remove_unused_layers no)
		(uuid "c44aca01-35da-4196-a10e-be3fe5cc3cf9")
	)
)
