(footprint "SOP28P65_640X970X120L25X60N"
	(version 20240108)
	(generator "pcbnew")
	(generator_version "8.0")
	(layer "F.Cu")
	(property "Reference" "REF**"
		(at 0 -0.5 0)
		(unlocked yes)
		(layer "F.SilkS")
		(uuid "d1421a6d-6445-41c9-adf0-e003f7ac1f62")
		(effects
			(font
				(size 1 1)
				(thickness 0.1)
			)
		)
	)
	(property "Value" "SOP28P65_640X970X120L25X60N"
		(at 0 1 0)
		(unlocked yes)
		(layer "F.Fab")
		(uuid "e70e6e14-f9bf-4510-a9bf-838153ebfb22")
		(effects
			(font
				(size 1 1)
				(thickness 0.15)
			)
		)
	)
	(property "Footprint" ""
		(at 0 0 0)
		(unlocked yes)
		(layer "F.Fab")
		(hide yes)
		(uuid "d67b3c6c-869d-4f77-a7e7-77ee5b96d9b4")
		(effects
			(font
				(size 1 1)
				(thickness 0.15)
			)
		)
	)
	(property "Datasheet" ""
		(at 0 0 0)
		(unlocked yes)
		(layer "F.Fab")
		(hide yes)
		(uuid "a1993372-dbdb-4df3-8730-7acb57034960")
		(effects
			(font
				(size 1 1)
				(thickness 0.15)
			)
		)
	)
	(property "Description" ""
		(at 0 0 0)
		(unlocked yes)
		(layer "F.Fab")
		(hide yes)
		(uuid "6e5f386e-3ffa-4785-ae1e-e40d5dbbd98c")
		(effects
			(font
				(size 1 1)
				(thickness 0.15)
			)
		)
	)
	(attr smd)
	(fp_line
		(start -4.85 -2.2)
		(end -4.6 -2.2)
		(stroke
			(width 0.1)
			(type default)
		)
		(layer "F.SilkS")
		(uuid "71a1f43f-6f2a-4193-8620-4adeca02a384")
	)
	(fp_line
		(start -4.85 2.2)
		(end -4.85 -2.2)
		(stroke
			(width 0.1)
			(type default)
		)
		(layer "F.SilkS")
		(uuid "e4c1d5e2-f418-4cb4-b103-737df5445049")
	)
	(fp_line
		(start -4.6 2.2)
		(end -4.85 2.2)
		(stroke
			(width 0.1)
			(type default)
		)
		(layer "F.SilkS")
		(uuid "7834e962-8f45-4107-a5fd-10d269f2d2f1")
	)
	(fp_line
		(start 4.6 2.2)
		(end 4.85 2.2)
		(stroke
			(width 0.1)
			(type default)
		)
		(layer "F.SilkS")
		(uuid "ac4c0adf-89ac-4a5c-97ec-d6e829eebefa")
	)
	(fp_line
		(start 4.85 -2.2)
		(end 4.6 -2.2)
		(stroke
			(width 0.1)
			(type default)
		)
		(layer "F.SilkS")
		(uuid "909bb133-133b-4528-a9c9-c5c51a770a67")
	)
	(fp_line
		(start 4.85 2.2)
		(end 4.85 -2.2)
		(stroke
			(width 0.1)
			(type default)
		)
		(layer "F.SilkS")
		(uuid "1722d581-beb1-4f6d-b8ca-bac0dd2de3d3")
	)
	(fp_line
		(start -4.975 -2.325)
		(end -4.975 2.325)
		(stroke
			(width 0.05)
			(type default)
		)
		(layer "F.CrtYd")
		(uuid "be82ec31-638d-406b-9276-713a76583974")
	)
	(fp_line
		(start -4.975 2.325)
		(end -4.575 2.325)
		(stroke
			(width 0.05)
			(type default)
		)
		(layer "F.CrtYd")
		(uuid "24e1eda3-e1ba-44be-95dc-ca5cab6b1b12")
	)
	(fp_line
		(start -4.575 -3.775)
		(end -4.575 -2.325)
		(stroke
			(width 0.05)
			(type default)
		)
		(layer "F.CrtYd")
		(uuid "b3a98465-2873-4ef4-9f6b-5808408d8b47")
	)
	(fp_line
		(start -4.575 -3.775)
		(end 4.575 -3.775)
		(stroke
			(width 0.05)
			(type default)
		)
		(layer "F.CrtYd")
		(uuid "ffd3717c-f5ac-4b22-a573-fcd4dad30f4a")
	)
	(fp_line
		(start -4.575 -2.325)
		(end -4.975 -2.325)
		(stroke
			(width 0.05)
			(type default)
		)
		(layer "F.CrtYd")
		(uuid "19ebcdd1-6d8a-4b15-8b1a-a4cd1633fe5a")
	)
	(fp_line
		(start -4.575 2.325)
		(end -4.575 3.775)
		(stroke
			(width 0.05)
			(type default)
		)
		(layer "F.CrtYd")
		(uuid "f4aeb3b8-98e3-46e2-ac79-0bb360ab8c6f")
	)
	(fp_line
		(start -4.575 3.775)
		(end 4.575 3.775)
		(stroke
			(width 0.05)
			(type default)
		)
		(layer "F.CrtYd")
		(uuid "08a851f2-8a60-4ba2-bdd1-ca99a0cebdca")
	)
	(fp_line
		(start 4.575 -3.775)
		(end 4.575 -2.325)
		(stroke
			(width 0.05)
			(type default)
		)
		(layer "F.CrtYd")
		(uuid "5ea6c2a6-19b5-4dee-bbca-c0ec44545658")
	)
	(fp_line
		(start 4.575 -2.325)
		(end 4.975 -2.325)
		(stroke
			(width 0.05)
			(type default)
		)
		(layer "F.CrtYd")
		(uuid "949f762e-76d5-4d77-9eb2-f1c6277d0bbe")
	)
	(fp_line
		(start 4.575 2.325)
		(end 4.575 3.775)
		(stroke
			(width 0.05)
			(type default)
		)
		(layer "F.CrtYd")
		(uuid "1faaaa61-91d5-4dac-a344-c7fdfbbc4753")
	)
	(fp_line
		(start 4.575 2.325)
		(end 4.975 2.325)
		(stroke
			(width 0.05)
			(type default)
		)
		(layer "F.CrtYd")
		(uuid "f636732b-efc7-4dca-bec3-e2a85e834e29")
	)
	(fp_line
		(start 4.975 -2.325)
		(end 4.975 2.325)
		(stroke
			(width 0.05)
			(type default)
		)
		(layer "F.CrtYd")
		(uuid "0441468e-2a49-48a2-af1c-f22f280b70db")
	)
	(fp_rect
		(start -4.9 -2.25)
		(end 4.9 2.25)
		(stroke
			(width 0.1)
			(type default)
		)
		(fill none)
		(layer "F.Fab")
		(uuid "cf4f912d-ef55-47ab-abf2-1eabee6b153a")
	)
	(fp_text user "${REFERENCE}"
		(at 0 2.5 0)
		(unlocked yes)
		(layer "F.Fab")
		(uuid "89c34566-a1ce-4428-8983-7a307682b564")
		(effects
			(font
				(size 1 1)
				(thickness 0.15)
			)
		)
	)
	(pad "1" smd roundrect
		(at -4.225 2.9)
		(size 0.45 1.5)
		(layers "F.Cu" "F.Paste" "F.Mask")
		(roundrect_rratio 0.1111111111)
		(thermal_bridge_angle 45)
		(uuid "c2cecec1-f57c-4c42-acb5-e2d7730f434f")
	)
	(pad "2" smd roundrect
		(at -3.575 2.9)
		(size 0.45 1.5)
		(layers "F.Cu" "F.Paste" "F.Mask")
		(roundrect_rratio 0.1111111111)
		(thermal_bridge_angle 45)
		(uuid "8aad946a-56ae-40b8-825d-9bd10dafe844")
	)
	(pad "3" smd roundrect
		(at -2.925 2.9)
		(size 0.45 1.5)
		(layers "F.Cu" "F.Paste" "F.Mask")
		(roundrect_rratio 0.1111111111)
		(thermal_bridge_angle 45)
		(uuid "3e321dd6-fd7f-4d6c-8250-deafc26962f2")
	)
	(pad "4" smd roundrect
		(at -2.275 2.9)
		(size 0.45 1.5)
		(layers "F.Cu" "F.Paste" "F.Mask")
		(roundrect_rratio 0.1111111111)
		(thermal_bridge_angle 45)
		(uuid "edadbfc0-9b3a-4f43-9cce-c2b412a4fddf")
	)
	(pad "5" smd roundrect
		(at -1.625 2.9)
		(size 0.45 1.5)
		(layers "F.Cu" "F.Paste" "F.Mask")
		(roundrect_rratio 0.1111111111)
		(thermal_bridge_angle 45)
		(uuid "13f4ae71-a6aa-4ed6-b8d3-3a1dac16ec5a")
	)
	(pad "6" smd roundrect
		(at -0.975 2.9)
		(size 0.45 1.5)
		(layers "F.Cu" "F.Paste" "F.Mask")
		(roundrect_rratio 0.1111111111)
		(thermal_bridge_angle 45)
		(uuid "f8690cfb-aafa-410b-bb7c-d40ffb7c43f4")
	)
	(pad "7" smd roundrect
		(at -0.325 2.9)
		(size 0.45 1.5)
		(layers "F.Cu" "F.Paste" "F.Mask")
		(roundrect_rratio 0.1111111111)
		(thermal_bridge_angle 45)
		(uuid "dd875c39-d927-4b4e-b825-56985d53068b")
	)
	(pad "8" smd roundrect
		(at 0.325 2.9)
		(size 0.45 1.5)
		(layers "F.Cu" "F.Paste" "F.Mask")
		(roundrect_rratio 0.1111111111)
		(thermal_bridge_angle 45)
		(uuid "639d6f79-816d-40bc-8b0d-d81d4d2ae968")
	)
	(pad "9" smd roundrect
		(at 0.975 2.9)
		(size 0.45 1.5)
		(layers "F.Cu" "F.Paste" "F.Mask")
		(roundrect_rratio 0.1111111111)
		(thermal_bridge_angle 45)
		(uuid "d815297a-1e79-4b84-8c78-6cfd171ee431")
	)
	(pad "10" smd roundrect
		(at 1.625 2.9)
		(size 0.45 1.5)
		(layers "F.Cu" "F.Paste" "F.Mask")
		(roundrect_rratio 0.1111111111)
		(thermal_bridge_angle 45)
		(uuid "1000598c-fd60-4ce9-b892-c786a3c56062")
	)
	(pad "11" smd roundrect
		(at 2.275 2.9)
		(size 0.45 1.5)
		(layers "F.Cu" "F.Paste" "F.Mask")
		(roundrect_rratio 0.1111111111)
		(thermal_bridge_angle 45)
		(uuid "ef161e7c-33ca-4ce1-9072-5b7102af8cb9")
	)
	(pad "12" smd roundrect
		(at 2.925 2.9)
		(size 0.45 1.5)
		(layers "F.Cu" "F.Paste" "F.Mask")
		(roundrect_rratio 0.1111111111)
		(thermal_bridge_angle 45)
		(uuid "f8804b0b-47b7-45c7-b523-ce3e4a0c8917")
	)
	(pad "13" smd roundrect
		(at 3.575 2.9)
		(size 0.45 1.5)
		(layers "F.Cu" "F.Paste" "F.Mask")
		(roundrect_rratio 0.1111111111)
		(thermal_bridge_angle 45)
		(uuid "a704b71d-537b-4aff-b08b-e4ed87757495")
	)
	(pad "14" smd roundrect
		(at 4.225 2.9)
		(size 0.45 1.5)
		(layers "F.Cu" "F.Paste" "F.Mask")
		(roundrect_rratio 0.1111111111)
		(thermal_bridge_angle 45)
		(uuid "ca1f5fe7-81c1-47c1-ab3d-37998cab9131")
	)
	(pad "15" smd roundrect
		(at 4.225 -2.9)
		(size 0.45 1.5)
		(layers "F.Cu" "F.Paste" "F.Mask")
		(roundrect_rratio 0.1111111111)
		(thermal_bridge_angle 45)
		(uuid "bbe2d1f3-08a6-4da8-bd15-a2a9b78bd84e")
	)
	(pad "16" smd roundrect
		(at 3.575 -2.9)
		(size 0.45 1.5)
		(layers "F.Cu" "F.Paste" "F.Mask")
		(roundrect_rratio 0.1111111111)
		(thermal_bridge_angle 45)
		(uuid "8d98983a-3d94-436f-b203-206970f56ed7")
	)
	(pad "17" smd roundrect
		(at 2.925 -2.9)
		(size 0.45 1.5)
		(layers "F.Cu" "F.Paste" "F.Mask")
		(roundrect_rratio 0.1111111111)
		(thermal_bridge_angle 45)
		(uuid "2b6190fb-bc77-47e5-a8b9-bbbf6d09b5bc")
	)
	(pad "18" smd roundrect
		(at 2.275 -2.9)
		(size 0.45 1.5)
		(layers "F.Cu" "F.Paste" "F.Mask")
		(roundrect_rratio 0.1111111111)
		(thermal_bridge_angle 45)
		(uuid "fe205fdc-72e4-448e-9b05-1bf4cf346eda")
	)
	(pad "19" smd roundrect
		(at 1.625 -2.9)
		(size 0.45 1.5)
		(layers "F.Cu" "F.Paste" "F.Mask")
		(roundrect_rratio 0.1111111111)
		(thermal_bridge_angle 45)
		(uuid "9a644675-4679-40fe-a195-9c1a4a763d3f")
	)
	(pad "20" smd roundrect
		(at 0.975 -2.9)
		(size 0.45 1.5)
		(property pad_prop_castellated)
		(layers "F.Cu" "F.Paste" "F.Mask")
		(roundrect_rratio 0.1111111111)
		(thermal_bridge_angle 45)
		(uuid "08fd8fb2-3292-4729-8f75-ddf65c19a2a1")
	)
	(pad "21" smd roundrect
		(at 0.325 -2.9)
		(size 0.45 1.5)
		(layers "F.Cu" "F.Paste" "F.Mask")
		(roundrect_rratio 0.1111111111)
		(thermal_bridge_angle 45)
		(uuid "4cc916d8-c9d8-4bb4-b56a-658247de779a")
	)
	(pad "22" smd roundrect
		(at -0.325 -2.9)
		(size 0.45 1.5)
		(layers "F.Cu" "F.Paste" "F.Mask")
		(roundrect_rratio 0.1111111111)
		(thermal_bridge_angle 45)
		(uuid "7643c6c2-9142-42b2-99cb-59bfd72a3f04")
	)
	(pad "23" smd roundrect
		(at -0.975 -2.9)
		(size 0.45 1.5)
		(layers "F.Cu" "F.Paste" "F.Mask")
		(roundrect_rratio 0.1111111111)
		(thermal_bridge_angle 45)
		(uuid "df0ce956-b6aa-42c2-8ffe-1b337d04857f")
	)
	(pad "24" smd roundrect
		(at -1.625 -2.9)
		(size 0.45 1.5)
		(layers "F.Cu" "F.Paste" "F.Mask")
		(roundrect_rratio 0.1111111111)
		(thermal_bridge_angle 45)
		(uuid "1e492a06-b9f7-4868-92eb-e759bcb2e58f")
	)
	(pad "25" smd roundrect
		(at -2.275 -2.9)
		(size 0.45 1.5)
		(layers "F.Cu" "F.Paste" "F.Mask")
		(roundrect_rratio 0.1111111111)
		(thermal_bridge_angle 45)
		(uuid "f75057fa-144b-4f9e-9ab9-d21ba7e2b521")
	)
	(pad "26" smd roundrect
		(at -2.925 -2.9)
		(size 0.45 1.5)
		(layers "F.Cu" "F.Paste" "F.Mask")
		(roundrect_rratio 0.1111111111)
		(thermal_bridge_angle 45)
		(uuid "d688ea58-98d7-4cf0-95bf-8784b61f9242")
	)
	(pad "27" smd roundrect
		(at -3.575 -2.9)
		(size 0.45 1.5)
		(layers "F.Cu" "F.Paste" "F.Mask")
		(roundrect_rratio 0.1111111111)
		(thermal_bridge_angle 45)
		(uuid "ff1fca81-64fe-4fce-855a-9c2c88ee4ba3")
	)
	(pad "28" smd roundrect
		(at -4.225 -2.9)
		(size 0.45 1.5)
		(layers "F.Cu" "F.Paste" "F.Mask")
		(roundrect_rratio 0.1111111111)
		(thermal_bridge_angle 45)
		(uuid "6ea821e5-2d4a-4b5f-a3f4-e796ee06b0e1")
	)
)
