(module SOP8P65_295X400X130L40X22N (layer F.Cu) (tedit 0)
  (descr "Small Outline Pkg (SOP), 0.65 mm pitch; 8 pin, 2.95 mm L X 2.80 mm W X 1.30 mm H body")
  (attr smd)
  (fp_text user %R (at 0 0) (layer F.Fab)
    (effects (font (size 2 2) (thickness 0.2)))
  )
  (fp_text value VAL** (at 0 0) (layer F.Fab)
    (effects (font (size 1.2 1.2) (thickness 0.12)))
  )
  (fp_text reference REF** (at 0 0) (layer F.SilkS)
    (effects (font (size 1.2 1.2) (thickness 0.12)))
  )
  (fp_line (start -1.0875 1.6) (end -0.8625 1.6) (layer Dwgs.User) (width 0.025))
  (fp_line (start -0.8625 1.6) (end -0.8625 2) (layer Dwgs.User) (width 0.025))
  (fp_line (start -0.8625 2) (end -1.0875 2) (layer Dwgs.User) (width 0.025))
  (fp_line (start -1.0875 2) (end -1.0875 1.6) (layer Dwgs.User) (width 0.025))
  (fp_line (start -0.4375 1.6) (end -0.2125 1.6) (layer Dwgs.User) (width 0.025))
  (fp_line (start -0.2125 1.6) (end -0.2125 2) (layer Dwgs.User) (width 0.025))
  (fp_line (start -0.2125 2) (end -0.4375 2) (layer Dwgs.User) (width 0.025))
  (fp_line (start -0.4375 2) (end -0.4375 1.6) (layer Dwgs.User) (width 0.025))
  (fp_line (start 0.2125 1.6) (end 0.4375 1.6) (layer Dwgs.User) (width 0.025))
  (fp_line (start 0.4375 1.6) (end 0.4375 2) (layer Dwgs.User) (width 0.025))
  (fp_line (start 0.4375 2) (end 0.2125 2) (layer Dwgs.User) (width 0.025))
  (fp_line (start 0.2125 2) (end 0.2125 1.6) (layer Dwgs.User) (width 0.025))
  (fp_line (start 0.8625 1.6) (end 1.0875 1.6) (layer Dwgs.User) (width 0.025))
  (fp_line (start 1.0875 1.6) (end 1.0875 2) (layer Dwgs.User) (width 0.025))
  (fp_line (start 1.0875 2) (end 0.8625 2) (layer Dwgs.User) (width 0.025))
  (fp_line (start 0.8625 2) (end 0.8625 1.6) (layer Dwgs.User) (width 0.025))
  (fp_line (start 1.0875 -1.6) (end 0.8625 -1.6) (layer Dwgs.User) (width 0.025))
  (fp_line (start 0.8625 -1.6) (end 0.8625 -2) (layer Dwgs.User) (width 0.025))
  (fp_line (start 0.8625 -2) (end 1.0875 -2) (layer Dwgs.User) (width 0.025))
  (fp_line (start 1.0875 -2) (end 1.0875 -1.6) (layer Dwgs.User) (width 0.025))
  (fp_line (start 0.4375 -1.6) (end 0.2125 -1.6) (layer Dwgs.User) (width 0.025))
  (fp_line (start 0.2125 -1.6) (end 0.2125 -2) (layer Dwgs.User) (width 0.025))
  (fp_line (start 0.2125 -2) (end 0.4375 -2) (layer Dwgs.User) (width 0.025))
  (fp_line (start 0.4375 -2) (end 0.4375 -1.6) (layer Dwgs.User) (width 0.025))
  (fp_line (start -0.2125 -1.6) (end -0.4375 -1.6) (layer Dwgs.User) (width 0.025))
  (fp_line (start -0.4375 -1.6) (end -0.4375 -2) (layer Dwgs.User) (width 0.025))
  (fp_line (start -0.4375 -2) (end -0.2125 -2) (layer Dwgs.User) (width 0.025))
  (fp_line (start -0.2125 -2) (end -0.2125 -1.6) (layer Dwgs.User) (width 0.025))
  (fp_line (start -0.8625 -1.6) (end -1.0875 -1.6) (layer Dwgs.User) (width 0.025))
  (fp_line (start -1.0875 -1.6) (end -1.0875 -2) (layer Dwgs.User) (width 0.025))
  (fp_line (start -1.0875 -2) (end -0.8625 -2) (layer Dwgs.User) (width 0.025))
  (fp_line (start -0.8625 -2) (end -0.8625 -1.6) (layer Dwgs.User) (width 0.025))
  (fp_line (start -1.475 1.4) (end -1.475 -1.4) (layer Dwgs.User) (width 0.025))
  (fp_line (start -1.475 -1.4) (end 1.475 -1.4) (layer Dwgs.User) (width 0.025))
  (fp_line (start 1.475 -1.4) (end 1.475 1.4) (layer Dwgs.User) (width 0.025))
  (fp_line (start 1.475 1.4) (end -1.475 1.4) (layer Dwgs.User) (width 0.025))
  (fp_line (start -1.58 1.45) (end -1.58 -1.45) (layer F.Fab) (width 0.12))
  (fp_line (start -1.58 -1.45) (end 1.58 -1.45) (layer F.Fab) (width 0.12))
  (fp_line (start 1.58 -1.45) (end 1.58 1.45) (layer F.Fab) (width 0.12))
  (fp_line (start 1.58 1.45) (end -1.58 1.45) (layer F.Fab) (width 0.12))
  (fp_circle (center 0 0) (end 0 0.25) (layer F.CrtYd) (width 0.05))
  (fp_line (start 0 -0.35) (end 0 0.35) (layer F.CrtYd) (width 0.05))
  (fp_line (start -0.35 0) (end 0.35 0) (layer F.CrtYd) (width 0.05))
  (fp_line (start 1.345 1.45) (end 1.58 1.45) (layer F.SilkS) (width 0.12))
  (fp_line (start 1.58 1.45) (end 1.58 -1.45) (layer F.SilkS) (width 0.12))
  (fp_line (start 1.58 -1.45) (end 1.345 -1.45) (layer F.SilkS) (width 0.12))
  (fp_line (start -1.345 1.45) (end -1.58 1.45) (layer F.SilkS) (width 0.12))
  (fp_line (start -1.58 1.45) (end -1.58 -1.45) (layer F.SilkS) (width 0.12))
  (fp_line (start -1.58 -1.45) (end -1.345 -1.45) (layer F.SilkS) (width 0.12))
  (fp_line (start -1.345 1.45) (end -1.345 2.27) (layer F.SilkS) (width 0.12))
  (fp_line (start 1.78 1.65) (end 1.78 -1.65) (layer F.CrtYd) (width 0.05))
  (fp_line (start 1.78 -1.65) (end 1.365 -1.65) (layer F.CrtYd) (width 0.05))
  (fp_line (start 1.365 -1.65) (end 1.365 -2.53) (layer F.CrtYd) (width 0.05))
  (fp_line (start 1.365 -2.53) (end -1.365 -2.53) (layer F.CrtYd) (width 0.05))
  (fp_line (start -1.365 -2.53) (end -1.365 -1.65) (layer F.CrtYd) (width 0.05))
  (fp_line (start -1.365 -1.65) (end -1.78 -1.65) (layer F.CrtYd) (width 0.05))
  (fp_line (start -1.78 -1.65) (end -1.78 1.65) (layer F.CrtYd) (width 0.05))
  (fp_line (start -1.78 1.65) (end -1.365 1.65) (layer F.CrtYd) (width 0.05))
  (fp_line (start -1.365 1.65) (end -1.365 2.53) (layer F.CrtYd) (width 0.05))
  (fp_line (start -1.365 2.53) (end 1.365 2.53) (layer F.CrtYd) (width 0.05))
  (fp_line (start 1.365 2.53) (end 1.365 1.65) (layer F.CrtYd) (width 0.05))
  (fp_line (start 1.365 1.65) (end 1.78 1.65) (layer F.CrtYd) (width 0.05))
  (pad 1 smd roundrect (at -0.975 1.72 90) (size 1.22 0.38) (layers F.Cu F.Paste F.Mask) (roundrect_rratio 0.2632))
  (pad 2 smd roundrect (at -0.325 1.72 90) (size 1.22 0.38) (layers F.Cu F.Paste F.Mask) (roundrect_rratio 0.2632))
  (pad 3 smd roundrect (at 0.325 1.72 90) (size 1.22 0.38) (layers F.Cu F.Paste F.Mask) (roundrect_rratio 0.2632))
  (pad 4 smd roundrect (at 0.975 1.72 90) (size 1.22 0.38) (layers F.Cu F.Paste F.Mask) (roundrect_rratio 0.2632))
  (pad 5 smd roundrect (at 0.975 -1.72 90) (size 1.22 0.38) (layers F.Cu F.Paste F.Mask) (roundrect_rratio 0.2632))
  (pad 6 smd roundrect (at 0.325 -1.72 90) (size 1.22 0.38) (layers F.Cu F.Paste F.Mask) (roundrect_rratio 0.2632))
  (pad 7 smd roundrect (at -0.325 -1.72 90) (size 1.22 0.38) (layers F.Cu F.Paste F.Mask) (roundrect_rratio 0.2632))
  (pad 8 smd roundrect (at -0.975 -1.72 90) (size 1.22 0.38) (layers F.Cu F.Paste F.Mask) (roundrect_rratio 0.2632))
)
