(module MTGNP690H254K740V0L (layer F.Cu) (tedit 5B5DF1AE)
  (fp_text reference REF** (at 0 0.5) (layer F.SilkS)
    (effects (font (size 1 1) (thickness 0.15)))
  )
  (fp_text value MTGNP690H254K740V0L (at 0 -0.5) (layer F.Fab)
    (effects (font (size 1 1) (thickness 0.15)))
  )
  (pad "" np_thru_hole circle (at 0 0) (size 6.9 6.9) (drill 2.54) (layers *.Cu *.Mask))
)
