(module MTGNP79H79 (layer F.Cu) (tedit 5C82DE20)
  (fp_text reference REF** (at 0 0.5) (layer F.SilkS) hide
    (effects (font (size 1 1) (thickness 0.15)))
  )
  (fp_text value MTGNPxxxxH25 (at 0 -0.5) (layer F.Fab) hide
    (effects (font (size 1 1) (thickness 0.15)))
  )
  (pad "" np_thru_hole circle (at 0 0) (size 0.7874 0.7874) (drill 0.7874) (layers *.Cu *.Mask))
)
