(module MTGNP787H787 (layer F.Cu) (tedit 5C82C8F1)
  (fp_text reference REF** (at 0 0.5) (layer F.SilkS) hide
    (effects (font (size 1 1) (thickness 0.15)))
  )
  (fp_text value MTGNPxxxxH25 (at 0 -0.5) (layer F.Fab) hide
    (effects (font (size 1 1) (thickness 0.15)))
  )
  (pad "" np_thru_hole circle (at 0 0) (size 7.84 7.84) (drill 7.84) (layers *.Cu *.Mask))
)
