(footprint "INDM2500X2800X2050L600X600N"
	(version 20240108)
	(generator "pcbnew")
	(generator_version "8.0")
	(layer "F.Cu")
	(property "Reference" "REF**"
		(at 0 -0.5 0)
		(unlocked yes)
		(layer "F.SilkS")
		(uuid "7845aa50-8eb1-461e-b53c-234c4e7d329b")
		(effects
			(font
				(size 1 1)
				(thickness 0.1)
			)
		)
	)
	(property "Value" "INDM2500X2800X2050L600X600N"
		(at 0 1 0)
		(unlocked yes)
		(layer "F.Fab")
		(uuid "073c1cde-af56-484c-a500-7f05510df2b4")
		(effects
			(font
				(size 1 1)
				(thickness 0.15)
			)
		)
	)
	(property "Footprint" ""
		(at 0 0 0)
		(unlocked yes)
		(layer "F.Fab")
		(hide yes)
		(uuid "a22c83fe-9955-4be9-b4cf-db5f8face32a")
		(effects
			(font
				(size 1 1)
				(thickness 0.15)
			)
		)
	)
	(property "Datasheet" ""
		(at 0 0 0)
		(unlocked yes)
		(layer "F.Fab")
		(hide yes)
		(uuid "c2086584-e4f6-4617-affc-e979151b6c70")
		(effects
			(font
				(size 1 1)
				(thickness 0.15)
			)
		)
	)
	(property "Description" ""
		(at 0 0 0)
		(unlocked yes)
		(layer "F.Fab")
		(hide yes)
		(uuid "95043780-3f4e-4c33-8c1e-7c9275ea3b60")
		(effects
			(font
				(size 1 1)
				(thickness 0.15)
			)
		)
	)
	(attr smd)
	(fp_line
		(start -14 -12.51)
		(end -14 12.5)
		(stroke
			(width 0.1)
			(type default)
		)
		(layer "F.SilkS")
		(uuid "8a545f84-c307-4dad-a826-d7bfce09d343")
	)
	(fp_line
		(start -14 -12.51)
		(end -3.3 -12.51)
		(stroke
			(width 0.1)
			(type default)
		)
		(layer "F.SilkS")
		(uuid "a1e31a62-c24e-4554-a001-4570efa7f4e8")
	)
	(fp_line
		(start -14 12.5)
		(end -3.3 12.5)
		(stroke
			(width 0.1)
			(type default)
		)
		(layer "F.SilkS")
		(uuid "25e155a3-6909-440c-8c76-686ca34aa0d3")
	)
	(fp_line
		(start 3.3 -12.51)
		(end 14 -12.51)
		(stroke
			(width 0.1)
			(type default)
		)
		(layer "F.SilkS")
		(uuid "13f62822-ff59-4f46-91b7-8154b1de6cb2")
	)
	(fp_line
		(start 3.3 12.5)
		(end 14 12.5)
		(stroke
			(width 0.1)
			(type default)
		)
		(layer "F.SilkS")
		(uuid "3d3c59bb-18d6-4508-b227-4b055a886411")
	)
	(fp_line
		(start 14 -12.51)
		(end 14 12.5)
		(stroke
			(width 0.1)
			(type default)
		)
		(layer "F.SilkS")
		(uuid "2f3e756a-dd31-47cf-86c2-ce3345fe0150")
	)
	(fp_line
		(start -14.25 -12.76)
		(end -14.25 12.75)
		(stroke
			(width 0.05)
			(type default)
		)
		(layer "F.CrtYd")
		(uuid "ba5d2dbd-0adb-44a3-b14b-4c68a0c23758")
	)
	(fp_line
		(start -4.25 -12.95)
		(end 4.25 -12.95)
		(stroke
			(width 0.05)
			(type default)
		)
		(layer "F.CrtYd")
		(uuid "b0cb892f-d117-4b1b-960f-e249a612e5aa")
	)
	(fp_line
		(start -4.25 -12.76)
		(end -14.25 -12.76)
		(stroke
			(width 0.05)
			(type default)
		)
		(layer "F.CrtYd")
		(uuid "a7961468-a1cd-4a37-ab28-169903d662e4")
	)
	(fp_line
		(start -4.25 -12.76)
		(end -4.25 -12.95)
		(stroke
			(width 0.05)
			(type default)
		)
		(layer "F.CrtYd")
		(uuid "c4c33365-6e06-4ccc-8c06-602232300f1c")
	)
	(fp_line
		(start -4.25 12.75)
		(end -14.25 12.75)
		(stroke
			(width 0.05)
			(type default)
		)
		(layer "F.CrtYd")
		(uuid "5f200dec-8aa8-4261-93e9-b0d52a089e2e")
	)
	(fp_line
		(start -4.25 12.94)
		(end -4.25 12.75)
		(stroke
			(width 0.05)
			(type default)
		)
		(layer "F.CrtYd")
		(uuid "00f9b4cd-dc50-4c0f-adcb-c03e4074c042")
	)
	(fp_line
		(start -4.25 12.94)
		(end 4.25 12.94)
		(stroke
			(width 0.05)
			(type default)
		)
		(layer "F.CrtYd")
		(uuid "f134b93e-d789-4b21-842b-ae3665a800b2")
	)
	(fp_line
		(start 4.25 -12.76)
		(end 4.25 -12.95)
		(stroke
			(width 0.05)
			(type default)
		)
		(layer "F.CrtYd")
		(uuid "b2d8ab7a-dbaa-40f0-a253-9bf7c12dc2c5")
	)
	(fp_line
		(start 4.25 12.94)
		(end 4.25 12.75)
		(stroke
			(width 0.05)
			(type default)
		)
		(layer "F.CrtYd")
		(uuid "37d6aa19-fc7c-4e1f-87aa-76167393bbb5")
	)
	(fp_line
		(start 14.25 -12.76)
		(end 4.25 -12.76)
		(stroke
			(width 0.05)
			(type default)
		)
		(layer "F.CrtYd")
		(uuid "1c319501-cc0d-44c4-92b8-402a95a994f0")
	)
	(fp_line
		(start 14.25 -12.76)
		(end 14.25 12.75)
		(stroke
			(width 0.05)
			(type default)
		)
		(layer "F.CrtYd")
		(uuid "b61d0674-e654-4ab6-952e-930676d74164")
	)
	(fp_line
		(start 14.25 12.75)
		(end 4.25 12.75)
		(stroke
			(width 0.05)
			(type default)
		)
		(layer "F.CrtYd")
		(uuid "a775b102-04ff-4ddc-a673-738e30e7c8f4")
	)
	(fp_text user "${REFERENCE}"
		(at 0 2.5 0)
		(unlocked yes)
		(layer "F.Fab")
		(uuid "7e2dc13e-dd66-4870-ad62-546f96cb53b6")
		(effects
			(font
				(size 1 1)
				(thickness 0.15)
			)
		)
	)
	(pad "1" smd roundrect
		(at 0 -8.5)
		(size 8 8.5)
		(layers "F.Cu" "F.Paste" "F.Mask")
		(roundrect_rratio 0.25)
		(thermal_bridge_angle 45)
		(uuid "daee7914-49a7-445f-a333-8caa678802d4")
	)
	(pad "2" smd roundrect
		(at 0 8.5)
		(size 8 8.5)
		(layers "F.Cu" "F.Paste" "F.Mask")
		(roundrect_rratio 0.25)
		(thermal_bridge_angle 45)
		(uuid "d1aa5dda-84e6-4dcf-9faa-ec8a18bf8983")
	)
)
