(footprint "INDM410X410X310L125X240N"
	(version 20240108)
	(generator "pcbnew")
	(generator_version "8.0")
	(layer "F.Cu")
	(property "Reference" "REF**"
		(at 0 -0.5 0)
		(unlocked yes)
		(layer "F.SilkS")
		(uuid "c14e3493-a12f-4cd3-b5b6-a8723786c60d")
		(effects
			(font
				(size 1 1)
				(thickness 0.1)
			)
		)
	)
	(property "Value" "INDM410X410X310L125X240N"
		(at 0 1 0)
		(unlocked yes)
		(layer "F.Fab")
		(uuid "764408d2-01e4-4472-b3a1-b042c309a9e8")
		(effects
			(font
				(size 1 1)
				(thickness 0.15)
			)
		)
	)
	(property "Footprint" ""
		(at 0 0 0)
		(unlocked yes)
		(layer "F.Fab")
		(hide yes)
		(uuid "9ca833c5-5ce3-4f0d-a787-10f1c8d8a55b")
		(effects
			(font
				(size 1 1)
				(thickness 0.15)
			)
		)
	)
	(property "Datasheet" ""
		(at 0 0 0)
		(unlocked yes)
		(layer "F.Fab")
		(hide yes)
		(uuid "2aaa93f8-bac2-468f-9a43-94cc2f68a8a9")
		(effects
			(font
				(size 1 1)
				(thickness 0.15)
			)
		)
	)
	(property "Description" ""
		(at 0 0 0)
		(unlocked yes)
		(layer "F.Fab")
		(hide yes)
		(uuid "39c75d92-de22-4d22-b233-53266916fe42")
		(effects
			(font
				(size 1 1)
				(thickness 0.15)
			)
		)
	)
	(attr smd)
	(fp_rect
		(start -2.05 -2.06)
		(end 2.05 2.04)
		(stroke
			(width 0.1)
			(type default)
		)
		(fill none)
		(layer "F.SilkS")
		(uuid "c8e09bbf-92c0-4649-9768-d36cef735f3f")
	)
	(fp_rect
		(start -2.3 -2.3)
		(end 2.3 2.3)
		(stroke
			(width 0.05)
			(type default)
		)
		(fill none)
		(layer "F.CrtYd")
		(uuid "3446741a-2429-42df-a580-441ac69fc875")
	)
	(fp_rect
		(start -2.15 -2.15)
		(end 2.15 2.14)
		(stroke
			(width 0.1)
			(type default)
		)
		(fill none)
		(layer "F.Fab")
		(uuid "97551379-f1f0-4569-8a4b-5cd5e95cca72")
	)
	(fp_text user "${REFERENCE}"
		(at 0 2.5 0)
		(unlocked yes)
		(layer "F.Fab")
		(uuid "2b70c835-fb8d-4700-b887-1a0c0dc1a330")
		(effects
			(font
				(size 1 1)
				(thickness 0.15)
			)
		)
	)
	(pad "1" smd roundrect
		(at -1.185 0)
		(size 0.98 3.7)
		(layers "F.Cu" "F.Paste" "F.Mask")
		(roundrect_rratio 0.25)
		(thermal_bridge_angle 45)
		(uuid "58b91b95-833c-464d-b0d3-7664112a12fa")
	)
	(pad "2" smd roundrect
		(at 1.185 0)
		(size 0.98 3.7)
		(layers "F.Cu" "F.Paste" "F.Mask")
		(roundrect_rratio 0.25)
		(thermal_bridge_angle 45)
		(uuid "b3fedebe-efe9-4f14-bab5-d58c1082ddd5")
	)
	(zone
		(net 0)
		(net_name "")
		(layer "F.Cu")
		(uuid "b96dfc2c-cb67-4563-a6e5-05453ada26c9")
		(hatch edge 0.5)
		(connect_pads
			(clearance 0)
		)
		(min_thickness 0.25)
		(filled_areas_thickness no)
		(keepout
			(tracks not_allowed)
			(vias not_allowed)
			(pads not_allowed)
			(copperpour allowed)
			(footprints allowed)
		)
		(fill
			(thermal_gap 0.5)
			(thermal_bridge_width 0.5)
		)
		(polygon
			(pts
				(xy -0.69 1.85) (xy -0.69 -1.85) (xy 0.69 -1.85) (xy 0.69 1.85)
			)
		)
	)
)
