(footprint "INDM790X730X520L200X300N"
	(version 20240108)
	(generator "pcbnew")
	(generator_version "8.0")
	(layer "F.Cu")
	(property "Reference" "REF**"
		(at 0 -0.5 0)
		(unlocked yes)
		(layer "F.SilkS")
		(uuid "e5bb3608-3ec6-44cf-9fab-2d79191180bd")
		(effects
			(font
				(size 1 1)
				(thickness 0.1)
			)
		)
	)
	(property "Value" "INDM790X730X520L200X300N"
		(at 0 1 0)
		(unlocked yes)
		(layer "F.Fab")
		(uuid "0613c949-b17a-4bef-b7c0-e9108e130bbe")
		(effects
			(font
				(size 1 1)
				(thickness 0.15)
			)
		)
	)
	(property "Footprint" ""
		(at 0 0 0)
		(unlocked yes)
		(layer "F.Fab")
		(hide yes)
		(uuid "0648f28d-a137-4dd3-933f-d2aa7d2aab28")
		(effects
			(font
				(size 1 1)
				(thickness 0.15)
			)
		)
	)
	(property "Datasheet" ""
		(at 0 0 0)
		(unlocked yes)
		(layer "F.Fab")
		(hide yes)
		(uuid "3ad739c6-9853-4a59-ad39-a2f4a390c609")
		(effects
			(font
				(size 1 1)
				(thickness 0.15)
			)
		)
	)
	(property "Description" ""
		(at 0 0 0)
		(unlocked yes)
		(layer "F.Fab")
		(hide yes)
		(uuid "47a781fe-7ad5-4396-a3d3-46bac8cbd0d0")
		(effects
			(font
				(size 1 1)
				(thickness 0.15)
			)
		)
	)
	(attr smd)
	(fp_line
		(start -3.65 -3.65)
		(end -3.65 -1.85)
		(stroke
			(width 0.1)
			(type default)
		)
		(layer "F.SilkS")
		(uuid "f07127f1-f600-4169-9275-ad86fd708482")
	)
	(fp_line
		(start -3.65 1.85)
		(end -3.65 3.65)
		(stroke
			(width 0.1)
			(type default)
		)
		(layer "F.SilkS")
		(uuid "4607728c-1ce4-40d3-91c2-3e76fd041020")
	)
	(fp_line
		(start -3.65 3.65)
		(end 3.65 3.65)
		(stroke
			(width 0.1)
			(type default)
		)
		(layer "F.SilkS")
		(uuid "f96de2bb-7419-47f5-b999-0fe27e0606cf")
	)
	(fp_line
		(start 3.65 -3.65)
		(end -3.65 -3.65)
		(stroke
			(width 0.1)
			(type default)
		)
		(layer "F.SilkS")
		(uuid "50b6d86b-c1fb-4a13-a3db-5e6fed236631")
	)
	(fp_line
		(start 3.65 -1.85)
		(end 3.65 -3.65)
		(stroke
			(width 0.1)
			(type default)
		)
		(layer "F.SilkS")
		(uuid "873a7c25-ca65-476b-8de9-23435cf0be42")
	)
	(fp_line
		(start 3.65 3.65)
		(end 3.65 1.85)
		(stroke
			(width 0.1)
			(type default)
		)
		(layer "F.SilkS")
		(uuid "3f3af9a6-c99a-4a28-8ff3-a032b27f254a")
	)
	(fp_line
		(start -4.7 1.95)
		(end -4.7 -1.95)
		(stroke
			(width 0.05)
			(type default)
		)
		(layer "F.CrtYd")
		(uuid "66d003ab-b2cc-4c88-9b98-4421ed315a6e")
	)
	(fp_line
		(start -3.85 -3.85)
		(end 3.85 -3.85)
		(stroke
			(width 0.05)
			(type default)
		)
		(layer "F.CrtYd")
		(uuid "ed10ac59-47ca-4595-9bbb-ec4e2a5a7c4c")
	)
	(fp_line
		(start -3.85 -1.95)
		(end -4.7 -1.95)
		(stroke
			(width 0.05)
			(type default)
		)
		(layer "F.CrtYd")
		(uuid "5ea00ca0-3c65-47e8-a177-9fa94062bf23")
	)
	(fp_line
		(start -3.85 -1.95)
		(end -3.85 -3.85)
		(stroke
			(width 0.05)
			(type default)
		)
		(layer "F.CrtYd")
		(uuid "3d2f8b2f-21d3-445d-bc9a-2c9f1fbf3dbc")
	)
	(fp_line
		(start -3.85 1.95)
		(end -4.7 1.95)
		(stroke
			(width 0.05)
			(type default)
		)
		(layer "F.CrtYd")
		(uuid "d4c998a3-bb28-40f5-b19a-47b61dbf4817")
	)
	(fp_line
		(start -3.85 3.85)
		(end -3.85 1.95)
		(stroke
			(width 0.05)
			(type default)
		)
		(layer "F.CrtYd")
		(uuid "6cd70178-1422-4f7f-8666-7544a4986dc4")
	)
	(fp_line
		(start -3.85 3.85)
		(end 3.85 3.85)
		(stroke
			(width 0.05)
			(type default)
		)
		(layer "F.CrtYd")
		(uuid "e0ef0c7c-8d80-40e4-a311-8d611756c1c4")
	)
	(fp_line
		(start 3.85 -1.95)
		(end 3.85 -3.85)
		(stroke
			(width 0.05)
			(type default)
		)
		(layer "F.CrtYd")
		(uuid "ddac740e-f1dc-4421-9902-5abb2dbf045a")
	)
	(fp_line
		(start 3.85 3.85)
		(end 3.85 1.95)
		(stroke
			(width 0.05)
			(type default)
		)
		(layer "F.CrtYd")
		(uuid "49af0845-ad18-49c9-8773-cf7e68ed2f10")
	)
	(fp_line
		(start 4.7 -1.95)
		(end 3.85 -1.95)
		(stroke
			(width 0.05)
			(type default)
		)
		(layer "F.CrtYd")
		(uuid "6f0cd75e-5b9b-4410-8045-ef38ddf5dd78")
	)
	(fp_line
		(start 4.7 1.95)
		(end 3.85 1.95)
		(stroke
			(width 0.05)
			(type default)
		)
		(layer "F.CrtYd")
		(uuid "7e2f55f5-fcf9-4304-8864-3172a9c9d776")
	)
	(fp_line
		(start 4.7 1.95)
		(end 4.7 -1.95)
		(stroke
			(width 0.05)
			(type default)
		)
		(layer "F.CrtYd")
		(uuid "ffb78dc4-5f9c-4258-b30d-2d9e09622ada")
	)
	(fp_rect
		(start -3.75 -3.75)
		(end 3.75 3.75)
		(stroke
			(width 0.1)
			(type default)
		)
		(fill none)
		(layer "F.Fab")
		(uuid "3c48b0d4-e419-4908-becf-3c257d41b02f")
	)
	(fp_text user "${REFERENCE}"
		(at 0 2.5 0)
		(unlocked yes)
		(layer "F.Fab")
		(uuid "7795c4e3-688d-47eb-9448-b430e980eebb")
		(effects
			(font
				(size 1 1)
				(thickness 0.15)
			)
		)
	)
	(pad "1" smd roundrect
		(at -3 0)
		(size 3 3.5)
		(layers "F.Cu" "F.Paste" "F.Mask")
		(roundrect_rratio 0.25)
		(thermal_bridge_angle 45)
		(uuid "5c27934c-f4be-4da3-8040-a36d4726fa9d")
	)
	(pad "2" smd roundrect
		(at 3 0)
		(size 3 3.5)
		(layers "F.Cu" "F.Paste" "F.Mask")
		(roundrect_rratio 0.25)
		(thermal_bridge_angle 45)
		(uuid "e9fc7fda-dedc-426c-a52b-cc95c33e49d6")
	)
)
