(module INDM365X300X200L80X50N (layer F.Cu) (tedit 5C9F7AF6)
  (descr "Inductor, Molded Body; 3.00 mm L X 3.00 mm W X 2.00 mm H body")
  (attr smd)
  (fp_text reference L1 (at 0 0) (layer F.SilkS)
    (effects (font (size 1.2 1.2) (thickness 0.12)))
  )
  (fp_text value 1u5 (at 0 0) (layer F.Fab)
    (effects (font (size 1.2 1.2) (thickness 0.12)))
  )
  (fp_text user %R (at 0 0) (layer F.Fab)
    (effects (font (size 2 2) (thickness 0.2)))
  )
  (fp_line (start -1.025 -0.25) (end -1.025 0.25) (layer Dwgs.User) (width 0.025))
  (fp_line (start -1.025 0.25) (end -1.825 0.25) (layer Dwgs.User) (width 0.025))
  (fp_line (start -1.825 0.25) (end -1.825 -0.25) (layer Dwgs.User) (width 0.025))
  (fp_line (start -1.825 -0.25) (end -1.025 -0.25) (layer Dwgs.User) (width 0.025))
  (fp_line (start 1.025 0.25) (end 1.025 -0.25) (layer Dwgs.User) (width 0.025))
  (fp_line (start 1.025 -0.25) (end 1.825 -0.25) (layer Dwgs.User) (width 0.025))
  (fp_line (start 1.825 -0.25) (end 1.825 0.25) (layer Dwgs.User) (width 0.025))
  (fp_line (start 1.825 0.25) (end 1.025 0.25) (layer Dwgs.User) (width 0.025))
  (fp_line (start -1.5 1.5) (end -1.5 -1.5) (layer Dwgs.User) (width 0.025))
  (fp_line (start -1.5 -1.5) (end 1.5 -1.5) (layer Dwgs.User) (width 0.025))
  (fp_line (start 1.5 -1.5) (end 1.5 1.5) (layer Dwgs.User) (width 0.025))
  (fp_line (start 1.5 1.5) (end -1.5 1.5) (layer Dwgs.User) (width 0.025))
  (fp_line (start -1.6 1.6) (end -1.6 -1.6) (layer F.Fab) (width 0.12))
  (fp_line (start -1.6 -1.6) (end 1.6 -1.6) (layer F.Fab) (width 0.12))
  (fp_line (start 1.6 -1.6) (end 1.6 1.6) (layer F.Fab) (width 0.12))
  (fp_line (start 1.6 1.6) (end -1.6 1.6) (layer F.Fab) (width 0.12))
  (fp_line (start -1.6 -0.54) (end -1.6 -1.6) (layer F.SilkS) (width 0.12))
  (fp_line (start 1.6 0.54) (end 1.6 1.6) (layer F.SilkS) (width 0.12))
  (fp_circle (center 0 0) (end 0.25 0) (layer Dwgs.User) (width 0.05))
  (fp_line (start 0.35 0) (end -0.35 0) (layer Dwgs.User) (width 0.05))
  (fp_line (start 0 -0.35) (end 0 0.35) (layer Dwgs.User) (width 0.05))
  (fp_line (start 1.6 1.6) (end -1.6 1.6) (layer F.SilkS) (width 0.12))
  (fp_line (start -1.6 1.6) (end -1.6 0.54) (layer F.SilkS) (width 0.12))
  (fp_line (start -1.6 -1.6) (end 1.6 -1.6) (layer F.SilkS) (width 0.12))
  (fp_line (start 1.6 -1.6) (end 1.6 -0.54) (layer F.SilkS) (width 0.12))
  (fp_line (start -1.8 1.8) (end 1.8 1.8) (layer F.CrtYd) (width 0.05))
  (fp_line (start 1.8 1.8) (end 1.8 0.56) (layer F.CrtYd) (width 0.05))
  (fp_line (start 1.8 0.56) (end 2.53 0.56) (layer F.CrtYd) (width 0.05))
  (fp_line (start 2.53 0.56) (end 2.53 -0.56) (layer F.CrtYd) (width 0.05))
  (fp_line (start 2.53 -0.56) (end 1.8 -0.56) (layer F.CrtYd) (width 0.05))
  (fp_line (start 1.8 -0.56) (end 1.8 -1.8) (layer F.CrtYd) (width 0.05))
  (fp_line (start 1.8 -1.8) (end -1.8 -1.8) (layer F.CrtYd) (width 0.05))
  (fp_line (start -1.8 -1.8) (end -1.8 -0.56) (layer F.CrtYd) (width 0.05))
  (fp_line (start -1.8 -0.56) (end -2.53 -0.56) (layer F.CrtYd) (width 0.05))
  (fp_line (start -2.53 -0.56) (end -2.53 0.56) (layer F.CrtYd) (width 0.05))
  (fp_line (start -2.53 0.56) (end -1.8 0.56) (layer F.CrtYd) (width 0.05))
  (fp_line (start -1.8 0.56) (end -1.8 1.8) (layer F.CrtYd) (width 0.05))
  (pad 1 smd rect (at -1.545 0) (size 1.57 0.72) (layers F.Cu F.Paste F.Mask))
  (pad 2 smd rect (at 1.545 0) (size 1.57 0.72) (layers F.Cu F.Paste F.Mask))
)
