(footprint "NPTH_63pad_63drill" (version 20221018) (generator pcbnew)
  (layer "F.Cu")
  (attr through_hole)
  (fp_text reference "REF**" (at 0 -0.5 unlocked) (layer "F.SilkS") hide
      (effects (font (size 1 1) (thickness 0.1)))
    (tstamp 401491ca-6210-4eeb-bcb2-d9abaf48119e)
  )
  (fp_text value "NPTH_63pad_63drill" (at 0 1 unlocked) (layer "F.Fab") hide
      (effects (font (size 1 1) (thickness 0.15)))
    (tstamp 5c74df50-057a-4cf0-8d0a-4cb423f80709)
  )
  (fp_text user "${REFERENCE}" (at 0 2.5 unlocked) (layer "F.Fab") hide
      (effects (font (size 1 1) (thickness 0.15)))
    (tstamp 4bc77b02-eb44-4ec7-92a0-b05f4ef78e68)
  )
  (pad "" np_thru_hole circle (at 0 0) (size 0.635 0.635) (drill 0.635) (layers "F&B.Cu" "*.Mask") (tstamp fe708e7d-339f-42db-af6a-1782bfccbfc2))
)
