(module SOIC8P127_478X599X175L84X41N (layer F.Cu) (tedit 0)
  (descr "Small Outline IC (SOIC), 1.27 mm pitch; 8 pin, 4.785 mm L X 3.895 mm W X 1.75 mm H body")
  (attr smd)
  (fp_text user %R (at 0 0) (layer F.Fab)
    (effects (font (size 2 2) (thickness 0.2)))
  )
  (fp_text value VAL** (at 0 0) (layer F.Fab)
    (effects (font (size 1.2 1.2) (thickness 0.12)))
  )
  (fp_text reference REF** (at 0 0) (layer F.SilkS)
    (effects (font (size 1.2 1.2) (thickness 0.12)))
  )
  (fp_line (start -2.11 2.1575) (end -1.7 2.1575) (layer Dwgs.User) (width 0.025))
  (fp_line (start -1.7 2.1575) (end -1.7 2.9975) (layer Dwgs.User) (width 0.025))
  (fp_line (start -1.7 2.9975) (end -2.11 2.9975) (layer Dwgs.User) (width 0.025))
  (fp_line (start -2.11 2.9975) (end -2.11 2.1575) (layer Dwgs.User) (width 0.025))
  (fp_line (start -0.84 2.1575) (end -0.43 2.1575) (layer Dwgs.User) (width 0.025))
  (fp_line (start -0.43 2.1575) (end -0.43 2.9975) (layer Dwgs.User) (width 0.025))
  (fp_line (start -0.43 2.9975) (end -0.84 2.9975) (layer Dwgs.User) (width 0.025))
  (fp_line (start -0.84 2.9975) (end -0.84 2.1575) (layer Dwgs.User) (width 0.025))
  (fp_line (start 0.43 2.1575) (end 0.84 2.1575) (layer Dwgs.User) (width 0.025))
  (fp_line (start 0.84 2.1575) (end 0.84 2.9975) (layer Dwgs.User) (width 0.025))
  (fp_line (start 0.84 2.9975) (end 0.43 2.9975) (layer Dwgs.User) (width 0.025))
  (fp_line (start 0.43 2.9975) (end 0.43 2.1575) (layer Dwgs.User) (width 0.025))
  (fp_line (start 1.7 2.1575) (end 2.11 2.1575) (layer Dwgs.User) (width 0.025))
  (fp_line (start 2.11 2.1575) (end 2.11 2.9975) (layer Dwgs.User) (width 0.025))
  (fp_line (start 2.11 2.9975) (end 1.7 2.9975) (layer Dwgs.User) (width 0.025))
  (fp_line (start 1.7 2.9975) (end 1.7 2.1575) (layer Dwgs.User) (width 0.025))
  (fp_line (start 2.11 -2.1575) (end 1.7 -2.1575) (layer Dwgs.User) (width 0.025))
  (fp_line (start 1.7 -2.1575) (end 1.7 -2.9975) (layer Dwgs.User) (width 0.025))
  (fp_line (start 1.7 -2.9975) (end 2.11 -2.9975) (layer Dwgs.User) (width 0.025))
  (fp_line (start 2.11 -2.9975) (end 2.11 -2.1575) (layer Dwgs.User) (width 0.025))
  (fp_line (start 0.84 -2.1575) (end 0.43 -2.1575) (layer Dwgs.User) (width 0.025))
  (fp_line (start 0.43 -2.1575) (end 0.43 -2.9975) (layer Dwgs.User) (width 0.025))
  (fp_line (start 0.43 -2.9975) (end 0.84 -2.9975) (layer Dwgs.User) (width 0.025))
  (fp_line (start 0.84 -2.9975) (end 0.84 -2.1575) (layer Dwgs.User) (width 0.025))
  (fp_line (start -0.43 -2.1575) (end -0.84 -2.1575) (layer Dwgs.User) (width 0.025))
  (fp_line (start -0.84 -2.1575) (end -0.84 -2.9975) (layer Dwgs.User) (width 0.025))
  (fp_line (start -0.84 -2.9975) (end -0.43 -2.9975) (layer Dwgs.User) (width 0.025))
  (fp_line (start -0.43 -2.9975) (end -0.43 -2.1575) (layer Dwgs.User) (width 0.025))
  (fp_line (start -1.7 -2.1575) (end -2.11 -2.1575) (layer Dwgs.User) (width 0.025))
  (fp_line (start -2.11 -2.1575) (end -2.11 -2.9975) (layer Dwgs.User) (width 0.025))
  (fp_line (start -2.11 -2.9975) (end -1.7 -2.9975) (layer Dwgs.User) (width 0.025))
  (fp_line (start -1.7 -2.9975) (end -1.7 -2.1575) (layer Dwgs.User) (width 0.025))
  (fp_line (start -2.3925 1.9475) (end -2.3925 -1.9475) (layer Dwgs.User) (width 0.025))
  (fp_line (start -2.3925 -1.9475) (end 2.3925 -1.9475) (layer Dwgs.User) (width 0.025))
  (fp_line (start 2.3925 -1.9475) (end 2.3925 1.9475) (layer Dwgs.User) (width 0.025))
  (fp_line (start 2.3925 1.9475) (end -2.3925 1.9475) (layer Dwgs.User) (width 0.025))
  (fp_line (start -2.5 1.99) (end -2.5 -1.99) (layer F.Fab) (width 0.12))
  (fp_line (start -2.5 -1.99) (end 2.5 -1.99) (layer F.Fab) (width 0.12))
  (fp_line (start 2.5 -1.99) (end 2.5 1.99) (layer F.Fab) (width 0.12))
  (fp_line (start 2.5 1.99) (end -2.5 1.99) (layer F.Fab) (width 0.12))
  (fp_circle (center 0 0) (end 0 0.25) (layer F.CrtYd) (width 0.05))
  (fp_line (start 0 -0.35) (end 0 0.35) (layer F.CrtYd) (width 0.05))
  (fp_line (start -0.35 0) (end 0.35 0) (layer F.CrtYd) (width 0.05))
  (fp_line (start -2.5 1.99) (end -2.5 -1.99) (layer F.SilkS) (width 0.12))
  (fp_line (start 2.5 1.99) (end 2.5 -1.99) (layer F.SilkS) (width 0.12))
  (fp_line (start -2.415 1.99) (end -2.415 3.395) (layer F.SilkS) (width 0.12))
  (fp_line (start 2.7 2.19) (end 2.7 -2.19) (layer F.CrtYd) (width 0.05))
  (fp_line (start 2.7 -2.19) (end 2.435 -2.19) (layer F.CrtYd) (width 0.05))
  (fp_line (start 2.435 -2.19) (end 2.435 -3.655) (layer F.CrtYd) (width 0.05))
  (fp_line (start 2.435 -3.655) (end -2.435 -3.655) (layer F.CrtYd) (width 0.05))
  (fp_line (start -2.435 -3.655) (end -2.435 -2.19) (layer F.CrtYd) (width 0.05))
  (fp_line (start -2.435 -2.19) (end -2.7 -2.19) (layer F.CrtYd) (width 0.05))
  (fp_line (start -2.7 -2.19) (end -2.7 2.19) (layer F.CrtYd) (width 0.05))
  (fp_line (start -2.7 2.19) (end -2.435 2.19) (layer F.CrtYd) (width 0.05))
  (fp_line (start -2.435 2.19) (end -2.435 3.655) (layer F.CrtYd) (width 0.05))
  (fp_line (start -2.435 3.655) (end 2.435 3.655) (layer F.CrtYd) (width 0.05))
  (fp_line (start 2.435 3.655) (end 2.435 2.19) (layer F.CrtYd) (width 0.05))
  (fp_line (start 2.435 2.19) (end 2.7 2.19) (layer F.CrtYd) (width 0.05))
  (pad 1 smd roundrect (at -1.905 2.42 90) (size 2.07 0.66) (layers F.Cu F.Paste F.Mask) (roundrect_rratio 0.2576))
  (pad 2 smd roundrect (at -0.635 2.42 90) (size 2.07 0.66) (layers F.Cu F.Paste F.Mask) (roundrect_rratio 0.2576))
  (pad 3 smd roundrect (at 0.635 2.42 90) (size 2.07 0.66) (layers F.Cu F.Paste F.Mask) (roundrect_rratio 0.2576))
  (pad 4 smd roundrect (at 1.905 2.42 90) (size 2.07 0.66) (layers F.Cu F.Paste F.Mask) (roundrect_rratio 0.2576))
  (pad 5 smd roundrect (at 1.905 -2.42 90) (size 2.07 0.66) (layers F.Cu F.Paste F.Mask) (roundrect_rratio 0.2576))
  (pad 6 smd roundrect (at 0.635 -2.42 90) (size 2.07 0.66) (layers F.Cu F.Paste F.Mask) (roundrect_rratio 0.2576))
  (pad 7 smd roundrect (at -0.635 -2.42 90) (size 2.07 0.66) (layers F.Cu F.Paste F.Mask) (roundrect_rratio 0.2576))
  (pad 8 smd roundrect (at -1.905 -2.42 90) (size 2.07 0.66) (layers F.Cu F.Paste F.Mask) (roundrect_rratio 0.2576))
)
