(module SOIC14P127_900X1032X170L101X43N (layer F.Cu) (tedit 0)
  (descr "Small Outline IC (SOIC), 1.27 mm pitch; 14 pin, 9.00 mm L X 7.50 mm W X 1.70 mm H body")
  (attr smd)
  (fp_text user %R (at 0 0) (layer F.SilkS)
    (effects (font (size 2 2) (thickness 0.2)))
  )
  (fp_text value VAL** (at 0 0) (layer F.Fab)
    (effects (font (size 1.2 1.2) (thickness 0.12)))
  )
  (fp_text reference REF** (at 0 0) (layer F.Fab)
    (effects (font (size 1.2 1.2) (thickness 0.12)))
  )
  (fp_line (start -4.025 4.145) (end -3.595 4.145) (layer Dwgs.User) (width 0.025))
  (fp_line (start -3.595 4.145) (end -3.595 5.16) (layer Dwgs.User) (width 0.025))
  (fp_line (start -3.595 5.16) (end -4.025 5.16) (layer Dwgs.User) (width 0.025))
  (fp_line (start -4.025 5.16) (end -4.025 4.145) (layer Dwgs.User) (width 0.025))
  (fp_line (start -2.755 4.145) (end -2.325 4.145) (layer Dwgs.User) (width 0.025))
  (fp_line (start -2.325 4.145) (end -2.325 5.16) (layer Dwgs.User) (width 0.025))
  (fp_line (start -2.325 5.16) (end -2.755 5.16) (layer Dwgs.User) (width 0.025))
  (fp_line (start -2.755 5.16) (end -2.755 4.145) (layer Dwgs.User) (width 0.025))
  (fp_line (start -1.485 4.145) (end -1.055 4.145) (layer Dwgs.User) (width 0.025))
  (fp_line (start -1.055 4.145) (end -1.055 5.16) (layer Dwgs.User) (width 0.025))
  (fp_line (start -1.055 5.16) (end -1.485 5.16) (layer Dwgs.User) (width 0.025))
  (fp_line (start -1.485 5.16) (end -1.485 4.145) (layer Dwgs.User) (width 0.025))
  (fp_line (start -0.215 4.145) (end 0.215 4.145) (layer Dwgs.User) (width 0.025))
  (fp_line (start 0.215 4.145) (end 0.215 5.16) (layer Dwgs.User) (width 0.025))
  (fp_line (start 0.215 5.16) (end -0.215 5.16) (layer Dwgs.User) (width 0.025))
  (fp_line (start -0.215 5.16) (end -0.215 4.145) (layer Dwgs.User) (width 0.025))
  (fp_line (start 1.055 4.145) (end 1.485 4.145) (layer Dwgs.User) (width 0.025))
  (fp_line (start 1.485 4.145) (end 1.485 5.16) (layer Dwgs.User) (width 0.025))
  (fp_line (start 1.485 5.16) (end 1.055 5.16) (layer Dwgs.User) (width 0.025))
  (fp_line (start 1.055 5.16) (end 1.055 4.145) (layer Dwgs.User) (width 0.025))
  (fp_line (start 2.325 4.145) (end 2.755 4.145) (layer Dwgs.User) (width 0.025))
  (fp_line (start 2.755 4.145) (end 2.755 5.16) (layer Dwgs.User) (width 0.025))
  (fp_line (start 2.755 5.16) (end 2.325 5.16) (layer Dwgs.User) (width 0.025))
  (fp_line (start 2.325 5.16) (end 2.325 4.145) (layer Dwgs.User) (width 0.025))
  (fp_line (start 3.595 4.145) (end 4.025 4.145) (layer Dwgs.User) (width 0.025))
  (fp_line (start 4.025 4.145) (end 4.025 5.16) (layer Dwgs.User) (width 0.025))
  (fp_line (start 4.025 5.16) (end 3.595 5.16) (layer Dwgs.User) (width 0.025))
  (fp_line (start 3.595 5.16) (end 3.595 4.145) (layer Dwgs.User) (width 0.025))
  (fp_line (start 4.025 -4.145) (end 3.595 -4.145) (layer Dwgs.User) (width 0.025))
  (fp_line (start 3.595 -4.145) (end 3.595 -5.16) (layer Dwgs.User) (width 0.025))
  (fp_line (start 3.595 -5.16) (end 4.025 -5.16) (layer Dwgs.User) (width 0.025))
  (fp_line (start 4.025 -5.16) (end 4.025 -4.145) (layer Dwgs.User) (width 0.025))
  (fp_line (start 2.755 -4.145) (end 2.325 -4.145) (layer Dwgs.User) (width 0.025))
  (fp_line (start 2.325 -4.145) (end 2.325 -5.16) (layer Dwgs.User) (width 0.025))
  (fp_line (start 2.325 -5.16) (end 2.755 -5.16) (layer Dwgs.User) (width 0.025))
  (fp_line (start 2.755 -5.16) (end 2.755 -4.145) (layer Dwgs.User) (width 0.025))
  (fp_line (start 1.485 -4.145) (end 1.055 -4.145) (layer Dwgs.User) (width 0.025))
  (fp_line (start 1.055 -4.145) (end 1.055 -5.16) (layer Dwgs.User) (width 0.025))
  (fp_line (start 1.055 -5.16) (end 1.485 -5.16) (layer Dwgs.User) (width 0.025))
  (fp_line (start 1.485 -5.16) (end 1.485 -4.145) (layer Dwgs.User) (width 0.025))
  (fp_line (start 0.215 -4.145) (end -0.215 -4.145) (layer Dwgs.User) (width 0.025))
  (fp_line (start -0.215 -4.145) (end -0.215 -5.16) (layer Dwgs.User) (width 0.025))
  (fp_line (start -0.215 -5.16) (end 0.215 -5.16) (layer Dwgs.User) (width 0.025))
  (fp_line (start 0.215 -5.16) (end 0.215 -4.145) (layer Dwgs.User) (width 0.025))
  (fp_line (start -1.055 -4.145) (end -1.485 -4.145) (layer Dwgs.User) (width 0.025))
  (fp_line (start -1.485 -4.145) (end -1.485 -5.16) (layer Dwgs.User) (width 0.025))
  (fp_line (start -1.485 -5.16) (end -1.055 -5.16) (layer Dwgs.User) (width 0.025))
  (fp_line (start -1.055 -5.16) (end -1.055 -4.145) (layer Dwgs.User) (width 0.025))
  (fp_line (start -2.325 -4.145) (end -2.755 -4.145) (layer Dwgs.User) (width 0.025))
  (fp_line (start -2.755 -4.145) (end -2.755 -5.16) (layer Dwgs.User) (width 0.025))
  (fp_line (start -2.755 -5.16) (end -2.325 -5.16) (layer Dwgs.User) (width 0.025))
  (fp_line (start -2.325 -5.16) (end -2.325 -4.145) (layer Dwgs.User) (width 0.025))
  (fp_line (start -3.595 -4.145) (end -4.025 -4.145) (layer Dwgs.User) (width 0.025))
  (fp_line (start -4.025 -4.145) (end -4.025 -5.16) (layer Dwgs.User) (width 0.025))
  (fp_line (start -4.025 -5.16) (end -3.595 -5.16) (layer Dwgs.User) (width 0.025))
  (fp_line (start -3.595 -5.16) (end -3.595 -4.145) (layer Dwgs.User) (width 0.025))
  (fp_line (start -4.5 3.75) (end -4.5 -3.75) (layer Dwgs.User) (width 0.025))
  (fp_line (start -4.5 -3.75) (end 4.5 -3.75) (layer Dwgs.User) (width 0.025))
  (fp_line (start 4.5 -3.75) (end 4.5 3.75) (layer Dwgs.User) (width 0.025))
  (fp_line (start 4.5 3.75) (end -4.5 3.75) (layer Dwgs.User) (width 0.025))
  (fp_line (start -4.6 3.8) (end -4.6 -3.8) (layer F.Fab) (width 0.12))
  (fp_line (start -4.6 -3.8) (end 4.6 -3.8) (layer F.Fab) (width 0.12))
  (fp_line (start 4.6 -3.8) (end 4.6 3.8) (layer F.Fab) (width 0.12))
  (fp_line (start 4.6 3.8) (end -4.6 3.8) (layer F.Fab) (width 0.12))
  (fp_circle (center 0 0) (end 0 0.25) (layer F.CrtYd) (width 0.05))
  (fp_line (start 0 -0.35) (end 0 0.35) (layer F.CrtYd) (width 0.05))
  (fp_line (start -0.35 0) (end 0.35 0) (layer F.CrtYd) (width 0.05))
  (fp_line (start 4.325 3.8) (end 4.6 3.8) (layer F.SilkS) (width 0.12))
  (fp_line (start 4.6 3.8) (end 4.6 -3.8) (layer F.SilkS) (width 0.12))
  (fp_line (start 4.6 -3.8) (end 4.325 -3.8) (layer F.SilkS) (width 0.12))
  (fp_line (start -4.325 3.8) (end -4.6 3.8) (layer F.SilkS) (width 0.12))
  (fp_line (start -4.6 3.8) (end -4.6 -3.8) (layer F.SilkS) (width 0.12))
  (fp_line (start -4.6 -3.8) (end -4.325 -3.8) (layer F.SilkS) (width 0.12))
  (fp_line (start -4.325 3.8) (end -4.325 5.615) (layer F.SilkS) (width 0.12))
  (fp_line (start 4.8 4) (end 4.8 -4) (layer F.CrtYd) (width 0.05))
  (fp_line (start 4.8 -4) (end 4.345 -4) (layer F.CrtYd) (width 0.05))
  (fp_line (start 4.345 -4) (end 4.345 -5.875) (layer F.CrtYd) (width 0.05))
  (fp_line (start 4.345 -5.875) (end -4.345 -5.875) (layer F.CrtYd) (width 0.05))
  (fp_line (start -4.345 -5.875) (end -4.345 -4) (layer F.CrtYd) (width 0.05))
  (fp_line (start -4.345 -4) (end -4.8 -4) (layer F.CrtYd) (width 0.05))
  (fp_line (start -4.8 -4) (end -4.8 4) (layer F.CrtYd) (width 0.05))
  (fp_line (start -4.8 4) (end -4.345 4) (layer F.CrtYd) (width 0.05))
  (fp_line (start -4.345 4) (end -4.345 5.875) (layer F.CrtYd) (width 0.05))
  (fp_line (start -4.345 5.875) (end 4.345 5.875) (layer F.CrtYd) (width 0.05))
  (fp_line (start 4.345 5.875) (end 4.345 4) (layer F.CrtYd) (width 0.05))
  (fp_line (start 4.345 4) (end 4.8 4) (layer F.CrtYd) (width 0.05))
  (pad 1 smd rect (at -3.81 4.565 90) (size 2.22 0.67) (layers F.Cu F.Paste F.Mask))
  (pad 2 smd rect (at -2.54 4.565 90) (size 2.22 0.67) (layers F.Cu F.Paste F.Mask))
  (pad 3 smd rect (at -1.27 4.565 90) (size 2.22 0.67) (layers F.Cu F.Paste F.Mask))
  (pad 4 smd rect (at 0 4.565 90) (size 2.22 0.67) (layers F.Cu F.Paste F.Mask))
  (pad 5 smd rect (at 1.27 4.565 90) (size 2.22 0.67) (layers F.Cu F.Paste F.Mask))
  (pad 6 smd rect (at 2.54 4.565 90) (size 2.22 0.67) (layers F.Cu F.Paste F.Mask))
  (pad 7 smd rect (at 3.81 4.565 90) (size 2.22 0.67) (layers F.Cu F.Paste F.Mask))
  (pad 8 smd rect (at 3.81 -4.565 90) (size 2.22 0.67) (layers F.Cu F.Paste F.Mask))
  (pad 9 smd rect (at 2.54 -4.565 90) (size 2.22 0.67) (layers F.Cu F.Paste F.Mask))
  (pad 10 smd rect (at 1.27 -4.565 90) (size 2.22 0.67) (layers F.Cu F.Paste F.Mask))
  (pad 11 smd rect (at 0 -4.565 90) (size 2.22 0.67) (layers F.Cu F.Paste F.Mask))
  (pad 12 smd rect (at -1.27 -4.565 90) (size 2.22 0.67) (layers F.Cu F.Paste F.Mask))
  (pad 13 smd rect (at -2.54 -4.565 90) (size 2.22 0.67) (layers F.Cu F.Paste F.Mask))
  (pad 14 smd rect (at -3.81 -4.565 90) (size 2.22 0.67) (layers F.Cu F.Paste F.Mask))
)
