(module SOIC16P127_991X600X170L84X43N (layer F.Cu) (tedit 0)
  (descr "Small Outline IC (SOIC), 1.27 mm pitch; 16 pin, 9.91 mm L X 3.90 mm W X 1.70 mm H body")
  (attr smd)
  (fp_text user %R (at 0 0) (layer F.SilkS)
    (effects (font (size 2 2) (thickness 0.2)))
  )
  (fp_text value VAL** (at 0 0) (layer F.Fab)
    (effects (font (size 1.2 1.2) (thickness 0.12)))
  )
  (fp_text reference REF** (at 0 0) (layer F.Fab)
    (effects (font (size 1.2 1.2) (thickness 0.12)))
  )
  (fp_line (start -4.66 2.16) (end -4.23 2.16) (layer Dwgs.User) (width 0.025))
  (fp_line (start -4.23 2.16) (end -4.23 3) (layer Dwgs.User) (width 0.025))
  (fp_line (start -4.23 3) (end -4.66 3) (layer Dwgs.User) (width 0.025))
  (fp_line (start -4.66 3) (end -4.66 2.16) (layer Dwgs.User) (width 0.025))
  (fp_line (start -3.39 2.16) (end -2.96 2.16) (layer Dwgs.User) (width 0.025))
  (fp_line (start -2.96 2.16) (end -2.96 3) (layer Dwgs.User) (width 0.025))
  (fp_line (start -2.96 3) (end -3.39 3) (layer Dwgs.User) (width 0.025))
  (fp_line (start -3.39 3) (end -3.39 2.16) (layer Dwgs.User) (width 0.025))
  (fp_line (start -2.12 2.16) (end -1.69 2.16) (layer Dwgs.User) (width 0.025))
  (fp_line (start -1.69 2.16) (end -1.69 3) (layer Dwgs.User) (width 0.025))
  (fp_line (start -1.69 3) (end -2.12 3) (layer Dwgs.User) (width 0.025))
  (fp_line (start -2.12 3) (end -2.12 2.16) (layer Dwgs.User) (width 0.025))
  (fp_line (start -0.85 2.16) (end -0.42 2.16) (layer Dwgs.User) (width 0.025))
  (fp_line (start -0.42 2.16) (end -0.42 3) (layer Dwgs.User) (width 0.025))
  (fp_line (start -0.42 3) (end -0.85 3) (layer Dwgs.User) (width 0.025))
  (fp_line (start -0.85 3) (end -0.85 2.16) (layer Dwgs.User) (width 0.025))
  (fp_line (start 0.42 2.16) (end 0.85 2.16) (layer Dwgs.User) (width 0.025))
  (fp_line (start 0.85 2.16) (end 0.85 3) (layer Dwgs.User) (width 0.025))
  (fp_line (start 0.85 3) (end 0.42 3) (layer Dwgs.User) (width 0.025))
  (fp_line (start 0.42 3) (end 0.42 2.16) (layer Dwgs.User) (width 0.025))
  (fp_line (start 1.69 2.16) (end 2.12 2.16) (layer Dwgs.User) (width 0.025))
  (fp_line (start 2.12 2.16) (end 2.12 3) (layer Dwgs.User) (width 0.025))
  (fp_line (start 2.12 3) (end 1.69 3) (layer Dwgs.User) (width 0.025))
  (fp_line (start 1.69 3) (end 1.69 2.16) (layer Dwgs.User) (width 0.025))
  (fp_line (start 2.96 2.16) (end 3.39 2.16) (layer Dwgs.User) (width 0.025))
  (fp_line (start 3.39 2.16) (end 3.39 3) (layer Dwgs.User) (width 0.025))
  (fp_line (start 3.39 3) (end 2.96 3) (layer Dwgs.User) (width 0.025))
  (fp_line (start 2.96 3) (end 2.96 2.16) (layer Dwgs.User) (width 0.025))
  (fp_line (start 4.23 2.16) (end 4.66 2.16) (layer Dwgs.User) (width 0.025))
  (fp_line (start 4.66 2.16) (end 4.66 3) (layer Dwgs.User) (width 0.025))
  (fp_line (start 4.66 3) (end 4.23 3) (layer Dwgs.User) (width 0.025))
  (fp_line (start 4.23 3) (end 4.23 2.16) (layer Dwgs.User) (width 0.025))
  (fp_line (start 4.66 -2.16) (end 4.23 -2.16) (layer Dwgs.User) (width 0.025))
  (fp_line (start 4.23 -2.16) (end 4.23 -3) (layer Dwgs.User) (width 0.025))
  (fp_line (start 4.23 -3) (end 4.66 -3) (layer Dwgs.User) (width 0.025))
  (fp_line (start 4.66 -3) (end 4.66 -2.16) (layer Dwgs.User) (width 0.025))
  (fp_line (start 3.39 -2.16) (end 2.96 -2.16) (layer Dwgs.User) (width 0.025))
  (fp_line (start 2.96 -2.16) (end 2.96 -3) (layer Dwgs.User) (width 0.025))
  (fp_line (start 2.96 -3) (end 3.39 -3) (layer Dwgs.User) (width 0.025))
  (fp_line (start 3.39 -3) (end 3.39 -2.16) (layer Dwgs.User) (width 0.025))
  (fp_line (start 2.12 -2.16) (end 1.69 -2.16) (layer Dwgs.User) (width 0.025))
  (fp_line (start 1.69 -2.16) (end 1.69 -3) (layer Dwgs.User) (width 0.025))
  (fp_line (start 1.69 -3) (end 2.12 -3) (layer Dwgs.User) (width 0.025))
  (fp_line (start 2.12 -3) (end 2.12 -2.16) (layer Dwgs.User) (width 0.025))
  (fp_line (start 0.85 -2.16) (end 0.42 -2.16) (layer Dwgs.User) (width 0.025))
  (fp_line (start 0.42 -2.16) (end 0.42 -3) (layer Dwgs.User) (width 0.025))
  (fp_line (start 0.42 -3) (end 0.85 -3) (layer Dwgs.User) (width 0.025))
  (fp_line (start 0.85 -3) (end 0.85 -2.16) (layer Dwgs.User) (width 0.025))
  (fp_line (start -0.42 -2.16) (end -0.85 -2.16) (layer Dwgs.User) (width 0.025))
  (fp_line (start -0.85 -2.16) (end -0.85 -3) (layer Dwgs.User) (width 0.025))
  (fp_line (start -0.85 -3) (end -0.42 -3) (layer Dwgs.User) (width 0.025))
  (fp_line (start -0.42 -3) (end -0.42 -2.16) (layer Dwgs.User) (width 0.025))
  (fp_line (start -1.69 -2.16) (end -2.12 -2.16) (layer Dwgs.User) (width 0.025))
  (fp_line (start -2.12 -2.16) (end -2.12 -3) (layer Dwgs.User) (width 0.025))
  (fp_line (start -2.12 -3) (end -1.69 -3) (layer Dwgs.User) (width 0.025))
  (fp_line (start -1.69 -3) (end -1.69 -2.16) (layer Dwgs.User) (width 0.025))
  (fp_line (start -2.96 -2.16) (end -3.39 -2.16) (layer Dwgs.User) (width 0.025))
  (fp_line (start -3.39 -2.16) (end -3.39 -3) (layer Dwgs.User) (width 0.025))
  (fp_line (start -3.39 -3) (end -2.96 -3) (layer Dwgs.User) (width 0.025))
  (fp_line (start -2.96 -3) (end -2.96 -2.16) (layer Dwgs.User) (width 0.025))
  (fp_line (start -4.23 -2.16) (end -4.66 -2.16) (layer Dwgs.User) (width 0.025))
  (fp_line (start -4.66 -2.16) (end -4.66 -3) (layer Dwgs.User) (width 0.025))
  (fp_line (start -4.66 -3) (end -4.23 -3) (layer Dwgs.User) (width 0.025))
  (fp_line (start -4.23 -3) (end -4.23 -2.16) (layer Dwgs.User) (width 0.025))
  (fp_line (start -4.955 1.95) (end -4.955 -1.95) (layer Dwgs.User) (width 0.025))
  (fp_line (start -4.955 -1.95) (end 4.955 -1.95) (layer Dwgs.User) (width 0.025))
  (fp_line (start 4.955 -1.95) (end 4.955 1.95) (layer Dwgs.User) (width 0.025))
  (fp_line (start 4.955 1.95) (end -4.955 1.95) (layer Dwgs.User) (width 0.025))
  (fp_line (start -5.01 2) (end -5.01 -2) (layer F.Fab) (width 0.12))
  (fp_line (start -5.01 -2) (end 5.01 -2) (layer F.Fab) (width 0.12))
  (fp_line (start 5.01 -2) (end 5.01 2) (layer F.Fab) (width 0.12))
  (fp_line (start 5.01 2) (end -5.01 2) (layer F.Fab) (width 0.12))
  (fp_circle (center 0 0) (end 0 0.25) (layer F.CrtYd) (width 0.05))
  (fp_line (start 0 -0.35) (end 0 0.35) (layer F.CrtYd) (width 0.05))
  (fp_line (start -0.35 0) (end 0.35 0) (layer F.CrtYd) (width 0.05))
  (fp_line (start -5.01 2) (end -5.01 -2) (layer F.SilkS) (width 0.12))
  (fp_line (start 5.01 2) (end 5.01 -2) (layer F.SilkS) (width 0.12))
  (fp_line (start -4.96 2) (end -4.96 3.4) (layer F.SilkS) (width 0.12))
  (fp_line (start 5.21 2.2) (end 5.21 -2.2) (layer F.CrtYd) (width 0.05))
  (fp_line (start 5.21 -2.2) (end 4.98 -2.2) (layer F.CrtYd) (width 0.05))
  (fp_line (start 4.98 -2.2) (end 4.98 -3.66) (layer F.CrtYd) (width 0.05))
  (fp_line (start 4.98 -3.66) (end -4.98 -3.66) (layer F.CrtYd) (width 0.05))
  (fp_line (start -4.98 -3.66) (end -4.98 -2.2) (layer F.CrtYd) (width 0.05))
  (fp_line (start -4.98 -2.2) (end -5.21 -2.2) (layer F.CrtYd) (width 0.05))
  (fp_line (start -5.21 -2.2) (end -5.21 2.2) (layer F.CrtYd) (width 0.05))
  (fp_line (start -5.21 2.2) (end -4.98 2.2) (layer F.CrtYd) (width 0.05))
  (fp_line (start -4.98 2.2) (end -4.98 3.66) (layer F.CrtYd) (width 0.05))
  (fp_line (start -4.98 3.66) (end 4.98 3.66) (layer F.CrtYd) (width 0.05))
  (fp_line (start 4.98 3.66) (end 4.98 2.2) (layer F.CrtYd) (width 0.05))
  (fp_line (start 4.98 2.2) (end 5.21 2.2) (layer F.CrtYd) (width 0.05))
  (pad 1 smd rect (at -4.445 2.425 90) (size 2.07 0.67) (layers F.Cu F.Paste F.Mask))
  (pad 2 smd rect (at -3.175 2.425 90) (size 2.07 0.67) (layers F.Cu F.Paste F.Mask))
  (pad 3 smd rect (at -1.905 2.425 90) (size 2.07 0.67) (layers F.Cu F.Paste F.Mask))
  (pad 4 smd rect (at -0.635 2.425 90) (size 2.07 0.67) (layers F.Cu F.Paste F.Mask))
  (pad 5 smd rect (at 0.635 2.425 90) (size 2.07 0.67) (layers F.Cu F.Paste F.Mask))
  (pad 6 smd rect (at 1.905 2.425 90) (size 2.07 0.67) (layers F.Cu F.Paste F.Mask))
  (pad 7 smd rect (at 3.175 2.425 90) (size 2.07 0.67) (layers F.Cu F.Paste F.Mask))
  (pad 8 smd rect (at 4.445 2.425 90) (size 2.07 0.67) (layers F.Cu F.Paste F.Mask))
  (pad 9 smd rect (at 4.445 -2.425 90) (size 2.07 0.67) (layers F.Cu F.Paste F.Mask))
  (pad 10 smd rect (at 3.175 -2.425 90) (size 2.07 0.67) (layers F.Cu F.Paste F.Mask))
  (pad 11 smd rect (at 1.905 -2.425 90) (size 2.07 0.67) (layers F.Cu F.Paste F.Mask))
  (pad 12 smd rect (at 0.635 -2.425 90) (size 2.07 0.67) (layers F.Cu F.Paste F.Mask))
  (pad 13 smd rect (at -0.635 -2.425 90) (size 2.07 0.67) (layers F.Cu F.Paste F.Mask))
  (pad 14 smd rect (at -1.905 -2.425 90) (size 2.07 0.67) (layers F.Cu F.Paste F.Mask))
  (pad 15 smd rect (at -3.175 -2.425 90) (size 2.07 0.67) (layers F.Cu F.Paste F.Mask))
  (pad 16 smd rect (at -4.445 -2.425 90) (size 2.07 0.67) (layers F.Cu F.Paste F.Mask))
)
