(module SOIC14P127_864X600X170L84X43N (layer F.Cu) (tedit 0)
  (descr "Small Outline IC (SOIC), 1.27 mm pitch; 14 pin, 8.64 mm L X 3.90 mm W X 1.70 mm H body")
  (attr smd)
  (fp_text user %R (at 0 0) (layer F.SilkS)
    (effects (font (size 2 2) (thickness 0.2)))
  )
  (fp_text value VAL** (at 0 0) (layer F.Fab)
    (effects (font (size 1.2 1.2) (thickness 0.12)))
  )
  (fp_text reference REF** (at 0 0) (layer F.Fab)
    (effects (font (size 1.2 1.2) (thickness 0.12)))
  )
  (fp_line (start -4.025 2.16) (end -3.595 2.16) (layer Dwgs.User) (width 0.025))
  (fp_line (start -3.595 2.16) (end -3.595 3) (layer Dwgs.User) (width 0.025))
  (fp_line (start -3.595 3) (end -4.025 3) (layer Dwgs.User) (width 0.025))
  (fp_line (start -4.025 3) (end -4.025 2.16) (layer Dwgs.User) (width 0.025))
  (fp_line (start -2.755 2.16) (end -2.325 2.16) (layer Dwgs.User) (width 0.025))
  (fp_line (start -2.325 2.16) (end -2.325 3) (layer Dwgs.User) (width 0.025))
  (fp_line (start -2.325 3) (end -2.755 3) (layer Dwgs.User) (width 0.025))
  (fp_line (start -2.755 3) (end -2.755 2.16) (layer Dwgs.User) (width 0.025))
  (fp_line (start -1.485 2.16) (end -1.055 2.16) (layer Dwgs.User) (width 0.025))
  (fp_line (start -1.055 2.16) (end -1.055 3) (layer Dwgs.User) (width 0.025))
  (fp_line (start -1.055 3) (end -1.485 3) (layer Dwgs.User) (width 0.025))
  (fp_line (start -1.485 3) (end -1.485 2.16) (layer Dwgs.User) (width 0.025))
  (fp_line (start -0.215 2.16) (end 0.215 2.16) (layer Dwgs.User) (width 0.025))
  (fp_line (start 0.215 2.16) (end 0.215 3) (layer Dwgs.User) (width 0.025))
  (fp_line (start 0.215 3) (end -0.215 3) (layer Dwgs.User) (width 0.025))
  (fp_line (start -0.215 3) (end -0.215 2.16) (layer Dwgs.User) (width 0.025))
  (fp_line (start 1.055 2.16) (end 1.485 2.16) (layer Dwgs.User) (width 0.025))
  (fp_line (start 1.485 2.16) (end 1.485 3) (layer Dwgs.User) (width 0.025))
  (fp_line (start 1.485 3) (end 1.055 3) (layer Dwgs.User) (width 0.025))
  (fp_line (start 1.055 3) (end 1.055 2.16) (layer Dwgs.User) (width 0.025))
  (fp_line (start 2.325 2.16) (end 2.755 2.16) (layer Dwgs.User) (width 0.025))
  (fp_line (start 2.755 2.16) (end 2.755 3) (layer Dwgs.User) (width 0.025))
  (fp_line (start 2.755 3) (end 2.325 3) (layer Dwgs.User) (width 0.025))
  (fp_line (start 2.325 3) (end 2.325 2.16) (layer Dwgs.User) (width 0.025))
  (fp_line (start 3.595 2.16) (end 4.025 2.16) (layer Dwgs.User) (width 0.025))
  (fp_line (start 4.025 2.16) (end 4.025 3) (layer Dwgs.User) (width 0.025))
  (fp_line (start 4.025 3) (end 3.595 3) (layer Dwgs.User) (width 0.025))
  (fp_line (start 3.595 3) (end 3.595 2.16) (layer Dwgs.User) (width 0.025))
  (fp_line (start 4.025 -2.16) (end 3.595 -2.16) (layer Dwgs.User) (width 0.025))
  (fp_line (start 3.595 -2.16) (end 3.595 -3) (layer Dwgs.User) (width 0.025))
  (fp_line (start 3.595 -3) (end 4.025 -3) (layer Dwgs.User) (width 0.025))
  (fp_line (start 4.025 -3) (end 4.025 -2.16) (layer Dwgs.User) (width 0.025))
  (fp_line (start 2.755 -2.16) (end 2.325 -2.16) (layer Dwgs.User) (width 0.025))
  (fp_line (start 2.325 -2.16) (end 2.325 -3) (layer Dwgs.User) (width 0.025))
  (fp_line (start 2.325 -3) (end 2.755 -3) (layer Dwgs.User) (width 0.025))
  (fp_line (start 2.755 -3) (end 2.755 -2.16) (layer Dwgs.User) (width 0.025))
  (fp_line (start 1.485 -2.16) (end 1.055 -2.16) (layer Dwgs.User) (width 0.025))
  (fp_line (start 1.055 -2.16) (end 1.055 -3) (layer Dwgs.User) (width 0.025))
  (fp_line (start 1.055 -3) (end 1.485 -3) (layer Dwgs.User) (width 0.025))
  (fp_line (start 1.485 -3) (end 1.485 -2.16) (layer Dwgs.User) (width 0.025))
  (fp_line (start 0.215 -2.16) (end -0.215 -2.16) (layer Dwgs.User) (width 0.025))
  (fp_line (start -0.215 -2.16) (end -0.215 -3) (layer Dwgs.User) (width 0.025))
  (fp_line (start -0.215 -3) (end 0.215 -3) (layer Dwgs.User) (width 0.025))
  (fp_line (start 0.215 -3) (end 0.215 -2.16) (layer Dwgs.User) (width 0.025))
  (fp_line (start -1.055 -2.16) (end -1.485 -2.16) (layer Dwgs.User) (width 0.025))
  (fp_line (start -1.485 -2.16) (end -1.485 -3) (layer Dwgs.User) (width 0.025))
  (fp_line (start -1.485 -3) (end -1.055 -3) (layer Dwgs.User) (width 0.025))
  (fp_line (start -1.055 -3) (end -1.055 -2.16) (layer Dwgs.User) (width 0.025))
  (fp_line (start -2.325 -2.16) (end -2.755 -2.16) (layer Dwgs.User) (width 0.025))
  (fp_line (start -2.755 -2.16) (end -2.755 -3) (layer Dwgs.User) (width 0.025))
  (fp_line (start -2.755 -3) (end -2.325 -3) (layer Dwgs.User) (width 0.025))
  (fp_line (start -2.325 -3) (end -2.325 -2.16) (layer Dwgs.User) (width 0.025))
  (fp_line (start -3.595 -2.16) (end -4.025 -2.16) (layer Dwgs.User) (width 0.025))
  (fp_line (start -4.025 -2.16) (end -4.025 -3) (layer Dwgs.User) (width 0.025))
  (fp_line (start -4.025 -3) (end -3.595 -3) (layer Dwgs.User) (width 0.025))
  (fp_line (start -3.595 -3) (end -3.595 -2.16) (layer Dwgs.User) (width 0.025))
  (fp_line (start -4.32 1.95) (end -4.32 -1.95) (layer Dwgs.User) (width 0.025))
  (fp_line (start -4.32 -1.95) (end 4.32 -1.95) (layer Dwgs.User) (width 0.025))
  (fp_line (start 4.32 -1.95) (end 4.32 1.95) (layer Dwgs.User) (width 0.025))
  (fp_line (start 4.32 1.95) (end -4.32 1.95) (layer Dwgs.User) (width 0.025))
  (fp_line (start -4.37 2) (end -4.37 -2) (layer F.Fab) (width 0.12))
  (fp_line (start -4.37 -2) (end 4.37 -2) (layer F.Fab) (width 0.12))
  (fp_line (start 4.37 -2) (end 4.37 2) (layer F.Fab) (width 0.12))
  (fp_line (start 4.37 2) (end -4.37 2) (layer F.Fab) (width 0.12))
  (fp_circle (center 0 0) (end 0 0.25) (layer F.CrtYd) (width 0.05))
  (fp_line (start 0 -0.35) (end 0 0.35) (layer F.CrtYd) (width 0.05))
  (fp_line (start -0.35 0) (end 0.35 0) (layer F.CrtYd) (width 0.05))
  (fp_line (start -4.37 2) (end -4.37 -2) (layer F.SilkS) (width 0.12))
  (fp_line (start 4.37 2) (end 4.37 -2) (layer F.SilkS) (width 0.12))
  (fp_line (start -4.325 2) (end -4.325 3.4) (layer F.SilkS) (width 0.12))
  (fp_line (start 4.57 2.2) (end 4.57 -2.2) (layer F.CrtYd) (width 0.05))
  (fp_line (start 4.57 -2.2) (end 4.345 -2.2) (layer F.CrtYd) (width 0.05))
  (fp_line (start 4.345 -2.2) (end 4.345 -3.66) (layer F.CrtYd) (width 0.05))
  (fp_line (start 4.345 -3.66) (end -4.345 -3.66) (layer F.CrtYd) (width 0.05))
  (fp_line (start -4.345 -3.66) (end -4.345 -2.2) (layer F.CrtYd) (width 0.05))
  (fp_line (start -4.345 -2.2) (end -4.57 -2.2) (layer F.CrtYd) (width 0.05))
  (fp_line (start -4.57 -2.2) (end -4.57 2.2) (layer F.CrtYd) (width 0.05))
  (fp_line (start -4.57 2.2) (end -4.345 2.2) (layer F.CrtYd) (width 0.05))
  (fp_line (start -4.345 2.2) (end -4.345 3.66) (layer F.CrtYd) (width 0.05))
  (fp_line (start -4.345 3.66) (end 4.345 3.66) (layer F.CrtYd) (width 0.05))
  (fp_line (start 4.345 3.66) (end 4.345 2.2) (layer F.CrtYd) (width 0.05))
  (fp_line (start 4.345 2.2) (end 4.57 2.2) (layer F.CrtYd) (width 0.05))
  (pad 1 smd rect (at -3.81 2.425 90) (size 2.07 0.67) (layers F.Cu F.Paste F.Mask))
  (pad 2 smd rect (at -2.54 2.425 90) (size 2.07 0.67) (layers F.Cu F.Paste F.Mask))
  (pad 3 smd rect (at -1.27 2.425 90) (size 2.07 0.67) (layers F.Cu F.Paste F.Mask))
  (pad 4 smd rect (at 0 2.425 90) (size 2.07 0.67) (layers F.Cu F.Paste F.Mask))
  (pad 5 smd rect (at 1.27 2.425 90) (size 2.07 0.67) (layers F.Cu F.Paste F.Mask))
  (pad 6 smd rect (at 2.54 2.425 90) (size 2.07 0.67) (layers F.Cu F.Paste F.Mask))
  (pad 7 smd rect (at 3.81 2.425 90) (size 2.07 0.67) (layers F.Cu F.Paste F.Mask))
  (pad 8 smd rect (at 3.81 -2.425 90) (size 2.07 0.67) (layers F.Cu F.Paste F.Mask))
  (pad 9 smd rect (at 2.54 -2.425 90) (size 2.07 0.67) (layers F.Cu F.Paste F.Mask))
  (pad 10 smd rect (at 1.27 -2.425 90) (size 2.07 0.67) (layers F.Cu F.Paste F.Mask))
  (pad 11 smd rect (at 0 -2.425 90) (size 2.07 0.67) (layers F.Cu F.Paste F.Mask))
  (pad 12 smd rect (at -1.27 -2.425 90) (size 2.07 0.67) (layers F.Cu F.Paste F.Mask))
  (pad 13 smd rect (at -2.54 -2.425 90) (size 2.07 0.67) (layers F.Cu F.Paste F.Mask))
  (pad 14 smd rect (at -3.81 -2.425 90) (size 2.07 0.67) (layers F.Cu F.Paste F.Mask))
)
