(module SOIC32P127_2072X1032X229L84X43N (layer F.Cu) (tedit 0)
  (descr "Small Outline IC (SOIC), 1.27 mm pitch; 32 pin, 20.725 mm L X 7.50 mm W X 2.29 mm H body")
  (attr smd)
  (fp_text user %R (at 0 0) (layer F.SilkS)
    (effects (font (size 2 2) (thickness 0.2)))
  )
  (fp_text value VAL** (at 0 0) (layer F.Fab)
    (effects (font (size 1.2 1.2) (thickness 0.12)))
  )
  (fp_text reference REF** (at 0 0) (layer F.Fab)
    (effects (font (size 1.2 1.2) (thickness 0.12)))
  )
  (fp_line (start -9.74 4.3225) (end -9.31 4.3225) (layer Dwgs.User) (width 0.025))
  (fp_line (start -9.31 4.3225) (end -9.31 5.1625) (layer Dwgs.User) (width 0.025))
  (fp_line (start -9.31 5.1625) (end -9.74 5.1625) (layer Dwgs.User) (width 0.025))
  (fp_line (start -9.74 5.1625) (end -9.74 4.3225) (layer Dwgs.User) (width 0.025))
  (fp_line (start -8.47 4.3225) (end -8.04 4.3225) (layer Dwgs.User) (width 0.025))
  (fp_line (start -8.04 4.3225) (end -8.04 5.1625) (layer Dwgs.User) (width 0.025))
  (fp_line (start -8.04 5.1625) (end -8.47 5.1625) (layer Dwgs.User) (width 0.025))
  (fp_line (start -8.47 5.1625) (end -8.47 4.3225) (layer Dwgs.User) (width 0.025))
  (fp_line (start -7.2 4.3225) (end -6.77 4.3225) (layer Dwgs.User) (width 0.025))
  (fp_line (start -6.77 4.3225) (end -6.77 5.1625) (layer Dwgs.User) (width 0.025))
  (fp_line (start -6.77 5.1625) (end -7.2 5.1625) (layer Dwgs.User) (width 0.025))
  (fp_line (start -7.2 5.1625) (end -7.2 4.3225) (layer Dwgs.User) (width 0.025))
  (fp_line (start -5.93 4.3225) (end -5.5 4.3225) (layer Dwgs.User) (width 0.025))
  (fp_line (start -5.5 4.3225) (end -5.5 5.1625) (layer Dwgs.User) (width 0.025))
  (fp_line (start -5.5 5.1625) (end -5.93 5.1625) (layer Dwgs.User) (width 0.025))
  (fp_line (start -5.93 5.1625) (end -5.93 4.3225) (layer Dwgs.User) (width 0.025))
  (fp_line (start -4.66 4.3225) (end -4.23 4.3225) (layer Dwgs.User) (width 0.025))
  (fp_line (start -4.23 4.3225) (end -4.23 5.1625) (layer Dwgs.User) (width 0.025))
  (fp_line (start -4.23 5.1625) (end -4.66 5.1625) (layer Dwgs.User) (width 0.025))
  (fp_line (start -4.66 5.1625) (end -4.66 4.3225) (layer Dwgs.User) (width 0.025))
  (fp_line (start -3.39 4.3225) (end -2.96 4.3225) (layer Dwgs.User) (width 0.025))
  (fp_line (start -2.96 4.3225) (end -2.96 5.1625) (layer Dwgs.User) (width 0.025))
  (fp_line (start -2.96 5.1625) (end -3.39 5.1625) (layer Dwgs.User) (width 0.025))
  (fp_line (start -3.39 5.1625) (end -3.39 4.3225) (layer Dwgs.User) (width 0.025))
  (fp_line (start -2.12 4.3225) (end -1.69 4.3225) (layer Dwgs.User) (width 0.025))
  (fp_line (start -1.69 4.3225) (end -1.69 5.1625) (layer Dwgs.User) (width 0.025))
  (fp_line (start -1.69 5.1625) (end -2.12 5.1625) (layer Dwgs.User) (width 0.025))
  (fp_line (start -2.12 5.1625) (end -2.12 4.3225) (layer Dwgs.User) (width 0.025))
  (fp_line (start -0.85 4.3225) (end -0.42 4.3225) (layer Dwgs.User) (width 0.025))
  (fp_line (start -0.42 4.3225) (end -0.42 5.1625) (layer Dwgs.User) (width 0.025))
  (fp_line (start -0.42 5.1625) (end -0.85 5.1625) (layer Dwgs.User) (width 0.025))
  (fp_line (start -0.85 5.1625) (end -0.85 4.3225) (layer Dwgs.User) (width 0.025))
  (fp_line (start 0.42 4.3225) (end 0.85 4.3225) (layer Dwgs.User) (width 0.025))
  (fp_line (start 0.85 4.3225) (end 0.85 5.1625) (layer Dwgs.User) (width 0.025))
  (fp_line (start 0.85 5.1625) (end 0.42 5.1625) (layer Dwgs.User) (width 0.025))
  (fp_line (start 0.42 5.1625) (end 0.42 4.3225) (layer Dwgs.User) (width 0.025))
  (fp_line (start 1.69 4.3225) (end 2.12 4.3225) (layer Dwgs.User) (width 0.025))
  (fp_line (start 2.12 4.3225) (end 2.12 5.1625) (layer Dwgs.User) (width 0.025))
  (fp_line (start 2.12 5.1625) (end 1.69 5.1625) (layer Dwgs.User) (width 0.025))
  (fp_line (start 1.69 5.1625) (end 1.69 4.3225) (layer Dwgs.User) (width 0.025))
  (fp_line (start 2.96 4.3225) (end 3.39 4.3225) (layer Dwgs.User) (width 0.025))
  (fp_line (start 3.39 4.3225) (end 3.39 5.1625) (layer Dwgs.User) (width 0.025))
  (fp_line (start 3.39 5.1625) (end 2.96 5.1625) (layer Dwgs.User) (width 0.025))
  (fp_line (start 2.96 5.1625) (end 2.96 4.3225) (layer Dwgs.User) (width 0.025))
  (fp_line (start 4.23 4.3225) (end 4.66 4.3225) (layer Dwgs.User) (width 0.025))
  (fp_line (start 4.66 4.3225) (end 4.66 5.1625) (layer Dwgs.User) (width 0.025))
  (fp_line (start 4.66 5.1625) (end 4.23 5.1625) (layer Dwgs.User) (width 0.025))
  (fp_line (start 4.23 5.1625) (end 4.23 4.3225) (layer Dwgs.User) (width 0.025))
  (fp_line (start 5.5 4.3225) (end 5.93 4.3225) (layer Dwgs.User) (width 0.025))
  (fp_line (start 5.93 4.3225) (end 5.93 5.1625) (layer Dwgs.User) (width 0.025))
  (fp_line (start 5.93 5.1625) (end 5.5 5.1625) (layer Dwgs.User) (width 0.025))
  (fp_line (start 5.5 5.1625) (end 5.5 4.3225) (layer Dwgs.User) (width 0.025))
  (fp_line (start 6.77 4.3225) (end 7.2 4.3225) (layer Dwgs.User) (width 0.025))
  (fp_line (start 7.2 4.3225) (end 7.2 5.1625) (layer Dwgs.User) (width 0.025))
  (fp_line (start 7.2 5.1625) (end 6.77 5.1625) (layer Dwgs.User) (width 0.025))
  (fp_line (start 6.77 5.1625) (end 6.77 4.3225) (layer Dwgs.User) (width 0.025))
  (fp_line (start 8.04 4.3225) (end 8.47 4.3225) (layer Dwgs.User) (width 0.025))
  (fp_line (start 8.47 4.3225) (end 8.47 5.1625) (layer Dwgs.User) (width 0.025))
  (fp_line (start 8.47 5.1625) (end 8.04 5.1625) (layer Dwgs.User) (width 0.025))
  (fp_line (start 8.04 5.1625) (end 8.04 4.3225) (layer Dwgs.User) (width 0.025))
  (fp_line (start 9.31 4.3225) (end 9.74 4.3225) (layer Dwgs.User) (width 0.025))
  (fp_line (start 9.74 4.3225) (end 9.74 5.1625) (layer Dwgs.User) (width 0.025))
  (fp_line (start 9.74 5.1625) (end 9.31 5.1625) (layer Dwgs.User) (width 0.025))
  (fp_line (start 9.31 5.1625) (end 9.31 4.3225) (layer Dwgs.User) (width 0.025))
  (fp_line (start 9.74 -4.3225) (end 9.31 -4.3225) (layer Dwgs.User) (width 0.025))
  (fp_line (start 9.31 -4.3225) (end 9.31 -5.1625) (layer Dwgs.User) (width 0.025))
  (fp_line (start 9.31 -5.1625) (end 9.74 -5.1625) (layer Dwgs.User) (width 0.025))
  (fp_line (start 9.74 -5.1625) (end 9.74 -4.3225) (layer Dwgs.User) (width 0.025))
  (fp_line (start 8.47 -4.3225) (end 8.04 -4.3225) (layer Dwgs.User) (width 0.025))
  (fp_line (start 8.04 -4.3225) (end 8.04 -5.1625) (layer Dwgs.User) (width 0.025))
  (fp_line (start 8.04 -5.1625) (end 8.47 -5.1625) (layer Dwgs.User) (width 0.025))
  (fp_line (start 8.47 -5.1625) (end 8.47 -4.3225) (layer Dwgs.User) (width 0.025))
  (fp_line (start 7.2 -4.3225) (end 6.77 -4.3225) (layer Dwgs.User) (width 0.025))
  (fp_line (start 6.77 -4.3225) (end 6.77 -5.1625) (layer Dwgs.User) (width 0.025))
  (fp_line (start 6.77 -5.1625) (end 7.2 -5.1625) (layer Dwgs.User) (width 0.025))
  (fp_line (start 7.2 -5.1625) (end 7.2 -4.3225) (layer Dwgs.User) (width 0.025))
  (fp_line (start 5.93 -4.3225) (end 5.5 -4.3225) (layer Dwgs.User) (width 0.025))
  (fp_line (start 5.5 -4.3225) (end 5.5 -5.1625) (layer Dwgs.User) (width 0.025))
  (fp_line (start 5.5 -5.1625) (end 5.93 -5.1625) (layer Dwgs.User) (width 0.025))
  (fp_line (start 5.93 -5.1625) (end 5.93 -4.3225) (layer Dwgs.User) (width 0.025))
  (fp_line (start 4.66 -4.3225) (end 4.23 -4.3225) (layer Dwgs.User) (width 0.025))
  (fp_line (start 4.23 -4.3225) (end 4.23 -5.1625) (layer Dwgs.User) (width 0.025))
  (fp_line (start 4.23 -5.1625) (end 4.66 -5.1625) (layer Dwgs.User) (width 0.025))
  (fp_line (start 4.66 -5.1625) (end 4.66 -4.3225) (layer Dwgs.User) (width 0.025))
  (fp_line (start 3.39 -4.3225) (end 2.96 -4.3225) (layer Dwgs.User) (width 0.025))
  (fp_line (start 2.96 -4.3225) (end 2.96 -5.1625) (layer Dwgs.User) (width 0.025))
  (fp_line (start 2.96 -5.1625) (end 3.39 -5.1625) (layer Dwgs.User) (width 0.025))
  (fp_line (start 3.39 -5.1625) (end 3.39 -4.3225) (layer Dwgs.User) (width 0.025))
  (fp_line (start 2.12 -4.3225) (end 1.69 -4.3225) (layer Dwgs.User) (width 0.025))
  (fp_line (start 1.69 -4.3225) (end 1.69 -5.1625) (layer Dwgs.User) (width 0.025))
  (fp_line (start 1.69 -5.1625) (end 2.12 -5.1625) (layer Dwgs.User) (width 0.025))
  (fp_line (start 2.12 -5.1625) (end 2.12 -4.3225) (layer Dwgs.User) (width 0.025))
  (fp_line (start 0.85 -4.3225) (end 0.42 -4.3225) (layer Dwgs.User) (width 0.025))
  (fp_line (start 0.42 -4.3225) (end 0.42 -5.1625) (layer Dwgs.User) (width 0.025))
  (fp_line (start 0.42 -5.1625) (end 0.85 -5.1625) (layer Dwgs.User) (width 0.025))
  (fp_line (start 0.85 -5.1625) (end 0.85 -4.3225) (layer Dwgs.User) (width 0.025))
  (fp_line (start -0.42 -4.3225) (end -0.85 -4.3225) (layer Dwgs.User) (width 0.025))
  (fp_line (start -0.85 -4.3225) (end -0.85 -5.1625) (layer Dwgs.User) (width 0.025))
  (fp_line (start -0.85 -5.1625) (end -0.42 -5.1625) (layer Dwgs.User) (width 0.025))
  (fp_line (start -0.42 -5.1625) (end -0.42 -4.3225) (layer Dwgs.User) (width 0.025))
  (fp_line (start -1.69 -4.3225) (end -2.12 -4.3225) (layer Dwgs.User) (width 0.025))
  (fp_line (start -2.12 -4.3225) (end -2.12 -5.1625) (layer Dwgs.User) (width 0.025))
  (fp_line (start -2.12 -5.1625) (end -1.69 -5.1625) (layer Dwgs.User) (width 0.025))
  (fp_line (start -1.69 -5.1625) (end -1.69 -4.3225) (layer Dwgs.User) (width 0.025))
  (fp_line (start -2.96 -4.3225) (end -3.39 -4.3225) (layer Dwgs.User) (width 0.025))
  (fp_line (start -3.39 -4.3225) (end -3.39 -5.1625) (layer Dwgs.User) (width 0.025))
  (fp_line (start -3.39 -5.1625) (end -2.96 -5.1625) (layer Dwgs.User) (width 0.025))
  (fp_line (start -2.96 -5.1625) (end -2.96 -4.3225) (layer Dwgs.User) (width 0.025))
  (fp_line (start -4.23 -4.3225) (end -4.66 -4.3225) (layer Dwgs.User) (width 0.025))
  (fp_line (start -4.66 -4.3225) (end -4.66 -5.1625) (layer Dwgs.User) (width 0.025))
  (fp_line (start -4.66 -5.1625) (end -4.23 -5.1625) (layer Dwgs.User) (width 0.025))
  (fp_line (start -4.23 -5.1625) (end -4.23 -4.3225) (layer Dwgs.User) (width 0.025))
  (fp_line (start -5.5 -4.3225) (end -5.93 -4.3225) (layer Dwgs.User) (width 0.025))
  (fp_line (start -5.93 -4.3225) (end -5.93 -5.1625) (layer Dwgs.User) (width 0.025))
  (fp_line (start -5.93 -5.1625) (end -5.5 -5.1625) (layer Dwgs.User) (width 0.025))
  (fp_line (start -5.5 -5.1625) (end -5.5 -4.3225) (layer Dwgs.User) (width 0.025))
  (fp_line (start -6.77 -4.3225) (end -7.2 -4.3225) (layer Dwgs.User) (width 0.025))
  (fp_line (start -7.2 -4.3225) (end -7.2 -5.1625) (layer Dwgs.User) (width 0.025))
  (fp_line (start -7.2 -5.1625) (end -6.77 -5.1625) (layer Dwgs.User) (width 0.025))
  (fp_line (start -6.77 -5.1625) (end -6.77 -4.3225) (layer Dwgs.User) (width 0.025))
  (fp_line (start -8.04 -4.3225) (end -8.47 -4.3225) (layer Dwgs.User) (width 0.025))
  (fp_line (start -8.47 -4.3225) (end -8.47 -5.1625) (layer Dwgs.User) (width 0.025))
  (fp_line (start -8.47 -5.1625) (end -8.04 -5.1625) (layer Dwgs.User) (width 0.025))
  (fp_line (start -8.04 -5.1625) (end -8.04 -4.3225) (layer Dwgs.User) (width 0.025))
  (fp_line (start -9.31 -4.3225) (end -9.74 -4.3225) (layer Dwgs.User) (width 0.025))
  (fp_line (start -9.74 -4.3225) (end -9.74 -5.1625) (layer Dwgs.User) (width 0.025))
  (fp_line (start -9.74 -5.1625) (end -9.31 -5.1625) (layer Dwgs.User) (width 0.025))
  (fp_line (start -9.31 -5.1625) (end -9.31 -4.3225) (layer Dwgs.User) (width 0.025))
  (fp_line (start -10.3625 3.75) (end -10.3625 -3.75) (layer Dwgs.User) (width 0.025))
  (fp_line (start -10.3625 -3.75) (end 10.3625 -3.75) (layer Dwgs.User) (width 0.025))
  (fp_line (start 10.3625 -3.75) (end 10.3625 3.75) (layer Dwgs.User) (width 0.025))
  (fp_line (start 10.3625 3.75) (end -10.3625 3.75) (layer Dwgs.User) (width 0.025))
  (fp_line (start -10.44 3.8) (end -10.44 -3.8) (layer F.Fab) (width 0.12))
  (fp_line (start -10.44 -3.8) (end 10.44 -3.8) (layer F.Fab) (width 0.12))
  (fp_line (start 10.44 -3.8) (end 10.44 3.8) (layer F.Fab) (width 0.12))
  (fp_line (start 10.44 3.8) (end -10.44 3.8) (layer F.Fab) (width 0.12))
  (fp_circle (center 0 0) (end 0 0.25) (layer F.CrtYd) (width 0.05))
  (fp_line (start 0 -0.35) (end 0 0.35) (layer F.CrtYd) (width 0.05))
  (fp_line (start -0.35 0) (end 0.35 0) (layer F.CrtYd) (width 0.05))
  (fp_line (start 10.04 3.8) (end 10.44 3.8) (layer F.SilkS) (width 0.12))
  (fp_line (start 10.44 3.8) (end 10.44 -3.8) (layer F.SilkS) (width 0.12))
  (fp_line (start 10.44 -3.8) (end 10.04 -3.8) (layer F.SilkS) (width 0.12))
  (fp_line (start -10.04 3.8) (end -10.44 3.8) (layer F.SilkS) (width 0.12))
  (fp_line (start -10.44 3.8) (end -10.44 -3.8) (layer F.SilkS) (width 0.12))
  (fp_line (start -10.44 -3.8) (end -10.04 -3.8) (layer F.SilkS) (width 0.12))
  (fp_line (start -10.04 3.8) (end -10.04 5.62) (layer F.SilkS) (width 0.12))
  (fp_line (start 10.64 4) (end 10.64 -4) (layer F.CrtYd) (width 0.05))
  (fp_line (start 10.64 -4) (end 10.06 -4) (layer F.CrtYd) (width 0.05))
  (fp_line (start 10.06 -4) (end 10.06 -5.88) (layer F.CrtYd) (width 0.05))
  (fp_line (start 10.06 -5.88) (end -10.06 -5.88) (layer F.CrtYd) (width 0.05))
  (fp_line (start -10.06 -5.88) (end -10.06 -4) (layer F.CrtYd) (width 0.05))
  (fp_line (start -10.06 -4) (end -10.64 -4) (layer F.CrtYd) (width 0.05))
  (fp_line (start -10.64 -4) (end -10.64 4) (layer F.CrtYd) (width 0.05))
  (fp_line (start -10.64 4) (end -10.06 4) (layer F.CrtYd) (width 0.05))
  (fp_line (start -10.06 4) (end -10.06 5.88) (layer F.CrtYd) (width 0.05))
  (fp_line (start -10.06 5.88) (end 10.06 5.88) (layer F.CrtYd) (width 0.05))
  (fp_line (start 10.06 5.88) (end 10.06 4) (layer F.CrtYd) (width 0.05))
  (fp_line (start 10.06 4) (end 10.64 4) (layer F.CrtYd) (width 0.05))
  (pad 1 smd rect (at -9.525 4.605 90) (size 2.15 0.67) (layers F.Cu F.Paste F.Mask))
  (pad 2 smd rect (at -8.255 4.605 90) (size 2.15 0.67) (layers F.Cu F.Paste F.Mask))
  (pad 3 smd rect (at -6.985 4.605 90) (size 2.15 0.67) (layers F.Cu F.Paste F.Mask))
  (pad 4 smd rect (at -5.715 4.605 90) (size 2.15 0.67) (layers F.Cu F.Paste F.Mask))
  (pad 5 smd rect (at -4.445 4.605 90) (size 2.15 0.67) (layers F.Cu F.Paste F.Mask))
  (pad 6 smd rect (at -3.175 4.605 90) (size 2.15 0.67) (layers F.Cu F.Paste F.Mask))
  (pad 7 smd rect (at -1.905 4.605 90) (size 2.15 0.67) (layers F.Cu F.Paste F.Mask))
  (pad 8 smd rect (at -0.635 4.605 90) (size 2.15 0.67) (layers F.Cu F.Paste F.Mask))
  (pad 9 smd rect (at 0.635 4.605 90) (size 2.15 0.67) (layers F.Cu F.Paste F.Mask))
  (pad 10 smd rect (at 1.905 4.605 90) (size 2.15 0.67) (layers F.Cu F.Paste F.Mask))
  (pad 11 smd rect (at 3.175 4.605 90) (size 2.15 0.67) (layers F.Cu F.Paste F.Mask))
  (pad 12 smd rect (at 4.445 4.605 90) (size 2.15 0.67) (layers F.Cu F.Paste F.Mask))
  (pad 13 smd rect (at 5.715 4.605 90) (size 2.15 0.67) (layers F.Cu F.Paste F.Mask))
  (pad 14 smd rect (at 6.985 4.605 90) (size 2.15 0.67) (layers F.Cu F.Paste F.Mask))
  (pad 15 smd rect (at 8.255 4.605 90) (size 2.15 0.67) (layers F.Cu F.Paste F.Mask))
  (pad 16 smd rect (at 9.525 4.605 90) (size 2.15 0.67) (layers F.Cu F.Paste F.Mask))
  (pad 17 smd rect (at 9.525 -4.605 90) (size 2.15 0.67) (layers F.Cu F.Paste F.Mask))
  (pad 18 smd rect (at 8.255 -4.605 90) (size 2.15 0.67) (layers F.Cu F.Paste F.Mask))
  (pad 19 smd rect (at 6.985 -4.605 90) (size 2.15 0.67) (layers F.Cu F.Paste F.Mask))
  (pad 20 smd rect (at 5.715 -4.605 90) (size 2.15 0.67) (layers F.Cu F.Paste F.Mask))
  (pad 21 smd rect (at 4.445 -4.605 90) (size 2.15 0.67) (layers F.Cu F.Paste F.Mask))
  (pad 22 smd rect (at 3.175 -4.605 90) (size 2.15 0.67) (layers F.Cu F.Paste F.Mask))
  (pad 23 smd rect (at 1.905 -4.605 90) (size 2.15 0.67) (layers F.Cu F.Paste F.Mask))
  (pad 24 smd rect (at 0.635 -4.605 90) (size 2.15 0.67) (layers F.Cu F.Paste F.Mask))
  (pad 25 smd rect (at -0.635 -4.605 90) (size 2.15 0.67) (layers F.Cu F.Paste F.Mask))
  (pad 26 smd rect (at -1.905 -4.605 90) (size 2.15 0.67) (layers F.Cu F.Paste F.Mask))
  (pad 27 smd rect (at -3.175 -4.605 90) (size 2.15 0.67) (layers F.Cu F.Paste F.Mask))
  (pad 28 smd rect (at -4.445 -4.605 90) (size 2.15 0.67) (layers F.Cu F.Paste F.Mask))
  (pad 29 smd rect (at -5.715 -4.605 90) (size 2.15 0.67) (layers F.Cu F.Paste F.Mask))
  (pad 30 smd rect (at -6.985 -4.605 90) (size 2.15 0.67) (layers F.Cu F.Paste F.Mask))
  (pad 31 smd rect (at -8.255 -4.605 90) (size 2.15 0.67) (layers F.Cu F.Paste F.Mask))
  (pad 32 smd rect (at -9.525 -4.605 90) (size 2.15 0.67) (layers F.Cu F.Paste F.Mask))
)
